%!PS-Adobe-3.0 EPSF-3.0
%%Creator: MATLAB, The MathWorks, Inc. Version 8.3.0.532 (R2014a). Operating System: Microsoft Windows 7 Enterprise .
%%Title: U:\My Documents\Citrus\Matlab\1st Model - Malaria\citmalariaFull.eps
%%CreationDate: 02/17/2016  15:29:24
%%DocumentNeededFonts: Helvetica
%%DocumentProcessColors: Cyan Magenta Yellow Black
%%LanguageLevel: 2
%%Pages: 1
%%BoundingBox:    96   238   515   553
%%EndComments

%%BeginProlog
% MathWorks dictionary
/MathWorks 160 dict begin
% definition operators
/bdef {bind def} bind def
/ldef {load def} bind def
/xdef {exch def} bdef
/xstore {exch store} bdef
% operator abbreviations
/c  /clip ldef
/cc /concat ldef
/cp /closepath ldef
/gr /grestore ldef
/gs /gsave ldef
/mt /moveto ldef
/np /newpath ldef
/cm /currentmatrix ldef
/sm /setmatrix ldef
/rm /rmoveto ldef
/rl /rlineto ldef
/s {show newpath} bdef
/sc {setcmykcolor} bdef
/sr /setrgbcolor ldef
/sg /setgray ldef
/w /setlinewidth ldef
/j /setlinejoin ldef
/cap /setlinecap ldef
/rc {rectclip} bdef
/rf {rectfill} bdef
% page state control
/pgsv () def
/bpage {/pgsv save def} bdef
/epage {pgsv restore} bdef
/bplot /gsave ldef
/eplot {stroke grestore} bdef
% orientation switch
/portraitMode 0 def /landscapeMode 1 def /rotateMode 2 def
% coordinate system mappings
/dpi2point 0 def
% font control
/FontSize 0 def
/FMS {/FontSize xstore findfont [FontSize 0 0 FontSize neg 0 0]
  makefont setfont} bdef
/ISOLatin1Encoding where {pop /WindowsLatin1Encoding 256 array bdef
ISOLatin1Encoding WindowsLatin1Encoding copy pop
/.notdef/.notdef/quotesinglbase/florin/quotedblbase/ellipsis/dagger
/daggerdbl/circumflex/perthousand/Scaron/guilsinglleft/OE/.notdef/.notdef
/.notdef/.notdef/quoteleft/quoteright/quotedblleft/quotedblright/bullet
/endash/emdash/tilde/trademark/scaron/guilsinglright/oe/.notdef/.notdef
/Ydieresis WindowsLatin1Encoding 128 32 getinterval astore pop}
{/WindowsLatin1Encoding StandardEncoding bdef} ifelse
/reencode {exch dup where {pop load} {pop StandardEncoding} ifelse
  exch dup 3 1 roll findfont dup length dict begin
  { 1 index /FID ne {def}{pop pop} ifelse } forall
  /Encoding exch def currentdict end definefont pop} bdef
/isroman {findfont /CharStrings get /Agrave known} bdef
/FMSR {3 1 roll 1 index dup isroman {reencode} {pop pop} ifelse
  exch FMS} bdef
/csm {1 dpi2point div -1 dpi2point div scale neg translate
 dup landscapeMode eq {pop -90 rotate}
  {rotateMode eq {90 rotate} if} ifelse} bdef
% line types: solid, dotted, dashed, dotdash
/SO { [] 0 setdash } bdef
/DO { [.5 dpi2point mul 4 dpi2point mul] 0 setdash } bdef
/DA { [6 dpi2point mul] 0 setdash } bdef
/DD { [.5 dpi2point mul 4 dpi2point mul 6 dpi2point mul 4
  dpi2point mul] 0 setdash } bdef
% macros for lines and objects
/L {lineto stroke} bdef
/MP {3 1 roll moveto 1 sub {rlineto} repeat} bdef
/AP {{rlineto} repeat} bdef
/PDlw -1 def
/W {/PDlw currentlinewidth def setlinewidth} def
/PP {closepath eofill} bdef
/DP {closepath stroke} bdef
/MR {4 -2 roll moveto dup  0 exch rlineto exch 0 rlineto
  neg 0 exch rlineto closepath} bdef
/FR {MR stroke} bdef
/PR {MR fill} bdef
/L1i {{currentfile picstr readhexstring pop} image} bdef
/tMatrix matrix def
/MakeOval {newpath tMatrix currentmatrix pop translate scale
0 0 1 0 360 arc tMatrix setmatrix} bdef
/FO {MakeOval stroke} bdef
/PO {MakeOval fill} bdef
/PD {currentlinewidth 2 div 0 360 arc fill
   PDlw -1 eq not {PDlw w /PDlw -1 def} if} def
/FA {newpath tMatrix currentmatrix pop translate scale
  0 0 1 5 -2 roll arc tMatrix setmatrix stroke} bdef
/PA {newpath tMatrix currentmatrix pop	translate 0 0 moveto scale
  0 0 1 5 -2 roll arc closepath tMatrix setmatrix fill} bdef
/FAn {newpath tMatrix currentmatrix pop translate scale
  0 0 1 5 -2 roll arcn tMatrix setmatrix stroke} bdef
/PAn {newpath tMatrix currentmatrix pop translate 0 0 moveto scale
  0 0 1 5 -2 roll arcn closepath tMatrix setmatrix fill} bdef
/vradius 0 def /hradius 0 def /lry 0 def
/lrx 0 def /uly 0 def /ulx 0 def /rad 0 def
/MRR {/vradius xdef /hradius xdef /lry xdef /lrx xdef /uly xdef
  /ulx xdef newpath tMatrix currentmatrix pop ulx hradius add uly
  vradius add translate hradius vradius scale 0 0 1 180 270 arc 
  tMatrix setmatrix lrx hradius sub uly vradius add translate
  hradius vradius scale 0 0 1 270 360 arc tMatrix setmatrix
  lrx hradius sub lry vradius sub translate hradius vradius scale
  0 0 1 0 90 arc tMatrix setmatrix ulx hradius add lry vradius sub
  translate hradius vradius scale 0 0 1 90 180 arc tMatrix setmatrix
  closepath} bdef
/FRR {MRR stroke } bdef
/PRR {MRR fill } bdef
/MlrRR {/lry xdef /lrx xdef /uly xdef /ulx xdef /rad lry uly sub 2 div def
  newpath tMatrix currentmatrix pop ulx rad add uly rad add translate
  rad rad scale 0 0 1 90 270 arc tMatrix setmatrix lrx rad sub lry rad
  sub translate rad rad scale 0 0 1 270 90 arc tMatrix setmatrix
  closepath} bdef
/FlrRR {MlrRR stroke } bdef
/PlrRR {MlrRR fill } bdef
/MtbRR {/lry xdef /lrx xdef /uly xdef /ulx xdef /rad lrx ulx sub 2 div def
  newpath tMatrix currentmatrix pop ulx rad add uly rad add translate
  rad rad scale 0 0 1 180 360 arc tMatrix setmatrix lrx rad sub lry rad
  sub translate rad rad scale 0 0 1 0 180 arc tMatrix setmatrix
  closepath} bdef
/FtbRR {MtbRR stroke } bdef
/PtbRR {MtbRR fill } bdef
/stri 6 array def /dtri 6 array def
/smat 6 array def /dmat 6 array def
/tmat1 6 array def /tmat2 6 array def /dif 3 array def
/asub {/ind2 exch def /ind1 exch def dup dup
  ind1 get exch ind2 get sub exch } bdef
/tri_to_matrix {
  2 0 asub 3 1 asub 4 0 asub 5 1 asub
  dup 0 get exch 1 get 7 -1 roll astore } bdef
/compute_transform {
  dmat dtri tri_to_matrix tmat1 invertmatrix 
  smat stri tri_to_matrix tmat2 concatmatrix } bdef
/ds {stri astore pop} bdef
/dt {dtri astore pop} bdef
/db {2 copy /cols xdef /rows xdef mul dup 3 mul string
  currentfile 
  3 index 0 eq {/ASCIIHexDecode filter}
  {/ASCII85Decode filter 3 index 2 eq {/RunLengthDecode filter} if }
  ifelse exch readstring pop
  dup 0 3 index getinterval /rbmap xdef
  dup 2 index dup getinterval /gbmap xdef
  1 index dup 2 mul exch getinterval /bbmap xdef pop pop}bdef
/it {gs np dtri aload pop moveto lineto lineto cp c
  cols rows 8 compute_transform 
  rbmap gbmap bbmap true 3 colorimage gr}bdef
/il {newpath moveto lineto stroke}bdef
currentdict end def
%%EndProlog

%%BeginSetup
MathWorks begin

0 cap

end
%%EndSetup

%%Page: 1 1
%%BeginPageSetup
%%PageBoundingBox:    96   238   515   553
MathWorks begin
bpage
%%EndPageSetup

%%BeginObject: obj1
bplot

/dpi2point 12 def
portraitMode 1152 6636 csm

    0     0  5039  3780 rc
87 dict begin %Colortable dictionary
/c0 { 0.000000 0.000000 0.000000 sr} bdef
/c1 { 1.000000 1.000000 1.000000 sr} bdef
/c2 { 0.900000 0.000000 0.000000 sr} bdef
/c3 { 0.000000 0.820000 0.000000 sr} bdef
/c4 { 0.000000 0.000000 0.800000 sr} bdef
/c5 { 0.910000 0.820000 0.320000 sr} bdef
/c6 { 1.000000 0.260000 0.820000 sr} bdef
/c7 { 0.000000 0.820000 0.820000 sr} bdef
c0
1 j
1 sg
   0    0 5040 3781 rf
6 w
0 3213 1915 0 0 -3213 504 3402 4 MP
PP
-1915 0 0 3213 1915 0 0 -3213 504 3402 5 MP stroke
4 w
DO
SO
6 w
0 sg
 504  189 mt 2419  189 L
 504 3402 mt 2419 3402 L
2419 3402 mt 2419  189 L
 504 3402 mt  504  189 L
 504 3402 mt 2419 3402 L
 504 3402 mt  504  189 L
 504 3402 mt  504 3369 L
 504  189 mt  504  221 L
%%IncludeResource: font Helvetica
/Helvetica /WindowsLatin1Encoding 120 FMSR

 471 3547 mt 
(0) s
 982 3402 mt  982 3369 L
 982  189 mt  982  221 L
 949 3547 mt 
(5) s
1461 3402 mt 1461 3369 L
1461  189 mt 1461  221 L
1395 3547 mt 
(10) s
1940 3402 mt 1940 3369 L
1940  189 mt 1940  221 L
1874 3547 mt 
(15) s
2419 3402 mt 2419 3369 L
2419  189 mt 2419  221 L
2353 3547 mt 
(20) s
 504 3402 mt  536 3402 L
2419 3402 mt 2386 3402 L
 403 3446 mt 
(0) s
 504 3000 mt  536 3000 L
2419 3000 mt 2386 3000 L
 336 3044 mt 
(20) s
 504 2598 mt  536 2598 L
2419 2598 mt 2386 2598 L
 336 2642 mt 
(40) s
 504 2197 mt  536 2197 L
2419 2197 mt 2386 2197 L
 336 2241 mt 
(60) s
 504 1795 mt  536 1795 L
2419 1795 mt 2386 1795 L
 336 1839 mt 
(80) s
 504 1393 mt  536 1393 L
2419 1393 mt 2386 1393 L
 269 1437 mt 
(100) s
 504  992 mt  536  992 L
2419  992 mt 2386  992 L
 269 1036 mt 
(120) s
 504  590 mt  536  590 L
2419  590 mt 2386  590 L
 269  634 mt 
(140) s
 504  189 mt  536  189 L
2419  189 mt 2386  189 L
 269  233 mt 
(160) s
 504  189 mt 2419  189 L
 504 3402 mt 2419 3402 L
2419 3402 mt 2419  189 L
 504 3402 mt  504  189 L
gs 504 189 1916 3214 rc
24 w
/c8 { 0.000000 0.000000 1.000000 sr} bdef
c8
1 0 1 0 1 0 1 0 1 1 1 0 1 0 1 1 
1 0 1 0 1 1 1 0 1 0 1 1 1 1 1 0 
1 1 1 1 1 1 1 0 -1 0 2 2 1 1 1 1 
1 1 0 1 2 2 0 1 2 2 1 1 0 2 2 2 
1 1 0 2 2 2 0 1 2 2 0 1 2 2 1 1 
1 1 1 1 1 1 1 0 1 0 1 0 1 0 1 0 
1 -1 1 0 1 -1 0 -1 2 -2 0 -1 2 -2 0 -1 
2 -2 0 -2 2 -2 0 -1 2 -2 0 -2 2 -2 1 -1 
0 -2 2 -2 1 -1 0 -2 2 -2 1 -1 0 -1 2 -2 
1 -1 1 -1 1 -1 1 -1 1 -1 1 -1 1 -1 1 0 
1 0 1 -1 1 0 1 0 1 0 1 1 1 0 1 0 
1 1 1 0 1 0 1 1 1 0 1 0 1 1 1 0 
1 0 1 1 1 0 1 0 1 1 1 0 1 0 1 0 
1 1 1 0 1 0 1 1 1 0 1 1 1 0 1 1 
1 0 1 1 1 1 1 1 1 1 1 1 1 1 1 1 
0 1 2 2 0 1 2 2 0 1 2 2 1 1 0 2 
2 2 1 1 0 2 2 2 0 1 2 2 1 1 1 1 
1 1 1 1 1 1 1 0 1 0 1 0 1 0 1 0 
1 -1 1 -1 1 -1 1 -1 0 -1 2 -2 0 -1 2 -2 
1 -1 0 -2 2 -2 0 -2 2 -2 0 -1 2 -2 0 -2 
2 -2 0 -1 2 -2 0 -1 2 -2 0 -1 2 -2 1 -1 
0 -1 2 -2 1 -1 1 -1 1 -1 1 0 1 -1 1 0 
1 -1 1 0 1 0 1 0 1 0 1 1 1 0 1 0 
1 1 1 0 1 0 1 1 1 0 1 1 1 0 1 0 
1 1 1 0 1 0 1 0 1 1 1 0 1 0 1 0 
1 1 1 0 1 0 1 1 1 0 1 1 1 0 1 1 
1 1 1 0 1 1 1 1 1 1 1 1 1 1 0 1 
2 2 0 1 2 2 0 1 2 2 0 1 2 2 1 1 
0 2 2 2 0 1 2 2 0 1 2 2 1 1 1 1 
1 1 1 1 1 1 1 0 1 0 1 0 1 0 1 0 
1 -1 1 -1 1 -1 1 -1 1 -1 0 -2 2 -2 1 -1 
0 -2 2 -2 1 -1 0 -2 2 -2 0 -2 2 -2 1 -1 
0 -2 2 -2 0 -1 2 -2 0 -1 2 -2 1 -1 0 -1 
2 -2 1 -1 1 -1 1 -1 1 -1 1 0 1 -1 1 0 
1 -1 1 0 1 0 1 0 1 0 1 1 1 0 1 0 
1 1 1 0 1 0 1 1 1 0 1 1 1 0 1 0 
1 1 1 0 1 0 1 0 1 1 1 0 1 0 1 1 
1 0 1 0 1 1 2121 3325 300 MP stroke
1 0 1 0 1 1 1 0 1 1 1 1 1 1 1 0 
1 1 1 1 1 1 0 1 2 2 1 1 0 1 2 2 
0 1 2 2 0 1 2 2 0 2 2 2 0 1 2 2 
0 1 2 2 1 1 0 1 2 2 1 1 1 0 1 1 
1 0 1 0 1 0 1 0 1 0 1 -1 1 -1 1 -1 
0 -1 2 -2 1 -1 0 -2 2 -2 0 -1 2 -2 0 -2 
2 -2 0 -1 2 -2 0 -2 2 -2 1 -1 0 -2 2 -2 
0 -1 2 -2 0 -1 2 -2 1 -1 1 -1 1 -1 1 -1 
1 -1 1 -1 1 -1 1 0 1 0 1 -1 1 0 1 0 
1 0 1 1 1 0 1 0 1 0 1 1 1 0 1 1 
1 0 1 0 1 1 1 0 1 0 1 1 1 0 1 0 
1 0 1 1 1 0 1 0 1 1 1 0 1 0 1 1 
1 0 1 0 1 1 1 1 1 0 1 1 1 1 1 1 
1 1 1 1 1 1 1 1 1 1 0 1 2 2 0 1 
2 2 1 1 0 2 2 2 1 1 0 2 2 2 0 1 
2 2 0 1 2 2 1 1 1 1 1 1 1 1 1 0 
1 0 1 0 1 0 1 0 1 -1 1 0 1 -1 0 -1 
2 -2 0 -1 2 -2 0 -1 2 -2 0 -2 2 -2 0 -1 
2 -2 0 -2 2 -2 1 -1 0 -2 2 -2 1 -1 0 -2 
2 -2 1 -1 0 -1 2 -2 1 -1 1 -1 1 -1 1 -1 
1 -1 1 -1 1 -1 1 0 1 0 1 -1 1 0 1 0 
1 0 1 1 1 0 1 0 1 1 1 0 1 0 1 1 
1 0 1 0 1 1 1 0 1 0 1 1 1 0 1 0 
1 1 1 0 1 0 1 0 1 1 1 0 1 0 1 1 
1 0 1 1 1 0 1 1 1 0 1 1 1 1 1 1 
1 1 1 1 1 1 1 1 0 1 2 2 0 1 2 2 
0 1 2 2 1 1 0 2 2 2 1 1 0 2 2 2 
0 1 2 2 1 1 1 1 1 1 1 1 1 1 1 0 
1 0 1 0 1 0 1 0 1 -1 1 -1 1 -1 1 -1 
0 -1 2 -2 1 -1 0 -2 2 -2 0 -1 2 -2 0 -2 
2 -2 1 -1 0 -2 2 -2 1 -1 0 -2 2 -2 0 -1 
2 -2 0 -1 2 -2 1 -1 0 -1 2 -2 1 -1 1 -1 
1 -1 1 0 1 -1 1 0 1 -1 1 0 1 0 1 0 
1 0 1 1 1 0 1 0 1 1 1 0 1 0 1 1 
1 0 1 1 1 0 1 0 1 1 1 0 1 0 1 0 
1 1 1 0 1 0 1 0 1 1 1 0 1 0 1 1 
1 0 1 1 1 0 1 1 1 1 1 0 1 1 1 1 
1 1 1 1 1 1 1822 3317 300 MP stroke
0 1 2 2 1 1 0 1 2 2 1 1 0 2 2 2 
1 1 0 2 2 2 1 1 0 2 2 2 1 1 1 1 
1 1 1 1 1 1 1 1 1 0 1 0 1 0 1 0 
1 0 1 -1 1 -1 1 -1 1 -1 1 -1 0 -2 2 -2 
1 -1 0 -2 2 -2 1 -1 0 -2 2 -2 0 -2 2 -2 
1 -1 0 -2 2 -2 0 -1 2 -2 0 -1 2 -2 1 -1 
0 -1 2 -2 1 -1 1 -1 1 -1 1 -1 1 0 1 -1 
1 0 1 -1 1 0 1 0 1 0 1 0 1 1 1 0 
1 0 1 1 1 0 1 0 1 1 1 0 1 1 1 0 
1 0 1 1 1 0 1 0 1 0 1 1 1 0 1 0 
1 0 1 1 1 0 1 1 1 0 1 0 1 1 1 0 
1 1 1 1 1 1 1 0 1 1 1 1 0 1 2 2 
1 1 1 1 0 1 2 2 1 1 0 2 2 2 1 1 
0 2 2 2 0 1 2 2 0 1 2 2 1 1 0 1 
2 2 1 1 1 0 1 1 1 0 1 0 1 0 1 0 
1 0 1 -1 1 -1 1 -1 0 -1 2 -2 1 -1 0 -2 
2 -2 0 -1 2 -2 0 -2 2 -2 0 -1 2 -2 0 -2 
2 -2 1 -1 0 -2 2 -2 0 -1 2 -2 0 -1 2 -2 
1 -1 1 -1 1 -1 1 -1 1 -1 1 -1 1 -1 1 0 
1 0 1 -1 1 0 1 0 1 0 1 1 1 0 1 0 
1 0 1 1 1 0 1 1 1 0 1 0 1 1 1 0 
1 0 1 1 1 0 1 0 1 0 1 1 1 0 1 0 
1 1 1 0 1 0 1 1 1 0 1 0 1 1 1 1 
1 0 1 1 1 1 1 1 1 1 1 1 1 1 1 1 
1 1 0 1 2 2 0 1 2 2 1 1 0 2 2 2 
1 1 0 2 2 2 0 1 2 2 0 1 2 2 1 1 
1 1 1 1 1 1 1 0 1 0 1 0 1 0 1 0 
1 -1 1 0 1 -1 0 -1 2 -2 0 -1 2 -2 0 -1 
2 -2 0 -2 2 -2 0 -1 2 -2 0 -2 2 -2 1 -1 
0 -2 2 -2 1 -1 0 -2 2 -2 1 -1 0 -1 2 -2 
1 -1 1 -1 1 -1 1 -1 1 -1 1 -1 1 -1 1 0 
1 0 1 -1 1 0 1 0 1 0 1 1 1 0 1 0 
1 1 1 0 1 0 1 1 1 0 1 0 1 1 1 0 
1 0 1 1 1 0 1 0 1 1 1 0 1 0 1 0 
1 1 1 0 1 0 1 1 1 0 1 1 1 0 1 1 
1 0 1 1 1 1 1 1 1 1 1 1 1 1 1 1 
0 1 2 2 0 1 2 2 0 1 2 2 1 1 0 2 
2 2 1 1 0 2 1524 3299 300 MP stroke
2 2 0 1 2 2 1 1 1 1 1 1 1 1 1 1 
1 0 1 0 1 0 1 0 1 0 1 -1 1 -1 1 -1 
1 -1 0 -1 2 -2 1 -1 0 -2 2 -2 0 -1 2 -2 
0 -2 2 -2 1 -1 0 -2 2 -2 1 -1 0 -2 2 -2 
0 -1 2 -2 0 -1 2 -2 1 -1 0 -1 2 -2 1 -1 
1 -1 1 -1 1 0 1 -1 1 0 1 -1 1 0 1 0 
1 0 1 0 1 1 1 0 1 0 1 1 1 0 1 0 
1 1 1 0 1 1 1 0 1 0 1 1 1 0 1 0 
1 0 1 1 1 0 1 0 1 0 1 1 1 0 1 0 
1 1 1 0 1 1 1 0 1 1 1 1 1 0 1 1 
1 1 1 1 1 1 1 1 0 1 2 2 1 1 0 1 
2 2 1 1 0 2 2 2 1 1 0 2 2 2 1 1 
0 2 2 2 1 1 1 1 1 1 1 1 1 1 1 1 
1 0 1 0 1 0 1 0 1 0 1 -1 1 -1 1 -1 
1 -1 1 -1 0 -2 2 -2 1 -1 0 -2 2 -2 1 -1 
0 -2 2 -2 0 -2 2 -2 1 -1 0 -2 2 -2 0 -1 
2 -2 0 -1 2 -2 0 -1 2 -2 1 -1 1 -1 1 -1 
1 -1 1 -1 1 0 1 -1 1 0 1 -1 1 0 1 0 
1 0 1 0 1 1 1 0 1 0 1 1 1 0 1 1 
1 0 1 0 1 1 1 0 1 0 1 1 1 0 1 0 
1 0 1 1 1 0 1 0 1 1 1 0 1 0 1 1 
1 0 1 0 1 1 1 0 1 1 1 1 1 1 1 0 
1 1 1 1 1 1 0 1 2 2 1 1 0 1 2 2 
1 1 0 2 2 2 0 1 2 2 1 1 0 2 2 2 
0 1 2 2 1 1 0 1 2 2 1 1 1 0 1 1 
1 0 1 0 1 0 1 0 1 0 1 -1 1 -1 1 -1 
0 -1 2 -2 1 -1 0 -2 2 -2 0 -1 2 -2 0 -2 
2 -2 0 -1 2 -2 0 -2 2 -2 1 -1 0 -2 2 -2 
0 -1 2 -2 1 -1 0 -1 2 -2 1 -1 1 -1 1 -1 
1 -1 1 -1 1 -1 1 0 1 0 1 -1 1 0 1 0 
1 0 1 1 1 0 1 0 1 0 1 1 1 0 1 1 
1 0 1 0 1 1 1 0 1 0 1 1 1 0 1 0 
1 1 1 0 1 0 1 0 1 1 1 0 1 0 1 1 
1 0 1 1 1 0 1 1 1 0 1 1 1 1 1 1 
1 1 1 1 1 1 1 1 1 1 0 1 2 2 0 1 
2 2 1 1 0 2 2 2 1 1 0 2 2 2 0 1 
2 2 0 1 2 2 1 1 1 1 1 1 1 1 1 0 
1 1 1 0 1 0 1224 3288 300 MP stroke
1 -1 1 0 1 -1 1 -1 0 -1 2 -2 0 -1 2 -2 
1 -1 0 -2 2 -2 0 -1 2 -2 0 -2 2 -2 0 -1 
2 -2 0 -2 2 -2 0 -1 2 -2 0 -1 2 -2 0 -1 
2 -2 1 -1 1 -1 1 -1 1 -1 1 -1 1 -1 1 0 
1 -1 1 0 1 0 1 -1 1 1 1 0 1 0 1 0 
1 0 1 1 1 0 1 1 1 0 1 0 1 1 1 0 
1 1 1 0 1 0 1 0 1 1 1 0 1 0 1 1 
1 0 1 0 1 0 1 1 1 0 1 1 1 0 1 1 
1 0 1 1 1 1 1 1 1 1 1 1 1 1 1 1 
1 1 0 1 2 2 0 1 2 2 0 1 2 2 0 1 
2 2 0 2 2 2 0 1 2 2 0 1 2 2 0 1 
2 2 1 1 1 1 1 0 1 1 1 0 1 0 1 0 
1 0 1 -1 1 -1 1 -1 1 -1 0 -1 2 -2 1 -1 
0 -2 2 -2 0 -1 2 -2 0 -2 2 -2 0 -1 2 -2 
0 -2 2 -2 0 -1 2 -2 0 -1 2 -2 0 -1 2 -2 
1 -1 0 -1 2 -2 1 -1 1 -1 1 0 1 -1 1 -1 
1 0 1 0 1 0 1 0 1 0 1 0 1 0 1 1 
1 0 1 1 1 0 1 1 1 0 1 1 1 0 1 1 
1 0 1 0 1 1 1 0 1 1 1 0 1 0 1 1 
1 0 1 1 1 0 1 1 1 0 1 1 1 1 1 0 
1 1 1 1 1 1 1 1 1 1 0 1 2 2 0 1 
2 2 1 1 0 2 2 2 0 1 2 2 0 2 2 2 
0 2 2 2 0 2 1 1 1 1 0 2 2 2 0 2 
2 2 0 1 2 2 1 1 1 1 1 1 1 0 1 0 
1 0 1 0 1 0 1 -1 1 -1 1 -1 0 -1 2 -2 
0 -1 2 -2 1 -1 0 -2 2 -2 0 -1 2 -2 0 -2 
2 -2 0 -1 2 -2 0 -1 2 -2 0 -1 2 -2 1 -1 
1 -1 1 -1 1 -1 1 -1 1 -1 1 -1 1 0 1 0 
1 0 1 0 1 0 1 0 1 1 1 1 1 1 1 1 
1 1 1 1 1 1 0 1 2 2 0 1 2 2 1 1 
0 1 2 2 1 1 0 1 2 2 0 1 2 2 0 1 
2 2 1 1 0 2 2 2 1 1 0 2 2 2 0 2 
1 1 0 1 1 1 0 1 1 1 0 3 2 2 0 2 
1 1 0 2 1 1 0 2 1 1 0 3 1 1 0 2 
1 1 0 3 1 1 0 3 1 1 0 3 1 1 0 3 
1 1 0 4 1 1 0 3 1 1 0 4 1 1 0 4 
1 1 0 4 1 1 0 4 1 1 0 3 1 1 0 4 
1 1 0 4 1 1 947 3186 300 MP stroke
0 4 1 1 0 3 1 1 0 4 1 1 0 3 1 1 
0 3 1 1 0 2 1 1 0 2 1 1 0 2 1 1 
0 2 1 1 0 1 1 1 1 1 1 1 1 1 1 0 
1 0 1 0 1 -1 1 0 0 -1 2 -2 1 -1 1 -1 
1 -1 0 -1 2 -2 1 -1 1 -1 1 -1 1 -1 1 -1 
1 0 1 -1 1 -1 1 0 1 0 1 0 1 0 1 1 
1 1 1 1 0 1 2 2 0 2 1 1 0 2 1 1 
0 2 1 1 0 3 1 1 0 3 1 1 0 3 1 1 
0 4 1 1 0 4 1 1 0 4 1 1 0 4 1 1 
0 5 1 1 0 5 1 1 0 4 1 1 0 6 1 1 
0 5 1 1 0 5 1 1 0 5 1 1 0 5 1 1 
0 5 1 1 0 6 1 1 0 5 1 1 0 6 1 1 
0 6 1 1 0 6 1 1 0 6 1 1 0 6 1 1 
0 7 1 1 0 7 1 1 0 6 1 1 0 7 1 1 
0 8 1 1 0 8 1 1 0 8 1 1 0 9 1 1 
0 8 1 1 0 10 1 1 0 9 1 1 0 10 1 1 
0 11 1 1 0 11 1 1 0 11 1 1 0 12 1 1 
0 11 1 1 0 14 1 1 0 12 1 1 0 12 1 1 
0 14 1 1 0 13 1 1 0 13 1 1 0 13 1 1 
0 13 1 1 0 13 1 1 0 13 1 1 0 12 1 1 
0 12 1 1 0 12 1 1 0 10 1 1 0 11 1 1 
0 9 1 1 0 9 1 1 0 7 1 1 0 8 1 1 
0 6 1 1 0 4 1 1 0 5 1 1 0 3 1 1 
0 3 1 1 0 1 1 1 0 2 2 2 1 1 1 1 
1 0 1 0 1 0 1 0 1 0 1 0 1 0 1 0 
1 0 1 0 1 1 1 1 1 0 0 1 2 2 1 1 
0 2 2 2 0 2 1 1 0 2 1 1 0 3 1 1 
0 3 1 1 0 4 1 1 0 4 1 1 0 5 1 1 
0 6 1 1 0 7 1 1 0 6 1 1 0 8 1 1 
0 7 1 1 0 9 1 1 0 8 1 1 0 9 1 1 
0 9 1 1 0 9 1 1 0 9 1 1 0 9 1 1 
0 10 1 1 0 9 1 1 0 9 1 1 0 9 1 1 
0 10 1 1 0 10 1 1 0 9 1 1 0 10 1 1 
0 9 1 1 0 10 1 1 0 10 1 1 0 9 1 1 
0 11 1 1 0 10 1 1 0 11 1 1 0 10 1 2 
0 10 1 1 0 11 1 1 0 12 1 1 0 12 1 1 
0 11 1 1 0 13 1 1 0 11 1 1 0 12 1 2 
0 12 1 1 0 13 771 2124 300 MP stroke
1 1 0 13 1 1 0 13 1 1 0 13 1 2 0 13 
1 1 0 13 1 1 0 13 1 1 0 12 1 1 0 13 
1 1 0 14 1 1 0 12 1 1 0 12 1 1 0 11 
1 1 0 11 1 1 0 12 1 1 0 10 1 1 0 10 
1 1 0 8 1 1 0 9 1 1 0 8 1 1 0 7 
1 1 0 6 1 1 0 5 1 1 0 5 1 1 0 4 
1 1 0 4 1 1 0 3 1 1 0 2 1 1 0 1 
1 1 0 2 2 2 1 1 1 1 1 1 1 0 1 1 
1 0 1 0 1 0 1 1 1 0 1 0 1 1 1 0 
1 1 1 1 1 0 1 1 0 1 2 2 1 1 0 2 
2 2 0 2 2 2 0 2 1 1 0 2 1 1 0 2 
1 1 0 3 1 1 0 3 1 1 0 3 1 1 0 4 
1 1 0 3 1 1 0 4 1 1 0 4 1 1 0 5 
1 1 0 4 1 1 0 4 1 1 0 4 1 1 0 5 
1 1 0 4 1 1 0 4 1 1 0 4 1 1 0 5 
1 1 0 4 1 1 0 4 1 1 0 4 1 1 0 5 
1 1 0 4 1 1 0 4 1 1 0 4 1 1 0 4 
1 1 0 4 1 1 0 5 1 1 0 4 1 1 0 5 
1 1 0 4 1 1 0 4 1 1 0 5 1 1 0 4 
1 1 0 5 1 1 0 4 1 1 0 5 1 1 0 5 
1 1 0 4 1 1 0 5 1 1 0 5 1 1 0 4 
1 1 0 5 1 1 0 4 1 1 0 5 1 1 0 4 
1 1 0 5 1 1 0 4 1 1 0 4 1 1 0 4 
1 1 0 4 1 1 0 4 1 1 0 3 1 1 0 3 
1 1 0 4 1 1 0 2 1 1 0 3 1 1 0 2 
1 1 0 2 1 1 0 2 1 1 0 2 1 1 0 2 
2 2 0 2 2 2 1 1 1 1 1 1 1 1 1 1 
1 0 1 0 1 1 1 0 1 0 1 0 1 0 1 0 
1 1 1 0 1 0 1 0 1 0 1 0 1 1 1 0 
1 0 1 0 1 1 1 0 1 1 1 0 1 1 1 0 
1 1 1 1 1 1 1 1 0 1 2 2 1 1 0 1 
2 2 0 1 2 2 1 1 0 2 2 2 0 1 2 2 
0 1 2 2 0 1 2 2 0 1 2 2 0 1 2 2 
0 1 2 2 0 1 2 2 0 1 2 2 0 1 2 2 
0 1 2 2 0 1 2 2 0 1 2 2 1 1 0 1 
2 2 0 1 2 2 0 1 2 2 1 1 0 1 2 2 
1 1 0 1 2 2 1 1 1 1 1 1 1 1 1 1 
1 1 1 1 1 1 562 1410 300 MP stroke
1 1 1 0 1 1 1 1 1 0 1 1 1 0 1 1 
1 0 1 0 1 0 1 1 1 0 1 0 1 0 1 0 
1 0 1 0 1 0 1 0 1 0 1 0 1 1 1 0 
1 0 1 0 1 0 1 0 1 0 1 0 1 0 1 0 
1 1 1 0 1 0 1 0 1 1 1 0 1 1 1 0 
1 0 1 1 1 1 1 0 1 1 1 0 1 1 1 0 
1 1 1 0 1 1 1 0 1 0 1 0 1 1 1 0 
1 0 1 0 504 1393 59 MP stroke
/c9 { 1.000000 0.000000 0.000000 sr} bdef
c9
1 0 1 1 1 1 1 1 1 1 0 2 2 2 1 1 
0 2 2 2 0 1 2 2 0 2 2 2 1 1 0 2 
2 2 0 1 2 2 0 1 2 2 0 1 2 2 1 1 
0 1 2 2 1 1 1 0 1 1 1 1 1 0 1 1 
1 0 1 0 1 0 1 0 1 0 1 0 1 -1 1 0 
1 0 1 -1 1 0 1 0 1 -1 1 0 1 0 1 0 
1 -1 1 0 1 0 1 0 1 -1 1 0 1 0 1 0 
1 -1 1 0 1 0 1 -1 1 0 1 -1 1 0 1 -1 
1 -1 1 0 1 -1 1 -1 1 -1 0 -1 2 -2 1 -1 
0 -1 2 -2 0 -1 2 -2 1 -1 0 -2 2 -2 1 -1 
0 -2 2 -2 0 -1 2 -2 0 -1 2 -2 1 -1 1 -1 
1 -1 1 -1 1 0 1 -1 1 0 1 0 1 1 1 0 
1 1 1 1 1 1 0 1 2 2 1 1 0 2 2 2 
0 1 2 2 0 2 2 2 1 1 0 2 2 2 1 1 
0 2 2 2 0 1 2 2 0 1 2 2 1 1 0 1 
2 2 1 1 1 1 1 1 1 0 1 1 1 0 1 1 
1 0 1 0 1 0 1 0 1 0 1 0 1 -1 1 0 
1 0 1 -1 1 0 1 0 1 -1 1 0 1 0 1 -1 
1 0 1 0 1 0 1 -1 1 0 1 0 1 0 1 0 
1 -1 1 0 1 0 1 -1 1 0 1 -1 1 0 1 -1 
1 -1 1 -1 1 -1 1 0 -1 0 2 -2 1 -1 1 -1 
1 -1 0 -1 2 -2 1 -1 0 -2 2 -2 1 -1 0 -2 
2 -2 1 -1 0 -2 2 -2 0 -1 2 -2 1 -1 1 -1 
1 -1 1 -1 1 -1 1 0 1 -1 1 0 1 0 1 1 
1 0 1 1 1 1 0 1 2 2 0 1 2 2 1 1 
0 2 2 2 0 1 2 2 0 2 2 2 1 1 0 2 
2 2 1 1 0 2 2 2 0 1 2 2 1 1 0 1 
2 2 1 1 1 1 1 1 1 1 1 1 1 0 1 1 
1 0 1 0 1 0 1 0 1 0 1 0 1 0 1 -1 
1 0 1 0 1 -1 1 0 1 0 1 -1 1 0 1 0 
1 -1 1 0 1 0 1 0 1 -1 1 0 1 0 1 0 
1 -1 1 0 1 0 1 -1 1 0 1 0 1 -1 1 -1 
1 0 1 -1 1 -1 1 -1 1 -1 1 -1 1 -1 1 -1 
0 -1 2 -2 0 -1 2 -2 1 -1 0 -2 2 -2 1 -1 
0 -2 2 -2 1 -1 0 -2 2 -2 1 -1 0 -1 2 -2 
1 -1 1 0 1 -1 1 -1 1 0 1 0 1 0 1 1 
1 1 1 0 0 1 2 2 1 1 0 1 2 2 0 2 
2 2 1 1 0 2 2122 1563 300 MP stroke
2 2 0 1 2 2 0 2 2 2 0 1 2 2 1 1 
0 2 2 2 1 1 0 1 2 2 1 1 1 1 1 1 
1 1 1 1 1 1 1 0 1 1 1 0 1 0 1 0 
1 0 1 0 1 0 1 -1 1 0 1 0 1 -1 1 0 
1 0 1 -1 1 0 1 0 1 0 1 -1 1 0 1 0 
1 0 1 -1 1 0 1 0 1 0 1 -1 1 0 1 0 
1 -1 1 0 1 -1 1 0 1 -1 1 0 1 -1 1 -1 
1 -1 1 -1 1 -1 0 -1 2 -2 1 -1 0 -1 2 -2 
0 -1 2 -2 0 -1 2 -2 0 -2 2 -2 0 -1 2 -2 
0 -1 2 -2 0 -1 2 -2 1 -1 1 -1 1 -1 1 0 
1 -1 1 0 1 0 1 1 1 0 1 1 1 1 1 1 
1 1 0 1 2 2 0 1 2 2 0 2 2 2 0 1 
2 2 0 2 2 2 1 1 0 2 2 2 0 1 2 2 
0 1 2 2 0 1 2 2 1 1 0 1 2 2 1 1 
1 0 1 1 1 1 1 0 1 1 1 0 1 0 1 0 
1 0 1 0 1 0 1 -1 1 0 1 0 1 -1 1 0 
1 0 1 -1 1 0 1 0 1 0 1 -1 1 0 1 0 
1 0 1 -1 1 0 1 0 1 0 1 -1 1 0 1 0 
1 -1 1 0 1 -1 1 0 1 -1 1 -1 1 0 1 -1 
1 -1 1 -1 0 -1 2 -2 1 -1 0 -1 2 -2 0 -1 
2 -2 1 -1 0 -2 2 -2 1 -1 0 -2 2 -2 0 -1 
2 -2 0 -1 2 -2 1 -1 1 -1 1 -1 1 -1 1 0 
1 -1 1 0 1 0 1 1 1 0 1 1 1 1 1 1 
0 1 2 2 1 1 0 2 2 2 0 1 2 2 0 2 
2 2 1 1 0 2 2 2 1 1 0 2 2 2 0 1 
2 2 0 1 2 2 1 1 0 1 2 2 1 1 1 1 
1 1 1 0 1 1 1 0 1 1 1 0 1 0 1 0 
1 0 1 0 1 0 1 -1 1 0 1 0 1 -1 1 0 
1 0 1 -1 1 0 1 0 1 -1 1 0 1 0 1 0 
1 0 1 -1 1 0 1 0 1 0 1 -1 1 0 1 0 
1 -1 1 0 1 -1 1 0 1 -1 1 -1 1 -1 1 -1 
1 0 -1 0 2 -2 1 -1 1 -1 0 -1 2 -2 1 -1 
1 -1 0 -2 2 -2 1 -1 0 -2 2 -2 1 -1 0 -2 
2 -2 0 -1 2 -2 1 -1 1 -1 1 -1 1 -1 1 -1 
1 0 1 -1 1 0 1 0 1 1 1 0 1 1 1 1 
0 1 2 2 0 1 2 2 0 1 2 2 0 2 2 2 
0 1 2 2 0 2 2 2 1 1 0 2 2 2 0 1 
2 2 0 1 2 2 1823 1545 300 MP stroke
0 1 2 2 1 1 1 1 1 1 1 1 1 1 1 1 
1 0 1 1 1 0 1 0 1 0 1 0 1 0 1 0 
1 0 1 -1 1 0 1 0 1 -1 1 0 1 0 1 -1 
1 0 1 0 1 -1 1 0 1 0 1 0 1 -1 1 0 
1 0 1 0 1 -1 1 0 1 0 1 -1 1 0 1 0 
1 -1 1 -1 1 0 1 -1 1 -1 1 -1 1 -1 1 -1 
1 -1 1 -1 0 -1 2 -2 0 -1 2 -2 1 -1 0 -2 
2 -2 1 -1 0 -2 2 -2 1 -1 0 -2 2 -2 1 -1 
0 -1 2 -2 1 -1 1 0 1 -1 1 -1 1 0 1 0 
1 0 1 1 1 1 1 0 0 1 2 2 1 1 1 1 
0 2 2 2 0 1 2 2 0 2 2 2 0 1 2 2 
0 2 2 2 0 1 2 2 1 1 0 2 2 2 0 1 
2 2 1 1 1 1 1 1 1 1 1 1 1 1 1 1 
1 0 1 1 1 0 1 0 1 0 1 0 1 0 1 0 
1 -1 1 0 1 0 1 -1 1 0 1 0 1 -1 1 0 
1 0 1 0 1 -1 1 0 1 0 1 0 1 -1 1 0 
1 0 1 0 1 -1 1 0 1 0 1 -1 1 0 1 -1 
1 0 1 -1 1 0 1 -1 1 -1 1 -1 1 -1 1 -1 
0 -1 2 -2 1 -1 0 -1 2 -2 0 -1 2 -2 0 -1 
2 -2 0 -2 2 -2 0 -1 2 -2 0 -1 2 -2 0 -1 
2 -2 1 -1 1 -1 1 -1 1 0 1 -1 1 0 1 0 
1 1 1 0 1 1 1 1 1 1 1 1 0 1 2 2 
0 1 2 2 0 2 2 2 0 1 2 2 0 2 2 2 
1 1 0 2 2 2 0 1 2 2 0 1 2 2 0 1 
2 2 1 1 0 1 2 2 1 1 1 0 1 1 1 1 
1 0 1 1 1 0 1 0 1 0 1 0 1 0 1 0 
1 -1 1 0 1 0 1 -1 1 0 1 0 1 -1 1 0 
1 0 1 0 1 -1 1 0 1 0 1 0 1 -1 1 0 
1 0 1 0 1 -1 1 0 1 0 1 -1 1 0 1 -1 
1 0 1 -1 1 -1 1 0 1 -1 1 -1 1 -1 0 -1 
2 -2 1 -1 0 -1 2 -2 0 -1 2 -2 1 -1 0 -2 
2 -2 1 -1 0 -2 2 -2 0 -1 2 -2 0 -1 2 -2 
1 -1 1 -1 1 -1 1 -1 1 0 1 -1 1 0 1 0 
1 1 1 0 1 1 1 1 1 1 0 1 2 2 1 1 
0 2 2 2 0 1 2 2 0 2 2 2 1 1 0 2 
2 2 1 1 0 2 2 2 0 1 2 2 0 1 2 2 
1 1 0 1 2 2 1 1 1 1 1 1 1 0 1 1 
1 0 1 1 1 0 1524 1535 300 MP stroke
1 0 1 0 1 0 1 0 1 0 1 -1 1 0 1 0 
1 -1 1 0 1 0 1 -1 1 0 1 0 1 -1 1 0 
1 0 1 0 1 0 1 -1 1 0 1 0 1 0 1 -1 
1 0 1 0 1 -1 1 0 1 -1 1 0 1 -1 1 -1 
1 -1 1 -1 1 -1 1 -1 1 -1 1 -1 0 -1 2 -2 
1 -1 1 -1 0 -2 2 -2 1 -1 0 -2 2 -2 1 -1 
0 -2 2 -2 0 -1 2 -2 1 -1 1 -1 1 -1 1 -1 
1 -1 1 0 1 -1 1 0 1 0 1 1 1 0 1 1 
1 1 0 1 2 2 0 1 2 2 0 1 2 2 0 2 
2 2 0 1 2 2 0 2 2 2 1 1 0 2 2 2 
0 1 2 2 0 1 2 2 0 1 2 2 1 1 1 1 
1 1 1 1 1 1 1 1 1 0 1 1 1 0 1 0 
1 0 1 0 1 0 1 0 1 0 1 -1 1 0 1 0 
1 -1 1 0 1 0 1 -1 1 0 1 0 1 -1 1 0 
1 0 1 0 1 -1 1 0 1 0 1 0 1 -1 1 0 
1 0 1 -1 1 0 1 0 1 -1 1 -1 1 0 1 -1 
1 -1 1 -1 1 -1 1 -1 1 -1 1 -1 0 -1 2 -2 
0 -1 2 -2 1 -1 0 -2 2 -2 1 -1 0 -2 2 -2 
1 -1 0 -2 2 -2 1 -1 0 -1 2 -2 1 -1 1 0 
1 -1 1 -1 1 0 1 0 1 0 1 1 1 1 1 0 
0 1 2 2 1 1 1 1 0 2 2 2 0 1 2 2 
0 2 2 2 0 1 2 2 0 2 2 2 0 1 2 2 
1 1 0 2 2 2 1 1 0 1 2 2 1 1 1 1 
1 1 1 1 1 1 1 1 1 0 1 1 1 0 1 0 
1 0 1 0 1 0 1 0 1 -1 1 0 1 0 1 -1 
1 0 1 0 1 -1 1 0 1 0 1 0 1 -1 1 0 
1 0 1 0 1 -1 1 0 1 0 1 0 1 -1 1 0 
1 0 1 -1 1 0 1 -1 1 0 1 -1 1 -1 1 0 
1 -1 1 -1 1 -1 1 -1 0 -1 2 -2 1 -1 0 -1 
2 -2 1 -1 0 -2 2 -2 1 -1 0 -2 2 -2 1 -1 
0 -2 2 -2 0 -1 2 -2 1 -1 1 -1 1 -1 1 -1 
1 0 1 -1 1 0 1 0 1 0 1 1 1 1 1 0 
-1 0 2 2 1 1 0 1 2 2 0 1 2 2 0 2 
2 2 1 1 0 2 2 2 0 1 2 2 0 2 2 2 
0 1 2 2 0 1 2 2 0 1 2 2 1 1 1 1 
1 1 1 1 1 1 1 1 1 1 1 0 1 1 1 0 
1 0 1 0 1 0 1 0 1 -1 1 0 1 0 1 -1 
1 0 1 0 1 -1 1226 1538 300 MP stroke
1 0 1 0 1 -1 1 0 1 0 1 0 1 -1 1 0 
1 0 1 0 1 -1 1 0 1 0 1 0 1 -1 1 0 
1 -1 1 0 1 -1 1 -1 1 0 1 -1 1 -1 1 -1 
1 -1 1 -1 0 -1 2 -2 1 -1 1 -1 0 -2 2 -2 
1 -1 0 -2 2 -2 1 -1 0 -2 2 -2 1 -1 0 -2 
2 -2 1 -1 1 -1 1 -1 1 -1 1 -1 1 -1 1 0 
1 0 1 0 1 0 1 1 1 0 1 1 0 1 2 2 
0 1 2 2 1 1 0 2 2 2 0 1 2 2 0 2 
2 2 1 1 0 2 2 2 1 1 0 2 2 2 0 1 
2 2 1 1 0 1 2 2 1 1 1 1 1 1 1 1 
1 0 1 1 1 0 1 1 1 0 1 0 1 0 1 0 
1 -1 1 0 1 0 1 -1 1 0 1 -1 1 0 1 0 
1 -1 1 0 1 -1 1 0 1 0 1 -1 1 0 1 0 
1 -1 1 0 1 0 1 -1 1 0 1 -1 1 0 1 -1 
1 -1 1 0 1 -1 1 -1 1 -1 1 -1 1 -1 1 -1 
0 -1 2 -2 1 -1 0 -2 2 -2 1 -1 0 -2 2 -2 
0 -2 2 -2 0 -2 2 -2 0 -2 2 -2 0 -2 2 -2 
0 -2 2 -2 0 -1 2 -2 1 -1 1 -1 1 -1 1 0 
1 -1 1 0 1 0 1 1 1 0 1 1 0 1 2 2 
1 1 1 1 0 2 2 2 0 1 2 2 0 2 2 2 
0 1 2 2 1 1 0 2 2 2 0 1 2 2 1 1 
0 1 2 2 1 1 1 1 1 1 1 1 1 1 1 0 
1 1 1 0 1 0 1 0 1 -1 1 0 1 -1 1 0 
1 -1 1 -1 1 -1 0 -1 2 -2 1 -1 1 -1 1 -1 
0 -1 2 -2 1 -1 1 -1 0 -1 2 -2 1 -1 1 -1 
0 -1 2 -2 0 -1 2 -2 1 -1 0 -2 2 -2 0 -2 
2 -2 0 -2 2 -2 0 -2 1 -1 0 -1 1 -1 0 -2 
1 -1 0 -2 1 -1 0 -2 1 -1 0 -2 1 -1 0 -2 
1 -1 0 -3 1 -1 0 -3 1 -1 0 -3 1 -1 0 -3 
1 -1 0 -3 1 -1 0 -4 1 -1 0 -3 1 -1 0 -4 
1 -1 0 -4 1 -1 0 -4 1 -1 0 -4 1 -1 0 -4 
1 -1 0 -3 1 -1 0 -4 1 -1 0 -4 1 -1 0 -3 
1 -1 0 -3 1 -1 0 -3 1 -1 0 -2 1 -1 0 -3 
1 -1 0 -1 1 -1 0 -3 2 -2 1 -1 1 -1 1 -1 
1 0 1 0 1 0 1 1 1 1 1 1 1 1 0 1 
2 2 1 1 0 1 2 2 1 1 0 1 2 2 1 1 
1 1 1 1 1 1 1 0 1 1 1 1 1 0 1 0 
1 0 1 -1 1 -1 955 1693 300 MP stroke
0 -1 2 -2 0 -1 1 -1 0 -1 1 -1 0 -2 1 -1 
0 -2 1 -1 0 -2 1 -1 0 -3 1 -1 0 -3 1 -1 
0 -4 1 -1 0 -4 1 -1 0 -4 1 -1 0 -4 1 -1 
0 -4 1 -1 0 -4 1 -1 0 -5 1 -1 0 -4 1 -1 
0 -5 1 -1 0 -5 1 -1 0 -4 1 -1 0 -5 1 -1 
0 -5 1 -1 0 -5 1 -1 0 -5 1 -1 0 -6 1 -1 
0 -5 1 -1 0 -5 1 -1 0 -6 1 -1 0 -6 1 -1 
0 -6 1 -1 0 -7 1 -1 0 -7 1 -1 0 -7 1 -1 
0 -7 1 -1 0 -9 1 -1 0 -8 1 -1 0 -8 1 -1 
0 -9 1 -1 0 -9 1 -1 0 -10 1 -1 0 -10 1 -1 
0 -10 1 -1 0 -11 1 -1 0 -11 1 -1 0 -12 1 -1 
0 -12 1 -1 0 -12 1 -1 0 -13 1 -1 0 -12 1 -1 
0 -14 1 -1 0 -12 1 -1 0 -14 1 -1 0 -12 1 -1 
0 -13 1 -1 0 -13 1 -1 0 -12 1 -1 0 -12 1 -1 
0 -12 1 -1 0 -10 1 -1 0 -10 1 -1 0 -10 1 -1 
0 -8 1 -1 0 -8 1 -1 0 -6 1 -1 0 -6 1 -1 
0 -5 1 -1 0 -4 1 -1 0 -4 1 -1 0 -2 1 -1 
0 -3 2 -2 1 -1 1 -1 1 -1 1 0 1 0 1 1 
1 0 1 1 1 0 1 0 1 1 1 0 1 0 1 0 
1 -1 1 0 1 0 1 -1 1 -1 0 -2 2 -2 0 -1 
1 -1 0 -1 1 -1 0 -2 1 -1 0 -3 1 -1 0 -3 
1 -1 0 -4 1 -1 0 -5 1 -1 0 -4 1 -1 0 -6 
1 -1 0 -6 1 -1 0 -8 1 -1 0 -6 1 -1 0 -8 
1 -1 0 -8 1 -1 0 -8 1 -1 0 -8 1 -1 0 -9 
1 -1 0 -8 1 -1 0 -9 1 -1 0 -9 1 -1 0 -9 
1 -1 0 -8 1 -1 0 -9 1 -1 0 -9 1 -1 0 -9 
1 -1 0 -9 1 -1 0 -9 1 -1 0 -9 1 -1 0 -9 
1 -1 0 -10 1 -1 0 -9 1 -1 0 -9 1 -1 0 -10 
1 -1 0 -10 1 -1 0 -11 1 -1 0 -10 1 -1 0 -10 
1 -1 0 -11 1 -1 0 -12 1 -1 0 -11 1 -1 0 -12 
1 -1 0 -12 1 -1 0 -12 1 -1 0 -12 1 -1 0 -12 
1 -1 0 -13 1 -1 0 -13 1 -1 0 -12 1 -1 0 -13 
1 -1 0 -13 1 -1 0 -13 1 -1 0 -13 1 -1 0 -13 
1 -1 0 -12 1 -1 0 -12 1 -1 0 -12 1 -1 0 -12 
1 -1 0 -11 1 -1 0 -11 1 -1 0 -10 1 -1 0 -10 
1 -1 0 -9 1 -1 0 -9 1 -1 0 -7 1 -1 0 -7 
1 -1 0 -6 1 -1 0 -5 1 -1 0 -6 1 -1 0 -4 
1 -1 0 -3 1 -1 793 2949 300 MP stroke
0 -2 1 -1 0 -4 2 -2 0 -2 2 -2 1 -1 1 -1 
1 0 1 -1 1 0 1 0 1 0 1 0 1 0 1 0 
1 -1 1 0 1 0 1 -1 1 0 1 -1 1 0 1 -1 
1 -1 0 -1 2 -2 1 -1 0 -2 2 -2 0 -2 1 -1 
0 -1 1 -1 0 -3 1 -1 0 -2 1 -1 0 -3 1 -1 
0 -3 1 -1 0 -3 1 -1 0 -3 1 -1 0 -4 1 -1 
0 -4 1 -1 0 -3 1 -1 0 -4 1 -1 0 -5 1 -1 
0 -4 1 -1 0 -4 1 -1 0 -4 1 -1 0 -4 1 -1 
0 -4 1 -1 0 -4 1 -1 0 -4 1 -1 0 -4 1 -1 
0 -4 1 -1 0 -4 1 -1 0 -4 1 -1 0 -4 1 -1 
0 -4 1 -1 0 -4 1 -1 0 -4 1 -1 0 -4 1 -1 
0 -4 1 -1 0 -4 1 -1 0 -4 1 -1 0 -4 1 -1 
0 -5 1 -1 0 -4 1 -1 0 -5 1 -1 0 -4 1 -1 
0 -4 1 -1 0 -5 1 -1 0 -4 1 -1 0 -5 1 -1 
0 -4 1 -1 0 -5 1 -1 0 -5 1 -1 0 -4 1 -1 
0 -5 1 -1 0 -4 1 -1 0 -4 1 -1 0 -4 1 -1 
0 -5 1 -1 0 -3 1 -1 0 -4 1 -1 0 -4 1 -1 
0 -3 1 -1 0 -4 1 -1 0 -3 1 -1 0 -2 1 -1 
0 -3 1 -1 0 -3 1 -1 0 -2 1 -1 0 -1 1 -1 
0 -2 1 -1 0 -2 2 -2 0 -2 2 -2 1 -1 1 -1 
1 -1 1 -1 1 -1 1 0 1 -1 1 0 1 0 1 0 
1 0 1 0 1 0 1 0 1 0 1 0 1 -1 1 0 
1 0 1 0 1 0 1 0 1 -1 1 0 1 0 1 -1 
1 0 1 -1 1 0 1 -1 1 -1 1 -1 1 -1 1 -1 
1 -1 1 -1 0 -1 2 -2 0 -1 2 -2 0 -1 2 -2 
0 -1 2 -2 0 -1 2 -2 0 -1 2 -2 0 -1 2 -2 
0 -1 2 -2 1 -1 0 -1 2 -2 0 -1 2 -2 0 -1 
2 -2 1 -1 0 -1 2 -2 0 -1 2 -2 0 -1 2 -2 
0 -1 2 -2 1 -1 0 -1 2 -2 0 -1 2 -2 1 -1 
0 -1 2 -2 1 -1 0 -1 2 -2 1 -1 1 -1 1 -1 
1 -1 1 -1 1 -1 1 -1 1 -1 1 -1 1 -1 1 0 
1 -1 1 -1 1 0 1 -1 1 0 1 -1 1 0 1 0 
1 0 1 -1 1 0 1 0 1 0 1 0 1 0 1 0 
1 0 1 0 1 0 1 0 1 0 1 -1 1 0 1 0 
1 0 1 0 1 0 1 0 1 0 1 0 1 -1 1 0 
1 0 1 0 1 -1 1 0 1 0 1 -1 1 0 1 -1 
1 0 1 -1 1 0 1 -1 1 0 1 -1 1 -1 1 0 
1 0 1 -1 1 0 557 3382 300 MP stroke
1 0 1 0 1 0 1 0 1 0 1 0 1 0 1 0 
1 0 1 0 1 0 1 0 1 0 1 0 1 0 1 0 
1 0 1 0 1 0 1 0 1 0 1 0 1 0 1 0 
1 0 1 0 1 0 1 0 1 0 1 0 1 0 1 0 
1 0 1 0 1 0 1 0 1 0 1 0 1 0 1 0 
1 0 1 0 1 0 1 0 1 0 1 0 1 0 1 0 
1 0 1 0 1 1 1 0 1 0 504 3381 54 MP stroke
/c10 { 1.000000 0.000000 1.000000 sr} bdef
c10
-1 0 2 -2 0 -2 2 -2 0 -2 2 -2 0 -2 2 -2 
0 -2 2 -2 0 -1 1 -1 0 -1 1 -1 0 -1 2 -2 
0 -2 2 -2 0 -2 2 -2 0 -2 2 -2 0 -2 2 -2 
0 -2 2 -2 0 -2 2 -2 0 -2 2 -2 0 -2 2 -2 
0 -2 2 -2 0 -1 1 -1 0 -1 1 -1 0 -1 2 -2 
0 -2 2 -2 0 -2 2 -2 0 -2 2 -2 0 -2 2 -2 
0 -2 2 -2 0 -2 2 -2 0 -2 2 -2 0 -2 2 -2 
0 -2 2 -2 0 -2 2 -2 0 -2 2 -2 0 -2 2 -2 
1 -1 0 -2 2 -2 0 -2 2 -2 0 -2 2 -2 0 -2 
2 -2 0 -2 2 -2 0 -2 2 -2 0 -2 2 -2 0 -2 
2 -2 0 -2 2 -2 1 -1 0 -2 2 -2 0 -2 2 -2 
0 -2 2 -2 0 -2 2 -2 0 -2 2 -2 0 -2 2 -2 
0 -1 1 -1 1 -1 0 -2 2 -2 0 -2 2 -2 0 -2 
2 -2 0 -2 2 -2 0 -2 2 -2 0 -1 1 -1 1 -1 
0 -2 1 -1 1 -1 0 -2 2 -2 0 -2 2 -2 0 -2 
2 -2 0 -2 2 -2 0 -2 2 -2 0 -2 2 -2 0 -2 
2 -2 0 -2 2 -2 1 -1 0 -2 1 -1 0 -1 2 -2 
0 -2 2 -2 0 -2 2 -2 0 -2 2 -2 0 -2 2 -2 
0 -2 2 -2 0 -2 2 -2 0 -2 2 -2 0 -2 2 -2 
0 -2 2 -2 0 -2 2 -2 0 -2 2 -2 0 -2 2 -2 
0 -1 1 -1 0 -1 1 -1 1 -1 0 -2 2 -2 0 -2 
2 -2 0 -2 2 -2 0 -2 2 -2 0 -2 2 -2 0 -2 
2 -2 0 -2 2 -2 0 -2 2 -2 0 -2 2 -2 1 -1 
0 -2 2 -2 0 -2 2 -2 0 -2 2 -2 0 -2 2 -2 
0 -2 2 -2 0 -2 2 -2 0 -1 1 -1 1 -1 0 -2 
2 -2 0 -2 2 -2 0 -2 2 -2 0 -2 2 -2 0 -2 
2 -2 0 -1 1 -1 0 -1 2 -2 0 -2 2 -2 0 -2 
2 -2 0 -2 2 -2 0 -2 2 -2 0 -2 2 -2 0 -2 
2 -2 0 -1 1 -1 0 -1 1 -1 0 -1 1 -1 0 -1 
1 -1 0 -1 1 -1 1 -1 0 -2 2 -2 0 -2 2 -2 
0 -2 2 -2 0 -2 2 -2 0 -2 2 -2 0 -2 2 -2 
0 -2 2 -2 0 -2 2 -2 0 -2 2 -2 0 -2 2 -2 
0 -2 2 -2 0 -2 2 -2 0 -1 1 -1 0 -1 1 -1 
0 -1 1 -1 1 -1 0 -2 2 -2 0 -2 2 -2 0 -2 
2 -2 0 -2 2 -2 0 -2 2 -2 0 -2 2 -2 0 -2 
2 -2 0 -2 2 -2 0 -2 2 -2 0 -2 2 -2 1 -1 
0 -2 2 -2 0 -2 2 -2 0 -2 2 -2 0 -2 2 -2 
0 -2 2 -2 0 -2 2141 764 300 MP stroke
2 -2 0 -1 1 -1 0 -1 2 -2 0 -2 2 -2 0 -2 
2 -2 0 -2 2 -2 0 -2 2 -2 0 -2 2 -2 0 -1 
1 -1 1 -1 0 -2 2 -2 0 -2 2 -2 0 -2 2 -2 
0 -2 2 -2 0 -2 2 -2 0 -2 2 -2 0 -2 2 -2 
1 -1 0 -2 2 -2 0 -2 2 -2 0 -2 2 -2 0 -2 
2 -2 0 -2 2 -2 0 -2 2 -2 0 -2 2 -2 0 -2 
2 -2 0 -2 2 -2 0 -2 2 -2 0 -2 2 -2 0 -2 
2 -2 0 -2 2 -2 0 -1 1 -1 0 -1 1 -1 1 -1 
0 -2 2 -2 0 -2 2 -2 0 -2 2 -2 0 -2 2 -2 
0 -2 2 -2 0 -2 2 -2 0 -2 2 -2 0 -2 2 -2 
0 -2 2 -2 0 -2 2 -2 0 -2 2 -2 1 -1 0 -2 
2 -2 0 -2 2 -2 0 -2 2 -2 0 -2 2 -2 0 -2 
2 -2 0 -2 2 -2 0 -1 2 -2 0 -2 2 -2 0 -2 
2 -2 0 -2 2 -2 0 -2 2 -2 0 -2 2 -2 1 -1 
0 -2 2 -2 0 -2 2 -2 0 -2 2 -2 0 -2 2 -2 
0 -2 2 -2 0 -2 2 -2 0 -2 2 -2 0 -1 1 -1 
1 -1 0 -2 2 -2 0 -2 2 -2 0 -2 2 -2 0 -2 
2 -2 0 -2 2 -2 0 -2 2 -2 0 -2 2 -2 0 -2 
2 -2 0 -2 2 -2 0 -2 2 -2 0 -2 2 -2 0 -2 
2 -2 0 -2 2 -2 0 -1 2 -2 0 -2 1 -1 1 -1 
0 -2 2 -2 0 -2 2 -2 0 -2 2 -2 0 -2 2 -2 
0 -2 2 -2 0 -2 2 -2 0 -2 2 -2 0 -2 2 -2 
0 -2 2 -2 0 -2 2 -2 0 -1 2 -2 0 -2 2 -2 
0 -2 2 -2 0 -2 2 -2 0 -2 2 -2 0 -2 2 -2 
0 -2 2 -2 0 -2 2 -2 0 -1 2 -2 0 -2 2 -2 
0 -2 2 -2 0 -2 2 -2 0 -2 2 -2 0 -2 2 -2 
1 -1 0 -2 2 -2 0 -2 2 -2 0 -2 2 -2 0 -2 
2 -2 0 -2 2 -2 0 -2 2 -2 0 -1 1 -1 0 -1 
1 -1 1 -1 0 -2 2 -2 0 -2 2 -2 0 -2 2 -2 
0 -2 2 -2 0 -2 2 -2 0 -2 2 -2 0 -2 2 -2 
0 -2 2 -2 0 -2 2 -2 0 -2 2 -2 0 -2 2 -2 
0 -1 1 -1 0 -1 1 -1 0 -1 1 -1 1 -1 0 -2 
1 -1 0 -1 2 -2 0 -2 2 -2 0 -2 2 -2 0 -2 
2 -2 0 -2 2 -2 0 -2 2 -2 0 -2 2 -2 0 -2 
2 -2 0 -2 2 -2 0 -2 2 -2 0 -2 2 -2 0 -1 
1 -1 0 -1 2 -2 0 -2 2 -2 0 -2 2 -2 0 -2 
2 -2 0 -2 2 -2 0 -2 2 -2 0 -2 2 -2 0 -2 
2 -2 0 -1 2 -2 1854 1320 300 MP stroke
0 -2 2 -2 0 -2 2 -2 0 -2 2 -2 0 -2 2 -2 
0 -2 2 -2 1 -1 0 -2 2 -2 0 -2 2 -2 0 -2 
2 -2 0 -2 2 -2 0 -2 2 -2 0 -2 2 -2 0 -1 
1 -1 1 -1 0 -2 2 -2 0 -2 2 -2 0 -2 2 -2 
0 -2 2 -2 0 -2 2 -2 0 -2 2 -2 0 -2 2 -2 
0 -2 2 -2 0 -2 2 -2 0 -2 2 -2 0 -2 2 -2 
0 -1 1 -1 0 -1 1 -1 0 -1 1 -1 0 -1 2 -2 
0 -2 2 -2 0 -2 2 -2 0 -2 2 -2 0 -2 2 -2 
0 -2 2 -2 0 -2 2 -2 0 -2 2 -2 0 -2 2 -2 
0 -2 2 -2 0 -2 2 -2 0 -2 2 -2 0 -1 1 -1 
0 -1 1 -1 1 -1 0 -2 2 -2 0 -2 2 -2 0 -2 
2 -2 0 -2 2 -2 0 -2 2 -2 0 -2 2 -2 0 -2 
2 -2 0 -1 1 -1 0 -1 2 -2 0 -2 2 -2 0 -2 
2 -2 0 -2 2 -2 0 -2 2 -2 0 -2 2 -2 0 -1 
1 -1 1 -1 0 -2 2 -2 0 -2 2 -2 0 -2 2 -2 
0 -2 2 -2 0 -2 2 -2 0 -2 2 -2 0 -1 1 -1 
0 -1 1 -1 0 -1 2 -2 0 -2 2 -2 0 -2 2 -2 
0 -2 2 -2 0 -2 2 -2 0 -2 2 -2 0 -2 2 -2 
0 -2 2 -2 0 -1 1 -1 0 -2 2 -2 0 -1 1 -1 
0 -1 1 -1 1 -1 0 -2 2 -2 0 -2 2 -2 0 -2 
2 -2 0 -2 2 -2 0 -2 2 -2 0 -2 2 -2 0 -2 
2 -2 0 -2 2 -2 0 -2 2 -2 0 -2 2 -2 0 -2 
2 -2 0 -2 2 -2 0 -2 2 -2 0 -1 1 -1 0 -1 
2 -2 0 -2 2 -2 0 -2 2 -2 0 -2 2 -2 0 -2 
2 -2 0 -2 2 -2 0 -2 2 -2 0 -2 2 -2 0 -1 
1 -1 0 -1 2 -2 0 -2 2 -2 0 -2 2 -2 0 -2 
2 -2 0 -2 2 -2 0 -2 2 -2 0 -1 1 -1 0 -1 
2 -2 0 -2 2 -2 0 -2 2 -2 0 -2 2 -2 0 -2 
2 -2 0 -2 2 -2 0 -1 1 -1 1 -1 0 -2 2 -2 
0 -2 2 -2 0 -2 2 -2 0 -2 2 -2 0 -2 2 -2 
0 -2 2 -2 0 -2 2 -2 0 -2 2 -2 0 -1 1 -1 
0 -1 1 -1 1 -1 0 -2 1 -1 1 -1 0 -2 1 -1 
0 -1 2 -2 0 -2 2 -2 0 -2 2 -2 0 -2 2 -2 
0 -2 2 -2 0 -2 2 -2 0 -2 2 -2 0 -2 2 -2 
0 -2 2 -2 0 -2 2 -2 0 -2 2 -2 0 -2 2 -2 
0 -1 1 -1 1 -1 0 -2 2 -2 0 -2 2 -2 0 -2 
2 -2 0 -2 2 -2 0 -2 2 -2 0 -2 2 -2 0 -2 
2 -2 0 -2 2 -2 1577 1860 300 MP stroke
0 -2 2 -2 0 -1 1 -1 0 -1 2 -2 0 -2 2 -2 
0 -2 2 -2 0 -2 2 -2 0 -2 2 -2 0 -2 2 -2 
0 -1 2 -2 0 -2 2 -2 0 -2 2 -2 0 -2 2 -2 
0 -2 2 -2 0 -2 2 -2 0 -1 1 -1 0 -1 1 -1 
0 -1 2 -2 0 -2 2 -2 0 -2 2 -2 0 -2 2 -2 
0 -2 2 -2 0 -2 2 -2 0 -2 2 -2 0 -2 2 -2 
0 -1 1 -1 1 -1 0 -2 1 -1 0 -1 2 -2 0 -2 
2 -2 0 -2 2 -2 0 -2 2 -2 0 -2 2 -2 0 -2 
2 -2 0 -2 2 -2 0 -2 2 -2 0 -2 2 -2 0 -2 
2 -2 0 -2 2 -2 0 -2 2 -2 0 -2 2 -2 0 -1 
1 -1 0 -1 1 -1 0 -1 2 -2 0 -2 2 -2 0 -2 
2 -2 0 -2 2 -2 0 -2 2 -2 0 -2 2 -2 0 -2 
2 -2 0 -2 2 -2 0 -2 2 -2 0 -2 2 -2 1 -1 
0 -2 2 -2 0 -2 2 -2 0 -2 2 -2 0 -2 2 -2 
0 -2 2 -2 0 -2 2 -2 0 -1 2 -2 0 -2 2 -2 
0 -2 2 -2 0 -2 2 -2 0 -2 2 -2 0 -2 2 -2 
0 -1 1 -1 1 -1 0 -2 2 -2 0 -2 2 -2 0 -2 
2 -2 0 -2 2 -2 0 -2 2 -2 0 -2 2 -2 0 -2 
2 -2 0 -1 1 -1 0 -1 1 -1 0 -1 1 -1 1 -1 
0 -2 2 -2 0 -2 2 -2 0 -2 2 -2 0 -2 2 -2 
0 -2 2 -2 0 -2 2 -2 0 -2 2 -2 0 -2 2 -2 
0 -2 2 -2 0 -2 2 -2 0 -2 2 -2 0 -2 2 -2 
0 -2 2 -2 0 -1 1 -1 1 -1 0 -2 2 -2 0 -2 
2 -2 0 -2 2 -2 0 -2 2 -2 0 -2 2 -2 0 -2 
2 -2 0 -2 2 -2 0 -2 2 -2 0 -2 2 -2 0 -2 
2 -2 1 -1 0 -2 2 -2 0 -2 2 -2 0 -2 2 -2 
0 -2 2 -2 0 -2 2 -2 0 -2 2 -2 0 -2 2 -2 
0 -1 2 -2 0 -2 2 -2 0 -2 2 -2 0 -2 2 -2 
0 -2 2 -2 0 -2 2 -2 1 -1 0 -2 2 -2 0 -2 
2 -2 0 -2 2 -2 0 -2 2 -2 0 -2 2 -2 0 -2 
2 -2 0 -1 1 -1 0 -1 1 -1 0 -1 1 -1 1 -1 
0 -2 2 -2 0 -2 2 -2 0 -2 2 -2 0 -2 2 -2 
0 -2 2 -2 0 -2 2 -2 0 -2 2 -2 0 -2 2 -2 
0 -2 2 -2 0 -2 2 -2 0 -2 2 -2 0 -2 2 -2 
0 -2 2 -2 0 -1 2 -2 0 -2 2 -2 0 -2 2 -2 
0 -2 2 -2 0 -2 2 -2 0 -2 2 -2 0 -2 2 -2 
0 -2 2 -2 0 -2 2 -2 0 -2 2 -2 0 -2 2 -2 
0 -2 2 -2 0 -1 1294 2412 300 MP stroke
1 -1 1 -1 0 -2 2 -2 0 -2 2 -2 0 -2 2 -2 
0 -2 2 -2 0 -2 2 -2 0 -2 2 -2 0 -1 1 -1 
0 -1 1 -1 0 -1 2 -2 0 -2 2 -2 0 -2 2 -2 
0 -2 2 -2 0 -2 2 -2 0 -1 1 -1 0 -1 2 -2 
0 -2 2 -2 0 -2 2 -2 0 -2 2 -2 0 -2 2 -2 
0 -2 2 -2 0 -1 1 -1 0 -1 1 -1 0 -1 1 -1 
1 -1 0 -2 1 -1 0 -1 2 -2 0 -2 2 -2 0 -2 
2 -2 0 -2 2 -2 0 -2 2 -2 0 -2 2 -2 0 -2 
2 -2 0 -2 2 -2 0 -2 2 -2 0 -2 2 -2 0 -2 
2 -2 0 -1 1 -1 0 -1 1 -1 1 -1 0 -2 1 -1 
0 -1 2 -2 0 -2 2 -2 0 -2 2 -2 0 -2 2 -2 
0 -2 2 -2 0 -2 2 -2 0 -2 2 -2 0 -2 2 -2 
0 -2 2 -2 0 -2 2 -2 0 -2 2 -2 0 -1 1 -1 
0 -1 1 -1 0 -1 2 -2 0 -2 2 -2 0 -2 2 -2 
0 -2 2 -2 0 -2 2 -2 0 -2 2 -2 0 -2 2 -2 
0 -1 1 -1 1 -1 0 -2 2 -2 0 -2 2 -2 0 -2 
2 -2 0 -2 2 -2 0 -2 2 -2 0 -1 1 -1 0 -1 
2 -2 0 -2 2 -2 0 -2 2 -2 0 -2 2 -2 0 -2 
2 -2 0 -2 2 -2 0 -1 1 -1 0 -1 1 -1 0 -1 
1 -1 0 -1 2 -2 0 -2 2 -2 0 -2 2 -2 0 -2 
2 -2 0 -2 2 -2 0 -2 2 -2 0 -2 2 -2 0 -2 
2 -2 0 -2 2 -2 0 -1 1 -1 0 -1 1 -1 0 -1 
1 -1 0 -1 2 -2 0 -2 2 -2 0 -2 2 -2 0 -2 
2 -2 0 -2 2 -2 0 -2 2 -2 0 -2 2 -2 0 -2 
2 -2 0 -2 2 -2 0 -2 2 -2 0 -2 2 -2 0 -2 
2 -2 1 -1 0 -2 2 -2 0 -2 2 -2 0 -2 2 -2 
0 -2 2 -2 0 -2 2 -2 0 -2 2 -2 0 -2 2 -2 
0 -2 2 -2 1 -1 0 -2 2 -2 0 -2 2 -2 0 -2 
2 -2 0 -2 2 -2 0 -2 2 -2 1 -1 0 -2 2 -2 
0 -2 2 -2 0 -2 2 -2 0 -2 2 -2 0 -2 2 -2 
1 -1 0 -2 2 -2 0 -2 2 -2 0 -2 2 -2 0 -2 
2 -2 0 -2 2 -2 0 -1 1 -1 0 -1 1 -1 0 -1 
1 -1 1 -1 0 -2 2 -2 0 -2 2 -2 0 -2 2 -2 
0 -2 2 -2 0 -2 2 -2 0 -2 2 -2 0 -1 1 -1 
0 -1 1 -1 0 -1 2 -2 0 -2 2 -2 0 -2 2 -2 
0 -2 2 -2 0 -2 2 -2 0 -2 2 -2 0 -2 2 -2 
0 -2 2 -2 1 -1 0 -2 2 -2 0 -2 2 -2 0 -2 
2 -2 0 -2 2 -2 1020 2942 300 MP stroke
0 -2 2 -2 0 -2 2 -2 1 -1 0 -2 2 -2 0 -2 
2 -2 0 -2 2 -2 0 -2 2 -2 1 -1 0 -2 2 -2 
0 -2 2 -2 0 -2 2 -2 1 -1 0 -2 2 -2 0 -2 
2 -2 0 -2 2 -2 0 -1 2 -2 0 -2 2 -2 1 -1 
0 -2 2 -2 0 -2 2 -2 1 -1 0 -2 2 -2 0 -2 
2 -2 1 -1 0 -2 2 -2 0 -2 2 -2 1 -1 0 -2 
2 -2 0 -2 2 -2 0 -1 2 -2 0 -2 2 -2 0 -1 
1 -1 1 -1 0 -2 2 -2 0 -2 2 -2 1 -1 0 -2 
2 -2 0 -2 2 -2 1 -1 0 -2 2 -2 0 -2 2 -2 
1 -1 0 -2 2 -2 0 -2 2 -2 1 -1 0 -2 2 -2 
0 -2 2 -2 0 -1 2 -2 0 -2 2 -2 1 -1 0 -2 
2 -2 0 -1 2 -2 0 -2 2 -2 1 -1 0 -2 2 -2 
1 -1 0 -2 2 -2 1 -1 0 -2 2 -2 0 -1 2 -2 
0 -1 2 -2 1 -1 0 -2 2 -2 0 -1 2 -2 0 -1 
2 -2 0 -1 2 -2 0 -1 2 -2 1 -1 0 -1 2 -2 
1 -1 0 -1 2 -2 0 -1 2 -2 1 -1 1 -1 0 -1 
2 -2 1 -1 0 -1 2 -2 1 -1 1 -1 0 -1 2 -2 
1 -1 1 -1 0 -1 2 -2 1 -1 0 -1 2 -2 1 -1 
1 -1 0 -1 2 -2 1 -1 1 -1 0 -1 2 -2 1 -1 
0 -1 2 -2 1 -1 1 -1 0 -1 2 -2 1 -1 0 -1 
2 -2 1 -1 1 -1 0 -1 2 -2 1 -1 1 -1 0 -1 
2 -2 1 -1 0 -1 2 -2 1 -1 1 -1 1 -1 0 -1 
2 -2 1 -1 1 -1 1 -1 1 -1 0 -1 2 -2 1 -1 
1 -1 1 -1 1 -1 1 -1 1 -1 1 -1 1 -1 1 -1 
1 -1 0 -1 2 -2 1 -1 1 -1 1 -1 1 0 1 -1 
1 -1 1 -1 1 -1 1 -1 1 -1 1 -1 1 -1 1 -1 
1 0 1 -1 1 -1 1 -1 1 -1 1 0 1 -1 1 -1 
1 0 1 -1 1 -1 1 -1 1 0 1 -1 1 -1 1 0 
1 -1 1 -1 1 0 1 -1 1 -1 1 0 1 -1 1 -1 
1 0 1 -1 1 0 1 -1 1 -1 1 0 1 -1 1 -1 
1 0 1 -1 1 -1 1 0 1 -1 1 -1 1 0 1 -1 
1 -1 1 0 1 -1 1 -1 1 0 1 -1 1 -1 1 0 
1 -1 1 -1 1 0 1 -1 1 -1 1 0 1 -1 1 -1 
1 0 1 -1 1 -1 1 0 1 -1 1 -1 1 0 1 -1 
1 -1 1 0 1 -1 1 -1 1 0 1 -1 1 0 1 -1 
1 -1 1 0 1 -1 1 0 1 -1 1 -1 1 0 1 -1 
1 0 1 -1 1 0 1 -1 1 -1 1 0 1 -1 1 0 
1 -1 1 0 1 -1 722 3315 300 MP stroke
1 0 1 -1 1 0 1 -1 1 0 1 -1 1 0 1 -1 
1 0 1 0 1 -1 1 0 1 -1 1 0 1 -1 1 0 
1 -1 1 0 1 0 1 -1 1 0 1 -1 1 0 1 -1 
1 0 1 0 1 -1 1 0 1 -1 1 0 1 0 1 -1 
1 0 1 -1 1 0 1 -1 1 0 1 0 1 -1 1 0 
1 -1 1 0 1 -1 1 0 1 0 1 -1 1 0 1 -1 
1 0 1 -1 1 0 1 0 1 -1 1 0 1 -1 1 0 
1 -1 1 0 1 -1 1 0 1 0 1 -1 1 0 1 -1 
1 0 1 -1 1 0 1 0 1 -1 1 0 1 -1 1 0 
1 -1 1 0 1 0 1 -1 1 0 1 -1 1 0 1 0 
1 -1 1 0 1 -1 1 0 1 -1 1 0 1 0 1 -1 
1 0 1 -1 1 0 1 0 1 -1 1 0 1 0 1 -1 
1 0 1 -1 1 0 1 0 1 -1 1 0 1 -1 1 0 
1 0 1 -1 1 0 1 0 1 -1 1 0 1 -1 1 0 
1 0 1 -1 1 0 1 0 1 -1 1 0 1 -1 1 0 
1 0 1 -1 1 0 1 0 1 -1 1 0 1 -1 1 0 
1 0 1 -1 1 0 1 0 1 -1 1 0 1 0 1 -1 
1 0 1 -1 1 0 1 0 1 -1 1 0 1 0 1 -1 
1 0 1 -1 1 0 1 0 1 -1 1 0 1 0 1 -1 
1 0 1 -1 1 0 1 0 1 -1 1 0 1 0 1 -1 
1 0 1 -1 1 0 1 0 1 -1 1 0 1 0 1 -1 
1 0 1 0 1 -1 1 0 1 -1 1 0 1 0 1 -1 
1 0 1 0 1 -1 1 0 1 0 1 -1 1 0 1 -1 
1 0 1 0 1 -1 1 0 1 0 1 -1 1 0 1 -1 
1 0 1 0 1 -1 1 0 1 0 1 -1 1 0 1 0 
1 -1 1 0 1 -1 1 0 1 0 1 -1 1 0 1 0 
1 -1 1 0 1 -1 1 0 1 0 1 -1 1 0 1 0 
1 -1 1 0 -1 0 505 3401 220 MP stroke
gr

24 w
c10
0 sg
1312 3690 mt 
(Years) s
 187 1942 mt  -90 rotate
(Trees) s
90 rotate
 487 3445 mt 
( ) s
2403  231 mt 
( ) s
6 w
1028  384 mt 
(Susceptible) s
gs 564 249 1124 481 rc
24 w
c8
356 0 635 341 2 MP stroke
gr

24 w
c8
0 sg
1028  532 mt 
(Infected) s
gs 564 249 1124 481 rc
c9
356 0 635 489 2 MP stroke
gr

c9
0 sg
1028  680 mt 
(Removed) s
gs 564 249 1124 481 rc
c10
356 0 635 636 2 MP stroke
6 w
gr

6 w
c10
1 sg
0 3213 1914 0 0 -3213 2923 3402 4 MP
PP
-1914 0 0 3213 1914 0 0 -3213 2923 3402 5 MP stroke
4 w
DO
SO
6 w
0 sg
2923  189 mt 4837  189 L
2923 3402 mt 4837 3402 L
4837 3402 mt 4837  189 L
2923 3402 mt 2923  189 L
2923 3402 mt 4837 3402 L
2923 3402 mt 2923  189 L
2923 3402 mt 2923 3369 L
2923  189 mt 2923  221 L
2890 3547 mt 
(0) s
3401 3402 mt 3401 3369 L
3401  189 mt 3401  221 L
3368 3547 mt 
(5) s
3880 3402 mt 3880 3369 L
3880  189 mt 3880  221 L
3814 3547 mt 
(10) s
4358 3402 mt 4358 3369 L
4358  189 mt 4358  221 L
4292 3547 mt 
(15) s
4837 3402 mt 4837 3369 L
4837  189 mt 4837  221 L
4771 3547 mt 
(20) s
2923 3402 mt 2955 3402 L
4837 3402 mt 4804 3402 L
2822 3446 mt 
(0) s
2923 2943 mt 2955 2943 L
4837 2943 mt 4804 2943 L
2688 2987 mt 
(100) s
2923 2484 mt 2955 2484 L
4837 2484 mt 4804 2484 L
2688 2528 mt 
(200) s
2923 2025 mt 2955 2025 L
4837 2025 mt 4804 2025 L
2688 2069 mt 
(300) s
2923 1566 mt 2955 1566 L
4837 1566 mt 4804 1566 L
2688 1610 mt 
(400) s
2923 1107 mt 2955 1107 L
4837 1107 mt 4804 1107 L
2688 1151 mt 
(500) s
2923  648 mt 2955  648 L
4837  648 mt 4804  648 L
2688  692 mt 
(600) s
2923  189 mt 2955  189 L
4837  189 mt 4804  189 L
2688  233 mt 
(700) s
2923  189 mt 4837  189 L
2923 3402 mt 4837 3402 L
4837 3402 mt 4837  189 L
2923 3402 mt 2923  189 L
gs 2923 189 1915 3214 rc
24 w
c8
1 -3 0 -80 1 -5 0 -86 1 -5 0 -84 1 -6 0 -86 
1 -5 0 -82 1 -5 0 -83 1 -5 0 -72 1 -6 0 -62 
1 -6 0 -54 1 -6 0 -53 1 -5 0 -41 1 -4 0 -36 
1 -3 0 -26 1 -2 0 -20 1 -2 0 -14 1 -1 0 -6 
1 -1 1 1 0 5 1 1 0 11 1 2 0 17 1 2 
0 23 1 3 0 28 1 3 0 33 1 3 0 38 1 4 
0 43 1 5 0 46 1 4 0 49 1 4 0 55 1 5 
0 59 1 5 0 60 1 5 0 60 1 5 0 63 1 5 
0 67 1 5 0 64 1 5 0 61 1 4 0 58 1 3 
0 57 1 3 0 47 1 3 0 43 1 3 0 31 1 2 
0 22 1 1 0 8 1 1 0 1 0 -4 1 -1 0 -18 
1 -1 0 -35 1 -3 0 -49 1 -3 0 -66 1 -4 0 -79 
1 -5 0 -98 1 -6 0 -106 1 -7 0 -120 1 -7 0 -126 
1 -6 0 -137 1 -7 0 -144 1 -6 0 -141 1 -6 0 -144 
1 -5 0 -135 1 -4 0 -130 1 -4 0 -115 1 -3 0 -99 
1 -2 0 -67 1 -1 0 -8 0 1 1 1 0 2 1 1 
0 4 1 1 0 5 1 1 0 6 1 1 0 8 1 1 
0 11 1 1 0 14 1 1 0 18 1 1 0 22 1 1 
0 29 1 1 0 37 1 2 0 46 1 2 0 55 1 3 
0 68 1 3 0 85 1 3 0 104 1 4 0 119 1 5 
0 145 1 5 0 173 1 7 0 194 1 8 0 191 1 5 
0 155 1 9 0 124 1 10 0 97 1 6 0 81 1 5 
0 59 1 3 0 35 1 1 0 13 1 1 0 -8 1 -2 
0 -26 1 -2 0 -44 1 -3 0 -56 1 -3 0 -70 1 -4 
0 -77 1 -5 0 -83 1 -5 0 -87 1 -5 0 -85 1 -5 
0 -87 1 -5 0 -83 1 -5 0 -72 1 -5 0 -73 1 -5 
0 -63 1 -6 0 -55 1 -6 0 -46 1 -4 0 -39 1 -3 
0 -35 1 -3 0 -26 1 -2 0 -17 1 -2 0 -11 1 -1 
1 -4 -1 0 2 2 0 8 1 1 0 13 1 2 0 19 
1 2 0 25 1 3 0 29 1 4 0 34 1 4 0 35 
1 5 0 43 1 5 0 47 1 4 0 54 1 5 0 54 
1 5 0 60 1 5 0 60 1 5 0 64 1 5 0 63 
1 5 0 66 1 5 0 59 1 4 0 65 1 4 0 56 
1 4 0 54 1 4 0 45 1 3 0 40 1 2 0 28 
1 2 0 18 1 1 0 5 1 1 0 -9 1 -1 0 -22 
1 -2 0 -37 1 -3 0 -57 1 -3 0 -67 1 -5 0 -83 
1 -6 0 -102 1 -6 0 -113 1 -7 0 -120 1 -7 0 -132 
1 -7 0 -141 1 -7 4687 2421 300 MP stroke
0 -142 1 -6 0 -137 1 -6 0 -144 1 -5 0 -132 1 -4 
0 -128 1 -4 0 -110 1 -2 0 -91 1 -2 0 -51 1 -1 
0 2 1 1 0 3 1 1 0 4 1 1 0 5 1 1 
0 7 1 1 0 9 1 1 0 11 1 1 0 15 1 1 
0 19 1 1 0 24 1 1 0 32 1 1 0 39 1 2 
0 49 1 2 0 58 1 3 0 75 1 3 0 89 1 4 
0 106 1 5 0 130 1 6 0 150 1 6 0 174 1 7 
0 212 1 2 0 178 1 5 0 145 1 11 0 113 1 9 
0 95 1 6 0 73 1 4 0 51 1 3 0 28 1 1 
0 8 1 -1 0 -13 1 -2 0 -30 1 -3 0 -50 1 -3 
0 -59 1 -4 0 -72 1 -4 0 -79 1 -5 0 -84 1 -5 
0 -89 1 -5 0 -86 1 -5 0 -82 1 -5 0 -82 1 -5 
0 -73 1 -5 0 -73 1 -5 0 -58 1 -6 0 -50 1 -5 
0 -49 1 -4 0 -36 1 -3 0 -32 1 -3 0 -21 1 -2 
0 -17 1 -1 0 -9 1 -1 0 -1 1 -1 0 3 1 1 
0 10 1 1 0 15 1 2 0 21 1 2 0 27 1 3 
0 28 1 3 0 36 1 4 0 40 1 5 0 45 1 4 
0 48 1 4 0 54 1 5 0 55 1 5 0 60 1 5 
0 64 1 5 0 60 1 4 0 68 1 5 0 60 1 5 
0 63 1 4 0 64 1 4 0 54 1 4 0 53 1 3 
0 43 1 3 0 37 1 2 0 25 1 2 0 14 1 1 
0 3 1 -1 0 -13 1 -1 0 -27 1 -2 0 -43 1 -3 
0 -58 1 -4 0 -76 1 -5 0 -90 1 -6 0 -104 1 -7 
0 -113 1 -7 0 -127 1 -6 0 -132 1 -6 0 -141 1 -6 
0 -145 1 -6 0 -140 1 -5 0 -138 1 -5 0 -135 1 -4 
0 -120 1 -3 0 -106 1 -2 0 -83 1 -1 0 -31 1 1 
0 2 1 1 0 3 1 1 0 5 1 1 0 5 1 1 
0 7 1 1 0 10 1 1 0 12 1 1 0 16 1 1 
0 21 1 1 0 27 1 1 0 33 1 1 0 42 1 2 
0 51 1 2 0 64 1 3 0 79 1 3 0 95 1 4 
0 114 1 5 0 135 1 3 0 160 1 6 0 187 1 7 
0 206 1 3 0 164 1 6 0 141 1 11 0 101 1 8 
0 93 1 5 0 65 1 4 0 44 1 2 0 22 1 1 
0 3 0 -2 1 -1 0 -19 1 -1 0 -38 1 -2 0 -51 
1 -4 0 -65 1 -4 0 -74 1 -5 0 -81 1 -4 0 -86 
1 -5 0 -90 1 -5 0 -86 1 -5 0 -82 1 -5 0 -78 
1 -5 0 -72 1 -5 0 -68 1 -6 0 -54 1 -5 0 -55 
1 -5 0 -41 1 -4 4538 2505 300 MP stroke
0 -34 1 -3 0 -29 1 -3 0 -21 1 -2 0 -14 1 -1 
0 -6 1 -1 1 -1 0 5 1 1 0 11 1 2 0 16 
1 2 0 23 1 2 0 28 1 3 0 32 1 4 0 37 
1 4 0 43 1 4 0 46 1 5 0 48 1 5 0 54 
1 5 0 54 1 5 0 60 1 5 0 65 1 5 0 64 
1 4 0 63 1 4 0 65 1 5 0 61 1 5 0 62 
1 4 0 53 1 3 0 51 1 3 0 41 1 2 0 35 
1 2 0 23 1 1 0 9 1 1 0 1 0 -3 1 -1 
0 -16 1 -2 0 -33 1 -2 0 -47 1 -3 0 -64 1 -5 
0 -76 1 -6 0 -95 1 -6 0 -106 1 -7 0 -120 1 -6 
0 -127 1 -6 0 -137 1 -7 0 -139 1 -6 0 -148 1 -6 
0 -140 1 -5 0 -137 1 -4 0 -129 1 -4 0 -118 1 -3 
0 -101 1 -2 0 -71 1 -1 0 -13 0 1 1 1 0 2 
1 1 0 4 1 1 0 4 1 1 0 6 1 1 0 8 
1 1 0 10 1 1 0 14 1 1 0 18 1 1 0 22 
1 1 0 28 1 1 0 35 1 2 0 45 1 2 0 54 
1 3 0 67 1 3 0 83 1 3 0 101 1 4 0 117 
1 5 0 145 1 6 0 163 1 7 0 199 1 7 0 196 
1 4 0 158 1 8 0 122 1 10 0 108 1 7 0 77 
1 5 0 62 1 3 0 37 1 2 0 14 1 1 0 1 
0 -7 1 -1 0 -25 1 -2 0 -42 1 -3 0 -55 1 -3 
0 -69 1 -4 0 -77 1 -4 0 -83 1 -5 0 -87 1 -5 
0 -85 1 -5 0 -87 1 -5 0 -82 1 -5 0 -78 1 -5 
0 -67 1 -5 0 -63 1 -6 0 -55 1 -5 0 -52 1 -5 
0 -39 1 -4 0 -35 1 -3 0 -24 1 -2 0 -20 1 -2 
0 -11 1 -1 0 -4 1 -1 1 1 0 7 1 1 0 14 
1 2 0 18 1 3 0 21 1 3 0 29 1 3 0 34 
1 4 0 39 1 4 0 43 1 5 0 46 1 5 0 53 
1 5 0 55 1 5 0 55 1 5 0 59 1 5 0 65 
1 5 0 63 1 5 0 66 1 5 0 64 1 4 0 61 
1 4 0 56 1 4 0 56 1 3 0 46 1 3 0 41 
1 2 0 30 1 1 0 19 1 1 0 7 1 1 0 -7 
1 -1 0 -21 1 -2 0 -36 1 -2 0 -52 1 -4 0 -68 
1 -5 0 -82 1 -6 0 -100 1 -6 0 -113 1 -7 0 -120 
1 -7 0 -132 1 -7 0 -136 1 -6 0 -143 1 -6 0 -139 
1 -5 0 -141 1 -5 0 -139 1 -4 0 -127 1 -3 0 -113 
1 -2 0 -93 1 -2 0 -57 1 -1 0 -2 0 1 1 1 
0 4 1 1 0 3 4390 3376 300 MP stroke
1 1 0 5 1 1 0 7 1 1 0 8 1 1 0 12 
1 1 0 14 1 1 0 19 1 1 0 24 1 1 0 31 
1 1 0 37 1 2 0 47 1 3 0 59 1 3 0 71 
1 3 0 87 1 4 0 104 1 4 0 128 1 5 0 148 
1 6 0 178 1 7 0 206 1 7 0 177 1 5 0 149 
1 10 0 115 1 9 0 98 1 6 0 76 1 4 0 54 
1 2 0 31 1 1 0 8 1 1 0 -12 1 -2 0 -29 
1 -3 0 -46 1 -3 0 -61 1 -4 0 -71 1 -4 0 -79 
1 -5 0 -84 1 -5 0 -83 1 -5 0 -91 1 -5 0 -82 
1 -5 0 -82 1 -5 0 -73 1 -5 0 -73 1 -5 0 -58 
1 -6 0 -55 1 -6 0 -44 1 -4 0 -37 1 -4 0 -32 
1 -3 0 -24 1 -2 0 -16 1 -1 0 -10 1 -1 0 -2 
1 -1 0 2 1 1 0 9 1 1 0 15 1 1 0 21 
1 2 0 26 1 3 0 31 1 3 0 36 1 3 0 37 
1 4 0 45 1 4 0 47 1 5 0 54 1 4 0 55 
1 5 0 60 1 5 0 65 1 5 0 59 1 5 0 68 
1 4 0 61 1 5 0 63 1 4 0 64 1 4 0 55 
1 4 0 53 1 4 0 43 1 3 0 38 1 2 0 26 
1 2 0 16 1 1 0 3 1 -1 0 -11 1 -1 0 -27 
1 -2 0 -41 1 -3 0 -57 1 -4 0 -74 1 -5 0 -88 
1 -6 0 -98 1 -7 0 -113 1 -6 0 -127 1 -7 0 -132 
1 -6 0 -141 1 -6 0 -141 1 -6 0 -146 1 -6 0 -135 
1 -5 0 -136 1 -4 0 -123 1 -3 0 -108 1 -2 0 -86 
1 -1 0 -36 1 -1 0 3 1 1 0 3 1 1 0 4 
1 1 0 5 1 1 0 8 1 1 0 9 1 1 0 12 
1 1 0 15 1 1 0 21 1 1 0 26 1 1 0 33 
1 1 0 41 1 2 0 50 1 3 0 60 1 3 0 77 
1 4 0 92 1 4 0 111 1 5 0 134 1 6 0 152 
1 6 0 185 1 7 0 211 1 3 0 167 1 6 0 141 
1 11 0 106 1 8 0 95 1 6 0 67 1 4 0 46 
1 2 0 24 1 1 0 4 0 -1 1 -1 0 -17 1 -2 
0 -36 1 -3 0 -50 1 -3 0 -65 1 -4 0 -74 1 -4 
0 -81 1 -4 0 -86 1 -5 0 -84 1 -5 0 -86 1 -5 
0 -82 1 -5 0 -83 1 -5 0 -72 1 -6 0 -67 1 -6 
0 -59 1 -5 0 -50 1 -5 0 -42 1 -4 0 -38 1 -4 
0 -27 1 -3 0 -22 1 -1 0 -16 1 -1 0 -7 1 -1 
1 -1 0 4 1 1 0 10 1 2 0 18 1 2 0 19 
1 3 0 27 1 3 4240 2531 300 MP stroke
0 32 1 3 0 37 1 4 0 42 1 4 0 46 1 5 
0 47 1 5 0 54 1 5 0 55 1 5 0 60 1 5 
0 65 1 4 0 64 1 5 0 62 1 5 0 65 1 5 
0 62 1 4 0 58 1 4 0 58 1 4 0 51 1 3 
0 41 1 3 0 33 1 3 0 24 1 1 0 12 1 1 
0 1 0 -2 1 -1 0 -15 1 -2 0 -30 1 -2 0 -48 
1 -3 0 -63 1 -4 0 -75 1 -6 0 -93 1 -7 0 -105 
1 -7 0 -113 1 -7 0 -126 1 -7 0 -138 1 -6 0 -139 
1 -7 0 -143 1 -6 0 -142 1 -5 0 -139 1 -5 0 -130 
1 -4 0 -120 1 -3 0 -102 1 -2 0 -76 1 -1 0 -18 
1 1 0 3 1 1 0 3 1 1 0 5 1 1 0 5 
1 1 0 8 1 1 0 10 1 1 0 13 1 1 0 18 
1 1 0 21 1 2 0 27 1 1 0 34 1 2 0 45 
1 2 0 53 1 3 0 66 1 3 0 82 1 3 0 95 
1 4 0 119 1 5 0 139 1 5 0 165 1 7 0 191 
1 7 0 203 1 4 0 158 1 7 0 127 1 10 0 104 
1 8 0 87 1 5 0 64 1 3 0 39 1 2 0 16 
1 1 0 1 0 -4 1 -1 0 -23 1 -2 0 -41 1 -3 
0 -53 1 -4 0 -67 1 -4 0 -76 1 -4 0 -82 1 -5 
0 -87 1 -5 0 -89 1 -6 0 -81 1 -5 0 -82 1 -5 
0 -78 1 -5 0 -73 1 -5 0 -63 1 -5 0 -60 1 -6 
0 -47 1 -5 0 -40 1 -4 0 -36 1 -3 0 -25 1 -2 
0 -21 1 -2 0 -12 1 -1 0 -5 1 -1 1 1 0 6 
1 1 0 13 1 2 0 18 1 2 0 24 1 2 0 26 
1 3 0 34 1 3 0 39 1 4 0 43 1 4 0 46 
1 5 0 53 1 5 0 54 1 5 0 55 1 5 0 60 
1 5 0 65 1 5 0 63 1 5 0 66 1 5 0 60 
1 4 0 65 1 5 0 57 1 3 0 56 1 4 0 46 
1 3 0 42 1 2 0 30 1 2 0 20 1 1 0 8 
1 1 0 -5 1 -1 0 -20 1 -1 0 -37 1 -2 0 -51 
1 -3 0 -68 1 -4 0 -81 1 -5 0 -99 1 -7 0 -106 
1 -7 0 -120 1 -6 0 -133 1 -7 0 -136 1 -6 0 -144 
1 -6 0 -140 1 -6 0 -142 1 -5 0 -137 1 -4 0 -125 
1 -3 0 -116 1 -2 0 -97 1 -1 0 -63 1 -1 0 -5 
0 1 1 1 0 3 1 1 0 3 1 1 0 5 1 1 
0 7 1 1 0 8 1 1 0 11 1 1 0 14 1 1 
0 19 1 1 0 23 1 1 0 30 1 1 0 37 1 1 
0 47 1 2 0 59 4092 3105 300 MP stroke
1 2 0 70 1 3 0 87 1 3 0 102 1 4 0 126 
1 5 0 148 1 5 0 170 1 6 0 204 1 7 0 187 
1 5 0 147 1 9 0 125 1 9 0 94 1 6 0 79 
1 5 0 56 1 3 0 33 1 1 0 11 1 1 0 -10 
1 -1 0 -28 1 -2 0 -45 1 -3 0 -60 1 -4 0 -70 
1 -4 0 -79 1 -4 0 -84 1 -5 0 -83 1 -5 0 -90 
1 -5 0 -82 1 -5 0 -83 1 -5 0 -77 1 -5 0 -68 
1 -5 0 -63 1 -6 0 -50 1 -6 0 -50 1 -4 0 -38 
1 -3 0 -34 1 -3 0 -22 1 -2 0 -19 1 -1 0 -11 
1 -1 1 -3 -1 0 2 2 0 9 1 1 0 14 1 2 
0 20 1 2 0 25 1 3 0 27 1 4 0 35 1 3 
0 40 1 4 0 45 1 4 0 47 1 5 0 53 1 5 
0 55 1 5 0 60 1 5 0 60 1 4 0 65 1 5 
0 63 1 4 0 66 1 5 0 63 1 4 0 60 1 4 
0 56 1 4 0 54 1 3 0 48 1 2 0 37 1 2 
0 28 1 1 0 17 1 1 0 5 1 -1 0 -9 1 -1 
0 -25 1 -2 0 -40 1 -2 0 -56 1 -3 0 -73 1 -5 
0 -86 1 -6 0 -97 1 -6 0 -113 1 -7 0 -127 1 -6 
0 -132 1 -7 0 -135 1 -6 0 -148 1 -6 0 -142 1 -5 
0 -137 1 -5 0 -135 1 -4 0 -125 1 -4 0 -110 1 -2 
0 -88 1 -1 0 -44 1 -1 0 2 1 1 0 3 1 1 
0 4 1 1 0 5 1 1 0 7 1 1 0 10 1 1 
0 11 1 1 0 16 1 1 0 19 1 1 0 26 1 1 
0 32 1 2 0 38 1 2 0 49 1 2 0 62 1 2 
0 77 1 3 0 91 1 4 0 109 1 5 0 127 1 5 
0 158 1 6 0 176 1 7 0 213 1 2 0 173 1 6 
0 137 1 11 0 119 1 9 0 91 1 6 0 69 1 4 
0 49 1 3 0 25 1 1 0 6 1 -1 0 -16 1 -1 
0 -33 1 -2 0 -52 1 -3 0 -60 1 -4 0 -72 1 -5 
0 -79 1 -5 0 -85 1 -5 0 -89 1 -5 0 -86 1 -5 
0 -82 1 -5 0 -82 1 -6 0 -72 1 -5 0 -68 1 -5 
0 -59 1 -5 0 -56 1 -5 0 -42 1 -5 0 -35 1 -3 
0 -31 1 -3 0 -22 1 -2 0 -15 1 -1 0 -9 2 -2 
0 4 1 1 0 10 1 1 0 16 1 1 0 22 1 2 
0 27 1 3 0 32 1 3 0 37 1 4 0 37 1 4 
0 45 1 5 0 52 1 5 0 49 1 5 0 60 1 5 
0 60 1 5 0 59 1 5 0 64 1 5 0 63 1 4 
0 66 1 4 0 63 3941 1792 300 MP stroke
1 4 0 63 1 4 0 54 1 4 0 52 1 3 0 42 
1 3 0 36 1 2 0 24 1 1 0 13 1 1 0 2 
0 -1 1 -1 0 -14 1 -2 0 -28 1 -2 0 -44 1 -3 
0 -60 1 -4 0 -78 1 -5 0 -92 1 -6 0 -99 1 -6 
0 -120 1 -7 0 -127 1 -6 0 -138 1 -7 0 -139 1 -6 
0 -139 1 -6 0 -144 1 -5 0 -141 1 -4 0 -129 1 -3 
0 -123 1 -2 0 -104 1 -2 0 -80 1 -1 0 -24 1 1 
0 3 1 1 0 3 1 1 0 4 1 1 0 6 1 1 
0 7 1 1 0 10 1 1 0 13 1 1 0 16 1 1 
0 21 1 1 0 27 1 1 0 36 1 1 0 42 1 2 
0 53 1 2 0 65 1 3 0 81 1 3 0 93 1 4 
0 116 1 5 0 139 1 5 0 161 1 6 0 189 1 7 
0 205 1 4 0 162 1 7 0 130 1 11 0 107 1 8 
0 89 1 5 0 62 1 4 0 42 1 2 0 19 1 1 
0 2 0 -4 1 -1 0 -19 1 -2 0 -39 1 -3 0 -55 
1 -4 0 -63 1 -4 0 -79 1 -4 0 -82 1 -5 0 -82 
1 -4 0 -90 1 -5 0 -86 1 -6 0 -82 1 -5 0 -77 
1 -5 0 -73 1 -5 0 -63 1 -5 0 -60 1 -6 0 -48 
1 -5 0 -40 1 -5 0 -36 1 -3 0 -26 1 -3 0 -22 
1 -1 0 -13 1 -1 0 -6 1 -1 1 0 0 6 1 1 
0 12 1 2 0 18 1 2 0 23 1 2 0 26 1 3 
0 33 1 3 0 38 1 4 0 43 1 4 0 46 1 5 
0 53 1 5 0 49 1 5 0 60 1 5 0 60 1 5 
0 64 1 5 0 64 1 5 0 62 1 4 0 65 1 4 
0 62 1 4 0 61 1 4 0 53 1 3 0 50 1 4 
0 39 1 3 0 31 1 2 0 22 1 1 0 9 1 1 
0 1 0 -4 1 -1 0 -19 1 -2 0 -33 1 -2 0 -49 
1 -3 0 -66 1 -4 0 -78 1 -6 0 -97 1 -6 0 -106 
1 -7 0 -120 1 -7 0 -132 1 -7 0 -137 1 -6 0 -138 
1 -6 0 -142 1 -5 0 -145 1 -5 0 -139 1 -4 0 -126 
1 -4 0 -117 1 -3 0 -97 1 -2 0 -67 1 -1 0 -9 
0 1 1 1 0 2 1 1 0 4 1 1 0 5 1 1 
0 6 1 1 0 8 1 1 0 11 1 1 0 14 1 1 
0 18 1 1 0 23 1 1 0 28 1 1 0 38 1 1 
0 45 1 2 0 57 1 3 0 68 1 3 0 85 1 3 
0 100 1 4 0 123 1 6 0 146 1 5 0 167 1 7 
0 201 1 8 0 189 1 4 0 149 1 8 0 124 1 10 
0 105 1 7 0 80 3793 1507 300 MP stroke
1 5 0 58 1 3 0 34 1 2 0 12 1 1 0 -8 
1 -1 0 -26 1 -2 0 -43 1 -3 0 -59 1 -4 0 -69 
1 -4 0 -78 1 -4 0 -84 1 -4 0 -88 1 -5 0 -85 
1 -5 0 -82 1 -5 0 -82 1 -5 0 -78 1 -5 0 -73 
1 -5 0 -63 1 -6 0 -49 1 -6 0 -51 1 -5 0 -38 
1 -4 0 -34 1 -3 0 -23 1 -2 0 -20 1 -1 0 -10 
1 -1 1 -5 -1 0 2 2 0 7 1 1 0 15 1 1 
0 20 1 2 0 22 1 3 0 29 1 3 0 35 1 4 
0 39 1 4 0 44 1 5 0 46 1 5 0 53 1 5 
0 55 1 5 0 55 1 5 0 65 1 5 0 59 1 5 
0 68 1 5 0 61 1 5 0 63 1 5 0 60 1 4 
0 60 1 4 0 51 1 4 0 48 1 3 0 37 1 3 
0 30 1 2 0 17 1 1 0 5 1 1 0 -8 1 -1 
0 -24 1 -1 0 -38 1 -3 0 -53 1 -4 0 -71 1 -4 
0 -84 1 -6 0 -102 1 -7 0 -106 1 -7 0 -126 1 -7 
0 -132 1 -7 0 -135 1 -7 0 -142 1 -6 0 -143 1 -6 
0 -139 1 -5 0 -137 1 -4 0 -124 1 -3 0 -114 1 -3 
0 -89 1 -1 0 -52 1 -1 0 2 1 1 0 3 1 1 
0 4 1 1 0 5 1 1 0 6 1 1 0 10 1 1 
0 11 1 1 0 15 1 1 0 19 1 1 0 25 1 1 
0 31 1 2 0 39 1 2 0 46 1 2 0 61 1 3 
0 72 1 3 0 89 1 3 0 111 1 4 0 125 1 6 
0 154 1 6 0 174 1 7 0 213 1 1 0 175 1 6 
0 142 1 10 0 123 1 9 0 94 1 6 0 72 1 4 
0 51 1 2 0 28 1 1 0 7 1 -1 0 -14 1 -1 
0 -32 1 -2 0 -47 1 -3 0 -63 1 -4 0 -72 1 -4 
0 -79 1 -5 0 -85 1 -5 0 -83 1 -5 0 -91 1 -5 
0 -82 1 -5 0 -77 1 -6 0 -77 1 -5 0 -68 1 -5 
0 -59 1 -5 0 -56 1 -5 0 -43 1 -5 0 -40 1 -3 
0 -29 1 -2 0 -24 1 -2 0 -15 1 -1 0 -10 1 -1 
0 -1 1 -1 0 3 1 1 0 9 1 1 0 15 1 2 
0 21 1 2 0 26 1 3 0 31 1 4 0 36 1 4 
0 41 1 4 0 45 1 5 0 47 1 5 0 54 1 5 
0 54 1 5 0 60 1 5 0 60 1 5 0 64 1 5 
0 63 1 4 0 66 1 4 0 63 1 4 0 60 1 4 
0 58 1 4 0 49 1 4 0 45 1 3 0 35 1 2 
0 27 1 1 0 14 1 1 0 3 1 -1 0 -13 1 -1 
0 -28 1 -2 0 -43 3643 1572 300 MP stroke
1 -3 0 -59 1 -4 0 -71 1 -5 0 -89 1 -7 0 -104 
1 -7 0 -113 1 -7 0 -126 1 -7 0 -138 1 -7 0 -134 
1 -6 0 -145 1 -6 0 -145 1 -6 0 -138 1 -4 0 -131 
1 -4 0 -123 1 -3 0 -106 1 -2 0 -82 1 -1 0 -31 
1 1 0 2 1 1 0 3 1 1 0 4 1 1 0 6 
1 1 0 8 1 1 0 9 1 1 0 12 1 1 0 17 
1 1 0 20 1 1 0 26 1 1 0 33 1 2 0 43 
1 2 0 51 1 3 0 64 1 3 0 76 1 3 0 94 
1 4 0 114 1 5 0 137 1 2 0 158 1 6 0 187 
1 7 0 210 1 3 0 164 1 6 0 130 1 11 0 112 
1 8 0 93 1 5 0 65 1 4 0 44 1 2 0 21 
1 1 0 3 0 -2 1 -1 0 -18 1 -2 0 -37 1 -3 
0 -51 1 -3 0 -66 1 -4 0 -74 1 -4 0 -82 1 -4 
0 -86 1 -5 0 -90 1 -5 0 -81 1 -5 0 -87 1 -5 
0 -78 1 -5 0 -72 1 -5 0 -68 1 -6 0 -54 1 -5 
0 -55 1 -5 0 -41 1 -4 0 -33 1 -4 0 -29 1 -3 
0 -21 1 -1 0 -15 1 -1 0 -6 1 -1 0 -1 1 1 
0 5 1 1 0 11 1 1 0 17 1 2 0 22 1 3 
0 28 1 3 0 32 1 4 0 38 1 4 0 42 1 4 
0 46 1 5 0 48 1 5 0 54 1 5 0 55 1 5 
0 60 1 5 0 64 1 5 0 64 1 5 0 62 1 5 
0 65 1 4 0 62 1 4 0 62 1 4 0 53 1 4 
0 51 1 3 0 40 1 3 0 34 1 2 0 22 1 1 
0 10 1 1 0 1 0 -3 1 -1 0 -16 1 -2 0 -33 
1 -2 0 -48 1 -3 0 -64 1 -4 0 -77 1 -6 0 -95 
1 -7 0 -105 1 -7 0 -120 1 -7 0 -126 1 -7 0 -137 
1 -7 0 -138 1 -6 0 -143 1 -6 0 -146 1 -5 0 -136 
1 -5 0 -128 1 -4 0 -119 1 -3 0 -99 1 -2 0 -72 
1 -1 0 -13 0 1 1 1 0 2 1 1 0 4 1 1 
0 4 1 1 0 7 1 1 0 7 1 1 0 11 1 1 
0 14 1 1 0 17 1 1 0 23 1 1 0 28 1 1 
0 37 1 1 0 44 1 2 0 55 1 2 0 68 1 2 
0 84 1 3 0 102 1 4 0 117 1 5 0 146 1 5 
0 164 1 7 0 200 1 8 0 196 1 5 0 153 1 7 
0 132 1 9 0 100 1 7 0 83 1 5 0 58 1 3 
0 40 1 1 0 14 1 1 0 -6 1 -1 0 -25 1 -2 
0 -42 1 -3 0 -54 1 -4 0 -68 1 -4 0 -77 1 -4 
0 -83 1 -5 0 -87 3495 1852 300 MP stroke
1 -5 0 -85 1 -5 0 -87 1 -5 0 -83 1 -5 0 -77 
1 -5 0 -73 1 -5 0 -64 1 -5 0 -55 1 -6 0 -46 
1 -5 0 -39 1 -4 0 -35 1 -3 0 -27 1 -2 0 -18 
1 -1 0 -12 1 -1 0 -4 1 -1 1 1 0 8 1 1 
0 13 1 2 0 19 1 2 0 24 1 3 0 30 1 3 
0 31 1 4 0 39 1 4 0 44 1 4 0 47 1 5 
0 53 1 5 0 55 1 5 0 55 1 5 0 65 1 5 
0 60 1 5 0 63 1 5 0 67 1 5 0 64 1 4 
0 61 1 4 0 61 1 4 0 51 1 4 0 48 1 3 
0 39 1 2 0 30 1 1 0 20 1 1 0 6 1 1 
0 -7 1 -1 0 -22 1 -2 0 -36 1 -3 0 -52 1 -4 
0 -70 1 -4 0 -84 1 -5 0 -102 1 -7 0 -106 1 -7 
0 -121 1 -6 0 -133 1 -7 0 -143 1 -6 0 -137 1 -6 
0 -146 1 -5 0 -142 1 -5 0 -135 1 -4 0 -130 1 -4 
0 -112 1 -3 0 -92 1 -2 0 -57 1 -1 0 -2 0 2 
1 1 0 3 1 1 0 4 1 1 0 6 1 1 0 7 
1 1 0 9 1 1 0 12 1 1 0 15 1 1 0 19 
1 1 0 26 1 1 0 32 1 2 0 40 1 1 0 48 
1 2 0 62 1 3 0 74 1 3 0 91 1 4 0 110 
1 5 0 127 1 6 0 154 1 6 0 178 1 7 0 206 
1 8 0 182 1 5 0 145 1 10 0 126 1 9 0 98 
1 7 0 75 1 5 0 54 1 3 0 30 1 2 0 7 
1 1 0 -12 1 -2 0 -30 1 -3 0 -47 1 -3 0 -63 
1 -3 0 -73 1 -4 0 -81 1 -4 0 -81 1 -5 0 -90 
1 -5 0 -87 1 -5 0 -88 1 -5 0 -78 1 -6 0 -78 
1 -5 0 -69 1 -5 0 -59 1 -6 0 -56 1 -5 0 -43 
1 -5 0 -36 1 -3 0 -32 1 -3 0 -23 1 -2 0 -15 
1 -1 0 -9 1 -1 0 -2 1 1 0 4 1 1 0 11 
1 2 0 16 1 2 0 20 1 3 0 27 1 3 0 33 
1 4 0 38 1 4 0 43 1 5 0 47 1 4 0 50 
1 5 0 55 1 5 0 57 1 5 0 62 1 5 0 62 
1 5 0 66 1 5 0 65 1 5 0 67 1 5 0 64 
1 4 0 61 1 4 0 56 1 4 0 53 1 4 0 43 
1 3 0 35 1 2 0 26 1 1 0 14 1 1 0 1 
0 -1 1 -1 0 -14 1 -1 0 -31 1 -2 0 -44 1 -4 
0 -60 1 -5 0 -79 1 -5 0 -93 1 -7 0 -102 1 -7 
0 -124 1 -7 0 -124 1 -7 0 -142 1 -7 0 -145 1 -6 
0 -144 1 -6 0 -144 3346 2721 300 MP stroke
1 -6 0 -143 1 -5 0 -138 1 -5 0 -123 1 -3 0 -108 
1 -2 0 -87 1 -1 0 -36 1 1 0 3 1 1 0 5 
1 1 0 6 1 1 0 8 1 1 0 10 1 1 0 13 
1 1 0 17 1 1 0 22 1 1 0 26 1 1 0 34 
1 1 0 43 1 1 0 51 1 2 0 63 1 3 0 78 
1 3 0 90 1 5 0 109 1 5 0 128 1 6 0 155 
1 6 0 173 1 7 0 205 1 9 0 221 1 3 0 187 
1 7 0 142 1 11 0 127 1 9 0 93 1 6 0 76 
1 4 0 45 1 3 0 24 1 1 0 3 0 -2 1 -1 
0 -22 1 -2 0 -39 1 -2 0 -56 1 -4 0 -71 1 -4 
0 -81 1 -5 0 -83 1 -5 0 -93 1 -5 0 -92 1 -5 
0 -93 1 -6 0 -83 1 -5 0 -84 1 -5 0 -78 1 -5 
0 -68 1 -5 0 -58 1 -6 0 -48 1 -5 0 -40 1 -4 
0 -35 1 -3 0 -23 1 -3 0 -17 1 -1 0 -9 1 -1 
0 -1 1 -1 0 6 1 1 0 11 1 2 0 17 1 3 
0 24 1 2 0 31 1 3 0 36 1 4 0 42 1 4 
0 42 1 5 0 49 1 5 0 58 1 6 0 54 1 5 
0 61 1 6 0 67 1 5 0 67 1 5 0 66 1 5 
0 70 1 5 0 67 1 5 0 63 1 5 0 59 1 5 
0 59 1 4 0 52 1 4 0 44 1 3 0 33 1 3 
0 25 1 1 0 11 1 1 0 1 0 -2 1 -1 0 -17 
1 -2 0 -32 1 -3 0 -50 1 -4 0 -63 1 -6 0 -81 
1 -7 0 -98 1 -7 0 -114 1 -8 0 -122 1 -8 0 -138 
1 -7 0 -151 1 -8 0 -154 1 -7 0 -154 1 -7 0 -158 
1 -6 0 -154 1 -6 0 -149 1 -5 0 -136 1 -4 0 -122 
1 -3 0 -103 1 -2 0 -74 1 -1 0 -17 0 2 1 1 
0 7 1 1 0 10 1 1 0 11 1 1 0 13 1 1 
0 18 1 1 0 22 1 2 0 26 1 2 0 33 1 2 
0 41 1 1 0 51 1 3 0 60 1 3 0 72 1 3 
0 88 1 4 0 102 1 5 0 125 1 6 0 137 1 8 
0 156 1 10 0 191 1 10 0 201 1 12 0 228 1 13 
0 235 1 5 0 183 1 10 0 152 1 13 0 124 1 9 
0 92 1 7 0 68 1 5 0 39 1 2 0 12 1 1 
0 -10 1 -1 0 -33 1 -3 0 -53 1 -3 0 -68 1 -4 
0 -80 1 -4 0 -88 1 -6 0 -94 1 -6 0 -98 1 -6 
0 -96 1 -6 0 -97 1 -6 0 -85 1 -6 0 -80 1 -6 
0 -73 1 -7 0 -68 1 -7 0 -54 1 -7 0 -42 1 -6 
0 -33 1 -4 0 -29 3198 1985 300 MP stroke
1 -2 0 -18 1 -1 0 -10 1 -1 0 -1 1 -1 0 6 
1 1 0 13 1 1 0 21 1 3 0 25 1 3 0 32 
1 4 0 37 1 5 0 38 1 5 0 47 1 5 0 52 
1 5 0 54 1 6 0 56 1 6 0 63 1 5 0 64 
1 6 0 62 1 6 0 62 1 5 0 65 1 6 0 62 
1 5 0 63 1 5 0 53 1 5 0 52 1 4 0 45 
1 3 0 37 1 3 0 26 1 1 0 17 1 1 0 3 
1 1 0 -9 1 -2 0 -25 1 -3 0 -37 1 -5 0 -59 
1 -7 0 -71 1 -9 0 -90 1 -9 0 -104 1 -9 0 -121 
1 -9 0 -130 1 -8 0 -147 1 -8 0 -161 1 -9 0 -165 
1 -8 0 -166 1 -8 0 -171 1 -7 0 -165 1 -6 0 -159 
1 -5 0 -150 1 -5 0 -138 1 -4 0 -121 1 -2 0 -96 
1 -1 0 -58 1 -1 0 -4 0 7 1 1 0 10 1 1 
0 13 1 1 0 16 1 1 0 19 1 1 0 24 1 1 
0 29 1 2 0 35 1 2 0 44 1 2 0 51 1 2 
0 64 1 2 0 76 1 3 0 91 1 4 0 106 1 5 
0 123 1 7 0 142 1 9 0 150 1 12 0 180 1 16 
0 205 1 18 0 211 1 20 0 230 1 22 0 232 1 7 
0 183 1 13 0 138 1 19 0 112 1 13 0 80 1 8 
0 63 1 4 0 29 1 2 0 5 1 -1 0 -19 1 -2 
0 -41 1 -3 0 -62 1 -4 0 -76 1 -5 0 -87 1 -5 
0 -92 1 -5 0 -102 1 -6 0 -99 1 -6 0 -101 1 -7 
0 -89 1 -7 0 -90 1 -6 0 -78 1 -6 0 -72 1 -6 
0 -62 1 -7 0 -51 1 -10 0 -37 1 -5 0 -30 1 -3 
0 -25 1 -2 0 -15 1 -1 0 -5 1 -1 0 -1 0 2 
1 1 0 10 1 1 0 17 1 2 0 22 1 3 0 29 
1 3 0 35 1 4 0 40 1 4 0 41 1 5 0 49 
1 5 0 53 1 5 0 55 1 6 0 57 1 5 0 57 
1 6 0 62 1 6 0 61 1 6 0 59 1 5 0 62 
1 5 0 53 1 4 0 54 1 4 0 52 1 4 0 41 
1 3 0 34 1 2 0 28 1 1 0 15 1 1 0 3 
1 1 0 -9 1 -2 0 -24 1 -3 0 -36 1 -5 0 -57 
1 -11 0 -60 1 -11 0 -85 1 -9 0 -104 1 -9 0 -121 
1 -9 0 -130 1 -9 0 -146 1 -9 0 -162 1 -9 0 -167 
1 -9 0 -169 1 -9 0 -169 1 -8 0 -173 1 -7 0 -172 
1 -6 0 -162 1 -5 0 -148 1 -5 0 -131 1 -4 0 -113 
1 -2 0 -88 1 -1 0 -40 1 1 0 10 1 1 0 12 
1 1 0 15 1 1 3049 3286 300 MP stroke
0 18 1 1 0 22 1 1 0 27 1 1 0 34 1 1 
0 39 1 2 0 48 1 3 0 59 1 3 0 70 1 3 
0 82 1 4 0 101 1 5 0 111 1 6 0 136 1 8 
0 147 1 11 0 167 1 14 0 188 1 20 0 185 1 27 
0 219 1 33 0 259 1 3 0 215 1 9 0 177 1 16 
0 115 1 27 0 106 1 14 0 73 1 7 0 49 1 3 
0 23 1 1 0 1 0 -5 1 -1 0 -26 1 -2 0 -51 
1 -4 0 -67 1 -4 0 -76 1 -5 0 -92 1 -5 0 -99 
1 -6 0 -98 1 -6 0 -102 1 -6 0 -97 1 -6 0 -92 
1 -6 0 -92 1 -6 0 -73 1 -6 0 -67 1 -7 0 -58 
1 -8 0 -49 1 -9 0 -35 1 -5 0 -29 1 -3 0 -20 
1 -2 0 -11 1 -1 0 -3 1 -1 0 4 1 1 0 13 
1 2 0 18 1 2 0 25 1 3 0 31 1 4 0 37 
1 4 0 38 1 4 0 47 1 5 0 50 1 5 0 48 
1 6 0 55 1 5 0 57 1 5 0 63 1 5 0 56 
1 6 0 60 1 5 0 58 1 5 0 59 1 5 0 55 
1 5 0 50 1 4 0 44 1 3 0 38 1 2 0 30 
1 2 0 20 1 2 0 9 1 1 0 -3 1 -1 0 -15 
1 -2 0 -33 1 -4 0 -46 1 -5 0 -58 1 -19 0 -61 
1 -11 0 -95 1 -10 0 -114 1 -9 0 -123 1 -9 0 -143 
1 -9 0 -148 1 -9 0 -163 1 -9 0 -177 1 -8 0 -170 
1 -8 0 -176 1 -8 0 -170 1 -7 0 -167 1 -6 0 -162 
1 -5 0 -145 1 -4 0 -130 1 -3 0 -106 1 -2 0 -77 
1 -1 0 -21 0 3 1 1 0 10 1 1 0 13 1 1 
0 15 1 1 0 19 1 1 0 22 1 1 0 27 1 2 
0 34 1 2 0 40 1 2 0 49 1 2 0 61 1 3 
0 70 1 3 0 85 1 5 0 100 1 5 0 109 1 7 
0 133 1 9 0 154 1 12 0 163 1 15 0 183 1 21 
0 177 1 30 0 216 1 38 0 234 1 5 0 185 1 9 
0 141 1 18 0 107 1 25 0 72 1 9 0 57 1 3 
0 25 1 1 0 1 0 -5 1 -1 0 -31 1 -3 0 -54 
1 -4 0 -77 1 -5 0 -94 1 -6 0 -105 1 -7 0 -123 
2923 1107 257 MP stroke
/c11 { 0.000000 0.600000 0.298000 sr} bdef
c11
1 0 0 -10 1 -1 0 -10 1 -1 0 -10 1 -1 0 -9 
1 -1 0 -9 1 -1 0 -9 1 -1 0 -7 1 -1 0 -6 
1 -1 0 -5 1 -1 0 -5 1 -1 0 -4 1 -1 0 -2 
1 -1 0 -2 2 -2 1 -1 1 1 0 1 2 2 0 1 
1 1 0 3 1 1 0 3 1 1 0 3 1 1 0 5 
1 1 0 5 1 1 0 6 1 1 0 6 1 1 0 6 
1 1 0 7 1 1 0 8 1 1 0 7 1 1 0 7 
1 1 0 8 1 1 0 8 1 1 0 7 1 1 0 6 
1 1 0 6 1 1 0 5 1 1 0 4 1 1 0 3 
1 1 0 1 1 1 1 0 1 -1 0 -3 1 -1 0 -4 
1 -1 0 -7 1 -1 0 -8 1 -1 0 -11 1 -1 0 -12 
1 -1 0 -14 1 -1 0 -15 1 -1 0 -16 1 -1 0 -17 
1 -1 0 -17 1 -1 0 -17 1 -1 0 -17 1 -1 0 -16 
1 -1 0 -14 1 -1 0 -13 1 -1 0 -9 1 -1 0 -6 
2 -2 1 1 1 0 1 1 1 1 0 1 2 2 0 2 
2 2 0 3 1 1 0 3 1 1 0 4 1 1 0 5 
1 1 0 7 1 1 0 8 1 1 0 10 1 1 0 12 
1 1 0 15 1 1 0 17 1 1 0 21 1 1 0 23 
1 1 0 21 1 1 0 17 1 1 0 15 1 1 0 12 
1 1 0 9 1 1 0 6 1 1 0 4 2 2 1 -1 
0 -3 1 -1 0 -5 1 -1 0 -6 1 -1 0 -8 1 -1 
0 -9 1 -1 0 -9 1 -1 0 -10 1 -1 0 -10 1 -1 
0 -10 1 -1 0 -9 1 -1 0 -9 1 -1 0 -8 1 -1 
0 -7 1 -1 0 -6 1 -1 0 -6 1 -1 0 -4 1 -1 
0 -3 1 -1 0 -3 2 -2 1 -1 1 -1 1 1 0 1 
2 2 0 2 1 1 0 3 1 1 0 3 1 1 0 4 
1 1 0 5 1 1 0 5 1 1 0 5 1 1 0 7 
1 1 0 7 1 1 0 6 1 1 0 8 1 1 0 7 
1 1 0 8 1 1 0 8 1 1 0 7 1 1 0 7 
1 1 0 6 1 1 0 6 1 1 0 5 1 1 0 3 
1 1 0 3 2 2 1 0 -1 0 2 -2 0 -3 1 -1 
0 -5 1 -1 0 -7 1 -1 0 -10 1 -1 0 -10 1 -1 
0 -13 1 -1 0 -15 1 -1 0 -15 1 -1 0 -16 1 -1 
0 -17 1 -1 0 -18 1 -1 0 -17 1 -1 0 -16 1 -1 
0 -16 1 -1 0 -13 1 -1 0 -12 1 -1 0 -9 1 -1 
0 -3 1 -1 1 -1 1 1 1 0 1 1 1 1 0 2 
2 2 0 1 1 1 0 1 1 1 0 3 1 1 0 3 
1 1 0 4 1 1 4668 3375 300 MP stroke
0 6 1 1 0 7 1 1 0 9 1 1 0 11 1 1 
0 13 1 1 0 15 1 1 0 19 1 1 0 22 1 1 
0 21 1 1 0 20 1 1 0 17 1 1 0 15 1 1 
0 10 1 1 0 8 1 1 0 6 1 1 0 2 1 1 
1 1 -1 0 2 -2 0 -3 1 -1 0 -6 1 -1 0 -7 
1 -1 0 -8 1 -1 0 -9 1 -1 0 -9 1 -1 0 -10 
1 -1 0 -11 1 -1 0 -9 1 -1 0 -9 1 -1 0 -9 
1 -1 0 -7 1 -1 0 -8 1 -1 0 -5 1 -1 0 -5 
1 -1 0 -4 1 -1 0 -3 1 -1 0 -2 1 -1 1 -1 
1 -1 1 -1 1 1 0 2 2 2 0 2 1 1 0 3 
1 1 0 4 1 1 0 4 1 1 0 4 1 1 0 6 
1 1 0 6 1 1 0 6 1 1 0 7 1 1 0 7 
1 1 0 7 1 1 0 8 1 1 0 7 1 1 0 8 
1 1 0 7 1 1 0 7 1 1 0 6 1 1 0 6 
1 1 0 4 1 1 0 3 1 1 0 2 1 1 1 1 
0 -1 2 -2 0 -4 1 -1 0 -5 1 -1 0 -8 1 -1 
0 -10 1 -1 0 -11 1 -1 0 -14 1 -1 0 -15 1 -1 
0 -15 1 -1 0 -17 1 -1 0 -17 1 -1 0 -17 1 -1 
0 -17 1 -1 0 -16 1 -1 0 -15 1 -1 0 -14 1 -1 
0 -11 1 -1 0 -6 1 -1 0 -3 1 -1 1 0 1 1 
1 1 1 1 1 1 1 1 0 2 2 2 0 2 1 1 
0 3 1 1 0 4 1 1 0 4 1 1 0 6 1 1 
0 8 1 1 0 9 1 1 0 12 1 1 0 13 1 1 
0 17 1 1 0 19 1 1 0 23 1 1 0 21 1 1 
0 19 1 1 0 16 1 1 0 14 1 1 0 9 1 1 
0 8 1 1 0 5 2 2 0 1 0 -1 2 -2 0 -4 
1 -1 0 -6 1 -1 0 -7 1 -1 0 -9 1 -1 0 -9 
1 -1 0 -10 1 -1 0 -10 1 -1 0 -10 1 -1 0 -10 
1 -1 0 -8 1 -1 0 -9 1 -1 0 -7 1 -1 0 -7 
1 -1 0 -5 1 -1 0 -5 1 -1 0 -3 1 -1 0 -3 
1 -1 0 -2 2 -2 1 -1 1 1 1 1 1 1 0 2 
1 1 0 2 1 1 0 3 1 1 0 4 1 1 0 4 
1 1 0 5 1 1 0 6 1 1 0 6 1 1 0 6 
1 1 0 7 1 1 0 7 1 1 0 8 1 1 0 8 
1 1 0 7 1 1 0 7 1 1 0 8 1 1 0 6 
1 1 0 6 1 1 0 5 1 1 0 5 1 1 0 3 
2 2 1 1 1 -1 0 -2 1 -1 0 -4 1 -1 0 -7 
1 -1 0 -8 1 -1 4503 3189 300 MP stroke
0 -10 1 -1 0 -12 1 -1 0 -14 1 -1 0 -15 1 -1 
0 -17 1 -1 0 -16 1 -1 0 -17 1 -1 0 -17 1 -1 
0 -18 1 -1 0 -15 1 -1 0 -15 1 -1 0 -13 1 -1 
0 -9 1 -1 0 -7 2 -2 1 1 1 0 1 1 1 1 
0 1 2 2 0 2 2 2 0 2 1 1 0 3 1 1 
0 4 1 1 0 5 1 1 0 7 1 1 0 8 1 1 
0 9 1 1 0 13 1 1 0 14 1 1 0 17 1 1 
0 21 1 1 0 22 1 1 0 22 1 1 0 18 1 1 
0 15 1 1 0 12 1 1 0 9 1 1 0 6 1 1 
0 5 2 2 1 -1 0 -3 1 -1 0 -4 1 -1 0 -6 
1 -1 0 -8 1 -1 0 -9 1 -1 0 -9 1 -1 0 -10 
1 -1 0 -10 1 -1 0 -10 1 -1 0 -10 1 -1 0 -8 
1 -1 0 -8 1 -1 0 -7 1 -1 0 -6 1 -1 0 -6 
1 -1 0 -4 1 -1 0 -3 1 -1 0 -3 1 -1 0 -1 
1 -1 1 -1 1 -1 1 1 0 1 2 2 0 2 1 1 
0 3 1 1 0 3 1 1 0 3 1 1 0 5 1 1 
0 5 1 1 0 6 1 1 0 6 1 1 0 7 1 1 
0 7 1 1 0 7 1 1 0 7 1 1 0 8 1 1 
0 8 1 1 0 7 1 1 0 7 1 1 0 7 1 1 
0 5 1 1 0 5 1 1 0 4 1 1 0 3 2 2 
1 0 -1 0 2 -2 0 -3 1 -1 0 -5 1 -1 0 -6 
1 -1 0 -9 1 -1 0 -11 1 -1 0 -12 1 -1 0 -15 
1 -1 0 -16 1 -1 0 -16 1 -1 0 -17 1 -1 0 -17 
1 -1 0 -17 1 -1 0 -16 1 -1 0 -16 1 -1 0 -14 
1 -1 0 -12 1 -1 0 -9 1 -1 0 -4 1 -1 1 -1 
1 1 1 0 1 1 0 1 2 2 0 1 2 2 0 2 
1 1 0 2 1 1 0 4 1 1 0 4 1 1 0 5 
1 1 0 7 1 1 0 9 1 1 0 10 1 1 0 13 
1 1 0 15 1 1 0 19 1 1 0 21 1 1 0 23 
1 1 0 20 1 1 0 17 1 1 0 14 1 1 0 11 
1 1 0 9 1 1 0 5 1 1 0 3 1 1 1 1 
-1 0 2 -2 0 -3 1 -1 0 -5 1 -1 0 -7 1 -1 
0 -8 1 -1 0 -9 1 -1 0 -10 1 -1 0 -10 1 -1 
0 -9 1 -1 0 -10 1 -1 0 -9 1 -1 0 -9 1 -1 
0 -8 1 -1 0 -7 1 -1 0 -6 1 -1 0 -5 1 -1 
0 -4 1 -1 0 -2 1 -1 0 -3 2 -2 1 -1 1 -1 
0 1 2 2 0 1 1 1 0 2 1 1 0 3 1 1 
0 3 1 1 0 4 4336 3284 300 MP stroke
1 1 0 5 1 1 0 5 1 1 0 6 1 1 0 6 
1 1 0 7 1 1 0 7 1 1 0 7 1 1 0 8 
1 1 0 8 1 1 0 7 1 1 0 7 1 1 0 7 
1 1 0 7 1 1 0 5 1 1 0 5 1 1 0 3 
1 1 0 2 1 1 1 1 1 -1 0 -1 1 -1 0 -3 
1 -1 0 -6 1 -1 0 -7 1 -1 0 -10 1 -1 0 -11 
1 -1 0 -14 1 -1 0 -14 1 -1 0 -15 1 -1 0 -17 
1 -1 0 -17 1 -1 0 -17 1 -1 0 -17 1 -1 0 -17 
1 -1 0 -15 1 -1 0 -13 1 -1 0 -12 1 -1 0 -7 
1 -1 0 -2 1 -1 1 -1 1 1 1 1 1 1 1 1 
1 1 0 2 2 2 0 2 1 1 0 3 1 1 0 3 
1 1 0 5 1 1 0 6 1 1 0 7 1 1 0 9 
1 1 0 11 1 1 0 14 1 1 0 16 1 1 0 19 
1 1 0 22 1 1 0 22 1 1 0 19 1 1 0 17 
1 1 0 13 1 2 0 9 1 1 0 8 1 1 0 5 
1 1 0 2 2 0 0 -1 1 -1 0 -4 1 -1 0 -5 
1 -1 0 -7 1 -1 0 -9 1 -1 0 -9 1 -1 0 -10 
1 -1 0 -10 1 -1 0 -10 1 -1 0 -9 1 -1 0 -9 
1 -1 0 -9 1 -1 0 -7 1 -1 0 -7 1 -1 0 -6 
1 -1 0 -4 1 -1 0 -4 1 -1 0 -3 1 -1 0 -2 
2 -2 1 -1 1 1 1 0 -1 0 2 2 0 2 1 1 
0 2 1 1 0 3 1 1 0 3 1 1 0 5 1 1 
0 5 1 1 0 5 1 1 0 6 1 1 0 7 1 1 
0 6 1 1 0 7 1 1 0 8 1 1 0 8 1 1 
0 7 1 1 0 8 1 1 0 7 1 1 0 7 1 1 
0 5 1 1 0 6 1 1 0 4 1 1 0 4 2 2 
1 1 1 -1 0 -2 1 -1 0 -4 1 -1 0 -6 1 -1 
0 -8 1 -1 0 -11 1 -1 0 -11 1 -1 0 -14 1 -1 
0 -15 1 -1 0 -15 1 -1 0 -17 1 -1 0 -18 1 -1 
0 -17 1 -1 0 -16 1 -1 0 -16 1 -1 0 -15 1 -1 
0 -13 1 -1 0 -11 1 -1 0 -5 1 -1 0 -2 1 -1 
1 1 1 0 1 1 1 1 1 1 0 2 2 2 0 1 
1 1 0 2 1 1 0 3 1 1 0 4 1 1 0 4 
1 1 0 7 1 1 0 8 1 1 0 9 1 1 0 12 
1 1 0 14 1 1 0 18 1 1 0 20 1 1 0 22 
1 1 0 21 1 1 0 19 1 1 0 15 1 1 0 13 
1 1 0 9 1 1 0 7 1 1 0 5 2 2 1 -1 
0 -2 1 -1 0 -4 4171 3165 300 MP stroke
1 -1 0 -6 1 -1 0 -8 1 -1 0 -9 1 -1 0 -9 
1 -1 0 -10 1 -1 0 -10 1 -1 0 -10 1 -1 0 -9 
1 -1 0 -9 1 -1 0 -8 1 -1 0 -8 1 -1 0 -6 
1 -1 0 -6 1 -1 0 -4 1 -1 0 -3 1 -1 0 -2 
1 -1 0 -2 1 -1 1 -1 1 -1 1 1 0 1 2 2 
0 2 1 1 0 2 1 1 0 3 1 1 0 4 1 1 
0 4 1 1 0 5 1 1 0 6 1 1 0 6 1 1 
0 7 1 1 0 7 1 1 0 7 1 1 0 8 1 1 
0 7 1 1 0 8 1 1 0 8 1 1 0 6 1 1 
0 7 1 1 0 6 1 1 0 5 1 1 0 3 1 1 
0 4 2 2 1 0 -1 0 2 -2 0 -2 1 -1 0 -5 
1 -1 0 -7 1 -1 0 -8 1 -1 0 -11 1 -1 0 -12 
1 -1 0 -15 1 -1 0 -15 1 -1 0 -16 1 -1 0 -17 
1 -1 0 -17 1 -1 0 -18 1 -1 0 -16 1 -1 0 -16 
1 -1 0 -14 1 -1 0 -12 1 -1 0 -9 1 -1 0 -5 
1 -1 1 -1 1 1 1 0 1 1 0 1 2 2 0 1 
2 2 0 2 1 1 0 2 1 1 0 3 1 1 0 4 
1 1 0 5 1 1 0 7 1 1 0 9 1 1 0 10 
1 1 0 13 1 1 0 14 1 1 0 19 1 1 0 21 
1 1 0 22 1 1 0 21 1 1 0 17 1 1 0 15 
1 1 0 12 1 1 0 8 1 1 0 6 1 1 0 3 
1 1 1 1 -1 0 2 -2 0 -3 1 -1 0 -4 1 -1 
0 -7 1 -1 0 -8 1 -1 0 -9 1 -1 0 -10 1 -1 
0 -10 1 -1 0 -9 1 -1 0 -10 1 -1 0 -9 1 -1 
0 -9 1 -1 0 -8 1 -1 0 -7 1 -1 0 -6 1 -1 
0 -5 1 -1 0 -4 1 -1 0 -3 1 -1 0 -3 2 -2 
1 -1 1 -1 1 1 1 1 0 2 1 1 0 2 1 1 
0 2 1 1 0 4 1 1 0 3 1 1 0 5 1 1 
0 5 1 1 0 6 1 1 0 6 1 1 0 7 1 1 
0 7 1 1 0 8 1 1 0 7 1 1 0 8 1 1 
0 7 1 1 0 8 1 1 0 7 1 1 0 6 1 1 
0 5 1 1 0 5 1 1 0 4 1 1 0 2 1 1 
1 1 1 0 0 -2 1 -1 0 -3 1 -1 0 -5 1 -1 
0 -7 1 -1 0 -10 1 -1 0 -11 1 -1 0 -13 1 -1 
0 -14 1 -1 0 -16 1 -1 0 -16 1 -1 0 -17 1 -1 
0 -17 1 -1 0 -18 1 -1 0 -16 1 -1 0 -15 1 -1 
0 -14 1 -1 0 -12 1 -1 0 -7 1 -1 0 -3 1 -1 
1 -1 1 1 1 1 4007 3397 300 MP stroke
1 0 -1 0 2 2 1 1 0 2 2 2 0 2 1 1 
0 2 1 1 0 4 1 1 0 4 1 1 0 6 1 1 
0 7 1 1 0 9 1 1 0 11 1 1 0 13 1 1 
0 16 1 1 0 19 1 1 0 22 1 1 0 22 1 1 
0 19 1 1 0 17 1 1 0 14 1 1 0 11 1 1 
0 7 1 1 0 5 1 1 0 2 1 1 1 1 0 -2 
1 -1 0 -3 1 -1 0 -5 1 -1 0 -8 1 -1 0 -8 
1 -1 0 -9 1 -1 0 -9 1 -1 0 -10 1 -1 0 -11 
1 -1 0 -9 1 -1 0 -9 1 -1 0 -9 1 -1 0 -7 
1 -1 0 -7 1 -1 0 -6 1 -1 0 -5 1 -1 0 -3 
1 -1 0 -3 1 -1 0 -3 2 -2 1 -1 1 0 1 1 
0 2 2 2 0 3 1 1 0 3 1 1 0 3 1 1 
0 4 1 1 0 5 1 1 0 5 1 1 0 6 1 1 
0 7 1 1 0 6 1 1 0 8 1 1 0 7 1 1 
0 8 1 1 0 7 1 1 0 8 1 1 0 7 1 1 
0 7 1 1 0 6 1 1 0 5 1 1 0 5 1 1 
0 3 1 1 0 1 1 1 1 1 0 -1 2 -2 0 -4 
1 -1 0 -6 1 -1 0 -8 1 -1 0 -10 1 -1 0 -12 
1 -1 0 -14 1 -1 0 -14 1 -1 0 -16 1 -1 0 -17 
1 -1 0 -17 1 -1 0 -17 1 -1 0 -17 1 -1 0 -16 
1 -1 0 -15 1 -1 0 -13 1 -1 0 -11 1 -1 0 -6 
1 -1 0 -2 1 -1 1 0 1 1 1 1 1 1 1 1 
0 1 2 2 0 2 1 1 0 2 1 1 0 2 1 1 
0 4 1 1 0 5 1 1 0 6 1 1 0 8 1 1 
0 9 1 1 0 12 1 1 0 14 1 1 0 17 1 1 
0 20 1 1 0 22 1 1 0 21 1 1 0 19 1 1 
0 16 1 1 0 13 1 1 0 9 1 1 0 7 1 1 
0 4 1 1 0 2 1 1 1 -1 0 -2 1 -1 0 -4 
1 -1 0 -6 1 -1 0 -7 1 -1 0 -8 1 -1 0 -10 
1 -1 0 -10 1 -1 0 -10 1 -1 0 -10 1 -1 0 -10 
1 -1 0 -8 1 -1 0 -9 1 -1 0 -7 1 -1 0 -6 
1 -1 0 -6 1 -1 0 -4 1 -1 0 -3 1 -1 0 -3 
1 -1 0 -2 2 -2 1 -1 1 1 0 1 2 2 0 1 
1 1 0 3 1 1 0 3 1 1 0 3 1 1 0 5 
1 1 0 5 1 1 0 6 1 1 0 6 1 1 0 7 
1 1 0 6 1 1 0 7 1 1 0 8 1 1 0 8 
1 1 0 7 1 1 0 7 1 1 0 8 1 1 0 6 
1 1 0 6 1 1 3843 3180 300 MP stroke
0 5 1 1 0 4 1 1 0 2 1 1 0 2 1 1 
1 0 1 -1 0 -3 1 -1 0 -4 1 -1 0 -7 1 -1 
0 -8 1 -1 0 -11 1 -1 0 -12 1 -1 0 -14 1 -1 
0 -15 1 -1 0 -16 1 -1 0 -17 1 -1 0 -18 1 -1 
0 -16 1 -1 0 -17 1 -1 0 -16 1 -1 0 -15 1 -1 
0 -12 1 -1 0 -9 1 -1 0 -6 2 -2 1 1 1 0 
1 1 1 1 1 1 0 2 2 2 0 2 1 1 0 2 
1 1 0 3 1 1 0 4 1 1 0 5 1 1 0 6 
1 1 0 9 1 1 0 10 1 1 0 12 1 1 0 15 
1 1 0 18 1 1 0 21 1 1 0 22 1 1 0 21 
1 1 0 17 1 1 0 15 1 1 0 12 1 1 0 9 
1 1 0 6 1 1 0 4 2 2 1 -1 0 -3 1 -1 
0 -5 1 -1 0 -6 1 -1 0 -8 1 -1 0 -9 1 -1 
0 -9 1 -1 0 -10 1 -1 0 -11 1 -1 0 -9 1 -1 
0 -9 1 -1 0 -9 1 -1 0 -8 1 -1 0 -7 1 -1 
0 -7 1 -1 0 -4 1 -1 0 -5 1 -1 0 -3 1 -1 
0 -3 2 -2 1 -1 1 -1 1 1 0 1 2 2 0 2 
1 1 0 3 1 1 0 3 1 1 0 4 1 1 0 5 
1 1 0 5 1 1 0 6 1 1 0 6 1 1 0 7 
1 1 0 7 1 1 0 7 1 1 0 8 1 1 0 7 
1 1 0 8 1 1 0 7 1 1 0 7 1 1 0 6 
1 1 0 6 1 1 0 4 1 1 0 4 1 1 0 3 
2 2 1 0 -1 0 2 -2 0 -3 1 -1 0 -5 1 -1 
0 -7 1 -1 0 -9 1 -1 0 -12 1 -1 0 -12 1 -1 
0 -15 1 -1 0 -15 1 -1 0 -17 1 -1 0 -17 1 -1 
0 -17 1 -1 0 -17 1 -1 0 -16 1 -1 0 -15 1 -1 
0 -15 1 -1 0 -11 1 -1 0 -9 1 -1 0 -3 1 -1 
1 -1 1 1 1 1 1 0 1 1 0 2 2 2 0 2 
2 2 0 3 1 1 0 3 1 1 0 4 1 1 0 6 
1 1 0 7 1 1 0 9 1 1 0 10 1 1 0 13 
1 1 0 16 1 1 0 19 1 1 0 22 1 1 0 21 
1 1 0 21 1 1 0 16 1 1 0 14 1 1 0 12 
1 1 0 8 1 1 0 5 1 1 0 2 1 1 1 1 
-1 0 2 -2 0 -4 1 -1 0 -5 1 -1 0 -7 1 -1 
0 -8 1 -1 0 -9 1 -1 0 -10 1 -1 0 -10 1 -1 
0 -9 1 -1 0 -10 1 -1 0 -9 1 -1 0 -9 1 -1 
0 -8 1 -1 0 -6 1 -1 0 -6 1 -1 0 -5 1 -1 
0 -4 1 -1 0 -3 3677 3297 300 MP stroke
1 -1 0 -2 1 -1 0 -1 1 -1 1 0 1 -1 1 1 
0 2 2 2 0 2 1 1 0 3 1 1 0 4 1 1 
0 4 1 1 0 5 1 1 0 5 1 1 0 6 1 1 
0 6 1 1 0 7 1 1 0 7 1 1 0 8 1 1 
0 7 1 1 0 8 1 1 0 7 1 1 0 7 1 1 
0 7 1 1 0 6 1 1 0 6 1 1 0 4 1 1 
0 3 1 1 0 2 1 1 1 1 0 -1 2 -2 0 -4 
1 -1 0 -6 1 -1 0 -7 1 -1 0 -10 1 -1 0 -11 
1 -1 0 -13 1 -1 0 -15 1 -1 0 -16 1 -1 0 -17 
1 -1 0 -17 1 -1 0 -17 1 -1 0 -17 1 -1 0 -17 
1 -1 0 -14 1 -1 0 -14 1 -1 0 -11 1 -1 0 -6 
1 -1 0 -3 1 -1 1 0 1 1 1 1 1 1 1 1 
1 1 0 2 2 2 0 2 1 1 0 3 1 1 0 3 
1 1 0 5 1 1 0 6 1 1 0 8 1 1 0 9 
1 1 0 11 1 1 0 14 1 1 0 17 1 1 0 19 
1 1 0 22 1 1 0 22 1 1 0 19 1 1 0 16 
1 1 0 13 1 1 0 10 1 1 0 8 1 1 0 4 
1 1 0 2 2 0 0 -2 1 -1 0 -3 1 -1 0 -6 
1 -1 0 -7 1 -1 0 -9 1 -1 0 -9 1 -1 0 -10 
1 -1 0 -10 1 -1 0 -10 1 -1 0 -9 1 -1 0 -10 
1 -1 0 -8 1 -1 0 -7 1 -1 0 -7 1 -1 0 -5 
1 -1 0 -5 1 -1 0 -3 1 -1 0 -3 1 -1 0 -2 
2 -2 1 -1 1 1 1 1 1 1 0 2 1 1 0 2 
1 1 0 3 1 1 0 4 1 1 0 4 1 1 0 5 
1 1 0 6 1 1 0 6 1 1 0 6 1 1 0 7 
1 1 0 7 1 1 0 8 1 1 0 8 1 1 0 7 
1 1 0 7 1 1 0 8 1 1 0 6 1 1 0 6 
1 1 0 5 1 1 0 4 1 1 0 4 2 2 1 1 
1 -1 0 -3 1 -1 0 -4 1 -1 0 -6 1 -1 0 -8 
1 -1 0 -11 1 -1 0 -12 1 -1 0 -14 1 -1 0 -15 
1 -1 0 -16 1 -1 0 -16 1 -1 0 -18 1 -1 0 -17 
1 -1 0 -16 1 -1 0 -17 1 -1 0 -14 1 -1 0 -13 
1 -1 0 -10 1 -1 0 -6 2 -2 1 1 1 0 1 1 
1 1 0 1 2 2 0 2 2 2 0 2 1 1 0 3 
1 1 0 4 1 1 0 5 1 1 0 7 1 1 0 7 
1 1 0 10 1 1 0 12 1 1 0 15 1 1 0 17 
1 1 0 21 1 1 0 22 1 1 0 21 1 1 0 18 
1 1 0 15 1 1 3508 3195 300 MP stroke
0 12 1 1 0 9 1 1 0 6 1 1 0 4 1 1 
1 1 1 -1 0 -2 1 -1 0 -4 1 -1 0 -7 1 -1 
0 -7 1 -1 0 -9 1 -1 0 -9 1 -1 0 -10 1 -1 
0 -10 1 -1 0 -10 1 -1 0 -9 1 -1 0 -9 1 -1 
0 -8 1 -1 0 -7 1 -1 0 -6 1 -1 0 -6 1 -1 
0 -4 1 -1 0 -3 1 -1 0 -3 2 -2 1 -1 1 -1 
1 1 0 1 2 2 0 2 1 1 0 2 1 1 0 4 
1 1 0 4 1 1 0 4 1 1 0 5 1 1 0 6 
1 1 0 6 1 1 0 6 1 1 0 7 1 1 0 7 
1 1 0 8 1 1 0 7 1 1 0 8 1 1 0 7 
1 1 0 7 1 1 0 6 1 1 0 6 1 1 0 4 
1 1 0 4 1 1 0 3 2 2 1 -1 1 -1 0 -3 
1 -1 0 -5 1 -1 0 -7 1 -1 0 -9 1 -1 0 -11 
1 -1 0 -12 1 -1 0 -15 1 -1 0 -15 1 -1 0 -16 
1 -1 0 -17 1 -1 0 -17 1 -1 0 -16 1 -1 0 -17 
1 -1 0 -15 1 -1 0 -14 1 -1 0 -12 1 -1 0 -8 
1 -1 0 -4 1 -1 1 -1 1 1 1 1 1 0 0 1 
2 2 1 1 0 2 1 1 0 1 1 1 0 3 1 1 
0 3 1 1 0 4 1 1 0 5 1 1 0 7 1 1 
0 8 1 1 0 11 1 1 0 12 1 1 0 15 1 1 
0 17 1 1 0 21 1 1 0 21 1 1 0 19 1 1 
0 16 1 1 0 13 1 1 0 11 1 1 0 7 1 1 
0 5 1 1 0 2 1 1 1 0 -1 0 2 -2 0 -3 
1 -1 0 -5 1 -1 0 -6 1 -1 0 -8 1 -1 0 -9 
1 -1 0 -9 1 -1 0 -8 1 -1 0 -10 1 -1 0 -9 
1 -1 0 -9 1 -1 0 -7 1 -1 0 -8 1 -1 0 -6 
1 -1 0 -5 1 -1 0 -5 1 -1 0 -3 1 -1 0 -3 
1 -1 0 -2 1 -1 1 -1 1 -1 1 0 1 1 1 1 
0 2 1 1 0 2 1 1 0 2 1 1 0 4 1 1 
0 4 1 1 0 4 1 1 0 5 1 1 0 6 1 1 
0 5 1 1 0 7 1 1 0 6 1 1 0 7 1 1 
0 6 1 1 0 7 1 1 0 6 1 1 0 7 1 1 
0 5 1 1 0 5 1 1 0 4 1 1 0 4 1 1 
0 2 1 1 1 1 1 1 -1 0 2 -2 0 -2 1 -1 
0 -4 1 -1 0 -6 1 -1 0 -8 1 -1 0 -9 1 -1 
0 -11 1 -1 0 -13 1 -1 0 -13 1 -1 0 -15 1 -1 
0 -14 1 -1 0 -16 1 -1 0 -15 1 -1 0 -15 1 -1 
0 -14 1 -1 0 -13 3345 3365 300 MP stroke
1 -1 0 -11 1 -1 0 -10 1 -1 0 -5 1 -1 0 -3 
2 0 1 0 1 1 1 1 0 1 2 2 1 1 0 2 
1 1 0 1 1 1 0 3 1 1 0 3 1 1 0 4 
1 1 0 5 1 1 0 6 1 1 0 7 1 1 0 9 
1 1 0 11 1 1 0 12 1 1 0 14 1 1 0 15 
1 1 0 16 1 1 0 13 1 1 0 10 1 1 0 8 
1 1 0 6 1 1 0 3 1 1 0 2 1 1 1 1 
-1 0 2 -2 0 -1 1 -1 0 -4 1 -1 0 -4 1 -1 
0 -5 1 -1 0 -6 1 -1 0 -7 1 -1 0 -6 1 -1 
0 -7 1 -1 0 -6 1 -1 0 -6 1 -1 0 -5 1 -1 
0 -6 1 -1 0 -4 1 -1 0 -4 1 -1 0 -3 1 -1 
0 -2 1 -1 0 -3 2 -2 1 -1 1 -1 1 0 1 1 
0 1 2 2 0 2 2 2 0 2 1 1 0 3 1 1 
0 3 1 1 0 2 1 1 0 4 1 1 0 4 1 1 
0 3 1 1 0 4 1 1 0 4 1 1 0 3 1 1 
0 4 1 1 0 3 1 1 0 3 1 1 0 3 1 1 
0 2 1 1 0 2 2 2 1 1 1 0 1 -1 0 -2 
1 -1 0 -2 1 -1 0 -3 1 -1 0 -4 1 -1 0 -6 
1 -1 0 -6 1 -1 0 -8 1 -1 0 -8 1 -1 0 -9 
1 -1 0 -9 1 -1 0 -9 1 -1 0 -10 1 -1 0 -10 
1 -1 0 -9 1 -1 0 -8 1 -1 0 -8 1 -1 0 -7 
1 -1 0 -6 1 -1 0 -4 1 -1 0 -2 1 -1 1 -1 
1 1 1 0 1 1 1 0 1 1 1 1 0 1 2 2 
0 2 2 2 0 2 1 1 0 2 1 1 0 2 1 1 
0 3 1 1 0 4 1 1 0 4 1 1 0 5 1 1 
0 5 1 1 0 6 1 1 0 6 1 1 0 6 1 1 
0 4 1 1 0 3 1 1 0 3 2 2 1 1 1 0 
1 -1 0 -1 2 -2 0 -2 1 -1 0 -1 1 -1 0 -2 
1 -1 0 -2 1 -1 0 -3 1 -1 0 -2 1 -1 0 -2 
1 -1 0 -2 1 -1 0 -3 2 -2 0 -2 1 -1 0 -1 
1 -1 0 -1 2 -2 1 -1 1 -1 1 0 1 0 1 -1 
1 1 1 0 1 1 1 1 1 1 1 1 1 1 0 1 
2 2 0 1 2 2 0 1 2 2 0 1 2 2 1 1 
1 1 1 1 1 1 1 1 1 0 1 0 1 0 1 0 
0 -1 2 -2 1 -1 0 -2 1 -1 0 -1 1 -1 0 -2 
1 -1 0 -2 1 -1 0 -2 1 -1 0 -3 1 -1 0 -3 
1 -1 0 -3 1 -1 0 -3 1 -1 0 -3 1 -1 0 -3 
1 -1 0 -2 1 -1 3156 3383 300 MP stroke
0 -3 1 -1 0 -2 1 -1 0 -2 1 -1 0 -3 2 -2 
1 -1 1 -1 1 0 1 0 1 0 1 0 1 1 1 0 
1 0 1 1 1 0 1 1 1 1 1 1 1 1 1 1 
0 1 2 2 0 1 2 2 0 2 2 2 0 2 2 2 
1 1 1 1 1 0 1 1 1 0 1 0 1 -1 1 0 
1 -1 1 -1 1 -1 1 0 1 -1 1 -1 1 -1 1 -1 
1 -1 1 -1 1 0 1 -1 1 0 1 -1 1 0 1 0 
1 -1 1 0 1 0 1 0 1 0 1 0 1 1 1 0 
1 0 1 0 1 1 1 0 1 1 1 0 1 0 1 1 
1 0 1 0 1 1 1 0 1 0 1 0 1 0 1 0 
1 0 1 0 1 0 1 0 1 -1 1 0 1 -1 1 0 
1 -1 1 -1 1 -1 1 -1 1 -1 1 -1 1 -1 1 -1 
1 -1 1 -1 1 -1 1 -1 1 -1 1 -1 1 0 1 -1 
1 0 1 0 1 0 1 0 1 0 1 0 1 0 1 0 
1 0 1 0 1 1 1 0 1 0 1 0 1 0 1 1 
1 0 1 1 1 0 1 0 1 1 1 0 1 1 1 0 
1 1 1 0 1 0 1 0 1 0 1 0 1 0 1 0 
1 0 1 -1 1 0 1 0 1 0 1 -1 1 0 1 0 
1 0 1 0 1 -1 1 0 1 0 1 0 1 0 1 0 
1 0 1 0 1 0 1 0 1 0 1 0 1 0 1 0 
1 0 1 0 1 0 1 0 1 0 1 0 1 0 1 0 
1 0 1 1 1 0 1 0 1 0 1 0 1 -1 1 0 
1 0 1 0 1 0 1 0 1 0 1 0 1 0 1 0 
1 0 1 -1 1 0 1 0 1 0 1 0 1 -1 1 0 
1 0 1 0 1 0 1 -1 1 0 1 0 1 0 1 0 
1 0 1 0 1 0 1 0 1 0 1 0 1 0 1 0 
1 0 1 0 1 0 1 0 1 0 1 0 1 0 1 1 
1 0 1 0 1 0 1 0 1 1 1 0 1 0 1 1 
1 0 1 0 1 0 1 0 1 0 1 0 1 0 1 0 
1 0 1 0 1 -1 1 -1 0 -2 2923 3402 238 MP stroke
c9
1 -1 0 -6 1 -1 0 -5 1 -1 0 -3 1 -1 0 -1 
1 -1 0 1 2 2 0 3 1 1 0 5 1 1 0 7 
1 1 0 9 1 1 0 10 1 1 0 11 1 1 0 11 
1 2 0 12 1 1 0 13 1 2 0 13 1 1 0 14 
1 1 0 12 1 2 0 12 1 1 0 12 1 1 0 11 
1 1 0 10 1 1 0 9 1 1 0 6 1 1 0 4 
1 1 0 2 1 1 1 0 0 -2 1 -1 0 -5 1 -1 
0 -9 1 -1 0 -11 1 -1 0 -16 1 -1 0 -20 1 -2 
0 -23 1 -2 0 -26 1 -2 0 -29 1 -2 0 -35 1 -2 
0 -35 1 -3 0 -40 1 -3 0 -41 1 -3 0 -43 1 -3 
0 -45 1 -3 0 -46 1 -3 0 -45 1 -3 0 -47 1 -3 
0 -43 1 -3 0 -42 1 -3 0 -39 1 -2 0 -38 1 -2 
0 -33 1 -2 0 -29 1 -2 0 -24 1 -1 0 -21 1 -1 
0 -17 1 -1 0 -10 1 -1 0 -7 1 -1 1 -3 -1 0 
2 2 0 3 1 1 0 4 1 1 0 5 1 1 0 6 
1 1 0 7 1 1 0 9 1 1 0 11 1 1 0 12 
1 1 0 15 1 1 0 17 1 1 0 21 1 2 0 24 
1 2 0 28 1 1 0 32 1 2 0 37 1 2 0 42 
1 2 0 44 1 2 0 47 1 2 0 50 1 2 0 50 
1 2 0 47 1 2 0 44 1 1 0 40 1 1 0 33 
1 1 0 28 1 1 0 23 1 1 0 15 1 2 0 9 
1 1 0 5 1 1 1 1 0 -2 1 -1 0 -4 1 -1 
0 -8 1 -1 0 -8 1 -1 0 -9 1 -1 0 -9 1 -1 
0 -9 1 -1 0 -7 1 -1 0 -6 1 -1 0 -4 1 -1 
0 -3 2 -2 1 1 0 2 1 1 0 4 1 1 0 6 
1 1 0 7 1 1 0 9 1 1 0 10 1 1 0 11 
1 2 0 12 1 1 0 12 1 2 0 13 1 1 0 14 
1 1 0 12 1 1 0 14 1 1 0 12 1 2 0 11 
1 1 0 11 1 1 0 10 1 1 0 7 1 1 0 6 
1 1 0 4 2 2 1 -1 0 -2 1 -1 0 -7 1 -1 
0 -9 1 -1 0 -13 1 -2 0 -16 1 -1 0 -21 1 -2 
0 -22 1 -2 0 -29 1 -2 0 -30 1 -3 0 -35 1 -3 
0 -35 1 -3 0 -42 1 -3 0 -41 1 -2 0 -44 1 -3 
0 -47 1 -3 0 -46 1 -2 0 -45 1 -3 0 -44 1 -3 
0 -46 1 -2 0 -40 1 -2 0 -39 1 -2 0 -37 1 -2 
0 -33 1 -2 0 -27 1 -2 0 -24 1 -1 0 -19 1 -1 
0 -15 1 -1 0 -9 1 -1 0 -6 2 -2 0 2 1 1 
0 3 1 1 0 4 4681 3350 300 MP stroke
1 1 0 6 1 1 0 6 1 1 0 8 1 1 0 9 
1 1 0 11 1 1 0 14 1 1 0 15 1 1 0 18 
1 1 0 22 1 1 0 27 1 1 0 29 1 2 0 34 
1 1 0 39 1 2 0 42 1 2 0 45 1 1 0 50 
1 2 0 50 1 2 0 49 1 2 0 47 1 2 0 42 
1 1 0 37 1 1 0 32 1 1 0 27 1 1 0 20 
1 2 0 13 1 1 0 8 1 1 0 4 1 1 1 0 
0 -3 1 -1 0 -6 1 -1 0 -7 1 -1 0 -9 1 -1 
0 -9 1 -1 0 -9 1 -1 0 -8 1 -1 0 -7 1 -1 
0 -6 1 -1 0 -3 1 -1 0 -2 1 -1 1 -1 -1 0 
2 2 0 2 1 1 0 5 1 1 0 6 1 1 0 8 
1 1 0 10 1 1 0 10 1 1 0 12 1 1 0 11 
1 1 0 14 1 1 0 13 1 1 0 14 1 1 0 13 
1 1 0 13 1 1 0 13 1 1 0 11 1 1 0 11 
1 1 0 8 1 1 0 7 1 1 0 5 1 1 0 3 
1 1 1 1 1 -1 0 -4 1 -1 0 -7 1 -1 0 -11 
1 -1 0 -14 1 -1 0 -19 1 -1 0 -20 1 -2 0 -25 
1 -2 0 -30 1 -2 0 -31 1 -2 0 -36 1 -3 0 -37 
1 -2 0 -43 1 -3 0 -41 1 -3 0 -45 1 -3 0 -45 
1 -2 0 -48 1 -3 0 -45 1 -2 0 -44 1 -3 0 -43 
1 -3 0 -42 1 -2 0 -38 1 -3 0 -35 1 -2 0 -30 
1 -2 0 -27 1 -1 0 -22 1 -1 0 -18 1 -1 0 -13 
1 -1 0 -8 1 -1 0 -5 2 0 0 2 1 1 0 4 
1 1 0 4 1 1 0 6 1 1 0 7 1 1 0 8 
1 1 0 10 1 1 0 11 1 1 0 14 1 1 0 17 
1 1 0 19 1 1 0 23 1 1 0 27 1 2 0 31 
1 1 0 35 1 2 0 39 1 2 0 43 1 2 0 47 
1 2 0 50 1 1 0 51 1 1 0 50 1 2 0 45 
1 1 0 41 1 2 0 35 1 1 0 30 1 1 0 25 
1 1 0 19 1 1 0 11 1 1 0 7 1 1 0 2 
1 1 1 -1 0 -4 1 -1 0 -6 1 -1 0 -8 1 -1 
0 -9 1 -1 0 -9 1 -1 0 -9 1 -1 0 -8 1 -1 
0 -6 1 -1 0 -5 1 -1 0 -3 1 -1 0 -2 1 -1 
1 1 0 1 1 1 0 3 1 1 0 5 1 1 0 6 
1 1 0 9 1 1 0 9 1 2 0 10 1 1 0 12 
1 1 0 13 1 1 0 13 1 1 0 14 1 1 0 12 
1 2 0 13 1 1 0 13 1 1 0 12 1 1 0 11 
1 1 0 10 1 1 4527 2505 300 MP stroke
0 9 1 1 0 6 1 1 0 5 1 1 0 2 1 1 
1 0 -1 0 2 -2 0 -5 1 -1 0 -8 1 -1 0 -12 
1 -1 0 -16 1 -1 0 -18 1 -2 0 -22 1 -2 0 -26 
1 -2 0 -31 1 -2 0 -32 1 -2 0 -38 1 -2 0 -38 
1 -2 0 -44 1 -3 0 -43 1 -3 0 -43 1 -3 0 -46 
1 -3 0 -45 1 -3 0 -47 1 -2 0 -44 1 -3 0 -42 
1 -3 0 -39 1 -2 0 -38 1 -3 0 -33 1 -2 0 -30 
1 -2 0 -25 1 -1 0 -22 1 -1 0 -16 1 -1 0 -12 
1 -1 0 -6 1 -1 0 -3 1 -1 1 1 0 3 1 1 
0 4 1 1 0 5 1 1 0 6 1 1 0 7 1 1 
0 9 1 1 0 10 1 1 0 13 1 1 0 14 1 1 
0 17 1 1 0 21 1 1 0 25 1 1 0 28 1 1 
0 32 1 2 0 36 1 1 0 42 1 2 0 44 1 1 
0 48 1 2 0 49 1 2 0 51 1 2 0 47 1 2 
0 45 1 2 0 38 1 1 0 35 1 1 0 29 1 1 
0 23 1 1 0 16 1 1 0 11 1 1 0 5 1 1 
1 1 -1 0 2 -2 0 -5 1 -1 0 -7 1 -1 0 -8 
1 -1 0 -9 1 -1 0 -9 1 -1 0 -9 1 -1 0 -7 
1 -1 0 -6 1 -1 0 -5 1 -1 0 -3 2 -2 1 1 
0 2 1 1 0 3 1 1 0 6 1 1 0 7 1 1 
0 9 1 1 0 10 1 1 0 12 1 1 0 11 1 1 
0 13 1 2 0 12 1 1 0 14 1 1 0 13 1 2 
0 12 1 1 0 14 1 1 0 12 1 1 0 9 1 2 
0 9 1 1 0 8 1 1 0 6 1 1 0 5 2 2 
1 0 0 -3 1 -1 0 -5 1 -1 0 -10 1 -1 0 -13 
1 -1 0 -16 1 -1 0 -21 1 -1 0 -24 1 -2 0 -27 
1 -2 0 -30 1 -2 0 -35 1 -2 0 -36 1 -3 0 -41 
1 -3 0 -41 1 -3 0 -43 1 -3 0 -48 1 -2 0 -46 
1 -3 0 -45 1 -2 0 -45 1 -2 0 -44 1 -2 0 -43 
1 -2 0 -39 1 -3 0 -37 1 -2 0 -33 1 -2 0 -28 
1 -1 0 -25 1 -1 0 -19 1 -1 0 -15 1 -1 0 -10 
1 -1 0 -6 1 -1 1 -2 -1 0 2 2 0 4 1 1 
0 4 1 1 0 5 1 1 0 6 1 1 0 8 1 1 
0 9 1 1 0 11 1 1 0 13 1 1 0 15 1 1 
0 19 1 1 0 21 1 1 0 26 1 2 0 28 1 2 
0 34 1 1 0 37 1 2 0 42 1 2 0 46 1 2 
0 47 1 2 0 50 1 2 0 49 1 2 0 48 1 2 
0 42 1 2 0 38 4373 2725 300 MP stroke
1 2 0 32 1 1 0 26 1 1 0 21 1 2 0 14 
1 1 0 9 1 1 0 4 1 1 1 0 0 -3 1 -1 
0 -5 1 -1 0 -7 1 -1 0 -9 1 -1 0 -9 1 -1 
0 -9 1 -1 0 -8 1 -1 0 -8 1 -1 0 -5 1 -1 
0 -4 1 -1 0 -2 1 -1 1 -1 -1 0 2 2 0 2 
1 1 0 4 1 1 0 6 1 1 0 8 1 1 0 9 
1 1 0 10 1 1 0 12 1 1 0 13 1 1 0 12 
1 1 0 14 1 1 0 13 1 2 0 12 1 1 0 14 
1 1 0 12 1 1 0 12 1 1 0 10 1 1 0 10 
1 1 0 7 1 1 0 5 1 1 0 3 1 1 1 1 
1 -1 0 -3 1 -1 0 -7 1 -1 0 -11 1 -1 0 -13 
1 -1 0 -19 1 -1 0 -20 1 -2 0 -24 1 -2 0 -30 
1 -2 0 -31 1 -2 0 -36 1 -3 0 -36 1 -3 0 -42 
1 -3 0 -41 1 -3 0 -46 1 -3 0 -44 1 -3 0 -45 
1 -3 0 -47 1 -3 0 -44 1 -3 0 -43 1 -2 0 -42 
1 -3 0 -38 1 -2 0 -34 1 -2 0 -31 1 -2 0 -28 
1 -1 0 -23 1 -1 0 -19 1 -1 0 -13 1 -1 0 -9 
1 -1 0 -4 1 -1 0 -1 0 1 2 2 0 4 1 1 
0 5 1 1 0 5 1 1 0 7 1 1 0 8 1 1 
0 9 1 1 0 11 1 1 0 15 1 1 0 16 1 1 
0 19 1 1 0 22 1 2 0 27 1 1 0 31 1 1 
0 35 1 2 0 39 1 1 0 44 1 1 0 45 1 2 
0 50 1 2 0 50 1 2 0 49 1 2 0 47 1 1 
0 40 1 2 0 36 1 2 0 30 1 1 0 25 1 1 
0 20 1 1 0 12 1 1 0 8 1 1 0 2 1 1 
1 -1 0 -3 1 -1 0 -6 1 -1 0 -8 1 -1 0 -9 
1 -1 0 -9 1 -1 0 -9 1 -1 0 -8 1 -1 0 -7 
1 -1 0 -5 1 -1 0 -4 2 -2 1 -1 -1 0 2 2 
0 3 1 1 0 5 1 1 0 7 1 1 0 8 1 1 
0 9 1 1 0 11 1 2 0 10 1 2 0 12 1 1 
0 14 1 1 0 13 1 1 0 13 1 1 0 14 1 1 
0 12 1 1 0 13 1 2 0 10 1 1 0 10 1 1 
0 9 1 1 0 7 1 1 0 4 1 1 0 3 1 1 
1 0 -1 0 2 -2 0 -4 1 -1 0 -8 1 -1 0 -12 
1 -1 0 -15 1 -1 0 -18 1 -2 0 -22 1 -2 0 -25 
1 -2 0 -29 1 -2 0 -34 1 -2 0 -37 1 -3 0 -37 
1 -3 0 -40 1 -3 0 -44 1 -3 0 -45 1 -3 0 -47 
1 -2 0 -46 1 -2 4218 2977 300 MP stroke
0 -45 1 -2 0 -47 1 -2 0 -43 1 -3 0 -39 1 -2 
0 -38 1 -3 0 -34 1 -1 0 -30 1 -1 0 -26 1 -1 
0 -22 1 -1 0 -17 1 -1 0 -12 1 -1 0 -8 1 -1 
0 -3 2 0 0 3 1 1 0 4 1 1 0 4 1 1 
0 6 1 1 0 7 1 1 0 9 1 1 0 10 1 1 
0 12 1 1 0 14 1 1 0 18 1 1 0 20 1 1 
0 24 1 1 0 28 1 1 0 32 1 1 0 36 1 2 
0 41 1 2 0 44 1 1 0 48 1 1 0 50 1 2 
0 49 1 1 0 50 1 1 0 45 1 2 0 40 1 1 
0 35 1 1 0 29 1 1 0 23 1 1 0 17 1 1 
0 11 1 1 0 6 1 1 1 2 -1 0 2 -2 0 -4 
1 -1 0 -7 1 -1 0 -8 1 -1 0 -9 1 -1 0 -9 
1 -1 0 -9 1 -1 0 -7 1 -1 0 -7 1 -1 0 -4 
1 -1 0 -4 2 -2 0 1 2 2 0 4 1 1 0 5 
1 1 0 8 1 1 0 8 1 1 0 9 1 1 0 12 
1 1 0 11 1 1 0 14 1 1 0 12 1 2 0 13 
1 1 0 14 1 1 0 12 1 2 0 13 1 1 0 12 
1 1 0 11 1 1 0 9 1 1 0 8 1 1 0 6 
1 1 0 5 1 1 0 1 1 1 1 0 0 -2 1 -1 
0 -6 1 -1 0 -8 1 -1 0 -13 1 -1 0 -16 1 -1 
0 -21 1 -1 0 -22 1 -2 0 -28 1 -2 0 -30 1 -2 
0 -35 1 -2 0 -36 1 -2 0 -41 1 -3 0 -41 1 -3 
0 -43 1 -3 0 -45 1 -3 0 -46 1 -3 0 -45 1 -3 
0 -47 1 -2 0 -44 1 -2 0 -43 1 -2 0 -39 1 -3 
0 -37 1 -2 0 -32 1 -2 0 -29 1 -1 0 -25 1 -2 
0 -20 1 -1 0 -15 1 -1 0 -10 1 -1 0 -6 1 -1 
1 -3 -1 0 2 2 0 3 1 1 0 4 1 1 0 5 
1 1 0 7 1 1 0 7 1 1 0 9 1 1 0 10 
1 1 0 13 1 1 0 16 1 1 0 17 1 1 0 22 
1 1 0 25 1 1 0 29 1 1 0 34 1 1 0 37 
1 1 0 42 1 2 0 46 1 2 0 48 1 2 0 49 
1 2 0 49 1 2 0 49 1 1 0 44 1 1 0 38 
1 1 0 34 1 1 0 27 1 1 0 21 1 1 0 16 
1 1 0 9 1 1 0 4 1 1 1 1 0 -2 1 -1 
0 -5 1 -1 0 -7 1 -1 0 -9 1 -1 0 -9 1 -1 
0 -9 1 -1 0 -9 1 -1 0 -7 1 -1 0 -6 1 -1 
0 -4 1 -1 0 -2 1 -1 1 -1 1 1 0 3 1 1 
0 3 1 1 0 7 4063 2675 300 MP stroke
1 1 0 7 1 1 0 9 1 1 0 10 1 1 0 12 
1 1 0 11 1 2 0 13 1 1 0 14 1 1 0 12 
1 1 0 14 1 1 0 14 1 1 0 12 1 1 0 12 
1 1 0 11 1 1 0 8 1 1 0 8 1 1 0 5 
1 1 0 4 1 1 1 1 1 -1 0 -3 1 -1 0 -7 
1 -1 0 -9 1 -1 0 -14 1 -1 0 -17 1 -1 0 -22 
1 -1 0 -25 1 -2 0 -27 1 -2 0 -30 1 -3 0 -35 
1 -3 0 -39 1 -2 0 -39 1 -3 0 -41 1 -3 0 -46 
1 -3 0 -45 1 -3 0 -45 1 -3 0 -47 1 -3 0 -44 
1 -3 0 -43 1 -3 0 -42 1 -2 0 -39 1 -2 0 -34 
1 -2 0 -32 1 -2 0 -28 1 -2 0 -23 1 -1 0 -19 
1 -1 0 -14 1 -1 0 -9 1 -1 0 -5 2 -2 0 2 
1 1 0 4 1 1 0 4 1 1 0 5 1 1 0 7 
1 1 0 8 1 1 0 9 1 1 0 11 1 1 0 14 
1 1 0 16 1 1 0 18 1 1 0 24 1 1 0 25 
1 2 0 30 1 2 0 34 1 2 0 37 1 2 0 43 
1 1 0 47 1 2 0 50 1 1 0 50 1 2 0 49 
1 2 0 46 1 2 0 42 1 2 0 36 1 1 0 31 
1 1 0 26 1 1 0 19 1 2 0 14 1 1 0 7 
1 1 0 3 1 1 1 -1 0 -3 1 -1 0 -5 1 -1 
0 -8 1 -1 0 -9 1 -1 0 -9 1 -1 0 -9 1 -1 
0 -8 1 -1 0 -7 1 -1 0 -5 1 -1 0 -5 2 -2 
1 -1 -1 0 2 2 0 3 1 1 0 4 1 1 0 7 
1 1 0 8 1 1 0 9 1 1 0 10 1 2 0 12 
1 1 0 12 1 1 0 13 1 1 0 13 1 1 0 14 
1 1 0 14 1 1 0 12 1 1 0 13 1 1 0 11 
1 1 0 11 1 1 0 8 1 1 0 7 1 1 0 5 
1 1 0 2 1 1 1 1 -1 0 2 -2 0 -4 1 -1 
0 -8 1 -1 0 -10 1 -1 0 -15 1 -1 0 -18 1 -1 
0 -22 1 -2 0 -25 1 -2 0 -31 1 -2 0 -31 1 -2 
0 -37 1 -3 0 -37 1 -2 0 -43 1 -3 0 -41 1 -3 
0 -46 1 -2 0 -45 1 -2 0 -48 1 -3 0 -45 1 -2 
0 -44 1 -3 0 -43 1 -2 0 -42 1 -2 0 -38 1 -3 
0 -32 1 -2 0 -32 1 -2 0 -26 1 -1 0 -23 1 -1 
0 -17 1 -1 0 -12 1 -1 0 -8 1 -1 0 -4 2 0 
0 2 1 1 0 4 1 1 0 5 1 1 0 6 1 1 
0 7 1 1 0 8 1 1 0 10 1 1 0 11 1 1 
0 15 1 1 0 17 3908 3266 300 MP stroke
1 1 0 20 1 1 0 22 1 2 0 27 1 1 0 32 
1 1 0 37 1 2 0 39 1 2 0 43 1 2 0 47 
1 2 0 50 1 2 0 48 1 2 0 49 1 2 0 46 
1 2 0 40 1 1 0 35 1 1 0 30 1 1 0 24 
1 1 0 18 1 1 0 11 1 1 0 8 2 2 1 -1 
0 -4 1 -1 0 -7 1 -1 0 -8 1 -1 0 -9 1 -1 
0 -9 1 -1 0 -9 1 -1 0 -8 1 -1 0 -6 1 -1 
0 -5 1 -1 0 -4 2 -2 0 1 2 2 0 3 1 1 
0 5 1 1 0 8 1 1 0 8 1 1 0 9 1 1 
0 12 1 1 0 11 1 1 0 14 1 1 0 12 1 1 
0 14 1 1 0 13 1 2 0 12 1 1 0 14 1 1 
0 12 1 1 0 11 1 1 0 9 1 1 0 8 1 1 
0 7 1 1 0 4 1 1 0 2 1 1 1 0 0 -2 
1 -1 0 -5 1 -1 0 -8 1 -1 0 -13 1 -1 0 -16 
1 -1 0 -19 1 -1 0 -23 1 -2 0 -26 1 -2 0 -31 
1 -3 0 -32 1 -2 0 -38 1 -2 0 -38 1 -3 0 -41 
1 -3 0 -43 1 -3 0 -46 1 -2 0 -47 1 -2 0 -48 
1 -3 0 -44 1 -3 0 -43 1 -3 0 -43 1 -2 0 -39 
1 -3 0 -37 1 -3 0 -32 1 -2 0 -30 1 -1 0 -26 
1 -1 0 -21 1 -1 0 -15 1 -1 0 -11 1 -1 0 -7 
1 -1 1 -3 -1 0 2 2 0 3 1 1 0 4 1 1 
0 5 1 1 0 6 1 1 0 7 1 1 0 9 1 1 
0 10 1 1 0 13 1 1 0 15 1 1 0 17 1 1 
0 22 1 1 0 25 1 1 0 28 1 2 0 32 1 1 
0 38 1 1 0 41 1 1 0 46 1 2 0 48 1 2 
0 49 1 2 0 49 1 2 0 49 1 1 0 45 1 1 
0 38 1 2 0 34 1 1 0 27 1 1 0 22 1 1 
0 16 1 1 0 10 1 1 0 5 1 1 1 1 0 -2 
1 -1 0 -4 1 -1 0 -7 1 -1 0 -9 1 -1 0 -9 
1 -1 0 -9 1 -1 0 -9 1 -1 0 -7 1 -1 0 -6 
1 -1 0 -4 1 -1 0 -3 1 -1 1 -1 1 1 0 2 
1 1 0 4 1 1 0 6 1 1 0 7 1 1 0 9 
1 1 0 10 1 1 0 12 1 1 0 11 1 1 0 14 
1 1 0 12 1 1 0 14 1 1 0 14 1 1 0 12 
1 1 0 14 1 1 0 12 1 1 0 10 1 1 0 9 
1 1 0 8 1 1 0 6 1 1 0 4 2 2 1 -1 
0 -2 1 -1 0 -6 1 -1 0 -10 1 -1 0 -13 1 -1 
0 -18 1 -1 0 -19 3751 2553 300 MP stroke
1 -2 0 -24 1 -2 0 -27 1 -2 0 -32 1 -2 0 -33 
1 -3 0 -38 1 -3 0 -39 1 -3 0 -44 1 -3 0 -43 
1 -3 0 -44 1 -3 0 -46 1 -3 0 -47 1 -3 0 -44 
1 -3 0 -43 1 -3 0 -42 1 -2 0 -39 1 -2 0 -37 
1 -2 0 -31 1 -2 0 -29 1 -1 0 -24 1 -1 0 -19 
1 -1 0 -14 1 -1 0 -10 1 -1 0 -6 2 -2 0 2 
1 1 0 3 1 1 0 4 1 1 0 6 1 1 0 6 
1 1 0 8 1 1 0 9 1 1 0 11 1 1 0 13 
1 1 0 16 1 1 0 18 1 2 0 21 1 2 0 25 
1 1 0 31 1 1 0 34 1 2 0 38 1 2 0 41 
1 2 0 46 1 2 0 48 1 2 0 49 1 2 0 51 
1 2 0 46 1 2 0 43 1 2 0 36 1 1 0 32 
1 1 0 26 1 1 0 20 1 2 0 14 1 1 0 9 
1 1 0 3 1 1 1 0 0 -3 1 -1 0 -6 1 -1 
0 -7 1 -1 0 -9 1 -1 0 -9 1 -1 0 -9 1 -1 
0 -8 1 -1 0 -7 1 -1 0 -6 1 -1 0 -3 1 -1 
0 -2 1 -1 1 -1 -1 0 2 2 0 2 1 1 0 5 
1 1 0 6 1 1 0 8 1 1 0 9 1 1 0 11 
1 1 0 11 1 1 0 13 1 1 0 12 1 1 0 14 
1 1 0 13 1 2 0 13 1 1 0 13 1 1 0 12 
1 1 0 12 1 1 0 10 1 1 0 9 1 1 0 7 
1 1 0 5 1 1 0 3 1 1 1 1 -1 0 2 -2 
0 -3 1 -1 0 -8 1 -1 0 -10 1 -1 0 -14 1 -2 
0 -17 1 -1 0 -22 1 -2 0 -25 1 -2 0 -28 1 -2 
0 -33 1 -2 0 -34 1 -3 0 -39 1 -3 0 -39 1 -3 
0 -44 1 -3 0 -43 1 -3 0 -47 1 -3 0 -45 1 -3 
0 -47 1 -3 0 -44 1 -2 0 -43 1 -3 0 -39 1 -3 
0 -38 1 -2 0 -36 1 -2 0 -30 1 -2 0 -27 1 -2 
0 -23 1 -1 0 -17 1 -1 0 -13 1 -1 0 -9 1 -1 
0 -4 2 0 0 2 1 1 0 4 1 1 0 4 1 1 
0 6 1 1 0 7 1 1 0 8 1 1 0 9 1 1 
0 12 1 1 0 14 1 1 0 16 1 1 0 20 1 1 
0 24 1 1 0 26 1 1 0 31 1 2 0 35 1 1 
0 41 1 2 0 43 1 2 0 47 1 2 0 48 1 1 
0 50 1 2 0 50 1 1 0 47 1 1 0 40 1 1 
0 36 1 1 0 31 1 1 0 24 1 1 0 18 1 1 
0 13 1 1 0 7 1 1 0 2 1 1 1 -1 0 -4 
1 -1 0 -7 1 -1 3597 2624 300 MP stroke
0 -7 1 -1 0 -9 1 -1 0 -9 1 -1 0 -9 1 -1 
0 -8 1 -1 0 -7 1 -1 0 -5 1 -1 0 -4 2 -2 
1 0 -1 0 2 2 0 3 1 1 0 6 1 1 0 6 
1 1 0 9 1 1 0 9 1 1 0 10 1 2 0 12 
1 1 0 12 1 1 0 14 1 1 0 12 1 1 0 14 
1 1 0 14 1 1 0 12 1 1 0 12 1 2 0 11 
1 1 0 10 1 1 0 8 1 1 0 7 1 1 0 4 
1 1 0 2 1 1 0 1 0 -1 2 -2 0 -5 1 -1 
0 -8 1 -1 0 -12 1 -1 0 -16 1 -1 0 -18 1 -2 
0 -22 1 -2 0 -26 1 -2 0 -31 1 -2 0 -32 1 -2 
0 -38 1 -2 0 -38 1 -3 0 -43 1 -3 0 -41 1 -3 
0 -45 1 -3 0 -46 1 -3 0 -45 1 -3 0 -47 1 -2 
0 -44 1 -3 0 -42 1 -3 0 -39 1 -2 0 -38 1 -2 
0 -34 1 -2 0 -30 1 -1 0 -25 1 -2 0 -21 1 -1 
0 -16 1 -1 0 -11 1 -1 0 -7 1 -1 0 -3 1 -1 
1 1 0 3 1 1 0 4 1 1 0 5 1 1 0 6 
1 1 0 7 1 1 0 9 1 1 0 10 1 1 0 12 
1 1 0 14 1 1 0 17 1 2 0 21 1 1 0 24 
1 1 0 28 1 2 0 31 1 2 0 37 1 2 0 39 
1 2 0 44 1 2 0 47 1 1 0 50 1 2 0 50 
1 2 0 47 1 2 0 45 1 2 0 38 1 1 0 35 
1 1 0 28 1 1 0 22 1 1 0 17 1 1 0 10 
1 1 0 6 2 2 0 -2 1 -1 0 -4 1 -1 0 -7 
1 -1 0 -8 1 -1 0 -9 1 -1 0 -9 1 -1 0 -8 
1 -1 0 -8 1 -1 0 -6 1 -1 0 -4 1 -1 0 -3 
1 -1 1 -1 1 0 0 2 1 1 0 4 1 1 0 5 
1 1 0 8 1 1 0 8 1 1 0 9 1 2 0 11 
1 1 0 12 1 2 0 12 1 1 0 13 1 1 0 12 
1 2 0 13 1 1 0 13 1 2 0 12 1 1 0 11 
1 2 0 10 1 1 0 9 1 1 0 7 1 1 0 6 
1 1 0 4 1 1 0 1 1 1 1 -1 0 -3 1 -1 
0 -6 1 -1 0 -10 1 -1 0 -12 1 -1 0 -16 1 -2 
0 -20 1 -2 0 -24 1 -1 0 -27 1 -2 0 -32 1 -2 
0 -33 1 -3 0 -38 1 -2 0 -39 1 -3 0 -40 1 -3 
0 -46 1 -3 0 -44 1 -3 0 -45 1 -3 0 -45 1 -2 
0 -44 1 -3 0 -43 1 -3 0 -42 1 -2 0 -39 1 -2 
0 -37 1 -2 0 -31 1 -1 0 -28 1 -2 0 -24 1 -1 
0 -20 1 -1 0 -14 3443 3341 300 MP stroke
1 -1 0 -10 1 -1 0 -5 1 -1 1 -2 -1 0 2 2 
0 3 1 1 0 4 1 1 0 5 1 1 0 6 1 1 
0 7 1 1 0 9 1 1 0 11 1 1 0 12 1 1 
0 15 1 1 0 18 1 1 0 20 1 2 0 23 1 2 
0 28 1 2 0 32 1 2 0 36 1 2 0 38 1 2 
0 44 1 2 0 45 1 2 0 48 1 2 0 47 1 2 
0 44 1 2 0 41 1 1 0 35 1 2 0 30 1 1 
0 24 1 1 0 19 1 2 0 14 1 1 0 8 1 1 
0 4 2 0 0 -2 1 -1 0 -5 1 -1 0 -7 1 -1 
0 -8 1 -1 0 -8 1 -1 0 -8 1 -1 0 -8 1 -1 
0 -6 1 -1 0 -5 1 -1 0 -4 1 -1 0 -1 1 -1 
1 -1 1 1 0 3 1 1 0 4 1 1 0 5 1 1 
0 7 1 1 0 9 1 1 0 8 1 1 0 11 1 1 
0 11 1 2 0 11 1 1 0 12 1 1 0 12 1 1 
0 11 1 1 0 12 1 1 0 10 1 1 0 9 1 1 
0 8 1 1 0 7 1 1 0 6 1 1 0 4 2 2 
1 -1 0 -2 1 -1 0 -5 1 -1 0 -9 1 -1 0 -11 
1 -1 0 -15 1 -2 0 -17 1 -2 0 -22 1 -2 0 -24 
1 -2 0 -28 1 -2 0 -30 1 -2 0 -35 1 -3 0 -35 
1 -2 0 -38 1 -3 0 -40 1 -3 0 -42 1 -3 0 -41 
1 -2 0 -43 1 -3 0 -42 1 -3 0 -39 1 -2 0 -39 
1 -2 0 -38 1 -2 0 -34 1 -2 0 -30 1 -2 0 -29 
1 -1 0 -23 1 -1 0 -21 1 -1 0 -15 1 -1 0 -11 
1 -1 0 -8 1 -1 0 -4 2 0 0 1 1 1 0 3 
1 1 0 3 1 1 0 5 1 1 0 5 1 1 0 6 
1 1 0 8 1 1 0 8 1 1 0 11 1 1 0 12 
1 1 0 15 1 1 0 18 1 1 0 20 1 1 0 23 
1 1 0 27 1 1 0 28 1 2 0 31 1 2 0 34 
1 2 0 34 1 2 0 35 1 2 0 34 1 2 0 33 
1 1 0 28 1 1 0 25 1 1 0 19 1 1 0 17 
1 1 0 12 1 1 0 8 1 1 0 5 2 2 1 0 
0 -2 1 -1 0 -4 1 -1 0 -4 1 -1 0 -5 1 -1 
0 -5 1 -1 0 -5 1 -1 0 -5 1 -1 0 -3 1 -1 
0 -3 1 -1 0 -1 1 -1 1 -1 1 0 -1 0 2 2 
0 2 1 1 0 3 1 1 0 3 1 1 0 5 1 1 
0 5 1 1 0 6 1 1 0 5 1 1 0 7 1 1 
0 6 1 1 0 6 1 1 0 7 1 1 0 5 1 1 
0 5 1 1 0 4 3286 2785 300 MP stroke
1 1 0 3 1 1 0 2 1 1 1 1 1 0 1 -1 
0 -3 1 -1 0 -4 1 -1 0 -6 1 -1 0 -9 1 -1 
0 -11 1 -1 0 -13 1 -1 0 -15 1 -2 0 -17 1 -1 
0 -19 1 -1 0 -21 1 -1 0 -24 1 -1 0 -25 1 -2 
0 -26 1 -2 0 -26 1 -2 0 -29 1 -2 0 -29 1 -2 
0 -29 1 -2 0 -28 1 -2 0 -28 1 -2 0 -28 1 -2 
0 -25 1 -2 0 -24 1 -2 0 -23 1 -1 0 -21 1 -1 
0 -18 1 -1 0 -16 1 -1 0 -14 1 -1 0 -10 1 -1 
0 -8 1 -1 0 -5 1 -1 0 -4 2 -2 1 0 -1 0 
2 2 0 2 2 2 0 2 1 1 0 3 1 1 0 2 
1 1 0 4 1 1 0 4 1 1 0 5 1 1 0 6 
1 1 0 8 1 1 0 8 1 1 0 9 1 1 0 12 
1 1 0 12 1 1 0 13 1 1 0 14 1 1 0 15 
1 1 0 16 1 1 0 15 1 1 0 14 1 1 0 14 
1 1 0 10 1 1 0 10 1 1 0 7 1 1 0 5 
1 1 0 4 1 1 0 3 2 2 1 1 1 -1 0 -1 
2 -2 0 -2 2 -2 0 -2 1 -1 0 -1 1 -1 0 -1 
2 -2 1 -1 1 -1 1 0 1 0 1 1 1 1 0 1 
2 2 1 1 0 2 2 2 0 2 2 2 0 1 2 2 
1 1 1 1 1 1 1 0 1 -1 0 -1 2 -2 0 -1 
1 -1 0 -2 1 -1 0 -3 1 -1 0 -4 1 -1 0 -4 
1 -1 0 -6 1 -1 0 -5 1 -1 0 -7 1 -1 0 -8 
1 -1 0 -9 1 -1 0 -9 1 -1 0 -10 1 -1 0 -10 
1 -1 0 -11 1 -1 0 -10 1 -1 0 -12 1 -1 0 -11 
1 -1 0 -11 1 -1 0 -12 1 -1 0 -10 1 -1 0 -11 
1 -1 0 -10 1 -1 0 -9 1 -1 0 -9 1 -1 0 -7 
1 -1 0 -6 1 -1 0 -6 1 -1 0 -5 1 -1 0 -4 
1 -1 0 -2 1 -1 0 -3 2 -2 1 -1 1 0 1 0 
1 0 1 1 1 1 1 1 1 1 0 1 2 2 1 1 
0 2 2 2 0 2 1 1 0 2 1 1 0 2 1 1 
0 3 1 1 0 3 1 1 0 3 1 1 0 4 1 1 
0 4 1 1 0 3 1 1 0 4 1 1 0 3 1 1 
0 3 1 1 0 2 1 1 0 2 1 1 0 2 2 2 
1 1 1 0 1 1 1 0 1 0 1 -1 1 0 1 -1 
1 0 1 -1 1 -1 1 0 1 0 1 -1 1 0 1 0 
1 0 1 0 1 0 1 1 1 0 1 0 1 1 1 0 
1 0 1 1 1 0 1 0 1 0 1 0 1 0 1 -1 
1 0 1 -1 1 -1 3090 3326 300 MP stroke
1 -1 1 -1 1 -1 0 -2 2 -2 0 -2 2 -2 0 -3 
2 -2 0 -2 1 -1 0 -2 1 -1 0 -3 1 -1 0 -2 
1 -1 0 -2 1 -1 0 -3 1 -1 0 -2 1 -1 0 -2 
1 -1 0 -3 1 -1 0 -2 1 -1 0 -2 1 -1 0 -2 
1 -1 0 -2 1 -1 0 -2 1 -1 0 -2 2 -2 0 -2 
2 -2 1 -1 1 -1 1 -1 1 -1 1 0 1 0 1 0 
1 0 1 0 1 0 1 0 1 1 1 0 1 0 1 1 
1 0 1 1 1 0 1 1 1 1 1 0 1 1 0 1 
2 2 1 1 1 1 1 1 1 1 1 1 1 1 1 1 
1 1 1 0 1 1 1 0 1 0 1 0 1 0 1 0 
1 0 1 0 1 -1 1 0 1 0 1 0 1 0 1 -1 
1 0 1 0 1 0 1 0 1 0 1 0 1 0 1 0 
1 0 1 0 1 0 1 0 1 0 1 0 1 0 1 0 
1 0 1 0 1 0 1 -1 1 0 1 0 1 -1 1 0 
1 0 1 -1 1 0 1 -1 1 0 1 -1 1 -1 1 0 
1 -1 1 -1 1 0 1 -1 1 -1 1 0 1 -1 1 -1 
1 0 1 -1 1 -1 1 0 1 -1 1 0 1 -1 1 0 
1 -1 1 0 1 0 1 0 1 -1 1 0 1 0 1 0 
1 0 1 0 1 1 1 0 1 0 1 0 1 0 1 0 
1 0 1 1 1 0 1 0 1 1 1 0 1 0 1 1 
1 0 1 1 1 0 1 1 1 0 1 0 1 1 1 0 
1 0 1 -1 1 0 1 0 1 -1 1 -1 1 0 1 -1 
1 -1 1 -1 1 -1 1 -1 1 0 2923 3402 182 MP stroke
gr

24 w
c9
0 sg
3731 3690 mt 
(Years) s
2606 1999 mt  -90 rotate
(Psyllids) s
90 rotate
2906 3445 mt 
( ) s
4821  231 mt 
( ) s
6 w
4118  384 mt 
(Susceptible) s
gs 3654 249 1125 481 rc
24 w
c8
357 0 3725 341 2 MP stroke
gr

24 w
c8
0 sg
4118  532 mt 
(Exposed) s
gs 3654 249 1125 481 rc
c11
357 0 3725 489 2 MP stroke
gr

c11
0 sg
4118  680 mt 
(Infected) s
gs 3654 249 1125 481 rc
c9
357 0 3725 636 2 MP stroke
6 w
gr

6 w
c9

end %%Color Dict

eplot
%%EndObject

epage
end

showpage

%%Trailer
%%EOF
