%!PS-Adobe-3.0 EPSF-3.0
%%Creator: MATLAB, The MathWorks, Inc. Version 8.3.0.532 (R2014a). Operating System: Microsoft Windows 7 Enterprise .
%%Title: U:\My Documents\Citrus\Matlab\1st Model - Malaria\citmal4antiplot5080.eps
%%CreationDate: 03/16/2016  14:36:26
%%DocumentNeededFonts: Helvetica
%%DocumentProcessColors: Cyan Magenta Yellow Black
%%LanguageLevel: 2
%%Pages: 1
%%BoundingBox:   -41   266   654   525
%%EndComments

%%BeginProlog
% MathWorks dictionary
/MathWorks 160 dict begin
% definition operators
/bdef {bind def} bind def
/ldef {load def} bind def
/xdef {exch def} bdef
/xstore {exch store} bdef
% operator abbreviations
/c  /clip ldef
/cc /concat ldef
/cp /closepath ldef
/gr /grestore ldef
/gs /gsave ldef
/mt /moveto ldef
/np /newpath ldef
/cm /currentmatrix ldef
/sm /setmatrix ldef
/rm /rmoveto ldef
/rl /rlineto ldef
/s {show newpath} bdef
/sc {setcmykcolor} bdef
/sr /setrgbcolor ldef
/sg /setgray ldef
/w /setlinewidth ldef
/j /setlinejoin ldef
/cap /setlinecap ldef
/rc {rectclip} bdef
/rf {rectfill} bdef
% page state control
/pgsv () def
/bpage {/pgsv save def} bdef
/epage {pgsv restore} bdef
/bplot /gsave ldef
/eplot {stroke grestore} bdef
% orientation switch
/portraitMode 0 def /landscapeMode 1 def /rotateMode 2 def
% coordinate system mappings
/dpi2point 0 def
% font control
/FontSize 0 def
/FMS {/FontSize xstore findfont [FontSize 0 0 FontSize neg 0 0]
  makefont setfont} bdef
/ISOLatin1Encoding where {pop /WindowsLatin1Encoding 256 array bdef
ISOLatin1Encoding WindowsLatin1Encoding copy pop
/.notdef/.notdef/quotesinglbase/florin/quotedblbase/ellipsis/dagger
/daggerdbl/circumflex/perthousand/Scaron/guilsinglleft/OE/.notdef/.notdef
/.notdef/.notdef/quoteleft/quoteright/quotedblleft/quotedblright/bullet
/endash/emdash/tilde/trademark/scaron/guilsinglright/oe/.notdef/.notdef
/Ydieresis WindowsLatin1Encoding 128 32 getinterval astore pop}
{/WindowsLatin1Encoding StandardEncoding bdef} ifelse
/reencode {exch dup where {pop load} {pop StandardEncoding} ifelse
  exch dup 3 1 roll findfont dup length dict begin
  { 1 index /FID ne {def}{pop pop} ifelse } forall
  /Encoding exch def currentdict end definefont pop} bdef
/isroman {findfont /CharStrings get /Agrave known} bdef
/FMSR {3 1 roll 1 index dup isroman {reencode} {pop pop} ifelse
  exch FMS} bdef
/csm {1 dpi2point div -1 dpi2point div scale neg translate
 dup landscapeMode eq {pop -90 rotate}
  {rotateMode eq {90 rotate} if} ifelse} bdef
% line types: solid, dotted, dashed, dotdash
/SO { [] 0 setdash } bdef
/DO { [.5 dpi2point mul 4 dpi2point mul] 0 setdash } bdef
/DA { [6 dpi2point mul] 0 setdash } bdef
/DD { [.5 dpi2point mul 4 dpi2point mul 6 dpi2point mul 4
  dpi2point mul] 0 setdash } bdef
% macros for lines and objects
/L {lineto stroke} bdef
/MP {3 1 roll moveto 1 sub {rlineto} repeat} bdef
/AP {{rlineto} repeat} bdef
/PDlw -1 def
/W {/PDlw currentlinewidth def setlinewidth} def
/PP {closepath eofill} bdef
/DP {closepath stroke} bdef
/MR {4 -2 roll moveto dup  0 exch rlineto exch 0 rlineto
  neg 0 exch rlineto closepath} bdef
/FR {MR stroke} bdef
/PR {MR fill} bdef
/L1i {{currentfile picstr readhexstring pop} image} bdef
/tMatrix matrix def
/MakeOval {newpath tMatrix currentmatrix pop translate scale
0 0 1 0 360 arc tMatrix setmatrix} bdef
/FO {MakeOval stroke} bdef
/PO {MakeOval fill} bdef
/PD {currentlinewidth 2 div 0 360 arc fill
   PDlw -1 eq not {PDlw w /PDlw -1 def} if} def
/FA {newpath tMatrix currentmatrix pop translate scale
  0 0 1 5 -2 roll arc tMatrix setmatrix stroke} bdef
/PA {newpath tMatrix currentmatrix pop	translate 0 0 moveto scale
  0 0 1 5 -2 roll arc closepath tMatrix setmatrix fill} bdef
/FAn {newpath tMatrix currentmatrix pop translate scale
  0 0 1 5 -2 roll arcn tMatrix setmatrix stroke} bdef
/PAn {newpath tMatrix currentmatrix pop translate 0 0 moveto scale
  0 0 1 5 -2 roll arcn closepath tMatrix setmatrix fill} bdef
/vradius 0 def /hradius 0 def /lry 0 def
/lrx 0 def /uly 0 def /ulx 0 def /rad 0 def
/MRR {/vradius xdef /hradius xdef /lry xdef /lrx xdef /uly xdef
  /ulx xdef newpath tMatrix currentmatrix pop ulx hradius add uly
  vradius add translate hradius vradius scale 0 0 1 180 270 arc 
  tMatrix setmatrix lrx hradius sub uly vradius add translate
  hradius vradius scale 0 0 1 270 360 arc tMatrix setmatrix
  lrx hradius sub lry vradius sub translate hradius vradius scale
  0 0 1 0 90 arc tMatrix setmatrix ulx hradius add lry vradius sub
  translate hradius vradius scale 0 0 1 90 180 arc tMatrix setmatrix
  closepath} bdef
/FRR {MRR stroke } bdef
/PRR {MRR fill } bdef
/MlrRR {/lry xdef /lrx xdef /uly xdef /ulx xdef /rad lry uly sub 2 div def
  newpath tMatrix currentmatrix pop ulx rad add uly rad add translate
  rad rad scale 0 0 1 90 270 arc tMatrix setmatrix lrx rad sub lry rad
  sub translate rad rad scale 0 0 1 270 90 arc tMatrix setmatrix
  closepath} bdef
/FlrRR {MlrRR stroke } bdef
/PlrRR {MlrRR fill } bdef
/MtbRR {/lry xdef /lrx xdef /uly xdef /ulx xdef /rad lrx ulx sub 2 div def
  newpath tMatrix currentmatrix pop ulx rad add uly rad add translate
  rad rad scale 0 0 1 180 360 arc tMatrix setmatrix lrx rad sub lry rad
  sub translate rad rad scale 0 0 1 0 180 arc tMatrix setmatrix
  closepath} bdef
/FtbRR {MtbRR stroke } bdef
/PtbRR {MtbRR fill } bdef
/stri 6 array def /dtri 6 array def
/smat 6 array def /dmat 6 array def
/tmat1 6 array def /tmat2 6 array def /dif 3 array def
/asub {/ind2 exch def /ind1 exch def dup dup
  ind1 get exch ind2 get sub exch } bdef
/tri_to_matrix {
  2 0 asub 3 1 asub 4 0 asub 5 1 asub
  dup 0 get exch 1 get 7 -1 roll astore } bdef
/compute_transform {
  dmat dtri tri_to_matrix tmat1 invertmatrix 
  smat stri tri_to_matrix tmat2 concatmatrix } bdef
/ds {stri astore pop} bdef
/dt {dtri astore pop} bdef
/db {2 copy /cols xdef /rows xdef mul dup 3 mul string
  currentfile 
  3 index 0 eq {/ASCIIHexDecode filter}
  {/ASCII85Decode filter 3 index 2 eq {/RunLengthDecode filter} if }
  ifelse exch readstring pop
  dup 0 3 index getinterval /rbmap xdef
  dup 2 index dup getinterval /gbmap xdef
  1 index dup 2 mul exch getinterval /bbmap xdef pop pop}bdef
/it {gs np dtri aload pop moveto lineto lineto cp c
  cols rows 8 compute_transform 
  rbmap gbmap bbmap true 3 colorimage gr}bdef
/il {newpath moveto lineto stroke}bdef
currentdict end def
%%EndProlog

%%BeginSetup
MathWorks begin

0 cap

end
%%EndSetup

%%Page: 1 1
%%BeginPageSetup
%%PageBoundingBox:   -41   266   654   525
MathWorks begin
bpage
%%EndPageSetup

%%BeginObject: obj1
bplot

/dpi2point 12 def
portraitMode -0492 6300 csm

    0     0  8342  3104 rc
85 dict begin %Colortable dictionary
/c0 { 0.000000 0.000000 0.000000 sr} bdef
/c1 { 1.000000 1.000000 1.000000 sr} bdef
/c2 { 0.900000 0.000000 0.000000 sr} bdef
/c3 { 0.000000 0.820000 0.000000 sr} bdef
/c4 { 0.000000 0.000000 0.800000 sr} bdef
/c5 { 0.910000 0.820000 0.320000 sr} bdef
/c6 { 1.000000 0.260000 0.820000 sr} bdef
/c7 { 0.000000 0.820000 0.820000 sr} bdef
c0
1 j
1 sg
   0    0 8343 3105 rf
6 w
0 2639 1920 0 0 -2639 666 2794 4 MP
PP
-1920 0 0 2639 1920 0 0 -2639 666 2794 5 MP stroke
4 w
DO
SO
6 w
0 sg
 666  155 mt 2586  155 L
 666 2794 mt 2586 2794 L
2586 2794 mt 2586  155 L
 666 2794 mt  666  155 L
 666 2794 mt 2586 2794 L
 666 2794 mt  666  155 L
 906 2794 mt  906 2767 L
 906  155 mt  906  181 L
%%IncludeResource: font Helvetica
/Helvetica /WindowsLatin1Encoding 120 FMSR

 840 2939 mt 
(LL) s
1386 2794 mt 1386 2767 L
1386  155 mt 1386  181 L
1310 2939 mt 
(LH) s
1866 2794 mt 1866 2767 L
1866  155 mt 1866  181 L
1790 2939 mt 
(HL) s
2346 2794 mt 2346 2767 L
2346  155 mt 2346  181 L
2260 2939 mt 
(HH) s
 666 2794 mt  693 2794 L
2586 2794 mt 2559 2794 L
 466 2838 mt 
(3.5) s
 666 2417 mt  693 2417 L
2586 2417 mt 2559 2417 L
 566 2461 mt 
(4) s
 666 2040 mt  693 2040 L
2586 2040 mt 2559 2040 L
 466 2084 mt 
(4.5) s
 666 1663 mt  693 1663 L
2586 1663 mt 2559 1663 L
 566 1707 mt 
(5) s
 666 1286 mt  693 1286 L
2586 1286 mt 2559 1286 L
 466 1330 mt 
(5.5) s
 666  909 mt  693  909 L
2586  909 mt 2559  909 L
 566  953 mt 
(6) s
 666  532 mt  693  532 L
2586  532 mt 2559  532 L
 466  576 mt 
(6.5) s
 666  155 mt  693  155 L
2586  155 mt 2559  155 L
 566  199 mt 
(7) s
 666  155 mt 2586  155 L
 666 2794 mt 2586 2794 L
2586 2794 mt 2586  155 L
 666 2794 mt  666  155 L
gs 667 155 1920 2640 rc
gr

/c8 { 0.000000 0.000000 1.000000 sr} bdef
c8
 846 2396 mt  966 2396 L
 906 2336 mt  906 2456 L
1326 1530 mt 1446 1530 L
1386 1470 mt 1386 1590 L
1806 2179 mt 1926 2179 L
1866 2119 mt 1866 2239 L
2286  517 mt 2406  517 L
2346  457 mt 2346  577 L
 864 2354 mt  948 2438 L
 948 2354 mt  864 2438 L
1344 1488 mt 1428 1572 L
1428 1488 mt 1344 1572 L
1824 2137 mt 1908 2221 L
1908 2137 mt 1824 2221 L
2304  475 mt 2388  559 L
2388  475 mt 2304  559 L
gs 667 155 1920 2640 rc
gr

0 sg
1222 3082 mt 
(Treatment Plan) s
 384 2203 mt  -90 rotate
(Minimum Susceptible Trees) s
90 rotate
1 sg
0 2639 1918 0 0 -2639 3337 2794 4 MP
PP
-1918 0 0 2639 1918 0 0 -2639 3337 2794 5 MP stroke
4 w
DO
SO
6 w
0 sg
3337  155 mt 5255  155 L
3337 2794 mt 5255 2794 L
5255 2794 mt 5255  155 L
3337 2794 mt 3337  155 L
3337 2794 mt 5255 2794 L
3337 2794 mt 3337  155 L
3576 2794 mt 3576 2767 L
3576  155 mt 3576  181 L
3510 2939 mt 
(LL) s
4056 2794 mt 4056 2767 L
4056  155 mt 4056  181 L
3980 2939 mt 
(LH) s
4535 2794 mt 4535 2767 L
4535  155 mt 4535  181 L
4459 2939 mt 
(HL) s
5015 2794 mt 5015 2767 L
5015  155 mt 5015  181 L
4929 2939 mt 
(HH) s
3337 2794 mt 3363 2794 L
5255 2794 mt 5228 2794 L
3102 2838 mt 
(140) s
3337 2417 mt 3363 2417 L
5255 2417 mt 5228 2417 L
3102 2461 mt 
(145) s
3337 2040 mt 3363 2040 L
5255 2040 mt 5228 2040 L
3102 2084 mt 
(150) s
3337 1663 mt 3363 1663 L
5255 1663 mt 5228 1663 L
3102 1707 mt 
(155) s
3337 1286 mt 3363 1286 L
5255 1286 mt 5228 1286 L
3102 1330 mt 
(160) s
3337  909 mt 3363  909 L
5255  909 mt 5228  909 L
3102  953 mt 
(165) s
3337  532 mt 3363  532 L
5255  532 mt 5228  532 L
3102  576 mt 
(170) s
3337  155 mt 3363  155 L
5255  155 mt 5228  155 L
3102  199 mt 
(175) s
3337  155 mt 5255  155 L
3337 2794 mt 5255 2794 L
5255 2794 mt 5255  155 L
3337 2794 mt 3337  155 L
gs 3337 155 1919 2640 rc
gr

c8
3516 1235 mt 3636 1235 L
3576 1175 mt 3576 1295 L
3996 1594 mt 4116 1594 L
4056 1534 mt 4056 1654 L
4475  483 mt 4595  483 L
4535  423 mt 4535  543 L
4955 1012 mt 5075 1012 L
5015  952 mt 5015 1072 L
3534 1193 mt 3618 1277 L
3618 1193 mt 3534 1277 L
4014 1552 mt 4098 1636 L
4098 1552 mt 4014 1636 L
4493  441 mt 4577  525 L
4577  441 mt 4493  525 L
4973  970 mt 5057 1054 L
5057  970 mt 4973 1054 L
gs 3337 155 1919 2640 rc
gr

0 sg
3892 3082 mt 
(Treatment Plan) s
3020 1974 mt  -90 rotate
(Total Trees Treated) s
90 rotate
1 sg
0 2639 1919 0 0 -2639 6006 2794 4 MP
PP
-1919 0 0 2639 1919 0 0 -2639 6006 2794 5 MP stroke
4 w
DO
SO
6 w
0 sg
6006  155 mt 7925  155 L
6006 2794 mt 7925 2794 L
7925 2794 mt 7925  155 L
6006 2794 mt 6006  155 L
6006 2794 mt 7925 2794 L
6006 2794 mt 6006  155 L
6245 2794 mt 6245 2767 L
6245  155 mt 6245  181 L
6179 2939 mt 
(LL) s
6725 2794 mt 6725 2767 L
6725  155 mt 6725  181 L
6649 2939 mt 
(LH) s
7205 2794 mt 7205 2767 L
7205  155 mt 7205  181 L
7129 2939 mt 
(HL) s
7685 2794 mt 7685 2767 L
7685  155 mt 7685  181 L
7599 2939 mt 
(HH) s
6006 2794 mt 6032 2794 L
7925 2794 mt 7898 2794 L
5771 2838 mt 
(108) s
6006 2464 mt 6032 2464 L
7925 2464 mt 7898 2464 L
5771 2508 mt 
(110) s
6006 2134 mt 6032 2134 L
7925 2134 mt 7898 2134 L
5771 2178 mt 
(112) s
6006 1804 mt 6032 1804 L
7925 1804 mt 7898 1804 L
5771 1848 mt 
(114) s
6006 1474 mt 6032 1474 L
7925 1474 mt 7898 1474 L
5771 1518 mt 
(116) s
6006 1144 mt 6032 1144 L
7925 1144 mt 7898 1144 L
5771 1188 mt 
(118) s
6006  814 mt 6032  814 L
7925  814 mt 7898  814 L
5771  858 mt 
(120) s
6006  484 mt 6032  484 L
7925  484 mt 7898  484 L
5771  528 mt 
(122) s
6006  155 mt 6032  155 L
7925  155 mt 7898  155 L
5771  199 mt 
(124) s
6006  155 mt 7925  155 L
6006 2794 mt 7925 2794 L
7925 2794 mt 7925  155 L
6006 2794 mt 6006  155 L
gs 6006 155 1920 2640 rc
gr

c8
6185 1160 mt 6305 1160 L
6245 1100 mt 6245 1220 L
6665 1574 mt 6785 1574 L
6725 1514 mt 6725 1634 L
7145 1869 mt 7265 1869 L
7205 1809 mt 7205 1929 L
7625 2456 mt 7745 2456 L
7685 2396 mt 7685 2516 L
6203 1118 mt 6287 1202 L
6287 1118 mt 6203 1202 L
6683 1532 mt 6767 1616 L
6767 1532 mt 6683 1616 L
7163 1827 mt 7247 1911 L
7247 1827 mt 7163 1911 L
7643 2414 mt 7727 2498 L
7727 2414 mt 7643 2498 L
gs 6006 155 1920 2640 rc
gr

0 sg
6561 3082 mt 
(Treatment Plan) s
5689 2032 mt  -90 rotate
(Total Removed Trees) s
90 rotate

end %%Color Dict

eplot
%%EndObject

epage
end

showpage

%%Trailer
%%EOF
