%!PS-Adobe-3.0 EPSF-3.0
%%Creator: MATLAB, The MathWorks, Inc. Version 8.3.0.532 (R2014a). Operating System: Microsoft Windows 7 Enterprise .
%%Title: U:\My Documents\Citrus\Matlab\1st Model - Malaria\citmalariaNEWc.eps
%%CreationDate: 04/27/2016  14:57:42
%%DocumentNeededFonts: Helvetica
%%+ Helvetica-Bold
%%DocumentProcessColors: Cyan Magenta Yellow Black
%%LanguageLevel: 2
%%Pages: 1
%%BoundingBox:    96   240   515   551
%%EndComments

%%BeginProlog
% MathWorks dictionary
/MathWorks 160 dict begin
% definition operators
/bdef {bind def} bind def
/ldef {load def} bind def
/xdef {exch def} bdef
/xstore {exch store} bdef
% operator abbreviations
/c  /clip ldef
/cc /concat ldef
/cp /closepath ldef
/gr /grestore ldef
/gs /gsave ldef
/mt /moveto ldef
/np /newpath ldef
/cm /currentmatrix ldef
/sm /setmatrix ldef
/rm /rmoveto ldef
/rl /rlineto ldef
/s {show newpath} bdef
/sc {setcmykcolor} bdef
/sr /setrgbcolor ldef
/sg /setgray ldef
/w /setlinewidth ldef
/j /setlinejoin ldef
/cap /setlinecap ldef
/rc {rectclip} bdef
/rf {rectfill} bdef
% page state control
/pgsv () def
/bpage {/pgsv save def} bdef
/epage {pgsv restore} bdef
/bplot /gsave ldef
/eplot {stroke grestore} bdef
% orientation switch
/portraitMode 0 def /landscapeMode 1 def /rotateMode 2 def
% coordinate system mappings
/dpi2point 0 def
% font control
/FontSize 0 def
/FMS {/FontSize xstore findfont [FontSize 0 0 FontSize neg 0 0]
  makefont setfont} bdef
/ISOLatin1Encoding where {pop /WindowsLatin1Encoding 256 array bdef
ISOLatin1Encoding WindowsLatin1Encoding copy pop
/.notdef/.notdef/quotesinglbase/florin/quotedblbase/ellipsis/dagger
/daggerdbl/circumflex/perthousand/Scaron/guilsinglleft/OE/.notdef/.notdef
/.notdef/.notdef/quoteleft/quoteright/quotedblleft/quotedblright/bullet
/endash/emdash/tilde/trademark/scaron/guilsinglright/oe/.notdef/.notdef
/Ydieresis WindowsLatin1Encoding 128 32 getinterval astore pop}
{/WindowsLatin1Encoding StandardEncoding bdef} ifelse
/reencode {exch dup where {pop load} {pop StandardEncoding} ifelse
  exch dup 3 1 roll findfont dup length dict begin
  { 1 index /FID ne {def}{pop pop} ifelse } forall
  /Encoding exch def currentdict end definefont pop} bdef
/isroman {findfont /CharStrings get /Agrave known} bdef
/FMSR {3 1 roll 1 index dup isroman {reencode} {pop pop} ifelse
  exch FMS} bdef
/csm {1 dpi2point div -1 dpi2point div scale neg translate
 dup landscapeMode eq {pop -90 rotate}
  {rotateMode eq {90 rotate} if} ifelse} bdef
% line types: solid, dotted, dashed, dotdash
/SO { [] 0 setdash } bdef
/DO { [.5 dpi2point mul 4 dpi2point mul] 0 setdash } bdef
/DA { [6 dpi2point mul] 0 setdash } bdef
/DD { [.5 dpi2point mul 4 dpi2point mul 6 dpi2point mul 4
  dpi2point mul] 0 setdash } bdef
% macros for lines and objects
/L {lineto stroke} bdef
/MP {3 1 roll moveto 1 sub {rlineto} repeat} bdef
/AP {{rlineto} repeat} bdef
/PDlw -1 def
/W {/PDlw currentlinewidth def setlinewidth} def
/PP {closepath eofill} bdef
/DP {closepath stroke} bdef
/MR {4 -2 roll moveto dup  0 exch rlineto exch 0 rlineto
  neg 0 exch rlineto closepath} bdef
/FR {MR stroke} bdef
/PR {MR fill} bdef
/L1i {{currentfile picstr readhexstring pop} image} bdef
/tMatrix matrix def
/MakeOval {newpath tMatrix currentmatrix pop translate scale
0 0 1 0 360 arc tMatrix setmatrix} bdef
/FO {MakeOval stroke} bdef
/PO {MakeOval fill} bdef
/PD {currentlinewidth 2 div 0 360 arc fill
   PDlw -1 eq not {PDlw w /PDlw -1 def} if} def
/FA {newpath tMatrix currentmatrix pop translate scale
  0 0 1 5 -2 roll arc tMatrix setmatrix stroke} bdef
/PA {newpath tMatrix currentmatrix pop	translate 0 0 moveto scale
  0 0 1 5 -2 roll arc closepath tMatrix setmatrix fill} bdef
/FAn {newpath tMatrix currentmatrix pop translate scale
  0 0 1 5 -2 roll arcn tMatrix setmatrix stroke} bdef
/PAn {newpath tMatrix currentmatrix pop translate 0 0 moveto scale
  0 0 1 5 -2 roll arcn closepath tMatrix setmatrix fill} bdef
/vradius 0 def /hradius 0 def /lry 0 def
/lrx 0 def /uly 0 def /ulx 0 def /rad 0 def
/MRR {/vradius xdef /hradius xdef /lry xdef /lrx xdef /uly xdef
  /ulx xdef newpath tMatrix currentmatrix pop ulx hradius add uly
  vradius add translate hradius vradius scale 0 0 1 180 270 arc 
  tMatrix setmatrix lrx hradius sub uly vradius add translate
  hradius vradius scale 0 0 1 270 360 arc tMatrix setmatrix
  lrx hradius sub lry vradius sub translate hradius vradius scale
  0 0 1 0 90 arc tMatrix setmatrix ulx hradius add lry vradius sub
  translate hradius vradius scale 0 0 1 90 180 arc tMatrix setmatrix
  closepath} bdef
/FRR {MRR stroke } bdef
/PRR {MRR fill } bdef
/MlrRR {/lry xdef /lrx xdef /uly xdef /ulx xdef /rad lry uly sub 2 div def
  newpath tMatrix currentmatrix pop ulx rad add uly rad add translate
  rad rad scale 0 0 1 90 270 arc tMatrix setmatrix lrx rad sub lry rad
  sub translate rad rad scale 0 0 1 270 90 arc tMatrix setmatrix
  closepath} bdef
/FlrRR {MlrRR stroke } bdef
/PlrRR {MlrRR fill } bdef
/MtbRR {/lry xdef /lrx xdef /uly xdef /ulx xdef /rad lrx ulx sub 2 div def
  newpath tMatrix currentmatrix pop ulx rad add uly rad add translate
  rad rad scale 0 0 1 180 360 arc tMatrix setmatrix lrx rad sub lry rad
  sub translate rad rad scale 0 0 1 0 180 arc tMatrix setmatrix
  closepath} bdef
/FtbRR {MtbRR stroke } bdef
/PtbRR {MtbRR fill } bdef
/stri 6 array def /dtri 6 array def
/smat 6 array def /dmat 6 array def
/tmat1 6 array def /tmat2 6 array def /dif 3 array def
/asub {/ind2 exch def /ind1 exch def dup dup
  ind1 get exch ind2 get sub exch } bdef
/tri_to_matrix {
  2 0 asub 3 1 asub 4 0 asub 5 1 asub
  dup 0 get exch 1 get 7 -1 roll astore } bdef
/compute_transform {
  dmat dtri tri_to_matrix tmat1 invertmatrix 
  smat stri tri_to_matrix tmat2 concatmatrix } bdef
/ds {stri astore pop} bdef
/dt {dtri astore pop} bdef
/db {2 copy /cols xdef /rows xdef mul dup 3 mul string
  currentfile 
  3 index 0 eq {/ASCIIHexDecode filter}
  {/ASCII85Decode filter 3 index 2 eq {/RunLengthDecode filter} if }
  ifelse exch readstring pop
  dup 0 3 index getinterval /rbmap xdef
  dup 2 index dup getinterval /gbmap xdef
  1 index dup 2 mul exch getinterval /bbmap xdef pop pop}bdef
/it {gs np dtri aload pop moveto lineto lineto cp c
  cols rows 8 compute_transform 
  rbmap gbmap bbmap true 3 colorimage gr}bdef
/il {newpath moveto lineto stroke}bdef
currentdict end def
%%EndProlog

%%BeginSetup
MathWorks begin

0 cap

end
%%EndSetup

%%Page: 1 1
%%BeginPageSetup
%%PageBoundingBox:    96   240   515   551
MathWorks begin
bpage
%%EndPageSetup

%%BeginObject: obj1
bplot

/dpi2point 12 def
portraitMode 1152 6612 csm

    0     0  5039  3726 rc
87 dict begin %Colortable dictionary
/c0 { 0.000000 0.000000 0.000000 sr} bdef
/c1 { 1.000000 1.000000 1.000000 sr} bdef
/c2 { 0.900000 0.000000 0.000000 sr} bdef
/c3 { 0.000000 0.820000 0.000000 sr} bdef
/c4 { 0.000000 0.000000 0.800000 sr} bdef
/c5 { 0.910000 0.820000 0.320000 sr} bdef
/c6 { 1.000000 0.260000 0.820000 sr} bdef
/c7 { 0.000000 0.820000 0.820000 sr} bdef
c0
1 j
1 sg
   0    0 5040 3727 rf
6 w
0 3167 1915 0 0 -3167 504 3353 4 MP
PP
-1915 0 0 3167 1915 0 0 -3167 504 3353 5 MP stroke
4 w
DO
SO
6 w
0 sg
 504  186 mt 2419  186 L
 504 3353 mt 2419 3353 L
2419 3353 mt 2419  186 L
 504 3353 mt  504  186 L
 504 3353 mt 2419 3353 L
 504 3353 mt  504  186 L
 504 3353 mt  504 3321 L
 504  186 mt  504  217 L
%%IncludeResource: font Helvetica
/Helvetica /WindowsLatin1Encoding 120 FMSR

 471 3498 mt 
(0) s
 982 3353 mt  982 3321 L
 982  186 mt  982  217 L
 949 3498 mt 
(2) s
1461 3353 mt 1461 3321 L
1461  186 mt 1461  217 L
1428 3498 mt 
(4) s
1940 3353 mt 1940 3321 L
1940  186 mt 1940  217 L
1907 3498 mt 
(6) s
2419 3353 mt 2419 3321 L
2419  186 mt 2419  217 L
2386 3498 mt 
(8) s
 504 3353 mt  535 3353 L
2419 3353 mt 2387 3353 L
 403 3397 mt 
(0) s
 504 2825 mt  535 2825 L
2419 2825 mt 2387 2825 L
 336 2869 mt 
(20) s
 504 2297 mt  535 2297 L
2419 2297 mt 2387 2297 L
 336 2341 mt 
(40) s
 504 1769 mt  535 1769 L
2419 1769 mt 2387 1769 L
 336 1813 mt 
(60) s
 504 1241 mt  535 1241 L
2419 1241 mt 2387 1241 L
 336 1285 mt 
(80) s
 504  713 mt  535  713 L
2419  713 mt 2387  713 L
 269  757 mt 
(100) s
 504  186 mt  535  186 L
2419  186 mt 2387  186 L
 269  230 mt 
(120) s
 504  186 mt 2419  186 L
 504 3353 mt 2419 3353 L
2419 3353 mt 2419  186 L
 504 3353 mt  504  186 L
gs 504 186 1916 3168 rc
24 w
/c8 { 0.000000 0.000000 1.000000 sr} bdef
c8
1 0 1 0 1 0 1 0 1 0 1 0 1 0 1 1 
1 0 1 0 1 0 1 0 1 0 1 0 1 1 1 0 
1 0 1 0 1 0 1 0 1 0 1 1 1 0 1 0 
1 0 1 0 1 1 1 0 1 0 1 0 1 1 1 0 
1 0 1 0 1 1 1 0 1 0 1 1 1 0 1 0 
1 1 1 0 1 0 1 1 1 0 1 1 1 0 1 1 
1 0 1 1 1 0 1 1 1 0 1 1 1 1 1 0 
1 1 1 0 1 1 1 1 1 0 1 1 1 1 1 1 
1 0 1 1 1 1 1 1 1 0 1 1 1 1 1 1 
1 1 1 1 1 0 1 1 1 1 1 1 1 1 1 1 
1 1 1 1 1 0 1 1 1 1 1 1 1 1 1 1 
1 1 1 0 1 1 1 1 1 1 1 0 1 1 1 1 
1 0 1 1 1 1 1 0 1 1 1 0 1 0 1 1 
1 0 1 0 1 1 1 0 1 0 1 0 1 0 1 0 
1 0 1 0 1 0 1 0 1 0 1 -1 1 0 1 0 
1 -1 1 0 1 -1 1 0 1 -1 1 0 1 -1 1 -1 
1 0 1 -1 1 -1 1 -1 1 0 1 -1 1 -1 1 -1 
1 -1 1 -1 1 0 1 -1 1 -1 1 -1 1 -1 1 -1 
1 -1 1 -1 1 -1 1 -1 1 -1 1 -1 1 -1 1 -1 
1 0 1 -1 1 -1 1 -1 1 -1 1 -1 1 -1 1 -1 
1 -1 1 -1 1 0 1 -1 1 -1 1 -1 1 -1 1 -1 
1 0 1 -1 1 -1 1 -1 1 -1 1 0 1 -1 1 -1 
1 0 1 -1 1 -1 1 0 1 -1 1 -1 1 0 1 -1 
1 0 1 -1 1 -1 1 0 1 0 1 -1 1 0 1 -1 
1 0 1 0 1 -1 1 0 1 0 1 0 1 0 1 -1 
1 0 1 0 1 0 1 0 1 0 1 0 1 0 1 0 
1 0 1 0 1 1 1 0 1 0 1 0 1 0 1 0 
1 0 1 1 1 0 1 0 1 0 1 0 1 1 1 0 
1 0 1 0 1 1 1 0 1 0 1 0 1 0 1 1 
1 0 1 0 1 0 1 0 1 0 1 1 1 0 1 0 
1 0 1 0 1 0 1 1 1 0 1 0 1 0 1 0 
1 0 1 0 1 1 1 0 1 0 1 0 1 0 1 0 
1 1 1 0 1 0 1 0 1 0 1 0 1 1 1 0 
1 0 1 0 1 0 1 1 1 0 1 0 1 0 1 1 
1 0 1 0 1 1 1 0 1 0 1 1 1 0 1 0 
1 1 1 0 1 0 1 1 1 0 1 1 1 0 1 1 
1 0 1 1 1 0 1 1 1 1 1 0 1 1 1 0 
1 1 1 1 1 0 2121 3238 300 MP stroke
1 1 1 1 1 1 1 0 1 1 1 1 1 1 1 0 
1 1 1 1 1 1 1 1 1 1 1 1 1 0 1 1 
1 1 1 1 1 1 1 1 1 1 1 1 1 1 1 0 
1 1 1 1 1 1 1 1 1 1 1 1 1 0 1 1 
1 1 1 1 1 0 1 1 1 1 1 0 1 1 1 1 
1 0 1 1 1 0 1 0 1 1 1 0 1 0 1 1 
1 0 1 0 1 0 1 0 1 0 1 0 1 0 1 0 
1 0 1 -1 1 0 1 0 1 -1 1 0 1 0 1 -1 
1 0 1 -1 1 -1 1 0 1 -1 1 -1 1 0 1 -1 
1 -1 1 -1 1 -1 1 0 1 -1 1 -1 1 -1 1 -1 
1 -1 1 -1 1 -1 1 -1 1 -1 1 0 1 -1 1 -1 
1 -1 1 -1 1 -1 1 -1 1 -1 1 -1 1 -1 1 -1 
1 -1 1 0 1 -1 1 -1 1 -1 1 -1 1 -1 1 -1 
1 -1 1 0 1 -1 1 -1 1 -1 1 -1 1 0 1 -1 
1 -1 1 -1 1 0 1 -1 1 -1 1 -1 1 0 1 -1 
1 -1 1 0 1 -1 1 0 1 -1 1 0 1 -1 1 0 
1 -1 1 0 1 -1 1 0 1 0 1 -1 1 0 1 0 
1 0 1 0 1 -1 1 0 1 0 1 0 1 0 1 0 
1 0 1 0 1 0 1 0 1 0 1 0 1 1 1 0 
1 0 1 0 1 0 1 1 1 0 1 0 1 0 1 0 
1 1 1 0 1 0 1 0 1 1 1 0 1 0 1 1 
1 0 1 0 1 0 1 1 1 0 1 0 1 0 1 1 
1 0 1 0 1 0 1 0 1 1 1 0 1 0 1 0 
1 1 1 0 1 0 1 0 1 0 1 1 1 0 1 0 
1 0 1 0 1 1 1 0 1 0 1 0 1 0 1 1 
1 0 1 0 1 0 1 1 1 0 1 0 1 1 1 0 
1 0 1 1 1 0 1 0 1 1 1 0 1 0 1 1 
1 0 1 1 1 0 1 1 1 0 1 1 1 0 1 1 
1 0 1 1 1 0 1 1 1 1 1 0 1 1 1 1 
1 0 1 1 1 1 1 1 1 0 1 1 1 1 1 1 
1 1 1 1 1 0 1 1 1 1 1 1 1 1 1 1 
1 1 1 1 1 1 1 1 1 1 1 1 1 1 1 1 
1 1 0 1 2 2 1 1 1 1 1 1 1 1 1 1 
1 1 1 1 1 1 1 1 1 1 1 1 1 1 1 1 
1 1 1 1 1 1 1 1 1 1 1 0 1 1 1 1 
1 0 1 1 1 1 1 0 1 1 1 0 1 1 1 0 
1 0 1 0 1 1 1 0 1 0 1 0 1 0 1 0 
1 0 1 0 1 -1 1822 3184 300 MP stroke
1 0 1 0 1 -1 1 0 1 0 1 -1 1 0 1 -1 
1 -1 1 0 1 -1 1 -1 1 0 1 -1 1 -1 1 -1 
1 0 1 -1 1 -1 1 -1 1 -1 1 -1 1 -1 1 -1 
1 0 1 -1 1 -1 1 -1 1 -1 1 -1 1 -1 1 -1 
1 -1 1 0 1 -1 1 -1 1 -1 1 -1 1 -1 1 -1 
1 0 1 -1 1 -1 1 -1 1 -1 1 0 1 -1 1 -1 
1 -1 1 0 1 -1 1 -1 1 -1 1 0 1 -1 1 0 
1 -1 1 -1 1 0 1 -1 1 0 1 -1 1 0 1 -1 
1 0 1 -1 1 0 1 0 1 -1 1 0 1 0 1 0 
1 -1 1 0 1 0 1 0 1 0 1 0 1 0 1 0 
1 1 1 0 1 0 1 0 1 1 1 0 1 0 1 1 
1 0 1 0 1 1 1 0 1 1 1 1 1 0 1 1 
1 0 1 1 1 1 1 0 1 1 1 0 1 1 1 1 
1 1 1 0 1 1 1 1 1 0 1 1 1 1 1 1 
1 0 1 1 1 1 1 0 1 1 1 1 1 1 1 0 
1 1 1 1 1 1 1 0 1 1 1 1 1 0 1 1 
1 1 1 1 1 0 1 1 1 1 1 1 1 1 1 0 
1 1 1 1 1 1 1 1 1 1 1 0 1 1 1 1 
1 1 1 1 1 1 1 1 1 1 1 1 1 1 1 1 
0 1 2 2 1 1 1 1 1 1 0 1 2 2 1 1 
0 1 2 2 1 1 1 1 0 2 2 2 0 1 2 2 
1 1 0 2 2 2 0 1 2 2 0 2 2 2 0 1 
1 1 0 1 1 1 1 1 0 2 1 1 0 1 1 1 
0 1 1 1 0 1 1 1 0 2 2 2 0 2 1 1 
0 1 1 1 0 1 1 1 0 1 1 1 0 2 1 1 
0 1 1 1 0 1 1 1 0 2 1 1 0 1 1 1 
0 2 1 1 0 1 1 1 0 2 1 1 0 1 1 1 
0 2 1 1 0 1 1 1 0 3 2 2 0 2 1 1 
0 2 1 1 0 1 1 1 0 2 1 1 0 1 1 1 
0 2 1 1 0 1 1 1 0 2 1 1 0 1 1 1 
0 2 1 1 0 1 1 1 0 2 1 1 0 2 2 2 
0 2 1 1 0 1 1 1 0 1 1 1 0 2 2 2 
0 2 2 2 0 2 2 2 1 1 0 2 2 2 0 1 
2 2 1 1 1 1 1 1 1 1 1 1 1 1 1 1 
1 1 1 0 1 1 1 0 1 1 1 0 1 0 1 0 
1 0 1 0 1 0 1 0 1 0 1 0 1 -1 1 0 
1 0 1 -1 1 0 1 -1 1 0 1 -1 1 -1 1 0 
1 -1 1 -1 1 0 1559 3025 300 MP stroke
1 -1 1 0 1 -1 1 -1 1 0 1 -1 1 -1 1 0 
1 -1 1 -1 1 0 1 -1 1 0 1 -1 1 0 1 -1 
1 -1 1 0 1 -1 1 0 1 0 1 -1 1 0 1 -1 
1 0 1 0 1 0 1 -1 1 0 1 0 1 0 1 0 
1 -1 1 0 1 0 1 1 1 0 1 0 1 0 1 0 
1 1 1 0 1 1 1 0 1 1 1 0 1 1 1 1 
1 1 1 1 1 1 0 1 2 2 0 1 2 2 0 1 
2 2 1 1 0 2 2 2 0 2 2 2 0 2 2 2 
0 2 1 1 0 2 2 2 0 2 1 1 0 2 1 1 
0 1 1 1 0 2 1 1 0 2 1 1 0 2 1 1 
0 1 1 1 0 2 1 1 0 2 1 1 0 2 1 1 
0 2 1 1 0 2 1 1 0 2 1 1 0 2 1 1 
0 2 1 1 0 2 1 1 0 2 1 1 0 2 1 1 
0 2 1 1 0 3 1 1 0 2 1 1 0 2 1 1 
0 2 1 1 0 2 1 1 0 3 1 1 0 2 1 1 
0 2 1 1 0 2 1 1 0 3 1 1 0 2 1 1 
0 2 1 1 0 3 1 1 0 2 1 1 0 2 1 1 
0 3 1 1 0 2 1 1 0 3 1 1 0 2 1 1 
0 3 1 1 0 2 1 1 0 3 1 1 0 2 1 1 
0 3 1 1 0 3 1 1 0 2 1 1 0 3 1 1 
0 3 1 1 0 3 1 1 0 2 1 1 0 4 1 1 
0 2 1 1 0 3 1 1 0 4 1 1 0 3 1 1 
0 3 1 1 0 3 1 1 0 3 1 1 0 3 1 1 
0 3 1 2 0 3 1 1 0 4 1 1 0 3 1 1 
0 4 1 1 0 3 1 1 0 5 1 1 0 3 1 1 
0 5 1 1 0 3 1 1 0 5 1 1 0 3 1 1 
0 5 1 1 0 4 1 2 0 3 1 1 0 5 1 1 
0 4 1 1 0 5 1 1 0 5 1 2 0 3 1 2 
0 4 1 1 0 5 1 2 0 4 1 1 0 6 1 1 
0 5 1 1 0 5 1 1 0 6 1 2 0 4 1 2 
0 4 1 2 0 4 1 2 0 6 1 2 0 4 1 2 
0 5 1 1 0 7 1 1 0 5 1 2 0 6 1 2 
0 4 1 2 0 6 1 2 0 4 1 2 0 6 1 2 
0 4 1 2 0 6 1 2 0 6 1 1 0 6 1 2 
0 6 1 1 0 6 1 2 0 5 1 2 0 6 1 1 
0 7 1 2 0 5 1 2 0 5 1 2 0 6 1 2 
0 5 1 1 0 7 1 1 0 7 1 1 0 5 1 2 
0 6 1 1 0 7 1377 2441 300 MP stroke
1 1 0 5 1 1 0 6 1 1 0 6 1 1 0 6 
1 1 0 6 1 1 0 6 1 1 0 6 1 1 0 5 
1 1 0 6 1 1 0 4 1 1 0 5 1 1 0 5 
1 1 0 5 1 1 0 5 1 1 0 4 1 1 0 5 
1 1 0 3 1 1 0 4 1 1 0 4 1 1 0 3 
1 1 0 4 1 1 0 4 1 1 0 3 1 1 0 2 
1 1 0 3 1 1 0 2 1 1 0 2 1 1 0 2 
1 1 0 2 1 1 0 3 2 2 0 2 1 1 0 1 
1 1 0 2 2 2 0 1 2 2 0 1 2 2 1 1 
1 1 1 0 1 1 1 1 1 0 1 1 1 0 1 0 
1 1 1 0 1 0 1 0 1 0 1 0 1 0 1 0 
1 0 1 0 1 0 1 0 1 0 1 -1 1 0 1 0 
1 0 1 0 1 1 1 0 1 0 1 0 1 0 1 0 
1 0 1 0 1 1 1 0 1 0 1 1 1 0 1 1 
1 0 1 1 1 0 1 1 1 0 1 1 1 1 1 1 
1 1 1 1 1 1 1 1 0 1 2 2 0 1 2 2 
0 1 2 2 0 2 2 2 0 1 1 1 0 2 2 2 
0 3 2 2 0 2 1 1 0 2 1 1 0 2 1 1 
0 2 1 1 0 2 1 1 0 3 1 1 0 2 1 1 
0 2 1 1 0 3 1 1 0 3 1 1 0 3 1 1 
0 3 1 1 0 4 1 1 0 3 1 1 0 3 1 1 
0 4 1 1 0 3 1 1 0 4 1 1 0 4 1 1 
0 3 1 1 0 5 1 1 0 3 1 1 0 5 1 1 
0 3 1 1 0 5 1 1 0 4 1 1 0 4 1 1 
0 4 1 2 0 4 1 1 0 4 1 1 0 4 1 1 
0 4 1 1 0 5 1 1 0 4 1 1 0 4 1 1 
0 5 1 1 0 5 1 1 0 4 1 1 0 4 1 1 
0 5 1 1 0 4 1 1 0 5 1 1 0 4 1 1 
0 4 1 1 0 5 1 1 0 5 1 1 0 4 1 1 
0 5 1 1 0 4 1 1 0 4 1 1 0 5 1 1 
0 5 1 1 0 4 1 1 0 5 1 1 0 4 1 1 
0 5 1 1 0 4 1 1 0 5 1 1 0 4 1 1 
0 5 1 1 0 5 1 1 0 4 1 1 0 5 1 1 
0 5 1 1 0 5 1 1 0 4 1 2 0 4 1 1 
0 5 1 1 0 5 1 2 0 4 1 1 0 5 1 2 
0 3 1 2 0 5 1 2 0 4 1 2 0 3 1 2 
0 6 1 2 0 4 1 1 0 4 1 2 0 5 1 2 
0 5 1 1 0 5 1191 1808 300 MP stroke
1 1 0 5 1 2 0 6 1 1 0 5 1 1 0 5 
1 1 0 6 1 1 0 6 1 2 0 4 1 2 0 6 
1 1 0 5 1 1 0 6 1 2 0 4 1 2 0 6 
1 1 0 5 1 2 0 6 1 2 0 4 1 2 0 6 
1 2 0 5 1 1 0 7 1 2 0 5 1 1 0 5 
1 2 0 7 1 1 0 5 1 2 0 5 1 2 0 7 
1 1 0 6 1 1 0 6 1 1 0 7 1 2 0 5 
1 2 0 5 1 1 0 7 1 2 0 5 1 2 0 6 
1 2 0 5 1 2 0 6 1 2 0 5 1 1 0 7 
1 1 0 5 1 2 0 6 1 1 0 7 1 1 0 6 
1 2 0 6 1 1 0 6 1 1 0 5 1 1 0 6 
1 1 0 7 1 1 0 6 1 1 0 5 1 2 0 5 
1 1 0 5 1 1 0 7 1 1 0 5 1 1 0 5 
1 1 0 6 1 1 0 4 1 1 0 6 1 1 0 4 
1 2 0 5 1 1 0 4 1 1 0 5 1 1 0 4 
1 1 0 5 1 1 0 4 1 1 0 4 1 1 0 4 
1 1 0 4 1 1 0 3 1 1 0 4 1 1 0 3 
1 1 0 3 1 1 0 3 1 1 0 3 1 1 0 3 
1 1 0 3 1 1 0 2 1 1 0 2 1 1 0 2 
1 1 0 2 1 1 0 2 1 1 0 1 1 1 0 2 
1 1 0 1 1 1 0 2 1 1 0 1 1 1 0 1 
1 1 0 1 2 2 0 1 2 2 0 1 2 2 1 1 
1 1 1 1 1 0 1 1 1 1 1 1 1 0 1 1 
1 0 1 0 1 1 1 0 1 0 1 0 1 1 1 0 
1 0 1 0 1 0 1 0 1 0 1 1 1 0 1 0 
1 0 1 0 1 0 1 0 1 1 1 0 1 0 1 0 
1 0 1 1 1 0 1 0 1 1 1 0 1 0 1 1 
1 0 1 0 1 1 1 0 1 1 1 0 1 1 1 0 
1 1 1 1 1 0 1 1 1 1 1 0 1 1 1 1 
1 1 1 1 1 1 1 1 0 1 2 2 1 1 0 1 
2 2 0 1 2 2 0 1 2 2 0 2 2 2 0 1 
1 1 0 1 1 1 0 1 1 1 0 1 1 1 0 1 
1 1 0 1 1 1 0 2 2 2 0 2 1 1 0 1 
1 1 0 2 1 1 0 1 1 1 0 2 1 1 0 1 
1 1 0 3 2 2 0 2 1 1 0 2 1 1 0 2 
1 1 0 2 1 1 0 1 1 1 0 2 1 1 0 1 
1 1 0 3 1 1 0 1 1 1 0 2 1 1 0 1 
1 1 0 2 1 1 1000 1182 300 MP stroke
0 2 1 1 0 2 1 1 0 2 1 1 0 2 1 1 
0 1 1 1 0 2 1 1 0 2 1 1 0 2 1 1 
0 2 1 1 0 1 1 1 0 2 1 1 0 2 1 1 
0 2 1 1 0 1 1 1 0 2 1 1 0 2 1 1 
0 2 1 1 0 1 1 1 0 2 1 1 0 2 1 1 
0 2 1 1 0 1 1 1 0 2 1 1 0 2 1 1 
0 1 1 1 0 2 1 1 0 2 1 1 0 1 1 1 
0 2 1 1 0 2 1 1 0 3 2 2 0 2 1 1 
0 2 1 1 0 2 1 1 0 2 1 1 0 1 1 1 
0 2 1 1 0 2 1 1 0 2 1 1 0 2 1 1 
0 1 1 1 0 2 1 1 0 2 1 1 0 2 1 1 
0 2 1 1 0 1 1 1 0 2 1 1 0 2 1 1 
0 2 1 1 0 2 1 1 0 2 1 1 0 2 1 1 
0 2 1 1 0 1 1 1 0 3 1 1 0 1 1 1 
0 3 1 1 0 1 1 1 0 2 1 1 0 2 1 1 
0 2 1 1 0 2 1 1 0 2 1 1 0 2 1 1 
0 2 1 1 0 2 1 1 0 2 1 1 0 2 1 1 
0 2 1 1 0 2 1 1 0 2 1 1 0 2 1 1 
0 2 1 1 0 1 1 1 0 3 1 1 0 2 1 1 
0 1 1 1 0 3 1 1 0 1 1 1 0 2 1 1 
0 2 1 1 0 2 1 1 0 2 1 1 0 1 1 1 
0 2 1 1 0 2 1 1 0 2 1 1 0 2 1 1 
0 1 1 1 0 2 1 1 0 1 1 1 0 2 1 1 
0 2 1 1 0 1 1 1 0 2 1 1 0 2 2 2 
0 2 1 1 0 1 1 1 0 2 2 2 0 2 1 1 
0 1 1 1 0 1 1 1 0 2 2 2 0 1 1 1 
0 1 1 1 0 1 2 2 0 2 2 2 0 1 2 2 
0 1 2 2 0 1 2 2 1 1 1 1 1 1 1 1 
0 1 2 2 1 0 1 1 1 1 1 1 1 1 1 1 
1 0 1 1 1 0 1 1 1 1 1 0 1 0 1 1 
1 0 1 1 1 0 1 0 1 0 1 1 1 0 1 0 
1 0 1 0 1 1 1 0 1 0 1 0 1 0 1 0 
1 0 1 0 1 0 1 0 1 0 1 0 1 0 1 0 
1 1 1 0 1 0 1 0 1 0 1 0 1 0 1 0 
1 0 1 0 1 0 1 0 1 0 1 1 1 0 1 0 
1 0 1 0 1 0 1 0 1 0 1 1 1 0 1 0 
1 0 1 0 1 0 1 1 1 0 1 0 1 0 1 1 
1 0 1 0 1 1 802 842 300 MP stroke
1 0 1 0 1 1 1 0 1 0 1 1 1 0 1 1 
1 0 1 1 1 0 1 1 1 0 1 1 1 0 1 1 
1 1 1 0 1 1 1 1 1 0 1 1 1 1 1 1 
1 0 1 1 1 1 1 1 1 0 1 1 1 1 1 1 
1 1 1 0 -1 0 2 2 1 0 1 1 1 1 1 1 
1 0 1 1 1 1 1 1 1 1 1 1 1 0 1 1 
1 1 1 1 1 1 1 1 1 0 1 1 1 1 1 1 
1 1 1 0 1 1 1 1 1 1 1 1 1 0 1 1 
1 1 1 1 1 1 1 0 1 1 1 1 1 1 1 0 
1 1 1 1 1 1 1 0 1 1 1 1 1 1 1 1 
1 0 1 1 1 1 1 1 1 0 1 1 1 1 1 1 
1 1 1 0 1 1 1 1 1 1 1 0 1 1 1 1 
1 1 1 1 1 0 1 1 1 1 1 1 1 0 1 1 
1 1 1 1 1 0 1 1 1 1 1 1 1 1 1 0 
1 1 1 1 1 1 1 0 1 1 1 1 1 1 1 0 
1 1 1 1 1 0 1 1 1 1 1 0 1 1 1 1 
1 1 1 0 1 1 1 0 1 1 1 1 1 0 1 1 
1 0 1 1 1 1 1 0 1 1 1 0 1 1 1 0 
1 1 1 0 1 1 1 0 1 1 1 0 1 1 1 0 
1 1 1 0 1 1 1 0 1 0 1 1 1 0 1 0 
1 1 1 0 1 0 1 1 1 0 1 0 1 0 1 1 
1 0 1 0 1 0 1 1 1 0 1 0 1 0 1 0 
1 0 1 1 1 0 1 0 1 0 1 0 1 0 1 0 
1 0 1 0 1 1 1 0 1 0 1 0 1 0 1 0 
1 0 1 0 1 0 1 0 1 0 1 0 1 0 1 0 
1 0 1 0 1 0 1 0 1 0 1 0 1 0 1 0 
1 0 1 0 1 0 1 0 1 0 1 1 1 0 1 0 
1 0 1 0 1 0 1 0 1 0 1 0 1 0 1 0 
1 0 1 0 1 0 1 0 1 0 1 0 1 1 1 0 
1 0 1 0 1 0 1 0 1 0 1 0 1 0 1 1 
1 0 1 0 1 0 1 0 1 0 1 1 1 0 1 0 
1 0 1 0 1 1 1 0 1 0 1 0 1 1 1 0 
1 0 1 0 1 1 1 0 1 0 1 1 1 0 1 0 
1 0 1 1 1 0 1 0 1 1 1 0 1 0 1 1 
1 0 1 0 1 0 1 1 1 0 1 0 1 0 1 0 
1 1 1 0 1 0 1 0 1 0 1 0 1 0 1 1 
1 0 1 0 1 0 1 0 1 0 1 0 1 0 1 0 
1 0 1 0 1 0 504 713 300 MP stroke
/c9 { 1.000000 0.000000 0.000000 sr} bdef
c9
1 0 1 1 1 0 1 1 1 0 1 1 1 0 1 1 
1 1 1 0 1 1 1 1 1 1 1 0 1 1 1 1 
1 1 1 1 1 1 1 1 1 1 1 0 1 1 1 1 
1 1 1 1 1 1 1 1 1 1 1 1 1 1 1 1 
1 1 1 0 1 1 1 1 1 1 1 1 1 1 1 1 
1 1 1 1 1 0 1 1 1 1 1 1 1 1 1 1 
1 0 1 1 1 1 1 1 1 1 1 0 1 1 1 1 
1 0 1 1 1 1 1 1 1 0 1 1 1 0 1 1 
1 1 1 0 1 1 1 0 1 1 1 0 1 0 1 1 
1 0 1 1 1 0 1 0 1 0 1 1 1 0 1 0 
1 0 1 0 1 0 1 0 1 0 1 0 1 0 1 0 
1 0 1 0 1 0 1 0 1 0 1 0 1 0 1 0 
1 -1 1 0 1 0 1 0 1 0 1 0 1 -1 1 0 
1 0 1 0 1 0 1 -1 1 0 1 0 1 0 1 0 
1 0 1 -1 1 0 1 0 1 0 1 0 1 0 1 -1 
1 0 1 0 1 0 1 0 1 0 1 0 1 -1 1 0 
1 0 1 0 1 0 1 0 1 0 1 0 1 -1 1 0 
1 0 1 0 1 0 1 0 1 0 1 -1 1 0 1 0 
1 0 1 0 1 0 1 -1 1 0 1 0 1 0 1 -1 
1 0 1 0 1 0 1 -1 1 0 1 -1 1 0 1 0 
1 -1 1 0 1 0 1 -1 1 0 1 -1 1 0 1 -1 
1 0 1 -1 1 0 1 -1 1 0 1 -1 1 -1 1 0 
1 -1 1 -1 1 0 1 -1 1 -1 1 0 1 -1 1 -1 
1 -1 1 -1 1 0 1 -1 1 -1 1 -1 1 -1 1 0 
1 -1 1 -1 1 -1 1 -1 1 -1 1 -1 1 -1 1 -1 
1 -1 1 -1 1 -1 1 0 1 -1 1 -1 1 -1 1 -1 
1 -1 1 -1 1 0 1 -1 1 -1 1 -1 1 0 1 -1 
1 -1 1 0 1 -1 1 -1 1 0 1 -1 1 0 1 0 
1 -1 1 0 1 0 1 -1 1 0 1 0 1 0 1 0 
1 0 1 0 1 0 1 0 1 0 1 1 1 0 1 0 
1 1 1 0 1 1 1 0 1 1 1 0 1 1 1 1 
1 0 1 1 1 1 1 0 1 1 1 1 1 1 1 1 
1 0 1 1 1 1 1 1 1 1 1 1 1 1 1 1 
1 1 1 1 1 1 1 0 1 1 1 1 1 1 1 1 
1 1 1 1 1 1 1 1 1 1 1 1 1 0 1 1 
1 1 1 1 1 1 1 1 1 1 1 0 1 1 1 1 
1 1 1 1 1 0 1 1 1 1 1 1 1 0 1 1 
1 1 1 1 1 0 2121 911 300 MP stroke
1 1 1 0 1 1 1 1 1 0 1 1 1 0 1 1 
1 0 1 1 1 0 1 0 1 1 1 0 1 0 1 1 
1 0 1 0 1 0 1 0 1 1 1 0 1 0 1 0 
1 0 1 0 1 0 1 0 1 0 1 0 1 -1 1 0 
1 0 1 0 1 0 1 0 1 -1 1 0 1 0 1 0 
1 0 1 -1 1 0 1 0 1 0 1 0 1 -1 1 0 
1 0 1 0 1 -1 1 0 1 0 1 0 1 -1 1 0 
1 0 1 0 1 0 1 -1 1 0 1 0 1 0 1 0 
1 0 1 -1 1 0 1 0 1 0 1 0 1 -1 1 0 
1 0 1 0 1 0 1 0 1 -1 1 0 1 0 1 0 
1 -1 1 0 1 0 1 0 1 -1 1 0 1 0 1 0 
1 -1 1 0 1 0 1 -1 1 0 1 0 1 -1 1 0 
1 0 1 -1 1 0 1 -1 1 0 1 -1 1 0 1 -1 
1 0 1 -1 1 0 1 -1 1 -1 1 0 1 -1 1 -1 
1 0 1 -1 1 -1 1 0 1 -1 1 -1 1 -1 1 -1 
1 -1 1 0 1 -1 1 -1 1 -1 1 -1 1 -1 1 -1 
1 -1 1 -1 1 -1 1 -1 1 -1 1 -1 1 -1 1 -1 
1 -1 0 -1 2 -2 1 -1 1 -1 1 -1 1 -1 1 -1 
1 -1 1 -1 1 -1 1 -1 1 -1 1 -1 1 -1 1 -1 
1 -1 1 -1 1 -1 1 -1 1 -1 1 -1 1 0 1 -1 
1 -1 1 -1 1 0 1 -1 1 0 1 -1 1 0 1 -1 
1 0 1 0 1 0 1 -1 1 0 1 0 1 0 1 0 
1 0 1 0 1 1 1 0 1 0 1 0 1 1 1 0 
1 1 1 0 1 1 1 0 1 1 1 1 1 0 1 1 
1 1 1 1 1 0 1 1 1 1 1 1 1 1 1 1 
1 0 1 1 1 1 1 1 1 1 1 1 1 1 1 1 
1 1 1 0 -1 0 2 2 1 0 1 1 1 1 1 1 
1 1 1 1 1 0 1 1 1 1 1 1 1 1 1 1 
1 1 1 0 1 1 1 1 1 1 1 0 1 1 1 1 
1 1 1 0 1 1 1 1 1 0 1 1 1 1 1 0 
1 1 1 0 1 1 1 0 1 1 1 0 1 1 1 0 
1 0 1 1 1 0 1 0 1 1 1 0 1 0 1 0 
1 0 1 0 1 0 1 0 1 0 1 0 1 0 1 -1 
1 0 1 0 1 0 1 -1 1 0 1 0 1 -1 1 0 
1 -1 1 0 1 -1 1 0 1 -1 1 0 1 -1 1 0 
1 -1 1 0 1 -1 1 -1 1 0 1 -1 1 -1 1 0 
1 -1 1 0 1 -1 1 -1 1 0 1 -1 1 -1 1 0 
1 -1 1 -1 1 0 1823 945 300 MP stroke
1 -1 1 -1 1 0 1 -1 1 -1 1 0 1 -1 1 0 
1 -1 1 -1 1 0 1 -1 1 -1 1 -1 1 0 1 -1 
1 -1 1 0 1 -1 1 -1 1 -1 1 0 1 -1 1 -1 
1 -1 1 -1 1 -1 1 -1 1 -1 1 0 1 -1 1 -1 
1 -1 0 -1 2 -2 1 -1 1 -1 1 -1 1 -1 0 -1 
2 -2 1 -1 0 -1 2 -2 1 -1 0 -1 2 -2 0 -1 
2 -2 1 -1 0 -2 2 -2 1 -1 0 -2 2 -2 1 -1 
0 -2 2 -2 0 -2 2 -2 0 -2 2 -2 0 -2 2 -2 
0 -2 2 -2 0 -2 1 -1 0 -1 1 -1 0 -2 2 -2 
0 -2 1 -1 0 -2 2 -2 0 -3 2 -2 0 -2 1 -1 
0 -1 1 -1 0 -2 1 -1 0 -1 1 -1 0 -3 2 -2 
0 -3 2 -2 0 -2 1 -1 0 -2 1 -1 0 -1 1 -1 
0 -2 1 -1 0 -1 1 -1 0 -3 2 -2 0 -3 2 -2 
0 -2 1 -1 0 -1 1 -1 0 -2 1 -1 0 -1 1 -1 
0 -2 2 -2 0 -2 1 -1 0 -1 1 -1 0 -1 1 -1 
0 -1 1 -1 0 -1 1 -1 0 -1 1 -1 1 -1 0 -2 
2 -2 0 -1 2 -2 1 -1 0 -1 2 -2 1 -1 1 -1 
1 -1 1 -1 1 0 1 -1 1 -1 1 0 1 -1 1 0 
1 0 1 0 1 -1 1 0 1 0 1 1 1 0 1 0 
1 0 1 1 1 0 1 0 1 1 1 0 1 1 1 1 
1 0 1 1 1 1 1 0 1 1 1 1 1 1 1 0 
1 1 1 1 1 0 1 1 1 1 1 1 1 0 1 1 
1 1 1 0 1 1 1 1 1 0 1 1 1 1 1 0 
1 1 1 0 1 1 1 0 1 1 1 0 1 1 1 0 
1 1 1 0 1 1 1 0 1 0 1 1 1 0 1 0 
1 0 1 0 1 0 1 0 1 0 1 0 1 0 1 0 
1 -1 1 0 1 0 1 -1 1 0 1 -1 1 -1 1 -1 
1 0 1 -1 0 -1 2 -2 1 -1 0 -1 2 -2 0 -1 
2 -2 1 -1 0 -2 2 -2 0 -1 1 -1 0 -1 1 -1 
0 -1 1 -1 0 -1 1 -1 0 -1 1 -1 0 -2 2 -2 
0 -3 2 -2 0 -2 1 -1 0 -1 1 -1 0 -2 1 -1 
0 -1 1 -1 0 -2 1 -1 0 -2 1 -1 0 -1 1 -1 
0 -2 1 -1 0 -2 1 -1 0 -2 1 -1 0 -1 1 -1 
0 -2 1 -1 0 -2 1 -1 0 -2 1 -1 0 -2 1 -1 
0 -2 1 -1 0 -1 1 -1 0 -2 1 -1 0 -3 1 -1 
0 -2 1 -1 0 -2 1 -1 0 -2 1 -1 0 -1 1 -1 
0 -2 1 -1 0 -2 1 -1 0 -3 1 -1 0 -1 1 -1 
0 -3 1 -1 0 -2 1580 1227 300 MP stroke
1 -1 0 -2 1 -1 0 -2 1 -1 0 -2 1 -1 0 -2 
1 -1 0 -2 1 -1 0 -3 1 -1 0 -2 1 -1 0 -2 
1 -1 0 -3 1 -1 0 -2 1 -1 0 -2 1 -1 0 -3 
1 -1 0 -2 1 -1 0 -3 1 -1 0 -2 1 -1 0 -3 
1 -1 0 -2 1 -1 0 -3 1 -1 0 -3 1 -1 0 -3 
1 -1 0 -2 1 -1 0 -3 1 -1 0 -3 1 -1 0 -3 
1 -1 0 -3 1 -1 0 -4 1 -1 0 -3 1 -1 0 -3 
1 -1 0 -3 1 -1 0 -4 1 -1 0 -3 1 -1 0 -4 
1 -1 0 -4 1 -1 0 -3 1 -1 0 -4 1 -1 0 -5 
1 -1 0 -3 1 -1 0 -4 1 -1 0 -4 1 -1 0 -5 
1 -1 0 -4 1 -1 0 -4 1 -1 0 -4 1 -1 0 -5 
1 -1 0 -4 1 -1 0 -5 1 -1 0 -5 1 -1 0 -4 
1 -1 0 -5 1 -1 0 -5 1 -1 0 -6 1 -1 0 -5 
1 -1 0 -5 1 -1 0 -6 1 -1 0 -5 1 -1 0 -5 
1 -1 0 -6 1 -1 0 -6 1 -1 0 -5 1 -1 0 -6 
1 -1 0 -6 1 -1 0 -6 1 -1 0 -7 1 -1 0 -5 
1 -1 0 -6 1 -1 0 -7 1 -1 0 -5 1 -1 0 -7 
1 -1 0 -6 1 -1 0 -6 1 -1 0 -7 1 -1 0 -7 
1 -1 0 -5 1 -1 0 -7 1 -1 0 -7 1 -1 0 -6 
1 -1 0 -6 1 -1 0 -6 1 -1 0 -7 1 -1 0 -6 
1 -1 0 -6 1 -1 0 -7 1 -1 0 -5 1 -1 0 -6 
1 -1 0 -6 1 -1 0 -6 1 -1 0 -6 1 -1 0 -6 
1 -1 0 -6 1 -1 0 -5 1 -2 0 -5 1 -1 0 -5 
1 -1 0 -5 1 -1 0 -5 1 -1 0 -5 1 -1 0 -4 
1 -1 0 -5 1 -1 0 -5 1 -1 0 -4 1 -1 0 -4 
1 -1 0 -3 1 -1 0 -4 1 -1 0 -4 1 -1 0 -3 
1 -1 0 -4 1 -1 0 -2 1 -1 0 -3 1 -1 0 -3 
1 -1 0 -2 1 -1 0 -2 1 -1 0 -2 1 -1 0 -2 
1 -1 0 -2 1 -1 0 -2 2 -2 0 -2 1 -1 1 -1 
0 -2 2 -2 0 -1 2 -2 1 -1 1 -1 1 -1 1 -1 
1 0 1 -1 1 0 1 0 1 -1 1 0 1 0 1 0 
1 0 1 0 1 0 1 0 1 0 1 1 1 0 1 0 
1 0 1 1 1 0 1 0 1 0 1 0 1 1 1 0 
1 0 1 0 1 0 1 0 1 0 1 0 1 0 1 0 
1 0 1 0 1 0 1 0 1 0 1 0 1 -1 1 0 
1 0 1 -1 1 0 1 -1 1 0 1 -1 1 -1 1 0 
1 -1 1 -1 1 -1 1 -1 0 -1 2 -2 1 -1 0 -1 
2 -2 0 -1 1 -1 1396 1863 300 MP stroke
1 -1 0 -2 2 -2 0 -2 2 -2 0 -2 1 -1 0 -1 
1 -1 0 -2 1 -1 0 -2 1 -1 0 -1 1 -1 0 -3 
1 -1 0 -2 1 -1 0 -2 1 -1 0 -3 1 -1 0 -2 
1 -1 0 -3 1 -1 0 -3 1 -1 0 -2 1 -1 0 -4 
1 -1 0 -3 1 -1 0 -2 1 -1 0 -4 1 -1 0 -3 
1 -1 0 -4 1 -1 0 -3 1 -1 0 -4 1 -1 0 -4 
1 -1 0 -3 1 -1 0 -4 1 -1 0 -3 1 -1 0 -4 
1 -1 0 -4 1 -1 0 -4 1 -1 0 -4 1 -1 0 -5 
1 -1 0 -4 1 -1 0 -3 1 -1 0 -4 1 -1 0 -4 
1 -1 0 -4 1 -1 0 -4 1 -1 0 -5 1 -1 0 -4 
1 -1 0 -4 1 -1 0 -5 1 -1 0 -4 1 -1 0 -3 
1 -1 0 -4 1 -1 0 -5 1 -1 0 -4 1 -1 0 -4 
1 -1 0 -4 1 -1 0 -4 1 -1 0 -5 1 -1 0 -4 
1 -1 0 -4 1 -1 0 -4 1 -1 0 -5 1 -1 0 -4 
1 -1 0 -4 1 -1 0 -4 1 -1 0 -5 1 -1 0 -4 
1 -1 0 -4 1 -1 0 -5 1 -1 0 -4 1 -1 0 -5 
1 -1 0 -4 1 -1 0 -5 1 -1 0 -4 1 -1 0 -4 
1 -1 0 -5 1 -1 0 -4 1 -1 0 -5 1 -1 0 -5 
1 -1 0 -4 1 -1 0 -5 1 -1 0 -5 1 -1 0 -5 
1 -1 0 -5 1 -1 0 -5 1 -1 0 -5 1 -1 0 -5 
1 -1 0 -5 1 -1 0 -5 1 -1 0 -5 1 -1 0 -6 
1 -1 0 -5 1 -1 0 -5 1 -1 0 -6 1 -1 0 -6 
1 -1 0 -5 1 -1 0 -6 1 -1 0 -5 1 -1 0 -5 
1 -1 0 -6 1 -1 0 -6 1 -1 0 -6 1 -1 0 -5 
1 -1 0 -7 1 -1 0 -5 1 -1 0 -6 1 -1 0 -6 
1 -1 0 -7 1 -1 0 -5 1 -1 0 -7 1 -1 0 -6 
1 -1 0 -6 1 -1 0 -6 1 -1 0 -6 1 -1 0 -7 
1 -1 0 -6 1 -1 0 -6 1 -1 0 -7 1 -1 0 -6 
1 -1 0 -6 1 -1 0 -6 1 -1 0 -7 1 -1 0 -6 
1 -1 0 -6 1 -1 0 -7 1 -1 0 -6 1 -1 0 -6 
1 -1 0 -7 1 -1 0 -6 1 -1 0 -5 1 -1 0 -7 
1 -1 0 -6 1 -1 0 -6 1 -1 0 -5 1 -1 0 -7 
1 -1 0 -6 1 -1 0 -5 1 -1 0 -6 1 -1 0 -6 
1 -1 0 -5 1 -1 0 -5 1 -1 0 -6 1 -1 0 -6 
1 -1 0 -4 1 -1 0 -5 1 -1 0 -5 1 -1 0 -5 
1 -1 0 -5 1 -1 0 -4 1 -1 0 -5 1 -1 0 -4 
1 -1 0 -5 1 -1 0 -3 1 -1 0 -4 1 -1 0 -4 
1 -1 0 -4 1 -1 1244 2705 300 MP stroke
0 -3 1 -1 0 -3 1 -1 0 -4 1 -1 0 -3 1 -1 
0 -2 1 -1 0 -3 1 -1 0 -2 1 -1 0 -3 1 -1 
0 -2 1 -1 0 -2 1 -1 0 -2 1 -1 0 -2 1 -1 
0 -2 1 -1 0 -2 2 -2 0 -2 1 -1 0 -1 1 -1 
0 -1 1 -1 1 -1 0 -2 2 -2 1 -1 1 -1 0 -1 
2 -2 1 -1 1 0 1 -1 1 -1 1 -1 1 0 1 -1 
1 0 1 0 1 -1 1 0 1 0 1 0 1 -1 1 0 
1 0 1 0 1 0 1 0 1 0 1 0 1 0 1 0 
1 0 1 0 1 0 1 0 1 0 1 -1 1 0 1 0 
1 0 1 0 1 0 1 0 1 0 1 -1 1 0 1 0 
1 0 1 -1 1 0 1 0 1 0 1 -1 1 0 1 -1 
1 0 1 -1 1 0 1 -1 1 0 1 -1 1 -1 1 0 
1 -1 1 -1 1 -1 1 -1 1 -1 1 -1 1 -1 1 -1 
1 -1 1 -1 0 -1 2 -2 1 -1 0 -2 2 -2 0 -1 
2 -2 0 -1 1 -1 0 -1 1 -1 0 -1 1 -1 0 -1 
1 -1 0 -1 1 -1 0 -1 1 -1 0 -1 1 -1 0 -2 
2 -2 0 -2 1 -1 0 -1 1 -1 0 -1 1 -1 0 -2 
1 -1 0 -1 1 -1 0 -2 1 -1 0 -1 1 -1 0 -2 
1 -1 0 -1 1 -1 0 -2 1 -1 0 -1 1 -1 0 -2 
1 -1 0 -2 1 -1 0 -1 1 -1 0 -2 1 -1 0 -2 
1 -1 0 -1 1 -1 0 -2 1 -1 0 -2 1 -1 0 -1 
1 -1 0 -2 1 -1 0 -2 1 -1 0 -1 1 -1 0 -2 
1 -1 0 -2 1 -1 0 -1 1 -1 0 -2 1 -1 0 -2 
1 -1 0 -1 1 -1 0 -2 1 -1 0 -1 1 -1 0 -2 
1 -1 0 -2 1 -1 0 -1 1 -1 0 -2 1 -1 0 -2 
1 -1 0 -1 1 -1 0 -3 2 -2 0 -2 1 -1 0 -3 
2 -2 0 -2 1 -1 0 -1 1 -1 0 -2 1 -1 0 -3 
2 -2 0 -2 1 -1 0 -2 1 -1 0 -1 1 -1 0 -2 
1 -1 0 -2 1 -1 0 -1 1 -1 0 -2 1 -1 0 -2 
1 -1 0 -1 1 -1 0 -2 1 -1 0 -2 1 -1 0 -1 
1 -1 0 -2 1 -1 0 -2 1 -1 0 -1 1 -1 0 -2 
1 -1 0 -2 1 -1 0 -2 1 -1 0 -1 1 -1 0 -2 
1 -1 0 -2 1 -1 0 -2 1 -1 0 -2 1 -1 0 -2 
1 -1 0 -2 1 -1 0 -1 1 -1 0 -2 1 -1 0 -2 
1 -1 0 -2 1 -1 0 -2 1 -1 0 -2 1 -1 0 -1 
1 -1 0 -2 1 -1 0 -2 1 -1 0 -2 1 -1 0 -2 
1 -1 0 -2 1 -1 0 -2 1 -1 0 -2 1 -1 0 -2 
1 -1 0 -2 1 -1 1050 3064 300 MP stroke
0 -1 1 -1 0 -2 1 -1 0 -2 1 -1 0 -2 1 -1 
0 -2 1 -1 0 -2 1 -1 0 -2 1 -1 0 -2 1 -1 
0 -2 1 -1 0 -1 1 -1 0 -2 1 -1 0 -2 1 -1 
0 -2 1 -1 0 -2 1 -1 0 -1 1 -1 0 -2 1 -1 
0 -2 1 -1 0 -1 1 -1 0 -2 1 -1 0 -2 1 -1 
0 -2 1 -1 0 -1 1 -1 0 -2 1 -1 0 -1 1 -1 
0 -2 1 -1 0 -2 2 -2 0 -2 1 -1 0 -2 2 -2 
0 -2 1 -1 0 -1 1 -1 0 -2 2 -2 0 -2 2 -2 
0 -2 2 -2 0 -2 2 -2 0 -1 1 -1 0 -1 1 -1 
0 -1 2 -2 0 -1 2 -2 0 -1 2 -2 1 -1 0 -1 
2 -2 1 -1 1 -1 1 -1 1 -1 1 -1 1 -1 1 -1 
1 -1 1 0 1 -1 1 -1 1 0 1 -1 1 -1 1 0 
1 -1 1 0 1 0 1 -1 1 0 1 0 1 -1 1 0 
1 0 1 0 1 0 1 -1 1 0 1 0 1 0 1 0 
1 0 1 0 1 0 1 0 1 0 1 0 1 0 1 0 
1 0 1 0 1 -1 1 0 1 0 1 0 1 0 1 0 
1 0 1 0 1 0 1 0 1 0 1 0 1 0 1 0 
1 0 1 0 1 0 1 0 1 0 1 -1 1 0 1 0 
1 0 1 0 1 0 1 0 1 0 1 -1 1 0 1 0 
1 0 1 0 1 -1 1 0 1 0 1 0 1 -1 1 0 
1 0 1 -1 1 0 1 0 1 -1 1 0 1 -1 1 0 
1 -1 1 0 1 -1 1 0 1 -1 1 0 1 -1 1 0 
1 -1 1 -1 1 0 1 -1 1 -1 1 0 1 -1 1 -1 
1 -1 1 0 1 -1 1 -1 1 -1 1 0 1 -1 1 -1 
1 -1 1 -1 1 0 1 -1 1 -1 1 -1 1 -1 1 0 
1 -1 1 -1 1 -1 1 -1 1 0 1 -1 1 -1 1 -1 
1 -1 1 0 1 -1 1 -1 1 -1 1 0 1 -1 1 -1 
1 -1 1 0 1 -1 1 -1 1 -1 1 0 1 -1 1 -1 
1 -1 1 0 1 -1 1 -1 1 -1 1 0 1 -1 1 -1 
1 -1 1 0 1 -1 1 -1 1 -1 1 0 1 -1 1 -1 
1 -1 1 0 1 -1 1 -1 1 -1 1 0 1 -1 1 -1 
1 -1 1 0 1 -1 1 -1 1 -1 1 0 1 -1 1 -1 
1 -1 1 -1 1 0 1 -1 1 -1 1 -1 1 0 1 -1 
1 -1 1 -1 1 0 1 -1 1 -1 1 -1 1 0 1 -1 
1 -1 1 0 1 -1 1 -1 1 -1 1 0 1 -1 1 -1 
1 0 1 -1 1 -1 1 0 1 -1 1 -1 1 0 1 -1 
1 -1 1 0 1 -1 1 -1 1 0 1 -1 1 0 1 -1 
1 0 1 -1 1 -1 781 3301 300 MP stroke
1 0 1 -1 1 0 1 -1 1 0 1 -1 1 0 1 -1 
1 0 1 0 1 -1 1 0 1 -1 1 0 1 -1 1 0 
1 0 1 -1 1 0 1 0 1 -1 1 0 1 0 1 0 
1 -1 1 0 1 0 1 0 1 -1 1 0 1 0 1 0 
1 0 1 0 1 -1 1 0 1 0 1 0 1 0 1 0 
1 0 1 0 1 0 1 -1 1 0 1 0 1 0 1 0 
1 0 1 0 1 0 1 0 1 0 1 0 1 0 1 0 
1 0 1 0 1 0 1 0 1 0 1 0 1 0 1 0 
1 0 1 0 1 0 1 0 1 0 1 0 1 0 1 0 
1 0 1 -1 1 0 1 0 1 0 1 0 1 0 1 0 
1 0 1 0 1 0 1 0 1 0 1 0 1 0 1 0 
1 0 1 0 1 -1 1 0 1 0 1 0 1 0 1 0 
1 0 1 0 1 0 1 -1 1 0 1 0 1 0 1 0 
1 0 1 -1 1 0 1 0 1 0 1 0 1 -1 1 0 
1 0 1 -1 1 0 1 0 1 0 1 -1 1 0 1 0 
1 0 1 -1 1 0 1 0 1 -1 1 0 1 0 1 -1 
1 0 1 0 1 0 1 -1 1 0 1 0 1 0 1 -1 
1 0 1 0 1 0 1 0 1 -1 1 0 1 0 1 0 
1 0 1 0 1 0 1 0 1 0 1 0 1 0 1 0 
1 0 1 0 1 0 1 0 1 0 1 0 1 0 1 0 
1 0 1 0 1 0 1 0 1 0 1 0 1 0 1 0 
1 0 1 0 1 0 1 0 1 0 1 0 1 0 1 0 
1 0 1 0 1 0 1 0 1 0 1 0 1 0 1 0 
1 0 1 0 1 0 1 0 1 0 1 0 1 0 1 0 
1 0 1 0 1 0 1 0 1 0 1 0 1 0 1 0 
1 0 1 0 1 0 1 0 1 0 1 0 1 0 1 0 
1 0 1 0 1 0 1 0 1 0 1 0 1 0 1 0 
1 0 1 0 1 0 1 0 1 0 1 0 1 0 1 0 
1 0 1 0 1 0 1 0 1 0 1 0 1 0 1 0 
1 0 1 0 1 0 1 0 1 0 1 0 1 0 1 0 
1 0 1 1 1 0 1 0 1 0 1 0 1 0 1 0 
1 0 1 0 1 0 1 0 1 0 1 0 1 0 1 0 
1 0 1 0 1 0 1 0 1 0 1 0 1 0 1 0 
1 0 1 0 1 0 1 0 1 0 1 0 1 0 1 0 
1 0 1 0 1 0 1 0 1 0 504 3326 278 MP stroke
/c10 { 1.000000 0.000000 1.000000 sr} bdef
c10
1 0 1 -1 1 -1 1 -1 1 -1 1 -1 0 -1 2 -2 
1 0 1 -1 0 -1 2 -2 1 0 -1 0 2 -2 1 -1 
1 -1 1 -1 1 -1 1 -1 1 -1 1 -1 1 -1 1 -1 
1 -1 1 -1 1 -1 1 -1 1 -1 1 -1 1 -1 1 -1 
1 -1 1 -1 1 -1 1 -1 1 -1 1 -1 1 -1 1 -1 
1 -1 1 -1 1 -1 1 -1 1 -1 1 -1 1 -1 1 -1 
1 -1 1 -1 1 -1 1 -1 1 -1 1 -1 1 -1 1 -1 
1 -1 0 -1 2 -2 1 -1 1 0 -1 0 2 -2 1 -1 
1 -1 1 -1 1 -1 1 -1 1 -1 1 -1 1 -1 1 -1 
1 -1 1 -1 1 -1 1 -1 1 -1 1 -1 1 -1 1 -1 
1 -1 1 -1 1 -1 1 -1 1 -1 1 -1 1 -1 1 -1 
1 -1 1 -1 1 -1 0 -1 2 -2 1 -1 1 -1 1 -1 
1 -1 1 -1 1 -1 1 -1 1 -1 1 -1 1 -1 1 -1 
1 -1 1 -1 1 -1 1 -1 1 -1 1 -1 1 -1 1 -1 
1 -1 1 -1 1 -1 1 -1 1 -1 1 -1 1 -1 1 -1 
1 -1 0 -1 2 -2 1 -1 1 -1 1 -1 1 -1 1 -1 
1 -1 1 -1 1 -1 1 -1 1 -1 1 -1 1 -1 1 -1 
1 -1 1 -1 1 -1 1 -1 1 -1 1 -1 1 -1 1 -1 
1 -1 1 -1 1 -1 1 -1 1 -1 1 -1 1 -1 1 -1 
1 -1 1 -1 1 -1 0 -1 2 -2 1 -1 1 -1 1 -1 
1 -1 1 -1 1 -1 1 -1 1 -1 1 -1 1 -1 1 -1 
1 -1 1 -1 1 -1 1 -1 1 -1 1 -1 1 -1 1 -1 
1 -1 1 -1 1 -1 1 -1 1 -1 1 -1 1 -1 1 -1 
1 -1 1 -1 1 -1 1 -1 1 -1 1 -1 1 -1 1 -1 
1 -1 1 -1 1 -1 1 -1 1 -1 0 -1 2 -2 1 -1 
1 -1 1 -1 1 -1 1 -1 1 -1 1 -1 1 -1 1 -1 
1 -1 1 -1 1 -1 1 -1 1 -1 1 -1 1 -1 1 -1 
1 -1 1 -1 1 -1 1 -1 1 -1 1 -1 1 -1 1 -1 
1 -1 1 -1 1 -1 1 -1 1 -1 1 -1 1 -1 1 -1 
1 -1 1 -1 1 -1 1 -1 1 -1 1 -1 1 -1 1 -1 
1 -1 1 -1 1 -1 1 -1 1 -1 1 -1 1 -1 1 -1 
1 -1 1 -1 1 -1 1 -1 1 -1 1 -1 1 -1 1 -1 
1 -1 1 -1 1 -1 1 -1 1 -1 1 -1 1 -1 1 -1 
1 -1 1 -1 1 -1 1 -1 1 -1 1 -1 1 -1 1 -1 
1 -1 1 -1 1 -1 1 -1 1 -1 1 -1 0 -1 2 -2 
1 0 0 -1 2 -2 1 0 -1 0 2 -2 1 -1 1 -1 
1 -1 1 -1 1 -1 1 -1 1 -1 1 -1 1 -1 1 -1 
1 -1 1 -1 1 -1 2124 2414 300 MP stroke
1 -1 1 -1 1 -1 1 -1 1 -1 1 -1 1 -1 1 -1 
1 -1 1 -1 1 -1 1 -1 1 -1 1 -1 1 -1 1 -1 
1 -1 1 -1 1 -1 0 -1 2 -2 1 0 -1 0 2 -2 
1 -1 1 -1 1 -1 1 -1 1 -1 1 -1 1 -1 1 -1 
1 -1 1 -1 1 -1 1 -1 1 -1 1 -1 1 -1 1 -1 
1 -1 1 -1 1 -1 1 -1 1 -1 1 -1 1 -1 1 -1 
1 -1 1 -1 1 -1 1 -1 1 -1 0 -1 2 -2 1 -1 
1 -1 1 -1 1 -1 1 -1 1 -1 1 -1 1 -1 1 -1 
1 -1 1 -1 1 -1 1 -1 1 -1 1 -1 1 -1 1 -1 
1 -1 1 -1 1 -1 1 -1 1 -1 1 -1 1 -1 1 -1 
1 -1 1 -1 1 -1 1 -1 1 -1 0 -1 2 -2 1 -1 
1 -1 1 -1 1 -1 1 -1 1 -1 1 -1 1 -1 1 -1 
1 -1 1 -1 1 -1 1 -1 1 -1 1 -1 1 -1 1 -1 
1 -1 1 -1 1 -1 1 -1 1 -1 1 -1 1 -1 1 -1 
1 -1 1 -1 1 -1 1 -1 1 -1 1 -1 1 -1 1 -1 
1 -1 1 -1 1 -1 1 -1 1 -1 1 -1 1 -1 1 -1 
1 -1 0 -1 2 -2 1 -1 1 -1 1 -1 1 -1 1 -1 
1 -1 1 -1 1 -1 1 -1 1 -1 1 -1 1 -1 1 -1 
1 -1 1 -1 1 -1 1 -1 1 -1 1 -1 1 -1 1 -1 
1 -1 1 -1 1 -1 1 -1 1 -1 1 -1 1 -1 1 -1 
1 -1 1 -1 1 -1 1 -1 1 -1 1 -1 1 -1 1 -1 
1 -1 1 -1 1 -1 1 -1 1 -1 1 -1 1 -1 1 -1 
1 -1 1 -1 1 -1 1 -1 1 -1 1 -1 1 -1 1 -1 
1 -1 1 -1 1 -1 1 -1 1 -1 1 -1 1 -1 1 -1 
1 -1 1 -1 1 -1 1 -1 1 -1 1 -1 1 -1 1 -1 
1 -1 1 -1 1 -1 1 -1 1 -1 1 -1 1 -1 1 -1 
1 -1 1 -1 1 -1 1 -1 1 -1 1 -1 1 -1 1 -1 
1 -1 1 -1 1 -1 1 -1 1 -1 1 -1 1 -1 1 -1 
1 -1 1 -1 1 -1 1 -1 1 -1 1 -1 1 -1 1 -1 
1 -1 1 -1 1 -1 1 -1 1 -1 1 -1 1 -1 1 -1 
1 -1 1 -1 1 -1 1 -1 1 -1 1 -1 0 -1 2 -2 
1 -1 1 0 -1 0 2 -2 1 0 -1 0 2 -2 1 -1 
1 -1 1 -1 1 -1 1 -1 1 -1 1 -1 1 -1 1 -1 
1 -1 1 -1 1 -1 1 -1 1 -1 1 -1 1 -1 1 -1 
1 -1 1 -1 1 -1 1 -1 1 -1 1 -1 1 -1 1 -1 
1 -1 1 -1 1 -1 1 -1 1 -1 1 -1 1 -1 1 -1 
1 -1 1 -1 1 -1 1 -1 1 -1 1 -1 1 -1 0 -1 
2 -2 1 -1 1 -1 1828 2716 300 MP stroke
1 -1 1 -1 1 -1 1 -1 1 -1 1 -1 1 -1 1 -1 
1 -1 1 -1 1 -1 1 -1 1 -1 1 -1 1 -1 1 -1 
1 -1 1 -1 1 -1 1 -1 1 -1 1 -1 1 -1 1 -1 
1 -1 1 -1 1 -1 1 -1 1 -1 1 -1 1 -1 1 -1 
1 -1 1 -1 1 -1 1 -1 1 -1 1 -1 1 -1 1 -1 
1 -1 1 -1 1 -1 1 -1 1 -1 1 -1 1 -1 1 -1 
1 -1 1 -1 1 -1 1 -1 1 -1 1 -1 1 -1 1 -1 
1 -1 1 -1 1 -1 1 -1 1 -1 1 -1 1 -1 1 -1 
1 -1 1 -1 1 -1 1 -1 1 -1 1 -1 1 -1 1 -1 
1 -1 1 -1 1 -1 1 -1 1 -1 1 -1 1 -1 1 -1 
1 -1 1 -1 1 -1 1 -1 1 0 1 -1 1 -1 1 -1 
1 -1 1 -1 1 -1 1 -1 1 -1 1 -1 1 -1 1 -1 
1 -1 1 -1 1 -1 1 -1 1 -1 1 -1 1 -1 1 -1 
1 -1 1 -1 1 -1 1 0 -1 0 2 -2 1 0 1 -1 
1 -1 1 -1 1 -1 1 -1 1 -1 1 -1 1 -1 1 -1 
1 -1 1 -1 1 -1 1 -1 1 -1 1 0 1 -1 1 -1 
1 -1 1 -1 1 -1 1 -1 1 -1 1 -1 1 -1 1 -1 
1 -1 1 -1 1 -1 1 -1 1 -1 1 0 1 -1 1 -1 
1 -1 1 -1 1 -1 1 -1 1 -1 1 -1 1 -1 1 -1 
1 -1 1 -1 1 -1 1 -1 1 -1 1 -1 1 -1 1 0 
-1 0 2 -2 1 0 1 -1 1 -1 1 -1 1 -1 1 -1 
1 -1 1 -1 1 -1 1 -1 1 -1 1 -1 1 -1 1 -1 
1 -1 1 -1 1 -1 1 0 -1 0 2 -2 1 0 1 -1 
1 -1 1 -1 1 -1 1 -1 1 -1 1 -1 1 -1 1 -1 
1 -1 1 -1 1 -1 1 -1 1 -1 1 -1 1 -1 1 -1 
1 -1 1 -1 1 -1 1 0 1 -1 1 -1 1 -1 1 -1 
1 -1 1 -1 1 -1 1 -1 1 -1 1 -1 1 -1 1 -1 
1 -1 1 -1 1 -1 1 -1 1 -1 1 -1 1 -1 1 0 
1 -1 1 -1 1 -1 1 -1 1 -1 1 -1 1 -1 1 -1 
1 -1 1 -1 1 -1 1 -1 1 -1 1 0 1 -1 1 -1 
1 -1 1 -1 1 -1 1 -1 1 -1 1 -1 1 -1 1 -1 
1 -1 1 -1 1 -1 1 0 1 -1 1 -1 1 -1 1 -1 
1 -1 1 -1 1 -1 1 -1 1 0 1 -1 1 -1 1 -1 
1 -1 1 -1 1 -1 1 -1 1 -1 1 -1 1 0 1 -1 
1 -1 1 -1 1 -1 1 -1 1 -1 1 -1 1 0 1 -1 
1 -1 1 -1 1 -1 1 -1 1 -1 1 -1 1 0 1 -1 
1 -1 1 -1 1 -1 1 -1 1 0 1 -1 1 -1 1 -1 
1 -1 1 -1 1 0 1532 2996 300 MP stroke
1 -1 1 -1 1 -1 1 -1 1 -1 1 0 1 -1 1 -1 
1 -1 1 -1 1 0 1 -1 1 -1 1 -1 1 -1 1 0 
1 -1 1 -1 1 -1 1 0 1 -1 1 -1 1 -1 1 -1 
1 0 1 -1 1 -1 1 -1 1 0 1 -1 1 -1 1 -1 
1 0 1 -1 1 -1 1 0 1 -1 1 -1 1 -1 1 0 
1 -1 1 -1 1 -1 1 0 1 -1 1 -1 1 0 1 -1 
1 -1 1 0 1 -1 1 -1 1 0 1 -1 1 -1 1 0 
1 -1 1 -1 1 0 1 -1 1 -1 1 0 1 -1 1 -1 
1 -1 1 0 1 -1 1 0 1 -1 1 -1 1 -1 1 0 
1 -1 1 0 1 -1 1 -1 1 0 1 -1 1 -1 1 -1 
1 0 1 -1 1 0 1 -1 1 -1 1 0 1 -1 1 -1 
1 0 1 -1 1 -1 1 0 1 -1 1 -1 1 -1 1 0 
1 -1 1 0 1 -1 1 -1 1 -1 1 0 1 -1 1 0 
1 -1 1 -1 1 -1 1 0 1 -1 1 0 1 -1 1 -1 
1 0 1 -1 1 -1 1 -1 1 0 1 -1 1 0 1 -1 
1 -1 1 -1 1 0 1 -1 1 -1 1 0 1 -1 1 -1 
1 0 1 -1 1 -1 1 0 1 -1 1 -1 1 0 1 -1 
1 -1 1 0 1 -1 1 -1 1 0 1 -1 1 -1 1 0 
1 -1 1 -1 1 0 1 -1 1 -1 1 0 1 -1 1 -1 
1 0 1 -1 1 -1 1 0 1 -1 1 -1 1 0 1 -1 
1 -1 1 0 1 -1 1 -1 1 0 1 -1 1 -1 1 0 
1 -1 1 -1 1 0 1 -1 1 0 1 -1 1 -1 1 0 
1 -1 1 -1 1 0 1 -1 1 -1 1 0 1 -1 1 0 
1 -1 1 -1 1 0 1 -1 1 0 1 -1 1 -1 1 0 
1 -1 1 0 1 -1 1 -1 1 0 1 -1 1 0 1 -1 
1 0 1 -1 1 -1 1 0 1 -1 1 0 1 -1 1 0 
1 -1 1 -1 1 0 1 -1 1 0 1 -1 1 0 1 -1 
1 0 1 -1 1 -1 1 0 1 -1 1 0 1 -1 1 0 
1 -1 1 0 1 -1 1 0 1 -1 1 0 1 -1 1 0 
1 -1 1 0 1 -1 1 0 1 -1 1 0 1 -1 1 0 
1 -1 1 0 1 -1 1 0 1 -1 1 0 1 -1 1 0 
1 0 1 -1 1 0 1 -1 1 0 1 -1 1 0 1 0 
1 -1 1 0 1 -1 1 0 1 -1 1 0 1 0 1 -1 
1 0 1 -1 1 0 1 -1 1 0 1 0 1 -1 1 0 
1 0 1 -1 1 0 1 -1 1 0 1 0 1 -1 1 0 
1 0 1 -1 1 0 1 -1 1 0 1 0 1 -1 1 0 
1 0 1 -1 1 0 1 0 1 -1 1 0 1 0 1 -1 
1 0 1 -1 1 0 1233 3178 300 MP stroke
1 0 1 -1 1 0 1 0 1 -1 1 0 1 0 1 -1 
1 0 1 0 1 -1 1 0 1 0 1 -1 1 0 1 0 
1 -1 1 0 1 0 1 -1 1 0 1 0 1 -1 1 0 
1 0 1 -1 1 0 1 0 1 -1 1 0 1 0 1 -1 
1 0 1 0 1 -1 1 0 1 0 1 -1 1 0 1 0 
1 -1 1 0 1 -1 1 0 1 0 1 -1 1 0 1 0 
1 -1 1 0 1 0 1 -1 1 0 1 0 1 -1 1 0 
1 0 1 -1 1 0 1 0 1 -1 1 0 1 -1 1 0 
1 0 1 -1 1 0 1 0 1 -1 1 0 1 0 1 -1 
1 0 1 0 1 -1 1 0 1 -1 1 0 1 0 1 -1 
1 0 1 0 1 -1 1 0 1 0 1 -1 1 0 1 -1 
1 0 1 0 1 -1 1 0 1 0 1 -1 1 0 1 0 
1 -1 1 0 1 0 1 -1 1 0 1 0 1 -1 1 0 
1 0 1 -1 1 0 1 -1 1 0 1 0 1 -1 1 0 
1 0 1 -1 1 0 1 0 1 -1 1 0 1 0 1 -1 
1 0 1 0 1 -1 1 0 1 0 1 -1 1 0 1 0 
1 -1 1 0 1 0 1 0 1 -1 1 0 1 0 1 -1 
1 0 1 0 1 -1 1 0 1 0 1 -1 1 0 1 0 
1 -1 1 0 1 0 1 -1 1 0 1 0 1 0 1 -1 
1 0 1 0 1 -1 1 0 1 0 1 -1 1 0 1 0 
1 0 1 -1 1 0 1 0 1 -1 1 0 1 0 1 0 
1 -1 1 0 1 0 1 -1 1 0 1 0 1 0 1 -1 
1 0 1 0 1 0 1 -1 1 0 1 0 1 -1 1 0 
1 0 1 0 1 -1 1 0 1 0 1 0 1 -1 1 0 
1 0 1 0 1 -1 1 0 1 0 1 0 1 -1 1 0 
1 0 1 0 1 -1 1 0 1 0 1 0 1 -1 1 0 
1 0 1 0 1 -1 1 0 1 0 1 0 1 0 1 -1 
1 0 1 0 1 0 1 -1 1 0 1 0 1 0 1 -1 
1 0 1 0 1 0 1 0 1 -1 1 0 1 0 1 0 
1 -1 1 0 1 0 1 0 1 0 1 -1 1 0 1 0 
1 0 1 -1 1 0 1 0 1 0 1 0 1 -1 1 0 
1 0 1 0 1 -1 1 0 1 0 1 0 1 0 1 -1 
1 0 1 0 1 0 1 -1 1 0 1 0 1 0 1 0 
1 -1 1 0 1 0 1 0 1 -1 1 0 1 0 1 0 
1 0 1 -1 1 0 1 0 1 0 1 -1 1 0 1 0 
1 0 1 0 1 -1 1 0 1 0 1 0 1 -1 1 0 
1 0 1 0 1 0 1 -1 1 0 1 0 1 0 1 -1 
1 0 1 0 1 0 934 3265 300 MP stroke
1 -1 1 0 1 0 1 0 1 0 1 -1 1 0 1 0 
1 0 1 -1 1 0 1 0 1 0 1 0 1 -1 1 0 
1 0 1 0 1 -1 1 0 1 0 1 0 1 -1 1 0 
1 0 1 0 1 0 1 -1 1 0 1 0 1 0 1 -1 
1 0 1 0 1 0 1 -1 1 0 1 0 1 0 1 0 
1 -1 1 0 1 0 1 0 1 -1 1 0 1 0 1 0 
1 0 1 -1 1 0 1 0 1 0 1 -1 1 0 1 0 
1 0 1 -1 1 0 1 0 1 0 1 0 1 -1 1 0 
1 0 1 0 1 0 1 -1 1 0 1 0 1 0 1 -1 
1 0 1 0 1 0 1 -1 1 0 1 0 1 0 1 0 
1 -1 1 0 1 0 1 0 1 0 1 -1 1 0 1 0 
1 0 1 -1 1 0 1 0 1 0 1 0 1 -1 1 0 
1 0 1 0 1 0 1 -1 1 0 1 0 1 0 1 0 
1 -1 1 0 1 0 1 0 1 -1 1 0 1 0 1 0 
1 0 1 -1 1 0 1 0 1 0 1 0 1 -1 1 0 
1 0 1 0 1 0 1 -1 1 0 1 0 1 0 1 0 
1 -1 1 0 1 0 1 0 1 0 1 -1 1 0 1 0 
1 0 1 0 1 -1 1 0 1 0 1 0 1 0 1 -1 
1 0 1 0 1 0 1 0 1 -1 1 0 1 0 1 0 
1 0 1 -1 1 0 1 0 1 0 1 0 1 -1 1 0 
1 0 1 0 1 0 1 -1 1 0 1 0 1 0 1 0 
1 -1 1 0 1 0 1 0 1 0 1 -1 1 0 1 0 
1 0 1 0 1 -1 1 0 1 0 1 0 1 0 1 -1 
1 0 1 0 1 0 1 0 1 0 1 -1 1 0 1 0 
1 0 1 0 1 -1 1 0 1 0 1 0 1 0 1 -1 
1 0 1 0 1 0 1 0 1 -1 1 0 1 0 1 0 
1 0 1 -1 1 0 1 0 1 0 1 0 1 -1 1 0 
1 0 1 0 1 0 1 -1 1 0 1 0 1 0 1 0 
1 0 1 -1 1 0 1 0 1 0 1 0 1 -1 1 0 
1 0 1 0 1 0 1 -1 1 0 1 0 1 0 1 0 
1 -1 1 0 1 0 1 0 1 0 1 -1 1 0 1 0 
1 0 1 0 1 -1 1 0 1 0 1 0 1 0 1 -1 
1 0 1 0 1 0 1 0 1 -1 1 0 1 0 1 0 
1 0 1 -1 1 0 1 0 1 0 1 0 1 0 1 -1 
1 0 1 0 1 0 1 0 1 -1 1 0 1 0 1 0 
1 0 1 -1 1 0 1 0 1 0 1 0 1 -1 1 0 
1 0 1 0 1 0 1 -1 1 0 1 0 1 0 1 0 
1 -1 1 0 1 0 635 3327 300 MP stroke
1 0 1 0 1 -1 1 0 1 0 1 0 1 0 1 0 
1 -1 1 0 1 0 1 0 1 0 1 -1 1 0 1 0 
1 0 1 0 1 -1 1 0 1 0 1 0 1 0 1 -1 
1 0 1 0 1 0 1 0 1 -1 1 0 1 0 1 0 
1 0 1 0 1 -1 1 0 1 0 1 0 1 0 1 -1 
1 0 1 0 1 0 1 0 1 -1 1 0 1 0 1 0 
1 0 1 -1 1 0 1 0 1 0 1 0 1 -1 1 0 
1 0 1 0 1 0 1 -1 1 0 1 0 1 0 1 0 
1 -1 1 0 1 0 1 0 1 0 1 0 1 -1 1 0 
1 0 1 0 1 0 1 -1 1 0 1 0 1 0 1 0 
1 -1 1 0 1 0 1 0 1 0 1 -1 1 0 1 0 
1 0 1 0 1 -1 1 0 1 0 1 0 1 0 1 -1 
1 0 1 0 1 0 1 0 1 0 1 -1 1 0 1 0 
1 0 1 0 1 -1 1 0 1 0 1 0 1 0 1 -1 
1 0 1 0 1 0 1 0 1 -1 1 0 1 0 1 0 
1 0 1 -1 1 0 1 0 1 0 1 0 1 -1 1 0 
1 0 1 0 1 0 -1 0 505 3352 133 MP stroke
gr

24 w
c10
0 sg
1312 3641 mt 
(Years) s
 187 1916 mt  -90 rotate
(Trees) s
90 rotate
 487 3396 mt 
( ) s
2403  228 mt 
( ) s
6 w
1700  381 mt 
(Susceptible) s
gs 1236 246 1125 481 rc
24 w
c8
357 0 1307 338 2 MP stroke
gr

24 w
c8
0 sg
1700  529 mt 
(Infected) s
gs 1236 246 1125 481 rc
c9
357 0 1307 486 2 MP stroke
gr

c9
0 sg
1700  677 mt 
(Removed) s
gs 1236 246 1125 481 rc
c10
357 0 1307 633 2 MP stroke
6 w
gr

6 w
c10
1 sg
0 3167 1914 0 0 -3167 2923 3353 4 MP
PP
-1914 0 0 3167 1914 0 0 -3167 2923 3353 5 MP stroke
4 w
DO
SO
6 w
0 sg
2923  186 mt 4837  186 L
2923 3353 mt 4837 3353 L
4837 3353 mt 4837  186 L
2923 3353 mt 2923  186 L
2923 3353 mt 4837 3353 L
2923 3353 mt 2923  186 L
2923 3353 mt 2923 3321 L
2923  186 mt 2923  217 L
2890 3498 mt 
(0) s
3401 3353 mt 3401 3321 L
3401  186 mt 3401  217 L
3368 3498 mt 
(2) s
3880 3353 mt 3880 3321 L
3880  186 mt 3880  217 L
3847 3498 mt 
(4) s
4358 3353 mt 4358 3321 L
4358  186 mt 4358  217 L
4325 3498 mt 
(6) s
4837 3353 mt 4837 3321 L
4837  186 mt 4837  217 L
4804 3498 mt 
(8) s
2923 3353 mt 2954 3353 L
4837 3353 mt 4805 3353 L
2822 3397 mt 
(0) s
2923 2900 mt 2954 2900 L
4837 2900 mt 4805 2900 L
2688 2944 mt 
(100) s
2923 2448 mt 2954 2448 L
4837 2448 mt 4805 2448 L
2688 2492 mt 
(200) s
2923 1995 mt 2954 1995 L
4837 1995 mt 4805 1995 L
2688 2039 mt 
(300) s
2923 1543 mt 2954 1543 L
4837 1543 mt 4805 1543 L
2688 1587 mt 
(400) s
2923 1090 mt 2954 1090 L
4837 1090 mt 4805 1090 L
2688 1134 mt 
(500) s
2923  638 mt 2954  638 L
4837  638 mt 4805  638 L
2688  682 mt 
(600) s
2923  186 mt 2954  186 L
4837  186 mt 4805  186 L
2688  230 mt 
(700) s
2923  186 mt 4837  186 L
2923 3353 mt 4837 3353 L
4837 3353 mt 4837  186 L
2923 3353 mt 2923  186 L
gs 2923 186 1915 3168 rc
24 w
c8
1 -3 0 -26 1 -4 0 -31 1 -4 0 -32 1 -4 0 -28 
1 -5 0 -33 1 -4 0 -29 1 -5 0 -34 1 -5 0 -29 
1 -5 0 -30 1 -5 0 -35 1 -5 0 -30 1 -5 0 -31 
1 -5 0 -25 1 -5 0 -31 1 -5 0 -25 1 -5 0 -31 
1 -5 0 -25 1 -5 0 -26 1 -5 0 -26 1 -5 0 -20 
1 -6 0 -20 1 -6 0 -21 1 -5 0 -22 1 -5 0 -17 
1 -5 0 -17 1 -5 0 -15 1 -5 0 -14 1 -4 0 -13 
1 -4 0 -12 1 -4 0 -15 1 -4 0 -10 1 -3 0 -9 
1 -3 0 -8 1 -3 0 -9 1 -2 0 -6 1 -2 0 -7 
1 -2 0 -4 1 -1 0 -5 1 -1 0 -3 1 -1 0 -2 
1 -1 0 -1 1 -1 1 -1 1 1 1 1 0 2 1 1 
0 2 1 1 0 4 1 1 0 3 1 1 0 6 1 2 
0 5 1 1 0 8 1 2 0 6 1 3 0 7 1 2 
0 10 1 3 0 8 1 3 0 9 1 3 0 12 1 3 
0 10 1 4 0 10 1 4 0 14 1 4 0 12 1 4 
0 12 1 4 0 17 1 4 0 14 1 4 0 18 1 5 
0 14 1 4 0 19 1 5 0 14 1 5 0 19 1 5 
0 19 1 5 0 15 1 5 0 19 1 5 0 20 1 5 
0 20 1 5 0 24 1 5 0 20 1 5 0 19 1 5 
0 25 1 5 0 19 1 5 0 24 1 5 0 24 1 5 
0 18 1 5 0 24 1 4 0 23 1 5 0 23 1 4 
0 23 1 4 0 22 1 4 0 22 1 4 0 21 1 4 
0 21 1 4 0 20 1 3 0 23 1 4 0 18 1 4 
0 18 1 3 0 17 1 3 0 19 1 3 0 15 1 3 
0 13 1 3 0 13 1 2 0 11 1 3 0 10 1 2 
0 10 1 1 0 7 1 1 0 6 1 1 0 3 1 1 
0 1 1 1 1 0 -1 0 2 -2 0 -4 1 -1 0 -6 
1 -1 0 -9 1 -2 0 -10 1 -1 0 -12 1 -3 0 -16 
1 -3 0 -16 1 -3 0 -19 1 -3 0 -21 1 -4 0 -23 
1 -4 0 -30 1 -5 0 -24 1 -4 0 -31 1 -6 0 -33 
1 -6 0 -37 1 -6 0 -33 1 -6 0 -39 1 -7 0 -39 
1 -7 0 -46 1 -6 0 -40 1 -6 0 -46 1 -7 0 -46 
1 -6 0 -53 1 -6 0 -45 1 -7 0 -51 1 -7 0 -50 
1 -6 0 -50 1 -6 0 -55 1 -6 0 -54 1 -6 0 -51 
1 -6 0 -56 1 -5 0 -54 1 -5 0 -51 1 -5 0 -52 
1 -5 0 -49 1 -5 0 -50 1 -4 0 -48 1 -4 0 -48 
1 -4 0 -44 1 -4 0 -43 1 -3 0 -43 1 -3 0 -37 
1 -2 0 -35 1 -2 4686 3262 300 MP stroke
0 -30 1 -2 0 -24 1 -1 0 -16 1 -1 1 -1 -1 0 
2 2 1 1 1 1 0 2 2 2 0 2 2 2 0 1 
1 1 0 2 1 1 0 1 1 1 0 3 1 1 0 2 
1 1 0 3 1 1 0 3 1 1 0 3 1 1 0 4 
1 1 0 4 1 1 0 5 1 1 0 6 1 1 0 7 
1 1 0 6 1 1 0 8 1 1 0 9 1 1 0 9 
1 1 0 10 1 1 0 12 1 2 0 13 1 1 0 13 
1 1 0 15 1 2 0 18 1 2 0 17 1 2 0 19 
1 2 0 22 1 2 0 24 1 2 0 26 1 3 0 27 
1 3 0 29 1 4 0 31 1 3 0 34 1 3 0 37 
1 4 0 40 1 5 0 44 1 4 0 44 1 4 0 51 
1 5 0 55 1 2 0 56 1 6 0 63 1 6 0 62 
1 7 0 71 1 7 0 68 1 7 0 77 1 8 0 84 
1 2 0 73 1 4 0 61 1 5 0 57 1 7 0 50 
1 8 0 47 1 11 0 44 1 10 0 37 1 9 0 33 
1 8 0 36 1 7 0 31 1 6 0 27 1 5 0 24 
1 4 0 20 1 4 0 20 1 3 0 13 1 3 0 11 
1 1 0 10 1 1 0 5 1 1 0 2 1 1 1 -1 
0 -4 1 -1 0 -7 1 -1 0 -8 1 -1 0 -12 1 -2 
0 -13 1 -3 0 -18 1 -3 0 -17 1 -3 0 -19 1 -4 
0 -23 1 -4 0 -22 1 -4 0 -27 1 -3 0 -29 1 -4 
0 -25 1 -4 0 -31 1 -4 0 -27 1 -5 0 -32 1 -4 
0 -33 1 -5 0 -29 1 -5 0 -34 1 -4 0 -30 1 -5 
0 -30 1 -5 0 -30 1 -5 0 -30 1 -5 0 -30 1 -5 
0 -30 1 -5 0 -31 1 -5 0 -30 1 -6 0 -25 1 -5 
0 -26 1 -5 0 -25 1 -5 0 -26 1 -5 0 -21 1 -5 
0 -26 1 -5 0 -21 1 -5 0 -16 1 -6 0 -16 1 -6 
0 -16 1 -6 0 -20 1 -5 0 -14 1 -5 0 -13 1 -4 
0 -13 1 -3 0 -12 1 -3 0 -11 1 -3 0 -13 1 -3 
0 -8 1 -3 0 -7 1 -2 0 -7 1 -2 0 -7 1 -2 
0 -6 1 -1 0 -4 1 -1 0 -4 1 -1 0 -2 1 -1 
0 -1 1 -1 1 -1 1 0 0 1 2 2 0 3 1 1 
0 2 1 1 0 5 1 1 0 4 1 2 0 6 1 2 
0 5 1 2 0 9 1 2 0 7 1 2 0 7 1 3 
0 11 1 3 0 8 1 3 0 9 1 4 0 13 1 3 
0 10 1 4 0 11 1 4 0 15 1 4 0 12 1 4 
0 13 1 4 0 18 1 4 0 14 1 4 0 18 1 5 
0 14 1 5 0 19 4531 2279 300 MP stroke
1 5 0 14 1 5 0 19 1 5 0 19 1 5 0 20 
1 5 0 20 1 4 0 20 1 5 0 20 1 5 0 19 
1 5 0 25 1 5 0 19 1 5 0 25 1 5 0 19 
1 5 0 24 1 5 0 23 1 5 0 19 1 5 0 23 
1 4 0 23 1 5 0 22 1 5 0 22 1 4 0 22 
1 4 0 21 1 4 0 21 1 4 0 24 1 4 0 19 
1 4 0 18 1 4 0 18 1 3 0 17 1 4 0 19 
1 3 0 15 1 3 0 14 1 3 0 13 1 2 0 12 
1 2 0 12 1 2 0 9 1 2 0 7 1 1 0 6 
1 1 0 4 1 1 0 2 1 1 1 0 1 -1 0 -4 
1 -1 0 -5 1 -1 0 -8 1 -1 0 -11 1 -2 0 -11 
1 -2 0 -14 1 -2 0 -19 1 -3 0 -18 1 -3 0 -20 
1 -4 0 -23 1 -4 0 -25 1 -4 0 -28 1 -5 0 -30 
1 -6 0 -33 1 -5 0 -36 1 -7 0 -32 1 -6 0 -39 
1 -7 0 -39 1 -7 0 -39 1 -7 0 -46 1 -6 0 -47 
1 -6 0 -46 1 -7 0 -45 1 -7 0 -52 1 -6 0 -45 
1 -7 0 -50 1 -7 0 -56 1 -6 0 -49 1 -6 0 -54 
1 -6 0 -52 1 -6 0 -56 1 -6 0 -48 1 -6 0 -57 
1 -5 0 -48 1 -5 0 -51 1 -4 0 -51 1 -4 0 -49 
1 -4 0 -49 1 -4 0 -45 1 -4 0 -45 1 -3 0 -42 
1 -3 0 -38 1 -2 0 -36 1 -2 0 -32 1 -1 0 -26 
1 -1 0 -18 1 -1 0 -4 1 -1 0 1 2 2 0 1 
2 2 1 1 0 2 1 1 1 1 0 2 1 1 0 1 
1 1 0 2 1 1 0 2 1 1 0 2 1 1 0 3 
1 1 0 3 1 1 0 3 1 1 0 4 1 1 0 4 
1 1 0 5 1 1 0 6 1 1 0 6 1 1 0 7 
1 1 0 7 1 1 0 8 1 2 0 9 1 1 0 11 
1 1 0 11 1 1 0 13 1 1 0 14 1 2 0 14 
1 2 0 16 1 2 0 17 1 2 0 18 1 2 0 22 
1 2 0 24 1 2 0 26 1 2 0 25 1 2 0 29 
1 3 0 34 1 4 0 33 1 3 0 36 1 4 0 40 
1 4 0 43 1 5 0 43 1 4 0 51 1 5 0 53 
1 6 0 54 1 5 0 57 1 6 0 67 1 7 0 64 
1 7 0 74 1 7 0 77 1 7 0 82 1 1 0 74 
1 3 0 65 1 5 0 59 1 6 0 54 1 8 0 43 
1 11 0 45 1 10 0 39 1 10 0 34 1 8 0 37 
1 7 0 33 1 6 0 28 1 5 0 25 1 4 0 21 
1 4 0 18 1 3 4377 1422 300 MP stroke
0 17 1 3 0 11 1 2 0 11 1 1 0 5 1 1 
0 3 1 1 1 0 0 -3 1 -1 0 -5 1 -1 0 -8 
1 -2 0 -11 1 -2 0 -13 1 -2 0 -16 1 -2 0 -20 
1 -3 0 -19 1 -3 0 -20 1 -4 0 -25 1 -3 0 -27 
1 -4 0 -24 1 -4 0 -29 1 -5 0 -26 1 -4 0 -31 
1 -5 0 -32 1 -4 0 -28 1 -5 0 -34 1 -4 0 -29 
1 -5 0 -35 1 -5 0 -29 1 -5 0 -30 1 -5 0 -30 
1 -5 0 -31 1 -5 0 -30 1 -5 0 -31 1 -5 0 -25 
1 -5 0 -31 1 -5 0 -25 1 -6 0 -25 1 -5 0 -26 
1 -5 0 -20 1 -6 0 -25 1 -6 0 -21 1 -5 0 -16 
1 -5 0 -22 1 -6 0 -16 1 -6 0 -15 1 -5 0 -15 
1 -5 0 -13 1 -4 0 -13 1 -4 0 -15 1 -4 0 -10 
1 -4 0 -9 1 -3 0 -9 1 -3 0 -8 1 -2 0 -9 
1 -2 0 -6 1 -1 0 -7 1 -1 0 -5 1 -1 0 -3 
1 -1 0 -3 1 -1 0 -1 1 -1 1 -1 1 -1 0 1 
2 2 0 2 1 1 0 4 1 1 0 3 1 1 0 6 
1 1 0 5 1 2 0 5 1 2 0 8 1 2 0 7 
1 2 0 10 1 3 0 8 1 2 0 9 1 3 0 12 
1 3 0 10 1 3 0 11 1 3 0 15 1 4 0 11 
1 4 0 12 1 4 0 17 1 4 0 13 1 5 0 13 
1 5 0 18 1 5 0 14 1 4 0 19 1 5 0 15 
1 4 0 20 1 5 0 19 1 5 0 20 1 5 0 20 
1 4 0 20 1 5 0 20 1 5 0 20 1 5 0 24 
1 5 0 20 1 5 0 24 1 5 0 20 1 5 0 24 
1 5 0 19 1 4 0 24 1 5 0 23 1 5 0 23 
1 5 0 22 1 5 0 22 1 4 0 22 1 4 0 22 
1 4 0 21 1 4 0 20 1 4 0 23 1 4 0 19 
1 3 0 18 1 4 0 17 1 3 0 17 1 3 0 18 
1 3 0 15 1 2 0 13 1 3 0 12 1 2 0 11 
1 2 0 9 1 2 0 9 1 1 0 6 1 1 0 5 
1 1 0 2 1 1 1 1 1 -1 0 -3 1 -1 0 -6 
1 -1 0 -7 1 -1 0 -9 1 -2 0 -11 1 -2 0 -15 
1 -3 0 -15 1 -3 0 -18 1 -3 0 -20 1 -4 0 -26 
1 -4 0 -25 1 -4 0 -28 1 -5 0 -25 1 -5 0 -33 
1 -6 0 -36 1 -6 0 -32 1 -6 0 -40 1 -6 0 -39 
1 -7 0 -40 1 -6 0 -46 1 -7 0 -46 1 -7 0 -46 
1 -7 0 -46 1 -6 0 -46 1 -6 0 -52 1 -7 0 -51 
1 -6 0 -50 1 -7 4224 2393 300 MP stroke
0 -55 1 -6 0 -49 1 -6 0 -58 1 -6 0 -51 1 -6 
0 -55 1 -5 0 -52 1 -5 0 -50 1 -5 0 -51 1 -5 
0 -52 1 -4 0 -49 1 -4 0 -50 1 -4 0 -46 1 -4 
0 -42 1 -3 0 -45 1 -2 0 -38 1 -2 0 -38 1 -2 
0 -33 1 -1 0 -28 1 -1 0 -21 1 -1 0 -7 1 -1 
0 1 2 2 0 1 2 2 0 1 1 1 1 1 0 2 
1 1 0 1 1 1 0 1 1 1 0 2 1 1 0 2 
1 1 0 3 1 1 0 2 1 1 0 3 1 1 0 4 
1 1 0 4 1 1 0 5 1 1 0 5 1 1 0 5 
1 1 0 6 1 1 0 8 1 1 0 7 1 1 0 9 
1 1 0 9 1 1 0 11 1 2 0 10 1 2 0 13 
1 1 0 14 1 2 0 15 1 2 0 16 1 2 0 17 
1 2 0 19 1 2 0 22 1 2 0 24 1 3 0 23 
1 3 0 27 1 3 0 29 1 3 0 32 1 3 0 34 
1 3 0 37 1 4 0 41 1 4 0 44 1 5 0 43 
1 5 0 51 1 5 0 49 1 6 0 57 1 5 0 62 
1 6 0 63 1 6 0 66 1 7 0 69 1 7 0 79 
1 7 0 82 1 7 0 75 1 3 0 68 1 5 0 62 
1 5 0 60 1 7 0 43 1 9 0 45 1 11 0 41 
1 9 0 44 1 8 0 31 1 7 0 34 1 7 0 29 
1 6 0 25 1 5 0 22 1 5 0 18 1 4 0 18 
1 3 0 13 1 2 0 11 1 1 0 7 1 1 0 3 
1 1 1 1 0 -2 1 -1 0 -5 1 -1 0 -8 1 -2 
0 -10 1 -2 0 -13 1 -3 0 -15 1 -2 0 -17 1 -3 
0 -22 1 -3 0 -20 1 -4 0 -25 1 -4 0 -23 1 -3 
0 -29 1 -4 0 -25 1 -4 0 -31 1 -4 0 -31 1 -5 
0 -28 1 -4 0 -33 1 -5 0 -29 1 -5 0 -34 1 -5 
0 -30 1 -5 0 -30 1 -5 0 -35 1 -5 0 -31 1 -5 
0 -31 1 -5 0 -31 1 -5 0 -25 1 -6 0 -30 1 -6 
0 -25 1 -5 0 -31 1 -6 0 -25 1 -6 0 -20 1 -5 
0 -26 1 -6 0 -20 1 -6 0 -21 1 -5 0 -21 1 -6 
0 -16 1 -6 0 -22 1 -6 0 -15 1 -5 0 -15 1 -5 
0 -13 1 -4 0 -13 1 -4 0 -12 1 -3 0 -14 1 -4 
0 -9 1 -3 0 -9 1 -3 0 -7 1 -3 0 -8 1 -2 
0 -6 1 -2 0 -5 1 -1 0 -5 1 -1 0 -4 1 -1 
0 -2 1 -1 0 -1 1 -1 1 -1 1 0 1 1 0 2 
1 1 0 1 1 1 0 4 1 1 0 5 1 1 0 5 
1 1 0 5 1 2 4070 2509 300 MP stroke
0 8 1 2 0 6 1 2 0 7 1 3 0 10 1 3 
0 8 1 3 0 9 1 3 0 13 1 3 0 11 1 3 
0 11 1 4 0 15 1 4 0 12 1 4 0 12 1 5 
0 17 1 5 0 13 1 5 0 14 1 5 0 19 1 4 
0 15 1 5 0 19 1 5 0 15 1 5 0 20 1 5 
0 20 1 5 0 20 1 5 0 21 1 5 0 20 1 5 
0 21 1 5 0 20 1 5 0 26 1 5 0 20 1 5 
0 20 1 5 0 25 1 5 0 25 1 5 0 19 1 5 
0 25 1 4 0 24 1 5 0 24 1 4 0 24 1 4 
0 23 1 5 0 22 1 4 0 22 1 4 0 21 1 4 
0 21 1 4 0 20 1 4 0 19 1 4 0 18 1 4 
0 21 1 3 0 16 1 4 0 15 1 3 0 14 1 3 
0 14 1 2 0 12 1 3 0 10 1 2 0 11 1 2 
0 7 1 1 0 7 1 1 0 3 1 1 0 2 1 1 
1 1 -1 0 2 -2 0 -3 1 -1 0 -6 1 -1 0 -7 
1 -2 0 -11 1 -2 0 -13 1 -2 0 -15 1 -2 0 -17 
1 -3 0 -20 1 -3 0 -18 1 -4 0 -25 1 -4 0 -27 
1 -5 0 -30 1 -5 0 -27 1 -6 0 -36 1 -6 0 -33 
1 -6 0 -34 1 -6 0 -41 1 -7 0 -40 1 -7 0 -41 
1 -6 0 -48 1 -7 0 -41 1 -7 0 -47 1 -7 0 -54 
1 -7 0 -47 1 -6 0 -54 1 -6 0 -53 1 -6 0 -52 
1 -6 0 -51 1 -7 0 -55 1 -7 0 -54 1 -6 0 -53 
1 -5 0 -57 1 -5 0 -54 1 -5 0 -52 1 -5 0 -53 
1 -5 0 -53 1 -5 0 -50 1 -4 0 -51 1 -4 0 -44 
1 -4 0 -47 1 -3 0 -43 1 -3 0 -42 1 -2 0 -37 
1 -2 0 -34 1 -1 0 -29 1 -1 0 -23 1 -1 0 -12 
1 -1 0 2 2 2 0 1 1 1 0 2 2 2 0 2 
1 1 0 1 1 1 0 3 1 1 0 2 1 1 0 2 
1 1 0 3 1 1 0 4 1 1 0 3 1 1 0 5 
1 1 0 4 1 1 0 6 1 1 0 5 1 1 0 7 
1 1 0 7 1 1 0 8 1 1 0 9 1 1 0 9 
1 2 0 10 1 1 0 12 1 2 0 12 1 1 0 14 
1 2 0 15 1 2 0 16 1 2 0 18 1 2 0 19 
1 2 0 20 1 3 0 24 1 3 0 23 1 3 0 28 
1 3 0 27 1 3 0 32 1 3 0 35 1 4 0 34 
1 4 0 38 1 4 0 42 1 4 0 46 1 5 0 49 
1 6 0 45 1 6 0 53 1 6 0 62 1 6 0 58 
1 5 0 65 1 8 3918 2335 300 MP stroke
0 66 1 7 0 71 1 8 0 73 1 8 0 85 1 9 
0 79 1 9 0 87 1 2 0 76 1 5 0 65 1 6 
0 62 1 8 0 53 1 11 0 46 1 11 0 43 1 10 
0 47 1 8 0 33 1 8 0 37 1 7 0 32 1 6 
0 28 1 6 0 24 1 4 0 25 1 4 0 17 1 3 
0 13 1 3 0 12 1 2 0 7 1 1 0 3 1 1 
1 1 0 -2 1 -1 0 -5 1 -1 0 -8 1 -2 0 -11 
1 -2 0 -14 1 -2 0 -16 1 -3 0 -18 1 -3 0 -23 
1 -4 0 -21 1 -4 0 -23 1 -4 0 -29 1 -4 0 -25 
1 -5 0 -31 1 -5 0 -28 1 -4 0 -34 1 -5 0 -29 
1 -5 0 -35 1 -5 0 -31 1 -5 0 -37 1 -5 0 -32 
1 -5 0 -32 1 -6 0 -32 1 -5 0 -33 1 -5 0 -33 
1 -5 0 -33 1 -5 0 -28 1 -5 0 -33 1 -5 0 -28 
1 -5 0 -28 1 -5 0 -27 1 -6 0 -27 1 -6 0 -22 
1 -5 0 -22 1 -6 0 -22 1 -6 0 -17 1 -5 0 -24 
1 -6 0 -16 1 -6 0 -15 1 -5 0 -15 1 -4 0 -14 
1 -4 0 -12 1 -4 0 -11 1 -4 0 -13 1 -3 0 -9 
1 -3 0 -8 1 -3 0 -7 1 -2 0 -6 1 -1 0 -7 
1 -1 0 -4 1 -1 0 -4 1 -1 0 -2 2 -2 1 -1 
0 1 2 2 0 3 1 1 0 3 1 1 0 5 1 1 
0 4 1 2 0 7 1 1 0 6 1 2 0 9 1 2 
0 8 1 2 0 11 1 3 0 9 1 3 0 10 1 3 
0 13 1 4 0 11 1 4 0 11 1 4 0 12 1 5 
0 17 1 4 0 13 1 5 0 14 1 4 0 19 1 5 
0 15 1 5 0 15 1 5 0 20 1 5 0 16 1 5 
0 21 1 5 0 22 1 5 0 16 1 6 0 22 1 5 
0 22 1 5 0 22 1 6 0 22 1 5 0 22 1 6 
0 22 1 5 0 22 1 5 0 22 1 6 0 27 1 5 
0 21 1 6 0 21 1 5 0 26 1 6 0 20 1 5 
0 26 1 5 0 25 1 5 0 20 1 4 0 24 1 5 
0 23 1 5 0 23 1 4 0 18 1 4 0 22 1 4 
0 20 1 4 0 20 1 4 0 19 1 3 0 18 1 3 
0 17 1 3 0 16 1 3 0 14 1 2 0 13 1 3 
0 9 1 2 0 10 1 2 0 9 1 1 0 7 1 1 
0 4 1 1 0 2 1 1 1 1 -1 0 2 -2 0 -3 
1 -1 0 -5 1 -1 0 -8 1 -1 0 -10 1 -2 0 -12 
1 -3 0 -14 1 -3 0 -17 1 -4 0 -19 1 -4 0 -22 
1 -5 0 -20 1 -5 3765 1310 300 MP stroke
0 -27 1 -6 0 -30 1 -7 0 -27 1 -7 0 -29 1 -7 
0 -37 1 -8 0 -37 1 -7 0 -38 1 -7 0 -45 1 -8 
0 -45 1 -8 0 -45 1 -7 0 -46 1 -7 0 -45 1 -8 
0 -53 1 -7 0 -53 1 -7 0 -59 1 -8 0 -51 1 -8 
0 -58 1 -7 0 -57 1 -7 0 -57 1 -7 0 -55 1 -6 
0 -61 1 -6 0 -59 1 -7 0 -56 1 -7 0 -54 1 -6 
0 -58 1 -6 0 -61 1 -5 0 -52 1 -5 0 -58 1 -4 
0 -49 1 -4 0 -54 1 -4 0 -50 1 -4 0 -46 1 -3 
0 -44 1 -3 0 -42 1 -2 0 -40 1 -2 0 -36 1 -1 
0 -29 1 -1 0 -24 1 -1 0 -15 1 -1 0 -1 0 1 
1 1 0 2 1 1 0 2 1 1 0 3 1 1 0 2 
1 1 0 4 1 1 0 3 1 1 0 3 1 1 0 5 
1 1 0 4 1 1 0 6 1 1 0 5 1 1 0 6 
1 1 0 7 1 1 0 7 1 1 0 9 1 1 0 8 
1 1 0 10 1 2 0 10 1 2 0 11 1 1 0 12 
1 2 0 14 1 2 0 14 1 2 0 16 1 2 0 18 
1 2 0 19 1 2 0 21 1 2 0 22 1 2 0 24 
1 3 0 25 1 3 0 27 1 3 0 29 1 3 0 35 
1 4 0 31 1 4 0 39 1 4 0 38 1 5 0 41 
1 6 0 40 1 6 0 50 1 7 0 48 1 8 0 45 
1 8 0 59 1 9 0 54 1 9 0 56 1 10 0 68 
1 10 0 68 1 7 0 75 1 10 0 66 1 11 0 81 
1 12 0 85 1 12 0 76 1 12 0 91 1 13 0 91 
1 3 0 86 1 5 0 70 1 7 0 68 1 8 0 58 
1 10 0 64 1 14 0 41 1 13 0 48 1 11 0 33 
1 10 0 39 1 9 0 33 1 8 0 30 1 7 0 26 
1 5 0 22 1 5 0 18 1 4 0 15 1 3 0 13 
1 2 0 6 1 1 0 5 2 0 0 -2 1 -1 0 -6 
1 -2 0 -10 1 -2 0 -10 1 -2 0 -16 1 -2 0 -18 
1 -3 0 -24 1 -3 0 -22 1 -4 0 -24 1 -4 0 -26 
1 -4 0 -32 1 -5 0 -28 1 -5 0 -30 1 -5 0 -31 
1 -5 0 -37 1 -5 0 -33 1 -6 0 -33 1 -6 0 -34 
1 -5 0 -35 1 -6 0 -34 1 -6 0 -36 1 -5 0 -36 
1 -6 0 -36 1 -6 0 -30 1 -6 0 -36 1 -6 0 -30 
1 -6 0 -30 1 -6 0 -30 1 -6 0 -30 1 -6 0 -24 
1 -6 0 -24 1 -6 0 -24 1 -6 0 -25 1 -6 0 -25 
1 -6 0 -19 1 -7 0 -13 1 -7 0 -20 1 -7 0 -13 
1 -6 0 -11 1 -6 3615 1880 300 MP stroke
0 -11 1 -5 0 -15 1 -4 0 -9 1 -4 0 -11 1 -3 
0 -9 1 -3 0 -7 1 -2 0 -6 1 -2 0 -5 1 -1 
0 -4 1 -1 0 -3 1 -1 0 -2 1 -1 1 -1 1 1 
1 1 0 3 1 1 0 2 1 1 0 5 1 1 0 5 
1 1 0 7 1 2 0 6 1 2 0 8 1 3 0 7 
1 3 0 11 1 2 0 9 1 3 0 13 1 3 0 11 
1 3 0 11 1 4 0 16 1 4 0 12 1 4 0 13 
1 4 0 18 1 5 0 14 1 5 0 14 1 5 0 20 
1 5 0 15 1 5 0 16 1 5 0 22 1 5 0 16 
1 6 0 22 1 5 0 17 1 5 0 23 1 6 0 17 
1 5 0 23 1 6 0 22 1 6 0 17 1 6 0 22 
1 6 0 23 1 5 0 23 1 5 0 23 1 5 0 22 
1 6 0 21 1 6 0 21 1 6 0 21 1 5 0 21 
1 5 0 25 1 5 0 20 1 5 0 19 1 5 0 23 
1 5 0 18 1 5 0 17 1 4 0 22 1 4 0 16 
1 4 0 19 1 4 0 14 1 4 0 16 1 4 0 15 
1 3 0 12 1 3 0 13 1 2 0 10 1 2 0 10 
1 2 0 7 1 1 0 6 1 1 0 5 1 1 0 2 
1 1 1 1 1 -1 0 -4 1 -1 0 -3 1 -2 0 -7 
1 -2 0 -10 1 -3 0 -9 1 -4 0 -11 1 -5 0 -13 
1 -5 0 -21 1 -6 0 -18 1 -7 0 -20 1 -7 0 -23 
1 -8 0 -25 1 -9 0 -27 1 -9 0 -27 1 -8 0 -35 
1 -9 0 -34 1 -8 0 -43 1 -9 0 -34 1 -8 0 -43 
1 -9 0 -51 1 -8 0 -43 1 -9 0 -51 1 -8 0 -51 
1 -9 0 -59 1 -9 0 -50 1 -9 0 -58 1 -9 0 -58 
1 -8 0 -58 1 -8 0 -57 1 -8 0 -64 1 -8 0 -62 
1 -8 0 -62 1 -7 0 -60 1 -8 0 -65 1 -8 0 -56 
1 -7 0 -62 1 -7 0 -65 1 -7 0 -56 1 -6 0 -60 
1 -6 0 -61 1 -6 0 -57 1 -5 0 -52 1 -5 0 -53 
1 -4 0 -53 1 -3 0 -49 1 -3 0 -47 1 -3 0 -44 
1 -3 0 -39 1 -2 0 -34 1 -2 0 -32 1 -1 0 -25 
1 -1 0 -16 1 -1 0 -4 0 1 1 1 0 3 1 1 
0 3 1 1 0 3 1 1 0 4 1 1 0 4 1 1 
0 5 1 1 0 5 1 1 0 5 1 1 0 7 1 1 
0 6 1 1 0 7 1 1 0 8 1 1 0 8 1 1 
0 10 1 1 0 10 1 2 0 9 1 2 0 12 1 1 
0 13 1 1 0 15 1 2 0 14 1 2 0 17 1 2 
0 18 1 2 0 17 3464 3055 300 MP stroke
1 2 0 21 1 3 0 22 1 2 0 24 1 3 0 25 
1 3 0 28 1 3 0 29 1 4 0 32 1 4 0 32 
1 4 0 39 1 5 0 33 1 6 0 42 1 6 0 41 
1 6 0 46 1 6 0 51 1 8 0 48 1 8 0 53 
1 9 0 49 1 11 0 53 1 12 0 60 1 12 0 67 
1 14 0 60 1 15 0 66 1 18 0 68 1 16 0 70 
1 18 0 75 1 19 0 78 1 20 0 80 1 21 0 83 
1 21 0 94 1 2 0 89 1 5 0 82 1 7 0 69 
1 9 0 68 1 11 0 49 1 14 0 50 1 20 0 39 
1 18 0 35 1 16 0 31 1 15 0 40 1 13 0 23 
1 11 0 19 1 8 0 28 1 5 0 16 1 4 0 16 
1 3 0 11 1 2 0 9 1 2 0 4 1 1 0 1 
1 -1 0 -2 1 -1 0 -7 1 -1 0 -9 1 -2 0 -13 
1 -2 0 -16 1 -3 0 -19 1 -3 0 -21 1 -4 0 -23 
1 -4 0 -25 1 -5 0 -26 1 -5 0 -28 1 -5 0 -35 
1 -5 0 -32 1 -5 0 -32 1 -6 0 -35 1 -5 0 -35 
1 -6 0 -35 1 -6 0 -35 1 -6 0 -37 1 -6 0 -36 
1 -7 0 -31 1 -6 0 -37 1 -6 0 -38 1 -6 0 -32 
1 -6 0 -32 1 -6 0 -32 1 -6 0 -32 1 -6 0 -32 
1 -6 0 -26 1 -6 0 -32 1 -6 0 -26 1 -6 0 -26 
1 -6 0 -20 1 -6 0 -20 1 -6 0 -21 1 -7 0 -21 
1 -8 0 -16 1 -10 0 -9 1 -10 0 -9 1 -8 0 -7 
1 -6 0 -11 1 -5 0 -14 1 -3 0 -8 1 -3 0 -9 
1 -3 0 -7 1 -3 0 -6 1 -2 0 -6 1 -1 0 -4 
1 -1 0 -2 1 -1 0 -2 1 -1 1 0 1 0 -1 0 
2 2 0 3 1 1 0 3 1 1 0 5 1 1 0 5 
1 1 0 7 1 2 0 6 1 2 0 10 1 2 0 8 
1 2 0 12 1 2 0 10 1 3 0 10 1 3 0 14 
1 4 0 11 1 4 0 11 1 4 0 17 1 4 0 13 
1 5 0 13 1 5 0 18 1 5 0 15 1 5 0 15 
1 5 0 15 1 5 0 21 1 5 0 16 1 6 0 16 
1 5 0 22 1 6 0 16 1 6 0 22 1 6 0 16 
1 6 0 22 1 6 0 17 1 6 0 22 1 6 0 22 
1 6 0 16 1 6 0 22 1 5 0 22 1 5 0 22 
1 5 0 21 1 5 0 16 1 5 0 21 1 5 0 25 
1 5 0 19 1 5 0 19 1 4 0 19 1 4 0 18 
1 4 0 17 1 4 0 21 1 4 0 15 1 4 0 15 
1 3 0 17 1 4 3313 808 300 MP stroke
0 13 1 3 0 12 1 2 0 14 1 3 0 9 1 3 
0 8 1 2 0 10 1 1 0 6 1 2 0 4 1 1 
0 3 1 1 0 2 1 1 1 -1 0 -1 1 -1 0 -4 
1 -1 0 -6 1 -2 0 -6 1 -2 0 -11 1 -3 0 -10 
1 -3 0 -13 1 -4 0 -15 1 -6 0 -20 1 -7 0 -18 
1 -11 0 -11 1 -11 0 -25 1 -12 0 -22 1 -11 0 -20 
1 -10 0 -32 1 -9 0 -29 1 -9 0 -37 1 -9 0 -37 
1 -9 0 -46 1 -9 0 -45 1 -9 0 -46 1 -9 0 -46 
1 -9 0 -46 1 -9 0 -54 1 -9 0 -53 1 -9 0 -54 
1 -9 0 -62 1 -9 0 -61 1 -9 0 -61 1 -8 0 -60 
1 -9 0 -59 1 -9 0 -66 1 -8 0 -58 1 -8 0 -64 
1 -8 0 -62 1 -8 0 -68 1 -8 0 -59 1 -7 0 -64 
1 -7 0 -62 1 -6 0 -66 1 -6 0 -62 1 -6 0 -58 
1 -6 0 -54 1 -5 0 -61 1 -4 0 -55 1 -4 0 -51 
1 -4 0 -50 1 -3 0 -46 1 -3 0 -46 1 -3 0 -39 
1 -2 0 -39 1 -2 0 -31 1 -1 0 -27 1 -1 0 -19 
1 -1 0 -6 1 1 0 3 1 1 0 3 1 1 0 4 
1 1 0 4 1 1 0 4 1 1 0 5 1 1 0 6 
1 1 0 5 1 1 0 7 1 1 0 7 1 1 0 7 
1 1 0 9 1 1 0 9 1 1 0 9 1 1 0 11 
1 1 0 12 1 1 0 12 1 2 0 13 1 2 0 15 
1 2 0 15 1 2 0 17 1 2 0 17 1 2 0 20 
1 3 0 21 1 3 0 23 1 2 0 25 1 3 0 26 
1 3 0 29 1 3 0 31 1 3 0 31 1 4 0 33 
1 4 0 37 1 5 0 40 1 6 0 39 1 6 0 43 
1 7 0 48 1 7 0 45 1 8 0 51 1 9 0 56 
1 10 0 52 1 11 0 58 1 13 0 51 1 14 0 73 
1 15 0 49 1 17 0 73 1 20 0 63 1 22 0 72 
1 26 0 55 1 29 0 62 1 32 0 64 1 33 0 66 
1 33 0 102 1 12 0 90 1 5 0 82 1 6 0 74 
1 9 0 64 1 11 0 58 1 13 0 44 1 18 0 44 
1 23 0 28 1 27 0 25 1 24 0 22 1 18 0 29 
1 12 0 30 1 8 0 22 1 7 0 21 1 5 0 16 
1 3 0 12 1 2 0 8 1 1 0 6 1 1 1 1 
-1 0 2 -2 0 -6 1 -1 0 -10 1 -2 0 -11 1 -2 
0 -16 1 -2 0 -19 1 -3 0 -21 1 -3 0 -23 1 -4 
0 -29 1 -4 0 -27 1 -5 0 -28 1 -5 0 -30 1 -5 
0 -32 1 -5 0 -33 3163 714 300 MP stroke
1 -5 0 -34 1 -5 0 -35 1 -6 0 -35 1 -6 0 -36 
1 -6 0 -37 1 -6 0 -38 1 -6 0 -37 1 -7 0 -31 
1 -7 0 -38 1 -6 0 -32 1 -7 0 -32 1 -6 0 -32 
1 -7 0 -32 1 -6 0 -33 1 -6 0 -32 1 -7 0 -26 
1 -6 0 -26 1 -6 0 -27 1 -6 0 -20 1 -6 0 -20 
1 -7 0 -21 1 -7 0 -21 1 -8 0 -16 1 -9 0 -10 
1 -10 0 -11 1 -9 0 -7 1 -7 0 -11 1 -5 0 -14 
1 -4 0 -7 1 -4 0 -9 1 -3 0 -8 1 -2 0 -6 
1 -2 0 -5 1 -2 0 -5 1 -1 0 -2 1 -1 0 -2 
1 -1 1 -1 0 1 2 2 0 1 1 1 0 4 1 1 
0 4 1 1 0 6 1 2 0 5 1 2 0 8 1 2 
0 7 1 2 0 10 1 3 0 8 1 3 0 9 1 3 
0 13 1 3 0 11 1 3 0 11 1 4 0 16 1 4 
0 12 1 4 0 13 1 5 0 17 1 5 0 14 1 5 
0 14 1 5 0 15 1 5 0 20 1 5 0 16 1 5 
0 16 1 5 0 16 1 6 0 21 1 6 0 16 1 6 
0 22 1 5 0 17 1 6 0 22 1 6 0 16 1 6 
0 22 1 6 0 16 1 6 0 22 1 5 0 22 1 5 
0 17 1 5 0 21 1 6 0 21 1 5 0 20 1 5 
0 21 1 5 0 19 1 5 0 19 1 5 0 19 1 4 
0 18 1 5 0 17 1 4 0 17 1 4 0 20 1 4 
0 15 1 4 0 14 1 4 0 13 1 3 0 16 1 3 
0 12 1 2 0 11 1 2 0 12 1 2 0 8 1 2 
0 7 1 2 0 5 1 2 0 5 1 1 0 2 1 1 
1 1 1 -1 0 -2 1 -1 0 -4 1 -1 0 -6 1 -2 
0 -8 1 -3 0 -8 1 -3 0 -14 1 -4 0 -13 1 -5 
0 -17 1 -6 0 -10 1 -7 0 -17 1 -10 0 -23 1 -18 
0 -15 1 -12 0 -23 1 -11 0 -21 1 -10 0 -37 1 -7 
0 -29 1 -9 0 -38 1 -10 0 -37 1 -9 0 -47 1 -9 
0 -37 1 -10 0 -46 1 -9 0 -49 1 -10 0 -55 1 -9 
0 -46 1 -9 0 -54 1 -9 0 -55 1 -9 0 -63 1 -9 
0 -53 1 -9 0 -62 1 -9 0 -61 1 -9 0 -68 1 -9 
0 -59 1 -9 0 -66 1 -8 0 -65 1 -8 0 -64 1 -8 
0 -61 1 -8 0 -67 1 -8 0 -58 1 -7 0 -63 1 -6 
0 -67 1 -7 0 -57 1 -6 0 -65 1 -6 0 -56 1 -5 
0 -57 1 -5 0 -57 1 -4 0 -52 1 -4 0 -51 1 -4 
0 -47 1 -3 0 -45 1 -3 0 -44 1 -2 0 -36 1 -2 
0 -34 1 -2 0 -28 3011 3247 300 MP stroke
1 -1 0 -21 1 -1 0 -10 1 -1 0 3 1 1 0 3 
1 1 0 4 1 1 0 3 1 1 0 5 1 1 0 4 
1 1 0 5 1 1 0 6 1 1 0 5 1 1 0 7 
1 1 0 8 1 1 0 7 1 2 0 8 1 1 0 9 
1 1 0 10 1 2 0 9 1 2 0 12 1 1 0 13 
1 1 0 13 1 2 0 16 1 2 0 15 1 2 0 18 
1 2 0 17 1 3 0 20 1 3 0 22 1 2 0 24 
1 3 0 22 1 3 0 27 1 3 0 30 1 3 0 29 
1 3 0 36 1 4 0 35 1 4 0 34 1 5 0 42 
1 6 0 41 1 6 0 39 1 6 0 50 1 8 0 48 
1 8 0 44 1 10 0 58 1 11 0 55 1 12 0 49 
1 12 0 55 1 14 0 61 1 17 0 69 1 19 0 59 
1 22 0 68 1 25 0 52 1 28 0 62 1 33 0 73 
1 37 0 38 1 37 0 77 1 38 0 71 1 4 0 82 
1 5 0 70 1 8 0 64 1 9 0 60 1 11 0 52 
1 15 0 38 1 19 0 24 1 22 0 20 1 25 0 21 
1 16 0 24 1 10 0 17 1 7 0 19 1 5 0 17 
1 4 0 9 1 3 0 9 1 1 0 3 1 1 1 -1 
0 -4 1 -1 0 -9 1 -2 0 -11 1 -1 0 -16 1 -3 
0 -19 1 -3 0 -23 1 -4 0 -24 1 -5 0 -27 1 -5 
0 -34 1 -5 0 -29 1 -6 0 -39 1 -5 0 -36 1 -6 
0 -37 1 -6 0 -44 1 -7 0 -40 1 -6 0 -49 2923 1090 176 MP stroke
/c11 { 0.000000 0.600000 0.298000 sr} bdef
c11
1 0 0 -3 1 -1 0 -3 1 -1 0 -4 1 -1 0 -3 
1 -1 0 -3 1 -1 0 -3 1 -1 0 -4 1 -1 0 -3 
1 -1 0 -3 1 -1 0 -4 1 -1 0 -3 1 -1 0 -3 
1 -1 0 -2 1 -1 0 -3 1 -1 0 -3 1 -1 0 -3 
1 -1 0 -2 1 -1 0 -2 1 -1 0 -2 1 -1 0 -2 
1 -1 0 -2 1 -1 0 -2 1 -1 0 -1 1 -1 0 -2 
1 -1 0 -1 1 -1 0 -1 1 -1 0 -1 1 -1 0 -1 
2 -2 0 -1 2 -2 1 -1 1 0 1 -1 1 -1 1 0 
1 -1 1 0 1 0 1 0 1 0 1 1 1 0 1 1 
1 0 1 1 1 1 1 1 0 1 2 2 0 1 2 2 
1 1 0 2 2 2 0 1 1 1 0 1 1 1 0 2 
2 2 0 2 1 1 0 1 1 1 0 1 1 1 0 2 
1 1 0 2 1 1 0 2 1 1 0 2 1 1 0 2 
1 1 0 1 1 1 0 3 1 1 0 2 1 1 0 2 
1 1 0 2 1 1 0 2 1 1 0 2 1 1 0 3 
1 1 0 2 1 1 0 3 1 1 0 2 1 1 0 2 
1 1 0 3 1 1 0 3 1 1 0 1 1 1 0 3 
1 1 0 2 1 1 0 2 1 1 0 3 1 1 0 2 
1 1 0 2 1 1 0 1 1 1 0 2 1 1 0 2 
1 1 0 1 1 1 0 2 1 1 0 1 1 1 0 1 
1 1 0 1 1 1 1 1 0 1 2 2 1 0 1 1 
1 1 1 0 1 -1 1 0 1 -1 1 -1 1 -1 0 -2 
2 -2 0 -2 1 -1 0 -1 1 -1 0 -2 1 -1 0 -3 
1 -1 0 -2 1 -1 0 -3 1 -1 0 -3 1 -1 0 -4 
1 -1 0 -4 1 -1 0 -4 1 -1 0 -4 1 -1 0 -5 
1 -1 0 -6 1 -1 0 -4 1 -1 0 -6 1 -1 0 -5 
1 -1 0 -6 1 -1 0 -6 1 -1 0 -6 1 -1 0 -6 
1 -1 0 -6 1 -1 0 -6 1 -1 0 -6 1 -1 0 -6 
1 -1 0 -6 1 -1 0 -7 1 -1 0 -6 1 -1 0 -6 
1 -1 0 -6 1 -1 0 -5 1 -1 0 -6 1 -1 0 -5 
1 -1 0 -5 1 -1 0 -5 1 -1 0 -4 1 -1 0 -4 
1 -1 0 -4 1 -1 0 -3 1 -1 0 -2 1 -1 0 -2 
2 -2 1 -1 1 -1 1 0 1 0 1 1 1 0 1 0 
1 0 1 1 1 0 1 0 1 1 1 0 1 1 1 0 
1 1 1 0 1 1 1 1 1 1 1 1 1 1 1 1 
1 1 1 1 0 2 2 2 1 1 0 2 2 2 0 2 
1 1 0 1 1 1 0 2 1 1 0 2 1 1 0 2 
1 1 0 2 1 1 4650 3311 300 MP stroke
0 3 1 1 0 3 1 1 0 3 1 1 0 4 1 1 
0 4 1 1 0 4 1 1 0 5 1 1 0 5 1 1 
0 6 1 1 0 6 1 1 0 6 1 1 0 7 1 1 
0 7 1 1 0 8 1 1 0 9 1 1 0 8 1 1 
0 8 1 1 0 8 1 1 0 7 1 1 0 7 1 1 
0 6 1 1 0 6 1 1 0 5 1 1 0 5 1 1 
0 4 1 2 0 4 1 1 0 3 1 1 0 3 1 1 
0 3 1 1 0 2 1 1 0 2 1 1 0 1 1 1 
0 1 2 2 1 1 1 0 1 0 1 0 1 -1 0 -1 
2 -2 0 -1 1 -1 0 -1 1 -1 0 -1 1 -1 0 -2 
1 -1 0 -2 1 -1 0 -2 1 -1 0 -2 1 -1 0 -3 
1 -1 0 -3 1 -1 0 -3 1 -1 0 -3 1 -1 0 -3 
1 -1 0 -3 1 -1 0 -3 1 -1 0 -4 1 -1 0 -3 
1 -1 0 -4 1 -1 0 -3 1 -1 0 -3 1 -1 0 -3 
1 -1 0 -3 1 -1 0 -3 1 -1 0 -3 1 -1 0 -3 
1 -1 0 -3 1 -1 0 -3 1 -1 0 -3 1 -1 0 -2 
1 -1 0 -2 1 -1 0 -3 1 -1 0 -1 1 -1 0 -3 
1 -1 0 -1 1 -1 0 -2 1 -1 0 -1 1 -1 0 -1 
1 -1 0 -2 1 -1 1 -1 0 -2 2 -2 1 -1 1 -1 
1 -1 1 -1 1 -1 1 -1 1 0 1 -1 1 0 1 0 
1 0 1 0 1 0 1 1 1 0 1 1 1 1 1 1 
1 1 1 1 0 1 2 2 1 1 0 2 2 2 0 1 
1 1 0 1 2 2 0 2 1 1 0 1 1 1 0 1 
1 1 0 2 1 1 0 1 1 1 0 1 1 1 0 2 
1 1 0 2 1 1 0 2 1 1 0 2 1 1 0 2 
1 1 0 2 1 1 0 2 1 1 0 2 1 1 0 2 
1 1 0 3 1 1 0 2 1 1 0 2 1 1 0 2 
1 1 0 3 1 1 0 2 1 1 0 3 1 1 0 2 
1 1 0 2 1 1 0 3 1 1 0 2 1 1 0 2 
1 1 0 2 1 1 0 3 1 1 0 2 1 1 0 2 
1 1 0 1 1 1 0 2 1 1 0 2 1 1 0 2 
1 1 0 1 1 1 0 2 2 2 0 2 2 2 1 1 
1 1 1 1 1 1 1 0 1 0 1 0 1 0 1 -1 
1 -1 0 -1 2 -2 0 -2 2 -2 0 -2 1 -1 0 -2 
1 -1 0 -2 1 -1 0 -3 1 -1 0 -3 1 -1 0 -3 
1 -1 0 -3 1 -1 0 -4 1 -1 0 -4 1 -1 0 -4 
1 -1 0 -5 1 -1 0 -5 1 -1 0 -5 1 -1 0 -5 
1 -1 0 -6 1 -1 4472 3198 300 MP stroke
0 -5 1 -1 0 -6 1 -1 0 -6 1 -1 0 -6 1 -1 
0 -6 1 -1 0 -7 1 -1 0 -5 1 -1 0 -6 1 -1 
0 -7 1 -1 0 -6 1 -1 0 -6 1 -1 0 -6 1 -1 
0 -6 1 -1 0 -5 1 -1 0 -6 1 -1 0 -5 1 -1 
0 -5 1 -1 0 -5 1 -1 0 -5 1 -1 0 -4 1 -1 
0 -4 1 -1 0 -3 1 -1 0 -2 1 -1 0 -3 2 -2 
1 -1 1 -1 1 0 1 0 1 1 1 0 1 0 1 0 
1 1 1 0 1 0 1 1 1 0 1 1 1 0 1 1 
1 0 1 1 1 1 1 1 1 1 1 1 1 1 1 1 
1 1 0 1 2 2 0 2 2 2 0 2 2 2 0 2 
1 1 0 1 1 1 0 2 1 1 0 2 1 1 0 2 
1 1 0 3 1 1 0 3 1 1 0 3 1 1 0 3 
1 1 0 4 1 1 0 5 1 1 0 4 1 1 0 5 
1 1 0 6 1 1 0 6 1 1 0 6 1 1 0 7 
1 1 0 8 1 1 0 7 1 1 0 8 1 1 0 9 
1 1 0 7 1 1 0 8 1 1 0 8 1 1 0 6 
1 1 0 7 1 1 0 5 1 1 0 6 1 1 0 5 
1 1 0 4 1 1 0 5 1 1 0 3 1 1 0 3 
1 1 0 3 1 1 0 2 1 1 0 2 1 1 0 2 
2 2 1 1 1 1 1 1 1 0 1 0 1 -1 0 -1 
2 -2 0 -1 2 -2 0 -2 1 -1 0 -1 1 -1 0 -2 
1 -1 0 -3 1 -1 0 -2 1 -1 0 -2 1 -1 0 -3 
1 -1 0 -3 1 -1 0 -3 1 -1 0 -3 1 -1 0 -3 
1 -1 0 -3 1 -1 0 -4 1 -1 0 -3 1 -1 0 -4 
1 -1 0 -3 1 -1 0 -3 1 -1 0 -3 1 -1 0 -3 
1 -1 0 -3 1 -1 0 -3 1 -1 0 -3 1 -1 0 -3 
1 -1 0 -3 1 -1 0 -3 1 -1 0 -2 1 -1 0 -2 
1 -1 0 -2 1 -1 0 -2 1 -1 0 -2 1 -1 0 -3 
2 -2 0 -2 1 -1 0 -2 2 -2 0 -2 2 -2 0 -1 
2 -2 1 -1 1 -1 1 -1 1 -1 1 -1 1 0 1 -1 
1 0 1 0 1 0 1 0 1 0 1 1 1 0 1 1 
1 1 1 1 1 0 -1 0 2 2 1 1 0 1 2 2 
1 1 0 2 2 2 0 1 1 1 0 1 1 1 0 1 
1 1 0 1 1 1 0 1 1 1 0 2 1 1 0 1 
1 1 0 2 1 1 0 1 1 1 0 2 1 1 0 2 
1 1 0 2 1 1 0 2 1 1 0 1 1 1 0 3 
1 1 0 2 1 1 0 2 1 1 0 2 1 1 0 2 
1 1 0 3 1 1 4284 3187 300 MP stroke
0 2 1 1 0 3 1 1 0 2 1 1 0 2 1 1 
0 2 1 1 0 3 1 1 0 2 1 1 0 2 1 1 
0 3 1 1 0 2 1 1 0 2 1 1 0 2 1 1 
0 2 1 1 0 2 1 1 0 1 1 1 0 2 1 1 
0 2 1 1 0 1 1 1 0 2 2 2 0 2 2 2 
1 1 1 1 1 1 1 1 1 0 1 0 1 0 1 0 
1 -1 1 -1 0 -1 2 -2 0 -1 1 -1 0 -2 2 -2 
0 -2 1 -1 0 -3 1 -1 0 -2 1 -1 0 -3 1 -1 
0 -3 1 -1 0 -4 1 -1 0 -4 1 -1 0 -4 1 -1 
0 -3 1 -1 0 -5 1 -1 0 -5 1 -1 0 -5 1 -1 
0 -5 1 -1 0 -5 1 -1 0 -6 1 -1 0 -6 1 -1 
0 -6 1 -1 0 -6 1 -1 0 -6 1 -1 0 -5 1 -1 
0 -6 1 -1 0 -7 1 -1 0 -5 1 -1 0 -7 1 -1 
0 -5 1 -1 0 -7 1 -1 0 -5 1 -1 0 -6 1 -1 
0 -6 1 -1 0 -5 1 -1 0 -5 1 -1 0 -5 1 -1 
0 -4 1 -1 0 -4 1 -1 0 -4 1 -1 0 -3 1 -1 
0 -4 2 -2 0 -2 2 -2 1 -1 1 0 1 0 1 1 
1 0 1 0 1 0 1 1 1 0 1 0 1 1 1 0 
1 1 1 0 1 1 1 0 1 1 1 1 1 1 1 0 
1 1 0 1 2 2 1 1 0 1 2 2 1 1 0 2 
2 2 0 2 1 1 0 1 1 1 0 2 1 1 0 1 
1 1 0 2 1 1 0 2 1 1 0 3 1 1 0 3 
1 1 0 3 1 1 0 3 1 1 0 4 1 1 0 4 
1 1 0 4 1 1 0 5 1 1 0 5 1 1 0 6 
1 1 0 5 1 1 0 7 1 1 0 7 1 1 0 7 
1 1 0 8 1 1 0 8 1 1 0 7 1 1 0 7 
1 1 0 8 1 1 0 7 1 1 0 5 1 1 0 6 
1 1 0 5 1 1 0 5 1 1 0 4 1 1 0 4 
1 1 0 3 1 1 0 4 1 1 0 2 1 1 0 2 
1 1 0 1 1 1 0 2 1 1 0 1 2 2 1 1 
1 0 1 0 1 0 1 -1 1 -1 0 -1 2 -2 0 -2 
2 -2 0 -2 1 -1 0 -2 1 -1 0 -1 1 -1 0 -3 
1 -1 0 -2 1 -1 0 -3 1 -1 0 -2 1 -1 0 -3 
1 -1 0 -3 1 -1 0 -3 1 -1 0 -3 1 -1 0 -3 
1 -1 0 -3 1 -1 0 -3 1 -1 0 -4 1 -1 0 -2 
1 -1 0 -3 1 -1 0 -4 1 -1 0 -2 1 -1 0 -3 
1 -1 0 -3 1 -1 0 -2 1 -1 0 -3 1 -1 0 -2 
1 -1 0 -3 1 -1 4103 3224 300 MP stroke
0 -2 1 -1 0 -1 1 -1 0 -2 1 -1 0 -2 1 -1 
0 -1 1 -1 0 -3 2 -2 0 -2 1 -1 0 -1 1 -1 
0 -1 2 -2 0 -1 2 -2 1 -1 1 -1 1 -1 1 -1 
1 0 1 -1 1 0 1 0 1 0 1 0 1 0 1 0 
1 0 1 1 1 1 1 0 1 1 1 1 1 1 0 1 
2 2 0 1 2 2 0 1 1 1 0 1 2 2 0 2 
2 2 0 1 1 1 0 2 2 2 0 2 1 1 0 1 
1 1 0 2 1 1 0 1 1 1 0 2 1 1 0 1 
1 1 0 2 1 1 0 2 1 1 0 2 1 1 0 2 
1 1 0 2 1 1 0 2 1 1 0 2 1 1 0 2 
1 1 0 2 1 1 0 2 1 1 0 2 1 1 0 2 
1 1 0 2 1 1 0 2 1 1 0 2 1 1 0 2 
1 1 0 2 1 1 0 2 1 1 0 1 1 1 0 2 
1 1 0 2 1 1 0 1 1 1 0 2 2 2 0 2 
2 2 0 2 2 2 0 1 2 2 1 1 1 0 1 1 
1 0 1 1 1 -1 1 0 1 -1 1 0 -1 0 2 -2 
0 -1 2 -2 0 -2 2 -2 0 -2 1 -1 0 -2 1 -1 
0 -2 1 -1 0 -3 1 -1 0 -3 1 -1 0 -2 1 -1 
0 -3 1 -1 0 -4 1 -1 0 -4 1 -1 0 -4 1 -1 
0 -5 1 -1 0 -4 1 -1 0 -4 1 -1 0 -5 1 -1 
0 -5 1 -1 0 -5 1 -1 0 -5 1 -1 0 -5 1 -1 
0 -5 1 -1 0 -6 1 -1 0 -6 1 -1 0 -5 1 -1 
0 -6 1 -1 0 -5 1 -1 0 -5 1 -1 0 -5 1 -1 
0 -6 1 -1 0 -4 1 -1 0 -6 1 -1 0 -4 1 -1 
0 -5 1 -1 0 -4 1 -1 0 -4 1 -1 0 -4 1 -1 
0 -4 1 -1 0 -3 1 -1 0 -3 1 -1 0 -3 2 -2 
0 -2 2 -2 1 0 1 -1 1 1 1 0 1 0 1 0 
1 1 1 0 1 0 1 1 1 0 1 0 1 1 1 0 
1 1 1 0 1 1 1 1 1 1 1 0 1 1 1 1 
0 1 2 2 1 1 0 1 2 2 0 1 2 2 0 2 
2 2 0 2 1 1 0 2 2 2 0 2 1 1 0 2 
1 1 0 2 1 1 0 3 1 1 0 2 1 1 0 3 
1 1 0 3 1 1 0 4 1 1 0 3 1 1 0 4 
1 1 0 5 1 1 0 3 1 1 0 5 1 1 0 6 
1 1 0 5 1 1 0 5 1 1 0 6 1 1 0 5 
1 1 0 6 1 1 0 5 1 1 0 4 1 1 0 4 
1 1 0 4 1 1 0 4 1 1 0 3 1 1 0 2 
1 1 0 3 1 1 3907 3189 300 MP stroke
0 1 1 1 0 3 2 2 0 2 2 2 1 1 1 1 
1 1 1 0 1 0 1 0 1 -1 1 0 0 -1 2 -2 
1 -1 0 -2 2 -2 0 -2 2 -2 0 -2 1 -1 0 -1 
1 -1 0 -2 1 -1 0 -1 1 -1 0 -2 1 -1 0 -2 
1 -1 0 -2 1 -1 0 -2 1 -1 0 -2 1 -1 0 -2 
1 -1 0 -2 1 -1 0 -2 1 -1 0 -2 1 -1 0 -2 
1 -1 0 -2 1 -1 0 -1 1 -1 0 -2 1 -1 0 -2 
1 -1 0 -2 1 -1 0 -1 1 -1 0 -2 1 -1 0 -1 
1 -1 0 -2 2 -2 0 -2 1 -1 1 -1 0 -2 2 -2 
1 -1 0 -2 2 -2 1 -1 1 -1 1 -1 1 -1 1 -1 
1 -1 1 0 1 -1 1 0 1 0 1 -1 1 0 1 0 
1 0 1 0 1 1 1 0 1 0 1 1 1 0 1 1 
1 1 1 1 1 1 1 1 1 1 1 1 1 1 0 1 
2 2 1 1 0 1 2 2 0 1 2 2 1 1 0 2 
2 2 1 1 0 2 2 2 0 1 1 1 0 1 1 1 
0 1 2 2 0 2 2 2 0 2 2 2 0 1 1 1 
0 1 2 2 0 2 2 2 0 1 2 2 0 2 2 2 
1 1 0 1 2 2 0 1 2 2 1 0 -1 0 2 2 
1 0 1 1 1 1 1 1 1 0 1 0 1 1 1 0 
1 -1 1 0 1 0 1 -1 1 -1 1 -1 1 -1 0 -1 
2 -2 0 -1 2 -2 0 -2 2 -2 0 -2 1 -1 0 -1 
1 -1 0 -2 1 -1 0 -2 1 -1 0 -1 1 -1 0 -3 
1 -1 0 -2 1 -1 0 -2 1 -1 0 -3 1 -1 0 -3 
1 -1 0 -2 1 -1 0 -3 1 -1 0 -3 1 -1 0 -3 
1 -1 0 -3 1 -1 0 -3 1 -1 0 -3 1 -1 0 -3 
1 -1 0 -4 1 -1 0 -3 1 -1 0 -3 1 -1 0 -3 
1 -1 0 -3 1 -1 0 -3 1 -1 0 -3 1 -1 0 -3 
1 -1 0 -3 1 -1 0 -3 1 -1 0 -2 1 -1 0 -3 
1 -1 0 -2 1 -1 0 -2 1 -1 0 -2 1 -1 0 -2 
1 -1 0 -2 1 -1 0 -1 1 -1 0 -2 2 -2 0 -1 
2 -2 1 0 1 -1 1 0 1 0 1 0 1 1 1 0 
1 0 1 0 1 0 1 1 1 0 1 0 1 1 1 0 
1 0 1 1 1 0 1 1 1 0 1 1 1 0 1 1 
1 1 1 0 1 1 1 1 1 1 1 1 1 1 1 1 
1 1 0 1 2 2 1 1 0 1 2 2 0 2 2 2 
0 1 2 2 0 2 2 2 0 2 1 1 0 2 2 2 
0 2 1 1 0 1 1 1 0 2 1 1 0 2 1 1 
0 3 2 2 0 2 3678 3292 300 MP stroke
1 1 0 2 1 1 0 2 1 1 0 2 2 2 0 2 
2 2 1 1 0 1 2 2 1 1 1 1 1 0 1 1 
1 0 1 1 1 0 1 0 1 0 1 -1 1 0 1 0 
1 -1 1 -1 1 0 1 -1 1 -1 1 -1 1 -1 1 -1 
0 -1 2 -2 1 -1 1 -1 1 -1 0 -1 2 -2 1 -1 
0 -1 2 -2 1 -1 1 -1 1 -1 0 -1 2 -2 1 -1 
1 -1 1 -1 1 -1 1 -1 1 -1 1 -1 1 -1 1 -1 
1 0 1 -1 1 -1 1 -1 1 0 1 -1 1 0 1 -1 
1 0 1 -1 1 0 1 0 1 -1 1 0 1 0 1 0 
1 0 1 0 1 0 1 0 1 0 1 0 1 0 1 0 
1 1 1 0 1 0 1 0 1 1 1 0 1 0 1 1 
1 0 1 1 1 0 1 1 1 0 1 1 1 0 1 1 
1 0 1 1 1 1 1 0 1 1 1 1 1 0 1 1 
1 0 1 1 1 1 1 0 1 1 1 0 1 1 1 1 
1 0 1 1 1 0 1 1 1 0 1 1 1 0 1 0 
1 1 1 0 1 0 1 1 1 0 1 0 1 0 1 0 
1 0 1 0 1 0 1 0 1 0 1 0 1 0 1 -1 
1 0 1 0 1 -1 1 0 1 -1 1 -1 1 0 1 -1 
1 -1 1 -1 1 -1 1 -1 1 -1 1 -1 1 -1 0 -1 
2 -2 1 -1 0 -1 2 -2 0 -1 2 -2 1 -1 0 -1 
2 -2 1 -1 0 -2 2 -2 1 -1 0 -2 2 -2 0 -1 
2 -2 0 -1 2 -2 0 -1 2 -2 0 -1 2 -2 1 -1 
1 -1 0 -1 2 -2 1 -1 1 -1 1 -1 1 -1 1 -1 
1 -1 1 0 1 -1 1 0 1 -1 1 0 1 0 1 0 
1 0 1 0 1 0 1 0 1 0 1 0 1 0 1 0 
1 0 1 0 1 1 1 0 1 0 1 0 1 0 1 0 
1 0 1 1 1 0 1 0 1 0 1 1 1 0 1 0 
1 0 1 1 1 0 1 0 1 1 1 0 1 1 1 0 
1 0 1 1 1 0 1 1 1 1 1 0 1 1 1 0 
1 1 1 1 1 0 1 1 1 1 1 1 1 0 1 1 
1 1 1 1 1 1 1 0 1 1 1 1 1 0 1 0 
1 1 1 0 1 1 1 0 1 0 1 0 1 0 1 0 
1 0 1 0 1 0 1 0 1 0 1 0 1 0 1 0 
1 0 1 -1 1 0 1 0 1 -1 1 0 1 0 1 0 
1 -1 1 0 1 -1 1 0 1 0 1 -1 1 0 1 0 
1 -1 1 0 1 0 1 -1 1 0 1 0 1 -1 1 0 
1 0 1 -1 1 0 1 0 1 0 1 -1 1 0 1 0 
1 0 1 -1 1 0 3381 3339 300 MP stroke
1 0 1 0 1 0 1 0 1 0 1 -1 1 0 1 0 
1 0 1 0 1 0 1 0 1 0 1 0 1 0 1 0 
1 0 1 0 1 0 1 0 1 0 1 0 1 0 1 0 
1 1 1 0 1 0 1 0 1 0 1 0 1 0 1 0 
1 0 1 1 1 0 1 0 1 0 1 0 1 0 1 0 
1 1 1 0 1 0 1 0 1 0 1 0 1 0 1 1 
1 0 1 0 1 0 1 0 1 0 1 0 1 1 1 0 
1 0 1 0 1 0 1 0 1 0 1 0 1 0 1 0 
1 0 1 0 1 0 1 0 1 0 1 0 1 0 1 0 
1 0 1 0 1 0 1 0 1 -1 1 0 1 0 1 0 
1 0 1 0 1 -1 1 0 1 0 1 0 1 -1 1 0 
1 0 1 -1 1 0 1 0 1 -1 1 0 1 0 1 -1 
1 0 1 -1 1 0 1 0 1 -1 1 0 1 -1 1 0 
1 -1 1 0 1 0 1 -1 1 0 1 -1 1 0 1 0 
1 -1 1 0 1 -1 1 0 1 0 1 -1 1 0 1 0 
1 0 1 -1 1 0 1 0 1 0 1 -1 1 0 1 0 
1 0 1 0 1 0 1 0 1 0 1 0 1 0 1 0 
1 0 1 0 1 0 1 0 1 0 1 0 1 0 1 0 
1 0 1 0 1 0 1 0 1 0 1 0 1 0 1 0 
1 0 1 1 1 0 1 0 1 0 1 0 1 0 1 0 
1 0 1 0 1 0 1 0 1 1 1 0 1 0 1 0 
1 0 1 0 1 0 1 1 1 0 1 0 1 0 1 0 
1 0 1 1 1 0 1 0 1 0 1 0 1 1 1 0 
1 0 1 0 1 0 1 0 1 1 1 0 1 0 1 0 
1 0 1 0 1 0 1 0 1 0 1 0 1 0 1 0 
1 0 1 0 1 0 1 0 1 0 1 0 1 0 1 0 
1 -1 1 0 1 0 1 0 1 0 1 0 1 0 1 0 
1 0 1 0 1 0 1 -1 1 0 1 0 1 0 1 0 
1 0 1 0 1 0 1 0 1 0 1 0 1 0 1 -1 
1 0 1 0 1 0 1 0 1 0 1 0 1 0 1 0 
1 0 1 0 1 0 1 0 1 0 1 0 1 0 1 0 
1 0 1 0 1 0 1 0 1 0 1 0 1 0 1 0 
1 0 1 0 1 0 1 0 1 0 1 0 1 0 1 0 
1 0 1 0 1 0 1 0 1 0 1 0 1 0 1 0 
1 0 1 0 1 0 1 0 1 0 1 0 1 0 1 0 
1 0 1 0 1 0 1 0 1 0 1 0 1 0 1 0 
1 0 1 0 1 0 1 0 1 0 1 0 1 0 1 0 
1 0 1 0 1 0 3082 3349 300 MP stroke
1 0 1 0 1 0 1 0 1 0 1 0 1 0 1 0 
1 0 1 0 1 0 1 0 1 0 1 0 1 0 1 0 
1 0 1 0 1 0 1 0 1 0 1 0 1 0 1 0 
1 0 1 0 1 0 1 0 1 0 1 0 1 -1 1 0 
1 0 1 0 1 0 1 0 1 0 1 0 1 0 1 0 
1 0 1 0 1 0 1 0 1 -1 1 0 1 0 1 0 
1 0 1 0 1 0 1 0 1 0 1 0 1 0 1 -1 
1 0 1 0 1 0 1 0 1 0 1 0 1 0 1 0 
1 0 1 0 1 0 1 0 1 0 1 0 1 0 1 0 
1 0 1 0 1 0 1 0 1 0 1 0 1 0 1 0 
1 0 1 0 1 0 1 0 1 0 1 0 1 0 1 0 
1 0 1 0 1 0 1 0 1 0 1 0 1 0 1 0 
1 0 1 0 1 0 1 0 1 0 1 0 1 0 1 0 
1 0 1 0 1 0 1 1 1 0 1 0 1 0 1 0 
1 0 1 0 1 0 1 0 1 0 1 0 1 1 1 0 
1 0 1 0 1 0 1 0 1 0 1 0 1 1 1 0 
1 0 1 0 1 0 1 0 1 0 1 0 1 0 1 0 
1 0 1 0 1 0 1 0 1 0 1 0 1 0 1 0 
1 0 1 0 1 0 1 0 1 0 1 0 1 0 1 0 
1 0 1 -1 1 0 1 -1 1 0 1 -1 1 0 -1 0 
2924 3352 161 MP stroke
c9
1 0 0 -2 1 -1 0 -2 1 -1 0 -2 1 -1 0 -2 
1 -1 0 -1 1 -1 0 -2 2 -2 1 -1 1 -1 1 -1 
1 -1 1 0 1 0 1 1 1 0 -1 0 2 2 0 1 
2 2 0 2 2 2 0 2 1 1 0 2 1 1 0 2 
1 1 0 3 1 1 0 2 1 1 0 3 1 1 0 3 
1 1 0 3 1 1 0 4 1 1 0 4 1 1 0 4 
1 1 0 4 1 1 0 3 1 2 0 5 1 1 0 3 
1 2 0 4 1 2 0 3 1 1 0 5 1 1 0 5 
1 1 0 4 1 1 0 5 1 1 0 5 1 1 0 4 
1 1 0 5 1 1 0 5 1 1 0 4 1 1 0 5 
1 1 0 4 1 1 0 5 1 1 0 3 1 2 0 4 
1 1 0 4 1 1 0 3 1 1 0 4 1 1 0 3 
1 1 0 3 1 1 0 4 1 1 0 2 1 1 0 2 
1 1 0 2 1 1 0 2 1 1 0 1 1 1 0 2 
2 2 1 1 1 1 1 0 1 0 1 -1 1 -1 1 -1 
0 -2 2 -2 0 -2 1 -1 0 -4 1 -1 0 -3 1 -1 
0 -3 1 -1 0 -5 1 -1 0 -4 1 -1 0 -6 1 -1 
0 -6 1 -2 0 -5 1 -1 0 -8 1 -1 0 -8 1 -1 
0 -8 1 -2 0 -8 1 -2 0 -9 1 -2 0 -9 1 -2 
0 -10 1 -2 0 -10 1 -2 0 -11 1 -2 0 -13 1 -2 
0 -12 1 -2 0 -12 1 -2 0 -12 1 -3 0 -15 1 -3 
0 -13 1 -2 0 -14 1 -3 0 -13 1 -3 0 -14 1 -3 
0 -15 1 -3 0 -17 1 -3 0 -14 1 -3 0 -17 1 -3 
0 -14 1 -3 0 -16 1 -3 0 -16 1 -3 0 -19 1 -2 
0 -16 1 -3 0 -15 1 -3 0 -18 1 -3 0 -15 1 -3 
0 -15 1 -3 0 -18 1 -2 0 -16 1 -2 0 -15 1 -3 
0 -15 1 -2 0 -15 1 -2 0 -18 1 -2 0 -12 1 -2 
0 -15 1 -2 0 -14 1 -3 0 -13 1 -3 0 -11 1 -2 
0 -12 1 -2 0 -12 1 -1 0 -13 1 -1 0 -10 1 -1 
0 -10 1 -2 0 -9 1 -1 0 -10 1 -1 0 -7 1 -1 
0 -8 1 -1 0 -6 1 -1 0 -6 1 -1 0 -5 1 -1 
0 -5 1 -1 0 -3 1 -1 0 -3 1 -1 0 -2 1 -1 
0 -2 2 -2 1 -1 1 0 1 0 1 1 0 1 2 2 
0 2 2 2 0 2 2 2 0 3 2 2 0 2 1 1 
0 2 1 1 0 2 1 1 0 2 1 1 0 3 1 1 
0 3 1 1 0 3 1 1 0 3 1 1 0 3 1 1 
0 4 1 1 0 4 1 1 0 6 1 1 0 4 1 1 
0 5 1 1 0 6 4669 3229 300 MP stroke
1 1 0 6 1 1 0 8 1 1 0 6 1 1 0 8 
1 1 0 8 1 1 0 10 1 1 0 9 1 1 0 11 
1 1 0 11 1 1 0 11 1 1 0 12 1 1 0 13 
1 2 0 13 1 2 0 12 1 2 0 14 1 2 0 17 
1 1 0 15 1 2 0 15 1 2 0 18 1 1 0 18 
1 2 0 18 1 2 0 18 1 2 0 18 1 2 0 18 
1 2 0 18 1 2 0 18 1 2 0 19 1 1 0 19 
1 2 0 17 1 2 0 17 1 2 0 17 1 1 0 15 
1 2 0 16 1 1 0 14 1 1 0 14 1 2 0 11 
1 2 0 12 1 1 0 11 1 1 0 10 1 1 0 9 
1 1 0 9 1 1 0 7 1 1 0 6 1 1 0 6 
1 1 0 4 1 1 0 4 1 1 0 3 1 1 0 2 
1 1 0 1 1 1 1 1 1 0 1 0 1 0 1 -1 
0 -2 2 -2 0 -2 1 -1 0 -2 1 -1 0 -2 1 -1 
0 -3 1 -1 0 -2 1 -1 0 -3 1 -1 0 -3 1 -1 
0 -3 1 -1 0 -3 1 -1 0 -3 1 -1 0 -3 1 -1 
0 -3 1 -1 0 -3 1 -1 0 -2 1 -1 0 -3 1 -1 
0 -2 1 -1 0 -2 1 -1 0 -1 1 -1 0 -2 1 -1 
0 -2 2 -2 0 -1 2 -2 1 0 1 -1 1 0 1 0 
1 0 1 1 1 1 0 1 2 2 0 2 2 2 0 2 
1 1 0 2 1 1 0 2 1 1 0 2 1 1 0 3 
1 1 0 3 1 1 0 3 1 1 0 3 1 1 0 4 
1 1 0 3 1 1 0 4 1 1 0 4 1 2 0 3 
1 1 0 4 1 1 0 4 1 1 0 5 1 1 0 5 
1 1 0 4 1 1 0 5 1 1 0 5 1 1 0 4 
1 1 0 5 1 1 0 5 1 1 0 5 1 1 0 4 
1 1 0 5 1 1 0 3 1 2 0 4 1 2 0 3 
1 1 0 5 1 1 0 4 1 1 0 5 1 1 0 3 
1 1 0 3 1 1 0 4 1 1 0 3 1 1 0 3 
1 1 0 3 1 1 0 2 1 1 0 2 1 1 0 2 
1 1 0 1 1 1 0 1 1 1 0 1 1 1 1 1 
1 1 1 0 1 0 1 0 0 -1 2 -2 1 -1 0 -2 
1 -1 0 -2 1 -1 0 -2 1 -1 0 -3 1 -1 0 -4 
1 -1 0 -4 1 -1 0 -5 1 -1 0 -5 1 -1 0 -6 
1 -1 0 -7 1 -1 0 -6 1 -1 0 -8 1 -1 0 -8 
1 -2 0 -8 1 -2 0 -9 1 -2 0 -9 1 -2 0 -9 
1 -2 0 -10 1 -2 0 -13 1 -2 0 -11 1 -2 0 -12 
1 -2 0 -12 1 -2 4504 2635 300 MP stroke
0 -12 1 -3 0 -15 1 -2 0 -13 1 -3 0 -13 1 -3 
0 -14 1 -2 0 -15 1 -2 0 -18 1 -3 0 -14 1 -3 
0 -14 1 -3 0 -17 1 -3 0 -14 1 -3 0 -16 1 -3 
0 -16 1 -3 0 -16 1 -3 0 -18 1 -3 0 -16 1 -2 
0 -16 1 -3 0 -18 1 -2 0 -16 1 -2 0 -16 1 -2 
0 -18 1 -3 0 -15 1 -2 0 -15 1 -3 0 -15 1 -2 
0 -15 1 -2 0 -15 1 -2 0 -14 1 -3 0 -14 1 -2 
0 -14 1 -2 0 -12 1 -2 0 -12 1 -2 0 -12 1 -2 
0 -10 1 -2 0 -11 1 -2 0 -10 1 -2 0 -9 1 -1 
0 -9 1 -1 0 -9 1 -1 0 -7 1 -1 0 -6 1 -1 
0 -7 1 -1 0 -5 1 -1 0 -4 1 -1 0 -4 1 -1 
0 -3 1 -1 0 -2 1 -1 0 -3 2 -2 1 -1 1 0 
1 0 1 1 0 1 2 2 1 1 0 2 2 2 0 2 
1 1 0 2 2 2 0 2 1 1 0 2 1 1 0 2 
1 1 0 2 1 1 0 3 1 1 0 2 1 1 0 4 
1 1 0 2 1 1 0 4 1 1 0 4 1 1 0 4 
1 1 0 5 1 1 0 4 1 1 0 6 1 1 0 5 
1 1 0 6 1 1 0 7 1 1 0 7 1 1 0 8 
1 1 0 8 1 1 0 8 1 2 0 9 1 2 0 9 
1 1 0 10 1 2 0 11 1 1 0 13 1 1 0 12 
1 1 0 14 1 1 0 14 1 2 0 14 1 1 0 15 
1 2 0 15 1 1 0 16 1 1 0 18 1 1 0 18 
1 2 0 18 1 1 0 17 1 1 0 18 1 2 0 20 
1 2 0 18 1 2 0 18 1 2 0 19 1 1 0 19 
1 2 0 17 1 2 0 17 1 2 0 17 1 2 0 15 
1 2 0 14 1 2 0 15 1 1 0 13 1 1 0 14 
1 1 0 12 1 1 0 10 1 1 0 11 1 1 0 9 
1 1 0 9 1 1 0 8 1 1 0 5 1 2 0 5 
1 2 0 4 1 1 0 4 1 1 0 3 1 1 0 2 
1 1 0 2 2 2 1 1 1 0 1 -1 0 -1 2 -2 
1 -1 0 -2 1 -1 0 -2 1 -1 0 -2 1 -1 0 -2 
1 -1 0 -3 1 -1 0 -3 1 -1 0 -3 1 -1 0 -3 
1 -1 0 -3 1 -1 0 -3 1 -1 0 -2 1 -1 0 -3 
1 -1 0 -3 1 -1 0 -3 1 -1 0 -2 1 -1 0 -2 
1 -1 0 -2 1 -1 0 -3 2 -2 0 -3 2 -2 1 -1 
1 -1 1 -1 1 -1 1 0 1 0 1 0 1 1 1 1 
1 1 1 1 0 2 2 2 0 2 1 1 0 2 1 1 
0 2 1 1 0 2 4336 2636 300 MP stroke
1 1 0 3 1 1 0 3 1 1 0 2 1 1 0 3 
1 1 0 4 1 1 0 4 1 1 0 3 1 2 0 3 
1 1 0 4 1 1 0 4 1 1 0 5 1 1 0 3 
1 2 0 4 1 2 0 4 1 2 0 3 1 1 0 5 
1 1 0 5 1 1 0 4 1 1 0 5 1 1 0 5 
1 1 0 3 1 2 0 4 1 2 0 4 1 2 0 3 
1 1 0 5 1 1 0 4 1 1 0 3 1 1 0 5 
1 1 0 3 1 1 0 5 1 1 0 3 1 1 0 2 
1 1 0 4 1 1 0 2 1 1 0 2 1 1 0 2 
1 1 0 2 1 1 0 1 1 1 0 2 2 2 1 1 
1 1 1 1 1 0 1 -1 1 -1 0 -1 2 -2 0 -1 
1 -1 0 -2 1 -1 0 -2 1 -1 0 -3 1 -1 0 -4 
1 -1 0 -4 1 -1 0 -5 1 -1 0 -5 1 -1 0 -6 
1 -1 0 -6 1 -1 0 -7 1 -1 0 -8 1 -1 0 -8 
1 -2 0 -8 1 -2 0 -8 1 -2 0 -9 1 -2 0 -10 
1 -2 0 -10 1 -2 0 -10 1 -2 0 -13 1 -2 0 -11 
1 -3 0 -11 1 -3 0 -12 1 -2 0 -13 1 -2 0 -15 
1 -3 0 -13 1 -3 0 -13 1 -3 0 -14 1 -3 0 -14 
1 -3 0 -15 1 -2 0 -18 1 -2 0 -14 1 -3 0 -17 
1 -3 0 -16 1 -3 0 -16 1 -3 0 -16 1 -3 0 -15 
1 -3 0 -18 1 -3 0 -15 1 -3 0 -15 1 -3 0 -15 
1 -3 0 -18 1 -2 0 -15 1 -3 0 -15 1 -3 0 -15 
1 -2 0 -17 1 -3 0 -14 1 -3 0 -14 1 -3 0 -11 
1 -3 0 -14 1 -2 0 -14 1 -2 0 -12 1 -2 0 -13 
1 -2 0 -11 1 -2 0 -11 1 -2 0 -11 1 -1 0 -11 
1 -1 0 -10 1 -1 0 -8 1 -2 0 -7 1 -1 0 -8 
1 -1 0 -7 1 -1 0 -6 1 -1 0 -6 1 -1 0 -4 
1 -1 0 -4 1 -1 0 -3 1 -1 0 -3 1 -1 0 -2 
2 -2 1 -1 1 -1 1 0 1 1 1 1 0 1 2 2 
0 2 2 2 0 2 2 2 0 3 2 2 0 2 1 1 
0 2 1 1 0 2 1 1 0 2 1 1 0 3 1 1 
0 3 1 1 0 3 1 1 0 3 1 1 0 3 1 1 
0 5 1 1 0 4 1 1 0 5 1 1 0 4 1 1 
0 5 1 1 0 7 1 1 0 6 1 1 0 7 1 1 
0 7 1 1 0 8 1 1 0 8 1 1 0 9 1 1 
0 9 1 1 0 10 1 1 0 11 1 1 0 12 1 1 
0 11 1 2 0 12 1 2 0 13 1 2 0 13 1 2 
0 14 1 1 0 14 4174 3044 300 MP stroke
1 2 0 15 1 1 0 17 1 1 0 17 1 2 0 15 
1 2 0 17 1 2 0 17 1 2 0 17 1 2 0 18 
1 1 0 18 1 2 0 18 1 2 0 18 1 2 0 16 
1 1 0 18 1 1 0 15 1 2 0 15 1 2 0 15 
1 1 0 14 1 1 0 13 1 1 0 12 1 1 0 12 
1 1 0 11 1 1 0 9 1 1 0 10 1 1 0 8 
1 1 0 8 1 1 0 5 1 1 0 5 1 2 0 4 
1 1 0 4 1 1 0 3 1 1 0 2 1 1 0 2 
2 2 1 1 1 0 1 -1 1 0 0 -2 2 -2 0 -2 
2 -2 0 -3 1 -1 0 -1 1 -1 0 -3 1 -1 0 -2 
1 -1 0 -3 1 -1 0 -3 1 -1 0 -2 1 -1 0 -3 
1 -1 0 -3 1 -1 0 -3 1 -1 0 -2 1 -1 0 -2 
1 -1 0 -2 1 -1 0 -2 1 -1 0 -2 1 -1 0 -2 
1 -1 0 -1 1 -1 0 -2 2 -2 0 -1 2 -2 1 -1 
1 0 1 -1 1 0 1 1 1 0 1 1 0 1 2 2 
1 1 0 2 1 1 0 1 1 1 0 1 1 1 0 2 
1 1 0 2 1 1 0 3 1 1 0 2 1 1 0 3 
1 1 0 2 1 1 0 3 1 1 0 3 1 1 0 4 
1 1 0 3 1 1 0 4 1 1 0 3 1 1 0 5 
1 1 0 3 1 1 0 3 1 1 0 5 1 1 0 4 
1 1 0 3 1 1 0 5 1 1 0 4 1 1 0 5 
1 1 0 3 1 1 0 4 1 1 0 3 1 1 0 5 
1 1 0 4 1 1 0 3 1 1 0 3 1 1 0 4 
1 1 0 3 1 1 0 3 1 1 0 3 1 1 0 3 
1 1 0 2 1 1 0 2 1 1 0 2 1 1 0 2 
1 1 0 2 2 2 0 2 2 2 1 0 1 1 1 0 
1 0 1 0 0 -1 2 -2 1 -1 0 -2 1 -1 0 -2 
1 -1 0 -2 1 -1 0 -3 1 -1 0 -3 1 -1 0 -4 
1 -1 0 -4 1 -1 0 -5 1 -1 0 -5 1 -2 0 -6 
1 -1 0 -5 1 -2 0 -7 1 -1 0 -8 1 -1 0 -8 
1 -2 0 -8 1 -2 0 -8 1 -2 0 -9 1 -2 0 -9 
1 -2 0 -10 1 -2 0 -10 1 -2 0 -11 1 -2 0 -11 
1 -2 0 -11 1 -2 0 -14 1 -3 0 -12 1 -2 0 -12 
1 -3 0 -12 1 -3 0 -13 1 -3 0 -13 1 -3 0 -13 
1 -3 0 -16 1 -2 0 -14 1 -2 0 -16 1 -3 0 -13 
1 -2 0 -16 1 -2 0 -15 1 -3 0 -15 1 -2 0 -15 
1 -3 0 -15 1 -2 0 -15 1 -3 0 -17 1 -2 0 -15 
1 -3 0 -14 1 -3 4006 3031 300 MP stroke
0 -14 1 -2 0 -15 1 -2 0 -12 1 -2 0 -15 1 -2 
0 -14 1 -2 0 -14 1 -2 0 -12 1 -2 0 -14 1 -2 
0 -11 1 -2 0 -10 1 -2 0 -12 1 -2 0 -10 1 -2 
0 -10 1 -1 0 -10 1 -2 0 -8 1 -1 0 -9 1 -1 
0 -9 1 -1 0 -7 1 -1 0 -7 1 -1 0 -6 1 -1 
0 -5 1 -1 0 -5 1 -1 0 -4 1 -1 0 -3 1 -1 
0 -3 1 -1 0 -2 1 -1 0 -2 2 -2 1 -1 1 -1 
1 0 1 0 1 1 0 1 2 2 1 1 0 2 2 2 
0 2 2 2 0 2 2 2 0 1 1 1 0 2 1 1 
0 2 1 1 0 2 1 1 0 1 1 1 0 3 1 1 
0 3 1 1 0 2 1 1 0 3 1 1 0 3 1 1 
0 4 1 1 0 3 1 1 0 5 1 1 0 4 1 1 
0 5 1 1 0 5 1 1 0 5 1 1 0 7 1 1 
0 5 1 1 0 7 1 1 0 8 1 1 0 7 1 1 
0 9 1 1 0 8 1 1 0 10 1 1 0 9 1 2 
0 10 1 1 0 10 1 1 0 11 1 1 0 11 1 1 
0 13 1 1 0 11 1 2 0 13 1 1 0 12 1 1 
0 13 1 2 0 13 1 2 0 12 1 2 0 13 1 1 
0 13 1 2 0 13 1 2 0 13 1 2 0 11 1 1 
0 13 1 1 0 13 1 1 0 11 1 1 0 11 1 1 
0 10 1 1 0 9 1 1 0 9 1 1 0 9 1 1 
0 7 1 1 0 7 1 1 0 6 1 1 0 6 1 1 
0 5 1 1 0 4 1 1 0 4 1 1 0 3 1 1 
0 2 1 1 0 2 1 1 0 2 2 2 1 1 1 1 
1 0 1 0 1 -1 1 -1 1 -1 0 -1 2 -2 0 -2 
2 -2 0 -2 2 -2 0 -3 2 -2 0 -2 1 -1 0 -1 
1 -1 0 -2 1 -1 0 -1 1 -1 0 -2 2 -2 0 -2 
2 -2 0 -2 2 -2 0 -1 2 -2 1 -1 1 -1 1 0 
1 -1 1 0 1 0 1 0 1 0 1 0 1 1 1 1 
1 1 1 1 0 1 2 2 1 1 0 2 2 2 0 2 
1 1 0 1 1 1 0 1 1 1 0 1 1 1 0 2 
1 1 0 1 1 1 0 2 1 1 0 2 1 1 0 2 
1 1 0 1 1 1 0 2 1 1 0 2 1 1 0 2 
1 1 0 2 1 1 0 2 1 1 0 2 1 1 0 2 
1 1 0 1 1 1 0 2 1 1 0 2 1 1 0 1 
1 1 0 3 2 2 0 2 1 1 0 1 1 1 0 2 
2 2 0 2 2 2 1 1 1 1 1 1 1 1 1 1 
1 0 1 1 1 -1 3820 2736 300 MP stroke
1 0 1 0 1 -1 0 -1 2 -2 0 -1 1 -1 0 -1 
1 -1 0 -1 1 -1 0 -2 1 -1 0 -2 1 -1 0 -2 
1 -1 0 -3 1 -1 0 -3 1 -1 0 -3 1 -1 0 -4 
1 -1 0 -4 1 -1 0 -5 1 -1 0 -4 1 -1 0 -5 
1 -1 0 -6 1 -1 0 -5 1 -1 0 -6 1 -2 0 -6 
1 -2 0 -5 1 -2 0 -7 1 -1 0 -8 1 -1 0 -8 
1 -1 0 -7 1 -1 0 -8 1 -2 0 -8 1 -2 0 -8 
1 -2 0 -9 1 -2 0 -9 1 -1 0 -10 1 -1 0 -10 
1 -2 0 -9 1 -2 0 -10 1 -2 0 -8 1 -2 0 -10 
1 -2 0 -10 1 -2 0 -10 1 -2 0 -11 1 -2 0 -10 
1 -2 0 -10 1 -2 0 -10 1 -2 0 -10 1 -2 0 -10 
1 -2 0 -10 1 -2 0 -10 1 -2 0 -10 1 -2 0 -9 
1 -2 0 -10 1 -2 0 -10 1 -2 0 -9 1 -2 0 -8 
1 -2 0 -9 1 -2 0 -9 1 -2 0 -7 1 -2 0 -7 
1 -2 0 -9 1 -1 0 -8 1 -1 0 -7 1 -2 0 -7 
1 -2 0 -7 1 -1 0 -6 1 -1 0 -6 1 -1 0 -5 
1 -1 0 -6 1 -1 0 -5 1 -1 0 -5 1 -1 0 -4 
1 -1 0 -4 1 -1 0 -3 1 -1 0 -3 1 -1 0 -2 
1 -1 0 -2 1 -1 0 -2 1 -1 0 -2 2 -2 1 -1 
1 -1 1 -1 1 0 1 -1 1 1 1 0 1 1 1 0 
1 1 1 1 1 1 1 1 1 1 1 1 1 1 0 1 
2 2 1 1 1 1 0 2 2 2 1 1 0 2 2 2 
0 2 1 1 0 1 1 1 0 2 2 2 0 2 1 1 
0 2 1 1 0 2 1 1 0 2 1 1 0 3 1 1 
0 2 1 1 0 3 1 1 0 3 1 1 0 3 1 1 
0 3 1 1 0 4 1 1 0 4 1 1 0 4 1 1 
0 4 1 1 0 4 1 1 0 5 1 1 0 4 1 1 
0 5 1 1 0 6 1 1 0 4 1 1 0 6 1 1 
0 5 1 1 0 6 1 1 0 5 1 1 0 6 1 1 
0 5 1 1 0 5 1 1 0 6 1 1 0 5 1 1 
0 4 1 1 0 5 1 1 0 5 1 1 0 4 1 1 
0 3 1 1 0 4 1 1 0 3 1 1 0 3 1 1 
0 3 1 1 0 2 1 1 0 2 1 1 0 3 2 2 
0 2 1 1 0 1 1 1 0 1 2 2 1 1 1 1 
1 1 1 0 1 0 1 1 1 0 1 -1 1 0 1 0 
1 -1 1 0 1 -1 1 -1 1 -1 1 0 1 -1 1 -1 
1 -1 1 -1 1 -1 1 -1 1 -1 1 0 1 -1 1 -1 
1 0 1 -1 1 -1 3637 3102 300 MP stroke
1 0 1 0 1 -1 1 0 1 0 1 0 1 -1 1 0 
1 1 1 0 1 0 1 0 1 0 1 1 1 0 1 1 
1 0 1 1 1 0 1 1 1 1 1 0 1 1 1 1 
1 0 1 1 1 1 1 1 1 0 1 1 1 1 1 1 
1 0 1 1 1 1 1 0 1 1 1 0 1 1 1 0 
1 1 1 0 1 0 1 1 1 0 1 0 1 0 1 0 
1 0 1 -1 1 0 1 0 1 -1 1 -1 1 0 1 -1 
1 -1 0 -1 2 -2 1 -1 0 -1 2 -2 0 -1 1 -1 
0 -1 2 -2 0 -2 1 -1 1 -1 0 -2 1 -1 0 -1 
1 -1 0 -2 1 -1 0 -2 1 -1 0 -2 1 -1 0 -2 
1 -1 0 -2 1 -1 0 -2 1 -1 0 -2 1 -1 0 -3 
1 -1 0 -2 1 -1 0 -3 1 -1 0 -3 1 -1 0 -3 
1 -1 0 -2 1 -1 0 -4 1 -1 0 -3 1 -1 0 -3 
1 -1 0 -3 1 -1 0 -4 1 -1 0 -4 1 -1 0 -3 
1 -1 0 -4 1 -1 0 -3 1 -1 0 -5 1 -1 0 -3 
1 -1 0 -4 1 -1 0 -4 1 -1 0 -4 1 -1 0 -3 
1 -1 0 -4 1 -1 0 -5 1 -1 0 -3 1 -1 0 -4 
1 -1 0 -4 1 -1 0 -4 1 -1 0 -3 1 -1 0 -3 
1 -2 0 -4 1 -1 0 -3 1 -1 0 -4 1 -1 0 -3 
1 -1 0 -3 1 -1 0 -3 1 -1 0 -3 1 -1 0 -3 
1 -1 0 -2 1 -1 0 -3 1 -1 0 -2 1 -1 0 -3 
1 -1 0 -2 1 -1 0 -2 1 -1 0 -2 1 -1 0 -2 
1 -1 0 -2 1 -1 0 -1 1 -1 0 -1 1 -1 0 -2 
2 -2 0 -2 2 -2 1 -1 0 -1 2 -2 1 -1 1 -1 
1 0 1 -1 1 -1 1 0 1 0 1 -1 1 0 1 0 
1 1 1 0 1 0 1 0 1 0 1 1 1 0 1 0 
1 1 1 0 1 0 1 1 1 0 1 1 1 0 1 1 
1 0 1 1 1 0 1 1 1 1 1 0 1 1 1 1 
1 1 1 1 1 1 1 1 1 1 1 1 1 1 1 1 
0 1 2 2 0 1 2 2 0 1 2 2 0 1 2 2 
0 2 2 2 0 1 2 2 0 2 2 2 0 2 2 2 
0 1 1 1 1 1 0 2 2 2 0 1 1 1 0 1 
2 2 1 1 0 1 2 2 1 1 1 1 1 1 1 1 
1 1 1 1 1 0 1 1 1 1 1 0 1 1 1 0 
1 0 1 0 1 1 1 0 1 0 1 0 1 0 1 0 
1 0 1 -1 1 0 1 0 1 0 1 0 1 -1 1 0 
1 0 1 0 1 0 1 -1 1 0 1 0 1 0 1 -1 
1 0 1 0 1 0 3399 3277 300 MP stroke
1 0 1 0 1 -1 1 0 1 0 1 0 1 0 1 0 
1 0 1 0 1 0 1 0 1 0 1 0 1 0 1 0 
1 0 1 0 1 0 1 1 1 0 1 0 1 0 1 0 
1 0 1 0 1 0 1 1 1 0 1 0 1 0 1 0 
1 0 1 0 1 0 1 1 1 0 1 0 1 0 1 0 
1 0 1 0 1 0 1 0 1 0 1 0 1 0 1 -1 
1 0 1 0 1 0 1 0 1 0 1 -1 1 0 1 0 
1 -1 1 0 1 -1 1 0 1 0 1 -1 1 -1 1 0 
1 -1 1 0 1 -1 1 -1 1 -1 1 0 1 -1 1 -1 
1 -1 1 -1 1 -1 1 -1 1 -1 1 -1 1 -1 1 -1 
1 -1 1 -1 0 -1 2 -2 1 -1 1 -1 1 -1 0 -1 
2 -2 1 -1 0 -1 2 -2 1 -1 0 -1 2 -2 1 -1 
0 -1 2 -2 0 -1 2 -2 1 -1 1 -1 0 -1 2 -2 
1 -1 0 -1 2 -2 1 -1 1 -1 1 -1 1 -1 1 -1 
1 -1 1 -1 1 -1 1 -1 1 -1 1 -1 1 -1 1 -1 
1 0 1 -1 1 -1 1 0 1 -1 1 -1 1 0 1 -1 
1 0 1 0 1 -1 1 0 1 0 1 -1 1 0 1 0 
1 0 1 0 1 0 1 0 1 0 1 0 1 0 1 0 
1 0 1 0 1 0 1 0 1 0 1 0 1 0 1 0 
1 0 1 0 1 1 1 0 1 0 1 0 1 0 1 0 
1 0 1 1 1 0 1 0 1 0 1 0 1 0 1 1 
1 0 1 0 1 0 1 1 1 0 1 0 1 1 1 0 
1 0 1 1 1 0 1 0 1 1 1 0 1 1 1 0 
1 1 1 0 1 1 1 0 1 1 1 0 1 1 1 0 
1 0 1 1 1 0 1 1 1 0 1 0 1 1 1 0 
1 0 1 1 1 0 1 0 1 0 1 1 1 0 1 0 
1 0 1 0 1 0 1 0 1 1 1 0 1 0 1 0 
1 0 1 0 1 0 1 0 1 0 1 0 1 -1 1 0 
1 0 1 0 1 0 1 0 1 0 1 0 1 0 1 0 
1 0 1 0 1 0 1 0 1 0 1 -1 1 0 1 0 
1 0 1 0 1 0 1 0 1 0 1 0 1 0 1 0 
1 0 1 0 1 0 1 0 1 0 1 0 1 0 1 0 
1 0 1 0 1 0 1 0 1 0 1 0 1 0 1 0 
1 0 1 0 1 0 1 0 1 0 1 0 1 0 1 0 
1 0 1 0 1 0 1 0 1 0 1 0 1 0 1 0 
1 0 1 0 1 0 1 0 1 0 1 0 1 -1 1 0 
1 0 1 0 1 0 1 0 1 0 1 0 1 0 1 0 
1 0 1 -1 1 0 3100 3336 300 MP stroke
1 0 1 0 1 0 1 0 1 -1 1 0 1 0 1 0 
1 0 1 0 1 -1 1 0 1 0 1 0 1 -1 1 0 
1 0 1 0 1 0 1 -1 1 0 1 0 1 0 1 -1 
1 0 1 0 1 -1 1 0 1 0 1 0 1 -1 1 0 
1 0 1 0 1 -1 1 0 1 0 1 0 1 -1 1 0 
1 0 1 -1 1 0 1 0 1 0 1 -1 1 0 1 0 
1 0 1 -1 1 0 1 0 1 0 1 -1 1 0 1 0 
1 0 1 0 1 -1 1 0 1 0 1 0 1 0 1 0 
1 -1 1 0 1 0 1 0 1 0 1 0 1 0 1 0 
1 0 1 -1 1 0 1 0 1 0 1 0 1 0 1 0 
1 0 1 0 1 0 1 0 1 0 1 0 1 0 1 0 
1 0 1 1 1 0 1 0 1 0 1 0 1 0 1 0 
1 0 1 0 1 0 1 0 1 0 1 0 1 0 1 0 
1 0 1 0 1 1 1 0 1 0 1 0 1 0 1 0 
1 0 1 0 1 1 1 0 1 0 1 0 1 0 1 0 
1 0 1 1 1 0 1 0 1 0 1 0 1 1 1 0 
1 0 1 0 1 0 1 1 1 0 1 0 1 0 1 0 
1 0 1 0 1 0 1 1 1 0 1 0 1 0 1 0 
1 0 1 -1 1 0 1 0 1 0 1 0 1 0 1 0 
1 -1 1 0 1 0 1 0 1 0 1 -1 1 0 1 0 
1 -1 1 0 1 0 1 -1 1 0 1 0 1 -1 1 0 
1 -1 1 0 1 0 1 -1 1 0 1 0 1 0 1 0 
1 0 2923 3353 178 MP stroke
gr

24 w
c9
0 sg
3731 3641 mt 
(Years) s
2606 1973 mt  -90 rotate
(Psyllids) s
90 rotate
2906 3396 mt 
( ) s
4821  228 mt 
( ) s
6 w
4118  381 mt 
(Susceptible) s
gs 3654 246 1125 481 rc
24 w
c8
357 0 3725 338 2 MP stroke
gr

24 w
c8
0 sg
4118  529 mt 
(Exposed) s
gs 3654 246 1125 481 rc
c11
357 0 3725 486 2 MP stroke
gr

c11
0 sg
4118  677 mt 
(Infected) s
gs 3654 246 1125 481 rc
c9
357 0 3725 633 2 MP stroke
6 w
gr

6 w
c9
1 sg
2967  452 mt 3151  452 L
3151  452 mt 3151  227 L
2967  452 mt 2967  227 L
2967  227 mt 3151  227 L
0 sg
%%IncludeResource: font Helvetica-Bold
/Helvetica-Bold /WindowsLatin1Encoding 120 FMSR

3027  368 mt 
(B) s
1 sg
 553  441 mt  737  441 L
 737  441 mt  737  216 L
 553  441 mt  553  216 L
 553  216 mt  737  216 L
0 sg
 614  356 mt 
(A) s

end %%Color Dict

eplot
%%EndObject

epage
end

showpage

%%Trailer
%%EOF
