%!PS-Adobe-3.0 EPSF-3.0
%%Creator: MATLAB, The MathWorks, Inc. Version 8.3.0.532 (R2014a). Operating System: Microsoft Windows 7 Enterprise .
%%Title: U:\My Documents\Citrus\Matlab\citmalnoint.eps
%%CreationDate: 07/27/2015  13:46:56
%%DocumentNeededFonts: Helvetica
%%DocumentProcessColors: Cyan Magenta Yellow Black
%%LanguageLevel: 2
%%Pages: 1
%%BoundingBox:    53   259   558   531
%%EndComments

%%BeginProlog
% MathWorks dictionary
/MathWorks 160 dict begin
% definition operators
/bdef {bind def} bind def
/ldef {load def} bind def
/xdef {exch def} bdef
/xstore {exch store} bdef
% operator abbreviations
/c  /clip ldef
/cc /concat ldef
/cp /closepath ldef
/gr /grestore ldef
/gs /gsave ldef
/mt /moveto ldef
/np /newpath ldef
/cm /currentmatrix ldef
/sm /setmatrix ldef
/rm /rmoveto ldef
/rl /rlineto ldef
/s {show newpath} bdef
/sc {setcmykcolor} bdef
/sr /setrgbcolor ldef
/sg /setgray ldef
/w /setlinewidth ldef
/j /setlinejoin ldef
/cap /setlinecap ldef
/rc {rectclip} bdef
/rf {rectfill} bdef
% page state control
/pgsv () def
/bpage {/pgsv save def} bdef
/epage {pgsv restore} bdef
/bplot /gsave ldef
/eplot {stroke grestore} bdef
% orientation switch
/portraitMode 0 def /landscapeMode 1 def /rotateMode 2 def
% coordinate system mappings
/dpi2point 0 def
% font control
/FontSize 0 def
/FMS {/FontSize xstore findfont [FontSize 0 0 FontSize neg 0 0]
  makefont setfont} bdef
/ISOLatin1Encoding where {pop /WindowsLatin1Encoding 256 array bdef
ISOLatin1Encoding WindowsLatin1Encoding copy pop
/.notdef/.notdef/quotesinglbase/florin/quotedblbase/ellipsis/dagger
/daggerdbl/circumflex/perthousand/Scaron/guilsinglleft/OE/.notdef/.notdef
/.notdef/.notdef/quoteleft/quoteright/quotedblleft/quotedblright/bullet
/endash/emdash/tilde/trademark/scaron/guilsinglright/oe/.notdef/.notdef
/Ydieresis WindowsLatin1Encoding 128 32 getinterval astore pop}
{/WindowsLatin1Encoding StandardEncoding bdef} ifelse
/reencode {exch dup where {pop load} {pop StandardEncoding} ifelse
  exch dup 3 1 roll findfont dup length dict begin
  { 1 index /FID ne {def}{pop pop} ifelse } forall
  /Encoding exch def currentdict end definefont pop} bdef
/isroman {findfont /CharStrings get /Agrave known} bdef
/FMSR {3 1 roll 1 index dup isroman {reencode} {pop pop} ifelse
  exch FMS} bdef
/csm {1 dpi2point div -1 dpi2point div scale neg translate
 dup landscapeMode eq {pop -90 rotate}
  {rotateMode eq {90 rotate} if} ifelse} bdef
% line types: solid, dotted, dashed, dotdash
/SO { [] 0 setdash } bdef
/DO { [.5 dpi2point mul 4 dpi2point mul] 0 setdash } bdef
/DA { [6 dpi2point mul] 0 setdash } bdef
/DD { [.5 dpi2point mul 4 dpi2point mul 6 dpi2point mul 4
  dpi2point mul] 0 setdash } bdef
% macros for lines and objects
/L {lineto stroke} bdef
/MP {3 1 roll moveto 1 sub {rlineto} repeat} bdef
/AP {{rlineto} repeat} bdef
/PDlw -1 def
/W {/PDlw currentlinewidth def setlinewidth} def
/PP {closepath eofill} bdef
/DP {closepath stroke} bdef
/MR {4 -2 roll moveto dup  0 exch rlineto exch 0 rlineto
  neg 0 exch rlineto closepath} bdef
/FR {MR stroke} bdef
/PR {MR fill} bdef
/L1i {{currentfile picstr readhexstring pop} image} bdef
/tMatrix matrix def
/MakeOval {newpath tMatrix currentmatrix pop translate scale
0 0 1 0 360 arc tMatrix setmatrix} bdef
/FO {MakeOval stroke} bdef
/PO {MakeOval fill} bdef
/PD {currentlinewidth 2 div 0 360 arc fill
   PDlw -1 eq not {PDlw w /PDlw -1 def} if} def
/FA {newpath tMatrix currentmatrix pop translate scale
  0 0 1 5 -2 roll arc tMatrix setmatrix stroke} bdef
/PA {newpath tMatrix currentmatrix pop	translate 0 0 moveto scale
  0 0 1 5 -2 roll arc closepath tMatrix setmatrix fill} bdef
/FAn {newpath tMatrix currentmatrix pop translate scale
  0 0 1 5 -2 roll arcn tMatrix setmatrix stroke} bdef
/PAn {newpath tMatrix currentmatrix pop translate 0 0 moveto scale
  0 0 1 5 -2 roll arcn closepath tMatrix setmatrix fill} bdef
/vradius 0 def /hradius 0 def /lry 0 def
/lrx 0 def /uly 0 def /ulx 0 def /rad 0 def
/MRR {/vradius xdef /hradius xdef /lry xdef /lrx xdef /uly xdef
  /ulx xdef newpath tMatrix currentmatrix pop ulx hradius add uly
  vradius add translate hradius vradius scale 0 0 1 180 270 arc 
  tMatrix setmatrix lrx hradius sub uly vradius add translate
  hradius vradius scale 0 0 1 270 360 arc tMatrix setmatrix
  lrx hradius sub lry vradius sub translate hradius vradius scale
  0 0 1 0 90 arc tMatrix setmatrix ulx hradius add lry vradius sub
  translate hradius vradius scale 0 0 1 90 180 arc tMatrix setmatrix
  closepath} bdef
/FRR {MRR stroke } bdef
/PRR {MRR fill } bdef
/MlrRR {/lry xdef /lrx xdef /uly xdef /ulx xdef /rad lry uly sub 2 div def
  newpath tMatrix currentmatrix pop ulx rad add uly rad add translate
  rad rad scale 0 0 1 90 270 arc tMatrix setmatrix lrx rad sub lry rad
  sub translate rad rad scale 0 0 1 270 90 arc tMatrix setmatrix
  closepath} bdef
/FlrRR {MlrRR stroke } bdef
/PlrRR {MlrRR fill } bdef
/MtbRR {/lry xdef /lrx xdef /uly xdef /ulx xdef /rad lrx ulx sub 2 div def
  newpath tMatrix currentmatrix pop ulx rad add uly rad add translate
  rad rad scale 0 0 1 180 360 arc tMatrix setmatrix lrx rad sub lry rad
  sub translate rad rad scale 0 0 1 0 180 arc tMatrix setmatrix
  closepath} bdef
/FtbRR {MtbRR stroke } bdef
/PtbRR {MtbRR fill } bdef
/stri 6 array def /dtri 6 array def
/smat 6 array def /dmat 6 array def
/tmat1 6 array def /tmat2 6 array def /dif 3 array def
/asub {/ind2 exch def /ind1 exch def dup dup
  ind1 get exch ind2 get sub exch } bdef
/tri_to_matrix {
  2 0 asub 3 1 asub 4 0 asub 5 1 asub
  dup 0 get exch 1 get 7 -1 roll astore } bdef
/compute_transform {
  dmat dtri tri_to_matrix tmat1 invertmatrix 
  smat stri tri_to_matrix tmat2 concatmatrix } bdef
/ds {stri astore pop} bdef
/dt {dtri astore pop} bdef
/db {2 copy /cols xdef /rows xdef mul dup 3 mul string
  currentfile 
  3 index 0 eq {/ASCIIHexDecode filter}
  {/ASCII85Decode filter 3 index 2 eq {/RunLengthDecode filter} if }
  ifelse exch readstring pop
  dup 0 3 index getinterval /rbmap xdef
  dup 2 index dup getinterval /gbmap xdef
  1 index dup 2 mul exch getinterval /bbmap xdef pop pop}bdef
/it {gs np dtri aload pop moveto lineto lineto cp c
  cols rows 8 compute_transform 
  rbmap gbmap bbmap true 3 colorimage gr}bdef
/il {newpath moveto lineto stroke}bdef
currentdict end def
%%EndProlog

%%BeginSetup
MathWorks begin

0 cap

end
%%EndSetup

%%Page: 1 1
%%BeginPageSetup
%%PageBoundingBox:    53   259   558   531
MathWorks begin
bpage
%%EndPageSetup

%%BeginObject: obj1
bplot

/dpi2point 12 def
portraitMode 0636 6372 csm

    0     0  6066  3257 rc
85 dict begin %Colortable dictionary
/c0 { 0.000000 0.000000 0.000000 sr} bdef
/c1 { 1.000000 1.000000 1.000000 sr} bdef
/c2 { 0.900000 0.000000 0.000000 sr} bdef
/c3 { 0.000000 0.820000 0.000000 sr} bdef
/c4 { 0.000000 0.000000 0.800000 sr} bdef
/c5 { 0.910000 0.820000 0.320000 sr} bdef
/c6 { 1.000000 0.260000 0.820000 sr} bdef
/c7 { 0.000000 0.820000 0.820000 sr} bdef
c0
1 j
1 sg
   0    0 6067 3258 rf
6 w
0 2655 2030 0 0 -2655 789 2899 4 MP
PP
-2030 0 0 2655 2030 0 0 -2655 789 2899 5 MP stroke
4 w
DO
SO
6 w
0 sg
 789  244 mt 2819  244 L
 789 2899 mt 2819 2899 L
2819 2899 mt 2819  244 L
 789 2899 mt  789  244 L
 789 2899 mt 2819 2899 L
 789 2899 mt  789  244 L
 789 2899 mt  789 2872 L
 789  244 mt  789  270 L
%%IncludeResource: font Helvetica
/Helvetica /WindowsLatin1Encoding 120 FMSR

 756 3044 mt 
(0) s
1296 2899 mt 1296 2872 L
1296  244 mt 1296  270 L
1263 3044 mt 
(5) s
1804 2899 mt 1804 2872 L
1804  244 mt 1804  270 L
1738 3044 mt 
(10) s
2311 2899 mt 2311 2872 L
2311  244 mt 2311  270 L
2245 3044 mt 
(15) s
2819 2899 mt 2819 2872 L
2819  244 mt 2819  270 L
2753 3044 mt 
(20) s
 789 2899 mt  815 2899 L
2819 2899 mt 2792 2899 L
 688 2943 mt 
(0) s
 789 2519 mt  815 2519 L
2819 2519 mt 2792 2519 L
 621 2563 mt 
(20) s
 789 2140 mt  815 2140 L
2819 2140 mt 2792 2140 L
 621 2184 mt 
(40) s
 789 1761 mt  815 1761 L
2819 1761 mt 2792 1761 L
 621 1805 mt 
(60) s
 789 1381 mt  815 1381 L
2819 1381 mt 2792 1381 L
 621 1425 mt 
(80) s
 789 1002 mt  815 1002 L
2819 1002 mt 2792 1002 L
 554 1046 mt 
(100) s
 789  623 mt  815  623 L
2819  623 mt 2792  623 L
 554  667 mt 
(120) s
 789  244 mt  815  244 L
2819  244 mt 2792  244 L
 554  288 mt 
(140) s
 789  244 mt 2819  244 L
 789 2899 mt 2819 2899 L
2819 2899 mt 2819  244 L
 789 2899 mt  789  244 L
gs 789 244 2031 2656 rc
24 w
/c8 { 0.000000 0.000000 1.000000 sr} bdef
c8
1 0 1 0 1 -1 1 0 1 -1 1 -1 1 0 1 -1 
1 -1 1 -1 1 0 1 -1 1 -1 1 0 1 -1 1 -1 
1 -1 1 0 1 -1 1 0 1 -1 1 -1 1 0 1 0 
1 -1 1 0 1 -1 1 0 1 0 1 0 1 0 1 -1 
1 0 1 0 1 0 1 0 1 0 1 0 1 1 1 0 
1 0 1 0 1 0 1 0 1 0 1 0 1 0 1 0 
1 0 1 0 1 0 1 0 1 0 1 0 1 0 1 0 
1 -1 1 0 1 0 1 0 1 -1 1 0 1 0 1 -1 
1 0 1 -1 1 0 1 0 1 0 1 -1 1 0 1 0 
1 0 1 -1 1 0 1 0 1 0 1 0 1 0 1 0 
1 0 1 0 1 1 1 0 1 0 1 0 1 0 1 0 
1 0 1 0 1 0 1 0 1 0 1 0 1 0 1 -1 
1 0 1 0 1 0 1 -1 1 0 1 -1 1 0 1 -1 
1 -1 1 0 1 -1 1 -1 1 0 1 -1 1 -1 1 0 
1 -1 1 -1 1 -1 1 0 1 -1 1 -1 1 -1 1 0 
1 -1 1 0 1 -1 1 -1 1 0 1 0 1 -1 1 0 
1 0 1 -1 1 0 1 0 1 0 1 0 1 0 1 0 
1 0 1 0 1 0 1 0 1 0 1 0 1 0 1 0 
1 0 1 1 1 0 1 0 1 0 1 0 1 0 1 0 
1 0 1 0 1 0 1 -1 1 0 1 0 1 0 1 0 
1 -1 1 0 1 0 1 -1 1 0 1 -1 1 0 1 0 
1 -1 1 0 1 0 1 0 1 -1 1 0 1 0 1 0 
1 0 1 0 1 0 1 0 1 0 1 0 1 0 1 0 
1 0 1 0 1 0 1 0 1 1 1 0 1 0 1 0 
1 0 1 0 1 0 1 -1 1 0 1 0 1 0 1 -1 
1 0 1 0 1 -1 1 0 1 -1 1 -1 1 0 1 -1 
1 -1 1 0 1 -1 1 -1 1 -1 1 0 1 -1 1 -1 
1 -1 1 0 1 -1 1 -1 1 0 1 -1 1 -1 1 0 
1 -1 1 0 1 -1 1 0 1 -1 1 0 1 0 1 0 
1 -1 1 0 1 0 1 0 1 0 1 0 1 0 1 0 
1 0 1 0 1 1 1 0 1 0 1 0 1 0 1 0 
1 0 1 0 1 1 1 0 1 0 1 0 1 -1 1 0 
1 0 1 0 1 0 1 0 1 -1 1 0 1 0 1 -1 
1 0 1 0 1 -1 1 0 1 0 1 -1 1 0 1 0 
1 -1 1 0 1 0 1 0 1 0 1 0 1 0 1 -1 
1 0 1 1 1 0 1 0 1 0 1 0 1 0 1 0 
1 0 1 0 1 0 1 1 1 0 1 0 1 0 1 0 
1 -1 1 0 1 0 2520 2503 300 MP stroke
1 0 1 0 1 -1 1 0 1 -1 1 0 1 -1 1 0 
1 -1 1 -1 1 0 1 -1 1 -1 1 0 1 -1 1 -1 
1 -1 1 -1 1 0 1 -1 1 -1 1 -1 1 0 1 -1 
1 -1 1 0 1 -1 1 0 1 -1 1 0 1 -1 1 0 
1 0 1 -1 1 0 1 0 1 0 1 0 1 0 1 0 
1 0 1 0 1 0 1 0 1 0 1 0 1 1 1 0 
1 0 1 0 1 0 1 0 1 0 1 1 1 0 1 0 
1 0 1 -1 1 0 1 0 1 0 1 0 1 0 1 -1 
1 0 1 0 1 -1 1 0 1 0 1 -1 1 0 1 -1 
1 0 1 0 1 0 1 -1 1 0 1 0 1 0 1 0 
1 0 1 0 1 0 1 0 1 0 1 0 1 0 1 0 
1 0 1 0 1 0 1 0 1 1 1 0 1 0 1 0 
1 0 1 0 1 0 1 0 1 -1 1 0 1 0 1 0 
1 -1 1 0 1 -1 1 0 1 -1 1 0 1 -1 1 -1 
1 0 1 -1 1 -1 1 -1 1 0 1 -1 1 -1 1 -1 
1 0 1 -1 1 -1 1 -1 1 0 1 -1 1 -1 1 0 
1 -1 1 0 1 -1 1 0 1 -1 1 0 1 0 1 -1 
1 0 1 0 1 0 1 0 1 0 1 0 1 0 1 0 
1 0 1 0 1 1 1 0 1 0 1 0 1 0 1 0 
1 1 1 0 1 0 1 0 1 0 1 0 1 0 1 0 
1 0 1 -1 1 0 1 0 1 0 1 -1 1 0 1 0 
1 -1 1 0 1 0 1 -1 1 0 1 0 1 -1 1 0 
1 0 1 0 1 -1 1 0 1 0 1 0 1 0 1 0 
1 0 1 0 1 0 1 0 1 0 1 0 1 1 1 0 
1 0 1 0 1 0 1 0 1 0 1 0 1 0 1 0 
1 0 1 0 1 0 1 0 1 -1 1 0 1 0 1 -1 
1 0 1 -1 1 0 1 -1 1 -1 1 0 1 -1 1 -1 
1 -1 1 0 1 -1 1 -1 1 -1 1 0 1 -1 1 -1 
1 -1 1 0 1 -1 1 -1 1 0 1 -1 1 -1 1 0 
1 -1 1 0 1 0 1 -1 1 0 1 0 1 0 1 0 
1 0 1 0 1 0 1 0 1 0 1 0 1 0 1 0 
1 0 1 0 1 1 1 0 1 0 1 0 1 0 1 0 
1 1 1 0 1 0 1 0 1 0 1 -1 1 0 1 0 
1 0 1 0 1 -1 1 0 1 0 1 0 1 -1 1 0 
1 -1 1 0 1 0 1 -1 1 0 1 0 1 0 1 -1 
1 0 1 0 1 0 1 0 1 0 1 0 1 0 1 0 
1 0 1 0 1 0 1 1 1 0 1 0 1 0 1 0 
1 0 1 0 1 1 2221 2572 300 MP stroke
1 0 1 0 1 0 1 -1 1 0 1 0 1 0 1 0 
1 -1 1 0 1 -1 1 0 1 -1 1 0 1 -1 1 -1 
1 0 1 -1 1 -1 1 -1 1 -1 1 0 1 -1 1 -1 
1 -1 1 -1 1 0 1 -1 1 -1 1 0 1 -1 1 -1 
1 0 1 -1 1 0 1 -1 1 0 1 0 1 -1 1 0 
1 0 1 0 1 0 1 0 1 0 1 0 1 0 1 0 
1 0 1 0 1 0 1 1 1 0 1 0 1 0 1 0 
1 1 1 0 1 0 1 0 1 0 1 0 1 0 1 0 
1 0 1 0 1 0 1 -1 1 0 1 0 1 -1 1 0 
1 0 1 -1 1 0 1 0 1 -1 1 0 1 0 1 -1 
1 0 1 0 1 0 1 0 1 0 1 -1 1 0 1 0 
1 0 1 1 1 0 1 0 1 0 1 0 1 0 1 1 
1 0 1 0 1 0 1 0 1 0 1 0 1 0 1 0 
1 0 1 0 1 0 1 0 1 0 1 -1 1 0 1 0 
1 -1 1 0 1 -1 1 -1 1 0 1 -1 1 -1 1 -1 
1 0 1 -1 1 -1 1 -1 1 -1 1 0 1 -1 1 -1 
1 -1 1 0 1 -1 1 -1 1 0 1 -1 1 -1 1 0 
1 -1 1 0 1 0 1 -1 1 0 1 0 1 0 1 0 
1 0 1 0 1 0 1 0 1 0 1 0 1 0 1 0 
1 1 1 0 1 0 1 0 1 0 1 1 1 0 1 0 
1 0 1 0 1 0 1 0 1 0 1 0 1 0 1 0 
1 0 1 0 1 -1 1 0 1 0 1 -1 1 0 1 0 
1 -1 1 0 1 0 1 -1 1 0 1 0 1 0 1 -1 
1 0 1 0 1 0 1 0 1 0 1 0 1 0 1 0 
1 0 1 1 1 0 1 0 1 0 1 0 1 1 1 0 
1 0 1 0 1 0 1 0 1 0 1 0 1 0 1 0 
1 0 1 0 1 0 1 -1 1 0 1 -1 1 0 1 -1 
1 0 1 -1 1 -1 1 0 1 -1 1 -1 1 -1 1 -1 
1 0 1 -1 1 -1 1 -1 1 -1 1 0 1 -1 1 -1 
1 0 1 -1 1 -1 1 0 1 -1 1 0 1 -1 1 0 
1 0 1 -1 1 0 1 0 1 0 1 0 1 0 1 0 
1 0 1 0 1 0 1 0 1 0 1 1 1 0 1 0 
1 0 1 1 1 0 1 0 1 0 1 1 1 0 1 0 
1 0 1 0 1 0 1 0 1 0 1 0 1 -1 1 0 
1 0 1 0 1 -1 1 0 1 0 1 -1 1 0 1 0 
1 -1 1 0 1 0 1 0 1 -1 1 0 1 0 1 0 
1 0 1 0 1 0 1 0 1 0 1 0 1 1 1 0 
1 0 1 0 1 1 1922 2636 300 MP stroke
1 0 1 0 1 0 1 1 1 0 1 0 1 0 1 0 
1 0 1 0 1 0 1 0 1 -1 1 0 1 0 1 -1 
1 0 1 -1 1 0 1 -1 1 0 1 -1 1 -1 1 -1 
1 0 1 -1 1 -1 1 -1 1 -1 1 0 1 -1 1 -1 
1 -1 1 -1 1 0 1 -1 1 -1 1 0 1 -1 1 0 
1 -1 1 0 1 0 1 -1 1 0 1 0 1 0 1 0 
1 0 1 0 1 0 1 0 1 0 1 0 1 1 1 0 
1 0 1 1 1 0 1 0 1 0 1 1 1 0 1 0 
1 0 1 1 1 0 1 0 1 0 1 0 1 0 1 0 
1 0 1 -1 1 0 1 0 1 0 1 -1 1 0 1 0 
1 -1 1 0 1 0 1 0 1 -1 1 0 1 0 1 0 
1 0 1 0 1 0 1 0 1 0 1 0 1 0 1 0 
1 0 1 1 1 0 1 0 1 1 1 0 1 0 1 0 
1 1 1 0 1 0 1 0 1 1 1 0 1 0 1 0 
1 0 1 -1 1 0 1 0 1 0 1 -1 1 0 1 -1 
1 0 1 -1 1 -1 1 0 1 -1 1 -1 1 -1 1 0 
1 -1 1 -1 1 -1 1 -1 1 0 1 -1 1 -1 1 0 
1 -1 1 -1 1 0 1 -1 1 0 1 -1 1 0 1 -1 
1 0 1 0 1 0 1 0 1 0 1 0 1 0 1 0 
1 0 1 0 1 0 1 1 1 0 1 0 1 1 1 0 
1 1 1 0 1 0 1 1 1 0 1 0 1 1 1 0 
1 0 1 0 1 0 1 0 1 0 1 0 1 0 1 0 
1 0 1 0 1 -1 1 0 1 0 1 0 1 -1 1 0 
1 0 1 0 1 0 1 -1 1 0 1 0 1 0 1 0 
1 0 1 1 1 0 1 0 1 0 1 1 1 0 1 0 
1 1 1 0 1 1 1 0 1 0 1 1 1 0 1 1 
1 0 1 0 1 0 1 1 1 0 1 0 1 0 1 0 
1 -1 1 0 1 0 1 0 1 -1 1 0 1 -1 1 0 
1 -1 1 -1 1 0 1 -1 1 -1 1 -1 1 0 1 -1 
1 -1 1 -1 1 0 1 -1 1 -1 1 0 1 -1 1 0 
1 -1 1 0 1 -1 1 0 1 0 1 -1 1 0 1 0 
1 0 1 0 1 0 1 1 1 0 1 0 1 0 1 1 
1 0 1 1 1 0 1 1 1 0 1 1 1 0 1 1 
1 1 1 0 1 1 1 0 1 0 1 1 1 0 1 0 
1 1 1 0 1 0 1 0 1 0 1 0 1 0 1 0 
1 0 1 0 1 0 1 0 1 0 1 -1 1 0 1 0 
1 0 1 0 1 0 1 1 1 0 1 0 1 0 1 1 
1 0 1 1 1 0 1623 2666 300 MP stroke
1 1 1 0 1 1 1 1 1 0 1 1 1 1 1 0 
1 1 1 1 1 0 1 1 1 0 1 1 1 0 1 0 
1 1 1 0 1 0 1 0 1 0 1 0 1 0 1 -1 
1 0 1 0 1 -1 1 0 1 -1 1 0 1 -1 1 -1 
1 0 1 -1 1 -1 1 0 1 -1 1 0 1 -1 1 0 
1 -1 1 0 1 0 1 -1 1 0 1 0 1 0 1 0 
1 0 1 0 1 0 1 1 1 0 1 0 1 1 1 0 
1 1 1 1 1 1 1 1 1 0 1 1 1 1 1 1 
1 1 1 1 1 1 1 1 1 1 1 1 1 1 1 1 
1 1 1 1 1 0 1 1 1 1 1 0 1 0 1 1 
1 0 1 1 1 0 1 0 1 0 1 1 1 0 1 0 
1 0 1 1 1 0 1 0 1 1 1 1 1 0 1 1 
1 1 1 0 1 1 1 1 0 1 2 2 1 1 1 1 
0 1 2 2 1 1 0 1 2 2 1 1 0 1 2 2 
1 1 1 1 1 1 1 1 1 1 1 1 1 1 1 1 
1 0 1 1 1 0 1 0 1 1 1 0 1 0 1 0 
1 0 1 0 1 -1 1 0 1 0 1 0 1 0 1 -1 
1 0 1 0 1 0 1 0 1 0 1 0 1 0 1 0 
1 0 1 0 1 1 1 0 1 1 1 0 1 1 1 1 
1 1 1 1 0 1 2 2 0 1 2 2 0 1 2 2 
0 2 2 2 0 2 2 2 0 2 2 2 0 2 1 1 
0 1 1 1 0 2 2 2 0 2 2 2 0 2 1 1 
1 1 0 2 2 2 0 2 2 2 0 1 2 2 0 1 
2 2 1 1 1 1 0 1 2 2 1 1 1 1 0 1 
2 2 1 1 0 1 2 2 1 1 0 2 2 2 0 2 
2 2 0 1 1 1 0 2 2 2 0 2 1 1 0 2 
1 1 0 1 1 1 0 2 1 1 0 2 1 1 0 2 
1 1 0 2 1 1 0 2 1 1 0 2 1 1 0 2 
1 1 0 2 1 1 0 2 1 1 0 2 1 1 0 2 
1 1 0 1 1 1 0 2 1 1 0 2 1 1 0 1 
1 1 0 2 2 2 0 2 2 2 0 2 2 2 1 1 
0 1 2 2 1 1 1 1 1 1 1 1 1 0 1 1 
1 1 1 1 1 0 1 1 1 1 1 1 1 1 1 1 
1 1 1 1 1 1 0 1 2 2 0 2 2 2 0 1 
1 1 0 2 2 2 0 2 1 1 0 2 1 1 0 1 
1 1 0 2 1 1 0 3 1 1 0 2 1 1 0 3 
1 1 0 3 1 1 0 3 1 1 0 3 1 1 0 4 
1 1 0 3 1 1 1359 2387 300 MP stroke
0 4 1 1 0 3 1 1 0 4 1 1 0 4 1 1 
0 4 1 1 0 4 1 1 0 3 1 1 0 4 1 1 
0 4 1 1 0 3 1 1 0 4 1 1 0 3 1 1 
0 4 1 1 0 3 1 1 0 3 1 1 0 3 1 1 
0 2 1 1 0 3 1 1 0 3 1 1 0 2 1 1 
0 3 1 1 0 2 1 1 0 2 1 1 0 2 1 1 
0 2 1 1 0 3 1 1 0 2 1 1 0 2 1 1 
0 3 1 1 0 3 1 1 0 2 1 1 0 3 1 1 
0 3 1 1 0 3 1 1 0 4 1 1 0 3 1 1 
0 4 1 1 0 4 1 1 0 4 1 1 0 4 1 1 
0 5 1 1 0 4 1 1 0 5 1 1 0 5 1 1 
0 4 1 1 0 5 1 1 0 5 1 1 0 5 1 1 
0 5 1 1 0 5 1 1 0 4 1 1 0 5 1 1 
0 4 1 1 0 4 1 1 0 4 1 1 0 4 1 1 
0 4 1 1 0 3 1 1 0 3 1 1 0 3 1 1 
0 3 1 1 0 3 1 1 0 2 1 1 0 2 1 1 
0 2 1 1 0 3 2 2 0 2 1 1 0 2 2 2 
0 2 1 1 0 2 2 2 0 2 2 2 0 2 2 2 
0 2 1 1 0 2 2 2 0 2 1 1 0 2 1 1 
0 2 1 1 0 2 1 1 0 2 1 1 0 3 1 1 
0 2 1 1 0 4 1 1 0 3 1 1 0 3 1 1 
0 3 1 1 0 4 1 1 0 5 1 1 0 4 1 1 
0 4 1 1 0 5 1 1 0 5 1 1 0 5 1 1 
0 6 1 1 0 5 1 1 0 6 1 1 0 5 1 1 
0 6 1 1 0 6 1 1 0 6 1 1 0 5 1 1 
0 6 1 1 0 6 1 1 0 6 1 1 0 5 1 1 
0 6 1 1 0 5 1 1 0 5 1 1 0 5 1 1 
0 5 1 1 0 4 1 1 0 4 1 1 0 5 1 1 
0 4 1 1 0 4 1 1 0 3 1 1 0 4 1 1 
0 3 1 1 0 4 1 1 0 3 1 1 0 3 1 1 
0 4 1 1 0 3 1 1 0 4 1 1 0 3 1 1 
0 4 1 1 0 3 1 1 0 4 1 1 0 4 1 1 
0 4 1 1 0 4 1 1 0 5 1 1 0 4 1 1 
0 5 1 1 0 4 1 1 0 6 1 1 0 4 1 1 
0 6 1 1 0 5 1 1 0 5 1 1 0 5 1 1 
0 6 1 1 0 5 1 1 0 5 1 1 0 5 1 1 
0 6 1 1 0 5 1 1 0 4 1 1 0 5 1 1 
0 4 1 1 0 4 1204 1660 300 MP stroke
1 1 0 5 1 1 0 3 1 1 0 4 1 1 0 3 
1 1 0 3 1 1 0 2 1 1 0 3 1 1 0 2 
1 1 0 3 1 1 0 2 1 1 0 1 1 1 0 3 
2 2 0 2 1 1 0 2 2 2 0 2 1 1 0 1 
1 1 0 1 1 1 0 2 2 2 0 2 2 2 0 2 
1 1 0 1 1 1 0 2 2 2 0 2 1 1 0 2 
1 1 0 2 1 1 0 2 1 1 0 2 1 1 0 2 
1 1 0 3 1 1 0 2 1 1 0 3 1 1 0 3 
1 1 0 3 1 1 0 3 1 1 0 3 1 1 0 4 
1 1 0 3 1 1 0 4 1 1 0 4 1 1 0 3 
1 1 0 4 1 1 0 4 1 1 0 4 1 1 0 4 
1 1 0 4 1 1 0 4 1 1 0 4 1 1 0 3 
1 1 0 4 1 1 0 4 1 1 0 4 1 1 0 3 
1 1 0 3 1 1 0 3 1 1 0 3 1 1 0 3 
1 1 0 3 1 1 0 3 1 1 0 2 1 1 0 2 
1 1 0 3 1 1 0 2 1 1 0 2 1 1 0 2 
1 1 0 2 1 1 0 2 1 1 0 2 1 1 0 2 
1 1 0 2 1 1 0 1 1 1 0 3 1 1 0 2 
1 1 0 2 1 1 0 2 1 1 0 2 1 1 0 3 
1 1 0 2 1 1 0 2 1 1 0 3 1 1 0 3 
1 1 0 3 1 1 0 2 1 1 0 3 1 1 0 3 
1 1 0 3 1 1 0 3 1 1 0 2 1 1 0 3 
1 1 0 3 1 1 0 3 1 1 0 2 1 1 0 3 
1 1 0 2 1 1 0 3 1 1 0 2 1 1 0 2 
1 1 0 2 1 1 0 2 1 1 0 1 1 1 0 2 
1 1 0 2 2 2 0 3 2 2 1 1 0 2 2 2 
0 1 2 2 0 1 2 2 1 1 1 1 1 1 0 1 
2 2 1 1 1 1 1 1 0 1 2 2 1 1 0 1 
2 2 0 1 2 2 1 1 0 2 2 2 0 1 2 2 
0 2 2 2 0 2 2 2 0 2 1 1 0 1 1 1 
0 2 2 2 0 3 2 2 0 2 1 1 0 1 1 1 
0 2 1 1 0 1 1 1 0 2 1 1 0 1 1 1 
0 2 1 1 0 2 2 2 0 2 1 1 0 1 1 1 
0 2 2 2 0 2 2 2 0 2 2 2 0 2 2 2 
0 1 2 2 1 1 0 2 2 2 1 1 0 1 2 2 
0 1 2 2 0 1 2 2 0 1 2 2 0 1 2 2 
1 1 0 2 2 2 1 1 0 2 2 2 0 2 2 2 
0 1 2 2 0 2 1012 1137 300 MP stroke
2 2 0 2 2 2 1 1 0 2 2 2 0 1 2 2 
0 1 2 2 0 1 2 2 1 1 1 1 1 1 1 1 
1 1 1 1 1 1 1 1 1 1 1 0 1 1 1 1 
1 0 1 1 1 1 1 0 1 1 1 0 1 1 1 0 
1 1 1 0 1 1 1 1 1 0 1 1 1 0 1 1 
1 1 1 0 1 1 1 1 1 1 1 1 1 1 1 0 
1 1 1 1 1 1 1 1 1 1 1 1 1 1 0 1 
2 2 1 1 1 1 1 1 1 1 1 1 1 1 1 1 
1 1 1 1 1 1 1 1 1 1 1 1 1 1 1 0 
1 1 1 1 1 1 1 0 1 1 1 1 1 0 1 1 
1 1 1 0 1 1 1 1 1 0 1 1 1 0 1 1 
1 1 1 1 1 0 1 1 1 1 1 0 1 1 1 1 
1 1 1 0 1 1 1 1 1 1 1 1 1 0 1 1 
1 1 1 1 1 0 1 1 1 1 1 0 1 1 1 1 
1 0 1 1 1 0 1 1 1 0 1 1 1 0 1 1 
1 0 1 0 1 1 1 0 1 0 1 1 1 0 1 0 
1 0 1 1 1 0 1 0 1 0 1 0 1 1 1 0 
1 0 1 0 1 1 1 0 1 0 1 0 1 1 1 0 
1 0 1 1 1 0 1 0 1 1 1 0 1 0 1 1 
1 0 1 0 1 1 1 0 1 1 1 0 1 1 1 0 
1 0 1 1 1 0 1 1 1 0 1 0 1 1 1 0 
1 1 1 0 1 0 1 1 1 0 1 0 1 1 1 0 
1 0 1 1 1 0 1 0 1 1 1 0 1 0 1 0 
1 1 1 0 1 0 1 1 1 0 1 0 1 1 1 0 
1 0 1 1 1 0 1 0 1 1 1 0 1 0 1 1 
1 0 1 1 1 0 1 1 1 0 1 0 1 1 1 0 
1 1 1 0 1 0 1 1 1 0 1 0 1 0 1 1 
1 0 1 0 1 0 1 0 1 0 1 0 789 1002 223 MP stroke
/c9 { 0.000000 0.500000 0.000000 sr} bdef
c9
1 0 1 0 1 0 1 1 1 0 1 0 1 0 1 1 
1 0 1 0 1 1 1 0 1 0 1 1 1 0 1 0 
1 1 1 0 1 0 1 1 1 0 1 0 1 0 1 0 
1 0 1 0 1 0 1 0 1 0 1 0 1 0 1 0 
1 0 1 0 1 0 1 0 1 0 1 0 1 0 1 0 
1 0 1 0 1 0 1 0 1 0 1 0 1 1 1 0 
1 0 1 1 1 0 1 1 1 0 1 1 1 1 1 0 
1 1 1 1 1 0 1 1 1 1 1 1 1 0 1 1 
1 1 1 1 1 0 1 1 1 1 1 0 1 1 1 0 
1 1 1 0 1 1 1 0 1 1 1 0 1 0 1 1 
1 0 1 0 1 0 1 0 1 0 1 0 1 0 1 0 
1 0 1 0 1 0 1 0 1 0 1 0 1 -1 1 0 
1 0 1 0 1 0 1 0 1 0 1 0 1 0 1 0 
1 1 1 0 1 0 1 0 1 1 1 0 1 0 1 1 
1 0 1 0 1 1 1 0 1 0 1 1 1 0 1 0 
1 1 1 0 1 0 1 0 1 0 1 0 1 1 1 0 
1 0 1 0 1 -1 1 0 1 0 1 0 1 0 1 0 
1 0 1 0 1 0 1 0 1 0 1 0 1 0 1 0 
1 0 1 0 1 0 1 0 1 1 1 0 1 1 1 0 
1 1 1 0 1 1 1 0 1 1 1 1 1 0 1 1 
1 1 1 1 1 0 1 1 1 1 1 1 1 0 1 1 
1 1 1 0 1 1 1 1 1 0 1 1 1 0 1 1 
1 0 1 1 1 0 1 0 1 1 1 0 1 0 1 0 
1 0 1 0 1 0 1 0 1 0 1 0 1 0 1 0 
1 0 1 0 1 0 1 0 1 0 1 -1 1 0 1 0 
1 0 1 0 1 0 1 0 1 0 1 1 1 0 1 0 
1 0 1 1 1 0 1 0 1 0 1 1 1 0 1 1 
1 0 1 0 1 1 1 0 1 0 1 1 1 0 1 0 
1 0 1 0 1 0 1 1 1 0 1 0 1 0 1 -1 
1 0 1 0 1 0 1 0 1 0 1 0 1 0 1 0 
1 0 1 -1 1 0 1 0 1 1 1 0 1 0 1 0 
1 0 1 0 1 1 1 0 1 1 1 0 1 1 1 0 
1 1 1 0 1 1 1 1 1 1 1 0 1 1 1 1 
1 1 1 0 1 1 1 1 1 1 1 0 1 1 1 1 
1 0 1 1 1 1 1 0 1 1 1 0 1 1 1 0 
1 0 1 1 1 0 1 0 1 0 1 0 1 0 1 0 
1 0 1 0 1 0 1 0 1 0 1 0 1 0 1 0 
1 0 1 0 1 -1 2520 1503 300 MP stroke
1 0 1 0 1 0 1 0 1 0 1 0 1 0 1 0 
1 1 1 0 1 0 1 0 1 1 1 0 1 0 1 1 
1 0 1 0 1 1 1 0 1 0 1 1 1 0 1 0 
1 1 1 0 1 0 1 0 1 0 1 0 1 0 1 0 
1 0 1 0 1 0 1 0 1 0 1 0 1 0 1 0 
1 0 1 -1 1 0 1 0 1 0 1 0 1 0 1 0 
1 0 1 1 1 0 1 0 1 0 1 1 1 0 1 1 
1 0 1 1 1 0 1 1 1 1 1 0 1 1 1 1 
1 0 1 1 1 1 1 1 1 1 1 0 1 1 1 1 
1 1 1 0 1 1 1 1 1 0 1 1 1 0 1 1 
1 0 1 1 1 0 1 0 1 1 1 0 1 0 1 0 
1 0 1 0 1 0 1 0 1 0 1 0 1 0 1 0 
1 0 1 0 1 0 1 -1 1 0 1 0 1 0 1 0 
1 0 1 0 1 0 1 0 1 0 1 0 1 0 1 1 
1 0 1 0 1 0 1 1 1 0 1 0 1 1 1 0 
1 1 1 0 1 0 1 1 1 0 1 0 1 0 1 1 
1 0 1 0 1 0 1 0 1 0 1 0 1 0 1 0 
1 0 1 0 1 0 1 0 1 -1 1 0 1 0 1 0 
1 0 1 0 1 0 1 0 1 0 1 0 1 0 1 0 
1 0 1 1 1 0 1 0 1 1 1 0 1 1 1 0 
1 1 1 1 1 0 1 1 1 1 1 1 1 0 1 1 
1 1 1 1 1 0 1 1 1 1 1 1 1 1 1 0 
1 1 1 1 1 0 1 1 1 0 1 1 1 0 1 1 
1 0 1 0 1 0 1 1 1 0 1 0 1 0 1 0 
1 0 1 0 1 0 1 0 1 0 1 0 1 -1 1 0 
1 0 1 0 1 0 1 0 1 0 1 0 1 -1 1 0 
1 1 1 0 1 0 1 0 1 0 1 0 1 0 1 1 
1 0 1 0 1 1 1 0 1 0 1 1 1 0 1 1 
1 0 1 0 1 1 1 0 1 0 1 0 1 0 1 0 
1 1 1 0 1 0 1 0 1 -1 1 0 1 0 1 0 
1 0 1 0 1 0 1 -1 1 0 1 0 1 0 1 0 
1 0 1 0 1 0 1 0 1 0 1 0 1 1 1 0 
1 0 1 1 1 0 1 1 1 0 1 1 1 0 1 1 
1 1 1 1 1 0 1 1 1 1 1 1 1 1 1 0 
1 1 1 1 1 1 1 0 1 1 1 1 1 0 1 1 
1 1 1 0 1 1 1 0 1 1 1 0 1 0 1 1 
1 0 1 0 1 0 1 0 1 0 1 0 1 0 1 0 
1 0 1 0 1 0 2221 1428 300 MP stroke
1 0 1 0 1 -1 1 0 1 0 1 0 1 0 1 0 
1 0 1 0 1 0 1 0 1 0 1 0 1 0 1 0 
1 0 1 1 1 0 1 0 1 1 1 0 1 0 1 1 
1 0 1 0 1 1 1 0 1 0 1 1 1 0 1 0 
1 0 1 0 1 1 1 0 1 0 1 0 1 -1 1 0 
1 0 1 0 1 0 1 0 1 0 1 -1 1 0 1 0 
1 0 1 0 1 0 1 0 1 0 1 0 1 0 1 0 
1 0 1 0 1 1 1 0 1 1 1 0 1 1 1 0 
1 1 1 0 1 1 1 1 1 1 1 0 1 1 1 1 
1 1 1 1 1 0 1 1 1 1 1 1 1 1 1 0 
1 1 1 1 1 0 1 1 1 0 1 1 1 0 1 1 
1 0 1 0 1 1 1 0 1 0 1 0 1 0 1 0 
1 0 1 0 1 0 1 0 1 0 1 -1 1 0 1 0 
1 0 1 0 1 0 1 -1 1 0 1 0 1 0 1 0 
1 0 1 0 1 0 1 0 1 1 1 0 1 0 1 0 
1 1 1 0 1 0 1 1 1 0 1 0 1 1 1 0 
1 0 1 1 1 0 1 0 1 0 1 1 1 0 1 0 
1 0 1 0 1 0 1 0 1 0 1 0 1 -1 1 0 
1 0 1 0 1 0 1 -1 1 0 1 0 1 0 1 0 
1 0 1 0 1 0 1 0 1 0 1 0 1 0 1 0 
1 1 1 0 1 1 1 0 1 1 1 0 1 1 1 1 
1 0 1 1 1 1 1 1 1 0 1 1 1 1 1 1 
1 1 1 1 1 0 1 1 1 1 1 1 1 0 1 1 
1 0 1 1 1 1 1 0 1 0 1 1 1 0 1 0 
1 1 1 0 1 0 1 0 1 0 1 0 1 0 1 0 
1 0 1 0 1 -1 1 0 1 0 1 0 1 0 1 -1 
1 0 1 0 1 0 1 0 1 0 1 0 1 0 1 0 
1 0 1 0 1 0 1 0 1 0 1 1 1 0 1 0 
1 1 1 0 1 0 1 1 1 0 1 1 1 0 1 0 
1 0 1 1 1 0 1 0 1 0 1 0 1 0 1 0 
1 0 1 0 1 0 1 0 1 -1 1 0 1 0 1 0 
1 -1 1 0 1 0 1 0 1 0 1 -1 1 0 1 0 
1 0 1 0 1 0 1 1 1 0 1 0 1 1 1 0 
1 0 1 1 1 0 1 1 1 1 1 0 1 1 1 1 
1 1 1 0 1 1 1 1 1 1 1 1 1 1 1 0 
1 1 1 1 1 1 1 0 1 1 1 1 1 0 1 1 
1 0 1 1 1 0 1 0 1 1 1 0 1 0 1 0 
1 0 1 0 1 0 1922 1360 300 MP stroke
1 0 1 0 1 0 1 0 1 0 1 -1 1 0 1 0 
1 0 1 -1 1 0 1 0 1 0 1 0 1 -1 1 0 
1 0 1 0 1 0 1 0 1 1 1 0 1 0 1 0 
1 0 1 1 1 0 1 0 1 1 1 0 1 0 1 1 
1 0 1 0 1 0 1 1 1 0 1 0 1 0 1 0 
1 0 1 0 1 0 1 0 1 0 1 0 1 -1 1 0 
1 0 1 -1 1 0 1 0 1 0 1 -1 1 0 1 0 
1 0 1 0 1 -1 1 0 1 0 1 1 1 0 1 0 
1 0 1 1 1 0 1 0 1 1 1 0 1 1 1 1 
1 0 1 1 1 1 1 1 1 0 1 1 1 1 1 1 
1 1 1 0 1 1 1 1 1 1 1 0 1 1 1 1 
1 0 1 1 1 0 1 1 1 0 1 1 1 0 1 0 
1 0 1 0 1 0 1 0 1 0 1 0 1 0 1 0 
1 0 1 -1 1 0 1 0 1 0 1 -1 1 0 1 0 
1 -1 1 0 1 0 1 0 1 -1 1 0 1 0 1 0 
1 0 1 0 1 0 1 0 1 0 1 1 1 0 1 0 
1 0 1 1 1 0 1 0 1 1 1 0 1 0 1 0 
1 0 1 1 1 0 1 0 1 0 1 0 1 0 1 -1 
1 0 1 0 1 0 1 -1 1 0 1 0 1 -1 1 0 
1 0 1 -1 1 0 1 -1 1 0 1 0 1 0 1 -1 
1 0 1 0 1 0 1 0 1 0 1 0 1 0 1 1 
1 0 1 1 1 0 1 1 1 0 1 1 1 0 1 1 
1 1 1 1 1 0 1 1 1 1 1 1 1 0 1 1 
1 1 1 1 1 0 1 1 1 1 1 0 1 1 1 0 
1 0 1 1 1 0 1 0 1 0 1 1 1 0 1 0 
1 0 1 -1 1 0 1 0 1 0 1 -1 1 0 1 0 
1 -1 1 0 1 -1 1 0 1 -1 1 0 1 -1 1 0 
1 -1 1 0 1 0 1 0 1 -1 1 0 1 0 1 0 
1 0 1 0 1 0 1 0 1 0 1 0 1 0 1 1 
1 0 1 0 1 0 1 0 1 0 1 0 1 0 1 0 
1 0 1 0 1 0 1 0 1 -1 1 0 1 0 1 -1 
1 0 1 -1 1 0 1 -1 1 -1 1 0 1 -1 1 -1 
1 0 1 -1 1 0 1 -1 1 0 1 -1 1 0 1 0 
1 -1 1 0 1 0 1 0 1 0 1 0 1 1 1 0 
1 0 1 1 1 0 1 1 1 0 1 1 1 0 1 1 
1 1 1 0 1 1 1 1 1 0 1 1 1 0 1 1 
1 1 1 0 1 0 1 1 1 0 1 0 1 1 1 0 
1 0 1 0 1 0 1623 1335 300 MP stroke
1 -1 1 0 1 0 1 -1 1 0 1 -1 1 0 1 -1 
1 0 1 -1 1 -1 1 -1 1 -1 1 -1 1 0 1 -1 
1 -1 1 -1 1 -1 1 0 1 -1 1 -1 1 -1 1 0 
1 -1 1 0 1 -1 1 0 1 0 1 0 1 -1 1 0 
1 0 1 0 1 0 1 -1 1 0 1 0 1 0 1 0 
1 -1 1 0 1 -1 1 0 1 -1 1 0 1 -1 1 -1 
1 -1 1 -1 1 -1 1 -1 1 -1 1 -1 0 -1 2 -2 
1 -1 1 -1 0 -1 2 -2 1 -1 1 -1 1 -1 1 -1 
1 -1 1 -1 1 -1 1 -1 1 0 1 -1 1 0 1 0 
1 -1 1 0 1 0 1 0 1 0 1 0 1 0 1 1 
1 0 1 0 1 1 1 0 1 0 1 1 1 0 1 0 
1 0 1 1 1 0 1 0 1 0 1 0 1 0 1 0 
1 -1 1 0 1 -1 1 0 1 -1 1 -1 1 0 0 -1 
2 -2 1 -1 1 -1 1 -1 0 -2 2 -2 1 -1 0 -2 
2 -2 0 -1 2 -2 0 -2 2 -2 0 -2 2 -2 0 -2 
2 -2 1 -1 0 -2 2 -2 0 -1 2 -2 0 -1 2 -2 
1 -1 1 -1 1 -1 0 -1 2 -2 1 -1 1 -1 1 -1 
1 -1 1 -1 1 -1 1 -1 1 -1 0 -1 2 -2 0 -1 
2 -2 0 -1 2 -2 0 -2 2 -2 0 -2 2 -2 0 -2 
1 -1 0 -1 1 -1 0 -2 1 -1 0 -1 1 -1 0 -2 
1 -1 0 -2 1 -1 0 -3 2 -2 0 -2 1 -1 0 -2 
1 -1 0 -2 1 -1 0 -3 2 -2 0 -3 2 -2 0 -3 
2 -2 0 -2 2 -2 0 -2 2 -2 0 -1 2 -2 1 -1 
1 -1 1 -1 1 -1 1 -1 1 -1 1 0 1 -1 1 -1 
1 0 1 -1 1 0 1 -1 1 0 1 -1 1 0 1 -1 
1 -1 1 -1 1 0 -1 0 2 -2 1 -1 1 -1 0 -1 
2 -2 0 -2 2 -2 0 -2 2 -2 0 -2 1 -1 0 -1 
1 -1 0 -2 1 -1 0 -2 1 -1 0 -2 1 -1 0 -2 
1 -1 0 -2 1 -1 0 -3 1 -1 0 -3 1 -1 0 -3 
1 -1 0 -3 1 -1 0 -3 1 -1 0 -3 1 -1 0 -3 
1 -1 0 -3 1 -1 0 -3 1 -1 0 -3 1 -1 0 -3 
1 -1 0 -3 1 -1 0 -3 1 -1 0 -3 1 -1 0 -3 
1 -1 0 -3 1 -1 0 -3 1 -1 0 -2 1 -1 0 -3 
1 -1 0 -2 1 -1 0 -2 1 -1 0 -2 1 -1 0 -2 
1 -1 0 -2 1 -1 0 -2 1 -1 0 -2 1 -1 0 -2 
1 -1 0 -2 1 -1 0 -2 1 -1 0 -1 1 -1 0 -2 
1 -1 0 -3 1 -1 0 -2 1 -1 0 -2 1 -1 0 -2 
1 -1 0 -3 1 -1 1377 1688 300 MP stroke
0 -3 1 -1 0 -3 1 -1 0 -3 1 -1 0 -4 1 -1 
0 -3 1 -1 0 -4 1 -1 0 -4 1 -1 0 -4 1 -1 
0 -4 1 -1 0 -4 1 -1 0 -5 1 -1 0 -4 1 -1 
0 -5 1 -1 0 -5 1 -1 0 -4 1 -1 0 -5 1 -1 
0 -5 1 -1 0 -4 1 -1 0 -4 1 -1 0 -5 1 -1 
0 -4 1 -1 0 -4 1 -1 0 -3 1 -1 0 -4 1 -1 
0 -3 1 -1 0 -3 1 -1 0 -3 1 -1 0 -2 1 -1 
0 -3 1 -1 0 -2 1 -1 0 -2 1 -1 0 -2 1 -1 
0 -2 2 -2 0 -2 1 -1 0 -2 2 -2 0 -2 2 -2 
0 -1 2 -2 0 -2 2 -2 1 -1 0 -2 2 -2 0 -2 
1 -1 0 -2 2 -2 0 -2 1 -1 0 -1 1 -1 0 -2 
1 -1 0 -2 1 -1 0 -2 1 -1 0 -2 1 -1 0 -3 
1 -1 0 -3 1 -1 0 -3 1 -1 0 -3 1 -1 0 -4 
1 -1 0 -3 1 -1 0 -4 1 -1 0 -4 1 -1 0 -4 
1 -1 0 -5 1 -1 0 -4 1 -1 0 -5 1 -1 0 -5 
1 -1 0 -5 1 -1 0 -5 1 -1 0 -5 1 -1 0 -5 
1 -1 0 -5 1 -1 0 -5 1 -1 0 -5 1 -1 0 -5 
1 -1 0 -5 1 -1 0 -5 1 -1 0 -5 1 -1 0 -4 
1 -1 0 -5 1 -1 0 -4 1 -1 0 -4 1 -1 0 -4 
1 -1 0 -4 1 -1 0 -4 1 -1 0 -3 1 -1 0 -4 
1 -1 0 -3 1 -1 0 -3 1 -1 0 -3 1 -1 0 -3 
1 -1 0 -3 1 -1 0 -4 1 -1 0 -3 1 -1 0 -3 
1 -1 0 -3 1 -1 0 -3 1 -1 0 -4 1 -1 0 -3 
1 -1 0 -4 1 -1 0 -4 1 -1 0 -4 1 -1 0 -4 
1 -1 0 -4 1 -1 0 -5 1 -1 0 -5 1 -1 0 -5 
1 -1 0 -4 1 -1 0 -6 1 -1 0 -5 1 -1 0 -5 
1 -1 0 -6 1 -1 0 -5 1 -1 0 -5 1 -1 0 -6 
1 -1 0 -5 1 -1 0 -5 1 -1 0 -5 1 -1 0 -5 
1 -1 0 -5 1 -1 0 -4 1 -1 0 -4 1 -1 0 -4 
1 -1 0 -4 1 -1 0 -4 1 -1 0 -3 1 -1 0 -3 
1 -1 0 -3 1 -1 0 -3 1 -1 0 -2 1 -1 0 -3 
1 -1 0 -1 1 -1 0 -2 1 -1 0 -2 1 -1 0 -1 
1 -1 0 -2 1 -1 0 -2 2 -2 0 -2 2 -2 0 -2 
2 -2 0 -1 1 -1 0 -1 1 -1 0 -1 1 -1 0 -1 
1 -1 0 -1 1 -1 0 -1 1 -1 0 -2 2 -2 0 -3 
2 -2 0 -2 1 -1 0 -2 1 -1 0 -2 1 -1 0 -2 
1 -1 0 -3 1 -1 0 -2 1 -1 0 -3 1 -1 0 -2 
1 -1 0 -3 1 -1 1215 2359 300 MP stroke
0 -3 1 -1 0 -3 1 -1 0 -3 1 -1 0 -4 1 -1 
0 -3 1 -1 0 -4 1 -1 0 -4 1 -1 0 -3 1 -1 
0 -4 1 -1 0 -3 1 -1 0 -4 1 -1 0 -4 1 -1 
0 -4 1 -1 0 -3 1 -1 0 -4 1 -1 0 -3 1 -1 
0 -3 1 -1 0 -3 1 -1 0 -3 1 -1 0 -3 1 -1 
0 -3 1 -1 0 -3 1 -1 0 -2 1 -1 0 -3 1 -1 
0 -2 1 -1 0 -3 1 -1 0 -2 1 -1 0 -2 1 -1 
0 -2 1 -1 0 -2 1 -1 0 -2 1 -1 0 -2 1 -1 
0 -1 1 -1 0 -2 1 -1 0 -2 1 -1 0 -2 1 -1 
0 -2 1 -1 0 -2 1 -1 0 -2 1 -1 0 -2 1 -1 
0 -2 1 -1 0 -2 1 -1 0 -3 1 -1 0 -2 1 -1 
0 -3 1 -1 0 -3 1 -1 0 -2 1 -1 0 -3 1 -1 
0 -3 1 -1 0 -3 1 -1 0 -3 1 -1 0 -2 1 -1 
0 -3 1 -1 0 -3 1 -1 0 -3 1 -1 0 -3 1 -1 
0 -3 1 -1 0 -2 1 -1 0 -3 1 -1 0 -2 1 -1 
0 -2 1 -1 0 -3 1 -1 0 -1 1 -1 0 -2 1 -1 
0 -2 1 -1 0 -2 1 -1 0 -2 2 -2 0 -2 1 -1 
0 -1 1 -1 1 -1 0 -2 2 -2 0 -1 2 -2 1 -1 
0 -1 2 -2 1 -1 1 -1 1 -1 1 -1 1 -1 1 -1 
0 -1 2 -2 1 -1 1 -1 1 -1 0 -1 2 -2 0 -1 
2 -2 0 -1 2 -2 0 -1 2 -2 0 -2 2 -2 0 -2 
2 -2 0 -2 2 -2 0 -2 2 -2 0 -2 1 -1 0 -2 
2 -2 0 -3 2 -2 0 -2 1 -1 0 -2 2 -2 0 -2 
1 -1 0 -1 1 -1 0 -2 2 -2 0 -2 1 -1 0 -1 
1 -1 0 -1 1 -1 0 -2 2 -2 0 -1 1 -1 1 -1 
0 -2 2 -2 0 -1 2 -2 0 -1 2 -2 0 -1 2 -2 
0 -1 2 -2 1 -1 0 -1 2 -2 0 -1 2 -2 0 -1 
2 -2 0 -1 2 -2 1 -1 0 -2 2 -2 0 -1 2 -2 
0 -2 2 -2 1 -1 0 -2 2 -2 0 -2 2 -2 1 -1 
0 -2 2 -2 1 -1 0 -2 2 -2 0 -1 2 -2 0 -1 
2 -2 1 -1 1 -1 1 -1 1 -1 1 -1 1 -1 1 -1 
1 -1 1 -1 1 0 1 -1 1 -1 1 0 1 -1 1 0 
1 -1 1 0 1 -1 1 0 1 -1 1 0 1 -1 1 0 
1 -1 1 0 1 -1 1 -1 1 0 1 -1 1 -1 1 0 
1 -1 1 -1 1 0 1 -1 1 -1 1 -1 1 -1 1 -1 
1 -1 1 -1 1 -1 1 -1 1 -1 1 -1 1 -1 1 -1 
1 -1 1 -1 1 -1 1 -1 1 -1 1 -1 1 -1 1 -1 
1 -1 1 -1 1 0 992 2816 300 MP stroke
1 -1 1 -1 1 -1 1 -1 1 0 1 -1 1 -1 1 0 
1 -1 1 -1 1 0 1 -1 1 0 1 -1 1 -1 1 0 
1 -1 1 0 1 -1 1 -1 1 0 1 -1 1 -1 1 0 
1 -1 1 -1 1 -1 1 0 1 -1 1 -1 1 -1 1 -1 
1 0 1 -1 1 -1 1 -1 1 0 1 -1 1 -1 1 0 
1 -1 1 -1 1 0 1 -1 1 0 1 -1 1 0 1 -1 
1 0 1 0 1 -1 1 0 1 0 1 -1 1 0 1 0 
1 0 1 -1 1 0 1 0 1 0 1 -1 1 0 1 0 
1 0 1 0 1 -1 1 0 1 0 1 0 1 -1 1 0 
1 0 1 0 1 -1 1 0 1 0 1 -1 1 0 1 0 
1 -1 1 0 1 0 1 -1 1 0 1 0 1 -1 1 0 
1 -1 1 0 1 0 1 -1 1 0 1 -1 1 0 1 0 
1 -1 1 0 1 0 1 -1 1 0 1 -1 1 0 1 0 
1 -1 1 0 1 0 1 0 1 -1 1 0 1 0 1 -1 
1 0 1 0 1 0 1 -1 1 0 1 0 1 -1 1 0 
1 0 1 0 1 -1 1 0 1 0 1 -1 1 0 1 -1 
1 0 1 0 1 -1 1 0 1 -1 1 0 1 0 1 -1 
1 0 1 -1 1 0 1 0 1 -1 1 0 1 0 1 -1 
1 0 1 0 1 0 1 0 1 0 1 -1 1 1 1 0 
1 0 1 0 1 0 1 0 1 0 1 0 1 0 1 0 
1 0 1 0 1 0 1 0 1 0 1 0 1 0 1 0 
1 0 1 0 1 0 1 0 1 0 1 0 1 0 1 0 
1 0 1 0 1 0 1 0 1 0 1 0 1 0 1 0 
1 0 1 0 1 0 1 0 1 0 1 0 1 0 1 0 
1 0 1 0 1 0 1 0 1 0 1 0 1 0 1 0 
1 0 1 0 1 0 789 2880 204 MP stroke
/c10 { 1.000000 0.000000 0.000000 sr} bdef
c10
1 0 0 -1 2 -2 1 -1 0 -1 2 -2 1 -1 0 -1 
2 -2 0 -1 2 -2 1 -1 0 -1 2 -2 0 -1 2 -2 
1 -1 0 -1 2 -2 1 -1 0 -1 2 -2 0 -1 2 -2 
1 -1 0 -1 2 -2 1 -1 0 -1 2 -2 0 -1 2 -2 
1 -1 0 -1 2 -2 1 -1 0 -1 2 -2 0 -1 2 -2 
1 -1 0 -1 2 -2 0 -1 2 -2 1 -1 0 -1 2 -2 
1 -1 0 -1 2 -2 0 -1 2 -2 1 -1 0 -1 2 -2 
1 -1 0 -1 2 -2 0 -1 2 -2 1 -1 0 -1 2 -2 
0 -1 2 -2 1 -1 0 -1 2 -2 0 -1 2 -2 1 -1 
0 -1 2 -2 0 -1 2 -2 1 -1 0 -1 2 -2 0 -1 
2 -2 1 -1 0 -1 2 -2 1 -1 0 -1 2 -2 0 -1 
2 -2 0 -1 2 -2 1 -1 0 -1 2 -2 0 -1 2 -2 
1 -1 0 -1 2 -2 0 -1 2 -2 1 -1 0 -1 2 -2 
0 -1 2 -2 1 -1 0 -1 2 -2 0 -1 2 -2 1 -1 
0 -1 2 -2 1 -1 0 -1 2 -2 0 -1 2 -2 1 -1 
0 -1 2 -2 0 -1 2 -2 0 -1 2 -2 1 -1 0 -1 
2 -2 0 -1 2 -2 1 -1 0 -1 2 -2 0 -1 2 -2 
1 -1 0 -1 2 -2 0 -1 2 -2 1 -1 0 -1 2 -2 
0 -1 2 -2 1 -1 0 -1 2 -2 0 -1 2 -2 1 -1 
0 -1 2 -2 0 -1 2 -2 1 -1 0 -1 2 -2 0 -1 
2 -2 1 -1 0 -1 2 -2 0 -1 2 -2 1 -1 0 -1 
2 -2 0 -1 2 -2 0 -1 2 -2 1 -1 0 -1 2 -2 
0 -1 2 -2 0 -1 2 -2 1 -1 0 -1 2 -2 0 -1 
2 -2 1 -1 0 -1 2 -2 0 -1 2 -2 0 -1 2 -2 
1 -1 0 -1 2 -2 0 -1 2 -2 0 -1 2 -2 1 -1 
0 -1 2 -2 0 -1 2 -2 1 -1 0 -1 2 -2 0 -1 
2 -2 1 -1 0 -1 2 -2 0 -1 2 -2 0 -1 2 -2 
1 -1 0 -1 2 -2 0 -1 2 -2 0 -1 2 -2 0 -1 
2 -2 1 -1 0 -1 2 -2 0 -1 2 -2 1 -1 0 -1 
2 -2 0 -1 2 -2 1 -1 0 -1 2 -2 0 -1 2 -2 
0 -1 2 -2 1 -1 0 -1 2 -2 0 -1 2 -2 0 -1 
2 -2 1 -1 0 -1 2 -2 0 -1 2 -2 0 -1 2 -2 
1 -1 0 -1 2 -2 0 -1 2 -2 0 -1 2 -2 1 -1 
0 -1 2 -2 0 -1 2 -2 0 -1 2 -2 1 -1 0 -1 
2 -2 0 -1 2 -2 0 -1 2 -2 1 -1 0 -1 2 -2 
0 -1 2 -2 0 -1 2 -2 0 -1 2 -2 1 -1 0 -1 
2 -2 0 -1 2 -2 0 -1 2 -2 0 -1 2 -2 1 -1 
0 -1 2 -2 0 -1 2521 832 300 MP stroke
2 -2 0 -1 2 -2 1 -1 0 -1 2 -2 0 -1 2 -2 
0 -1 2 -2 0 -1 2 -2 1 -1 0 -1 2 -2 0 -1 
2 -2 0 -1 2 -2 0 -1 2 -2 0 -1 2 -2 1 -1 
0 -1 2 -2 0 -1 2 -2 1 -1 0 -1 2 -2 0 -1 
2 -2 0 -1 2 -2 0 -1 2 -2 0 -1 2 -2 1 -1 
0 -1 2 -2 0 -1 2 -2 0 -1 2 -2 1 -1 0 -1 
2 -2 0 -1 2 -2 0 -1 2 -2 0 -1 2 -2 0 -1 
2 -2 1 -1 0 -1 2 -2 0 -1 2 -2 0 -1 2 -2 
1 -1 0 -1 2 -2 0 -1 2 -2 0 -1 2 -2 0 -1 
2 -2 0 -1 2 -2 0 -1 2 -2 1 -1 0 -1 2 -2 
0 -1 2 -2 0 -1 2 -2 0 -1 2 -2 0 -1 2 -2 
1 -1 0 -1 2 -2 0 -1 2 -2 0 -1 2 -2 0 -1 
2 -2 0 -1 2 -2 0 -1 2 -2 1 -1 0 -1 2 -2 
0 -1 2 -2 0 -1 2 -2 0 -1 2 -2 0 -1 2 -2 
1 -1 0 -1 2 -2 0 -1 2 -2 0 -1 2 -2 0 -1 
2 -2 0 -1 2 -2 0 -1 2 -2 1 -1 0 -1 2 -2 
0 -1 2 -2 0 -1 2 -2 0 -1 2 -2 0 -1 2 -2 
0 -1 2 -2 0 -1 2 -2 1 -1 0 -1 2 -2 0 -1 
2 -2 0 -1 2 -2 0 -1 2 -2 0 -1 2 -2 0 -1 
2 -2 1 -1 0 -1 2 -2 0 -1 2 -2 0 -1 2 -2 
0 -1 2 -2 0 -1 2 -2 0 -1 2 -2 0 -1 2 -2 
1 -1 0 -1 2 -2 0 -1 2 -2 0 -1 2 -2 0 -1 
2 -2 0 -1 2 -2 0 -1 2 -2 0 -1 2 -2 0 -1 
2 -2 0 -1 2 -2 0 -1 2 -2 0 -1 2 -2 1 -1 
0 -1 2 -2 0 -1 2 -2 0 -1 2 -2 0 -1 2 -2 
0 -1 2 -2 0 -1 2 -2 0 -1 2 -2 0 -1 2 -2 
0 -1 2 -2 0 -1 2 -2 0 -1 2 -2 0 -1 2 -2 
0 -1 2 -2 1 -1 0 -1 2 -2 1 -1 0 -2 2 -2 
1 -1 0 -1 2 -2 0 -1 2 -2 0 -1 2 -2 0 -1 
2 -2 0 -1 2 -2 0 -1 2 -2 0 -1 2 -2 0 -1 
2 -2 0 -1 2 -2 0 -1 2 -2 0 -1 2 -2 1 -1 
1 -1 0 -2 2 -2 1 -1 0 -1 2 -2 0 -1 2 -2 
0 -1 2 -2 0 -1 2 -2 0 -1 2 -2 0 -1 2 -2 
0 -1 2 -2 0 -1 2 -2 0 -1 2 -2 0 -1 2 -2 
0 -1 2 -2 0 -1 2 -2 0 -1 2 -2 0 -1 2 -2 
0 -1 2 -2 0 -1 2 -2 0 -1 2 -2 0 -1 2 -2 
0 -1 2 -2 0 -1 2 -2 0 -1 2 -2 0 -1 2 -2 
0 -1 2 -2 0 -1 2222 1271 300 MP stroke
2 -2 0 -1 2 -2 0 -1 2 -2 0 -1 2 -2 0 -1 
2 -2 0 -1 2 -2 0 -1 2 -2 0 -1 2 -2 0 -1 
2 -2 0 -1 2 -2 0 -1 2 -2 0 -1 2 -2 0 -1 
2 -2 0 -1 2 -2 0 -1 2 -2 0 -1 2 -2 0 -1 
2 -2 0 -1 2 -2 0 -1 2 -2 0 -1 2 -2 0 -1 
2 -2 0 -1 2 -2 0 -1 2 -2 0 -1 2 -2 0 -1 
2 -2 0 -1 2 -2 0 -1 2 -2 0 -1 2 -2 0 -1 
2 -2 0 -1 2 -2 0 -1 2 -2 0 -1 2 -2 0 -1 
2 -2 0 -1 2 -2 0 -1 2 -2 0 -1 2 -2 0 -1 
2 -2 0 -1 2 -2 0 -1 2 -2 1 -1 0 -2 2 -2 
0 -1 2 -2 0 -1 2 -2 0 -1 2 -2 0 -1 2 -2 
0 -1 2 -2 0 -1 2 -2 0 -1 2 -2 0 -1 2 -2 
0 -1 2 -2 0 -1 2 -2 1 -1 0 -2 2 -2 0 -1 
2 -2 0 -1 2 -2 0 -1 2 -2 0 -1 2 -2 0 -1 
2 -2 0 -1 2 -2 0 -1 2 -2 0 -1 2 -2 0 -1 
2 -2 0 -1 2 -2 0 -1 2 -2 1 -1 0 -2 2 -2 
0 -1 2 -2 0 -1 2 -2 0 -1 2 -2 0 -1 2 -2 
0 -1 2 -2 0 -1 2 -2 0 -1 2 -2 0 -1 2 -2 
0 -1 2 -2 0 -1 2 -2 0 -1 2 -2 1 -1 0 -2 
2 -2 0 -1 2 -2 0 -1 2 -2 0 -1 2 -2 0 -1 
2 -2 0 -1 2 -2 0 -1 2 -2 0 -1 2 -2 0 -1 
2 -2 1 -1 0 -2 2 -2 0 -1 2 -2 0 -1 2 -2 
0 -1 2 -2 0 -1 2 -2 0 -1 2 -2 0 -1 2 -2 
1 -1 0 -2 2 -2 0 -1 2 -2 0 -1 2 -2 0 -1 
2 -2 0 -1 2 -2 0 -1 2 -2 1 -1 0 -2 2 -2 
0 -1 2 -2 0 -1 2 -2 0 -1 2 -2 0 -1 2 -2 
0 -1 2 -2 1 -1 0 -2 2 -2 0 -1 2 -2 0 -1 
2 -2 0 -1 2 -2 0 -1 2 -2 0 -1 2 -2 1 -1 
0 -2 2 -2 0 -1 2 -2 0 -1 2 -2 0 -1 2 -2 
0 -1 2 -2 1 -1 0 -2 2 -2 0 -1 2 -2 0 -1 
2 -2 0 -1 2 -2 0 -1 2 -2 0 -1 2 -2 0 -1 
2 -2 1 -1 0 -2 2 -2 0 -1 2 -2 0 -1 2 -2 
0 -1 2 -2 0 -1 2 -2 1 -1 0 -2 2 -2 0 -1 
2 -2 0 -1 2 -2 0 -1 2 -2 0 -1 2 -2 1 -1 
0 -2 2 -2 0 -1 2 -2 0 -1 2 -2 0 -1 2 -2 
0 -1 2 -2 1 -1 0 -2 2 -2 0 -1 2 -2 0 -1 
2 -2 0 -1 2 -2 1 -1 0 -2 2 -2 0 -1 2 -2 
0 -1 2 -2 0 -1 1923 1727 300 MP stroke
2 -2 1 -1 0 -2 2 -2 0 -1 2 -2 0 -1 2 -2 
1 -1 0 -2 2 -2 0 -1 2 -2 0 -1 2 -2 0 -1 
2 -2 1 -1 0 -2 2 -2 0 -1 2 -2 0 -1 2 -2 
0 -1 2 -2 1 -1 0 -2 2 -2 0 -1 2 -2 0 -1 
2 -2 1 -1 0 -2 2 -2 0 -1 2 -2 0 -1 2 -2 
0 -1 2 -2 0 -1 2 -2 1 -1 0 -2 2 -2 0 -1 
2 -2 0 -1 2 -2 1 -1 0 -2 2 -2 0 -1 2 -2 
0 -1 2 -2 0 -1 2 -2 0 -1 2 -2 1 -1 0 -2 
2 -2 0 -1 2 -2 0 -1 2 -2 1 -1 0 -2 2 -2 
0 -1 2 -2 0 -1 2 -2 0 -1 2 -2 1 -1 0 -2 
2 -2 0 -1 2 -2 0 -1 2 -2 1 -1 0 -2 2 -2 
0 -1 2 -2 0 -1 2 -2 1 -1 0 -2 2 -2 0 -1 
2 -2 0 -1 2 -2 0 -1 2 -2 1 -1 0 -2 2 -2 
0 -1 2 -2 1 -1 0 -2 2 -2 0 -1 2 -2 0 -1 
2 -2 1 -1 0 -2 2 -2 0 -1 2 -2 0 -1 2 -2 
1 -1 0 -2 2 -2 0 -1 2 -2 0 -1 2 -2 1 -1 
0 -2 2 -2 0 -1 2 -2 0 -1 2 -2 1 -1 0 -2 
2 -2 0 -1 2 -2 0 -1 2 -2 1 -1 0 -2 2 -2 
0 -1 2 -2 0 -1 2 -2 1 -1 0 -2 2 -2 0 -1 
2 -2 0 -1 2 -2 0 -1 2 -2 1 -1 0 -2 2 -2 
0 -1 2 -2 0 -1 2 -2 1 -1 0 -2 2 -2 0 -1 
2 -2 0 -1 2 -2 1 -1 0 -2 2 -2 0 -1 2 -2 
0 -1 2 -2 1 -1 0 -2 2 -2 0 -1 2 -2 0 -1 
2 -2 1 -1 0 -2 2 -2 0 -1 2 -2 1 -1 0 -2 
2 -2 0 -1 2 -2 0 -1 2 -2 1 -1 0 -2 2 -2 
0 -1 2 -2 1 -1 0 -2 2 -2 0 -1 2 -2 0 -1 
2 -2 1 -1 0 -2 2 -2 0 -1 2 -2 1 -1 0 -2 
2 -2 0 -1 2 -2 0 -1 2 -2 0 -1 2 -2 1 -1 
0 -2 2 -2 0 -1 2 -2 1 -1 0 -2 2 -2 0 -1 
2 -2 1 -1 0 -2 2 -2 0 -1 2 -2 0 -1 2 -2 
0 -1 2 -2 1 -1 0 -2 2 -2 0 -1 2 -2 0 -1 
2 -2 1 -1 0 -2 2 -2 0 -1 2 -2 0 -1 2 -2 
1 -1 0 -2 2 -2 0 -1 2 -2 0 -1 2 -2 1 -1 
0 -2 2 -2 0 -1 2 -2 0 -1 2 -2 0 -1 2 -2 
1 -1 0 -2 2 -2 0 -1 2 -2 0 -1 2 -2 1 -1 
0 -2 2 -2 0 -1 2 -2 0 -1 2 -2 1 -1 0 -2 
2 -2 0 -1 2 -2 1 -1 0 -2 2 -2 0 -1 2 -2 
0 -1 2 -2 1 -1 1623 2196 300 MP stroke
0 -2 2 -2 0 -1 2 -2 0 -1 2 -2 1 -1 0 -2 
2 -2 0 -1 2 -2 0 -1 2 -2 1 -1 0 -2 2 -2 
0 -1 2 -2 0 -1 2 -2 1 -1 0 -2 2 -2 0 -1 
2 -2 0 -1 2 -2 1 -1 0 -2 2 -2 0 -1 2 -2 
0 -1 2 -2 1 -1 0 -2 2 -2 0 -1 2 -2 0 -1 
2 -2 0 -1 2 -2 0 -1 2 -2 1 -1 0 -2 2 -2 
0 -1 2 -2 0 -1 2 -2 0 -1 2 -2 0 -1 2 -2 
1 -1 0 -2 2 -2 0 -1 2 -2 0 -1 2 -2 0 -1 
2 -2 0 -1 2 -2 0 -1 2 -2 1 -1 0 -2 2 -2 
0 -1 2 -2 0 -1 2 -2 0 -1 2 -2 0 -1 2 -2 
0 -1 2 -2 1 -1 0 -2 2 -2 0 -1 2 -2 0 -1 
2 -2 0 -1 2 -2 0 -1 2 -2 0 -1 2 -2 1 -1 
0 -2 2 -2 0 -1 2 -2 0 -1 2 -2 0 -1 2 -2 
0 -1 2 -2 0 -1 2 -2 0 -1 2 -2 1 -1 0 -2 
2 -2 0 -1 2 -2 0 -1 2 -2 0 -1 2 -2 0 -1 
2 -2 0 -1 2 -2 0 -1 2 -2 0 -1 2 -2 0 -1 
2 -2 0 -1 2 -2 0 -1 2 -2 0 -1 2 -2 0 -1 
2 -2 0 -1 2 -2 0 -1 2 -2 0 -1 2 -2 1 -1 
0 -1 2 -2 0 -1 2 -2 0 -1 2 -2 0 -1 2 -2 
0 -1 2 -2 0 -1 2 -2 0 -1 2 -2 1 -1 0 -1 
2 -2 0 -1 2 -2 0 -1 2 -2 1 -1 0 -1 2 -2 
0 -1 2 -2 0 -1 2 -2 1 -1 0 -1 2 -2 0 -1 
2 -2 0 -1 2 -2 1 -1 0 -1 2 -2 0 -1 2 -2 
0 -1 2 -2 1 -1 0 -1 2 -2 0 -1 2 -2 1 -1 
0 -1 2 -2 0 -1 2 -2 1 -1 0 -1 2 -2 0 -1 
2 -2 1 -1 0 -1 2 -2 0 -1 2 -2 1 -1 0 -1 
2 -2 0 -1 2 -2 1 -1 0 -1 2 -2 1 -1 0 -1 
2 -2 0 -1 2 -2 1 -1 0 -1 2 -2 1 -1 0 -1 
2 -2 1 -1 1 -1 0 -1 2 -2 1 -1 0 -1 2 -2 
1 -1 0 -1 2 -2 1 -1 0 -1 2 -2 1 -1 1 -1 
0 -1 2 -2 1 -1 0 -1 2 -2 1 -1 1 -1 0 -1 
2 -2 1 -1 1 -1 0 -1 2 -2 1 -1 1 -1 1 -1 
0 -1 2 -2 1 -1 1 -1 0 -1 2 -2 1 -1 1 -1 
1 -1 1 -1 0 -1 2 -2 1 -1 1 -1 1 -1 1 -1 
0 -1 2 -2 1 -1 1 -1 1 -1 1 -1 1 -1 0 -1 
2 -2 1 -1 1 -1 1 -1 1 -1 1 -1 0 -1 2 -2 
1 -1 1 -1 1 -1 1 -1 1 -1 1 -1 0 -1 2 -2 
1 -1 1 -1 1 -1 1324 2622 300 MP stroke
1 -1 1 -1 1 -1 1 -1 1 -1 0 -1 2 -2 1 -1 
1 -1 1 -1 1 -1 1 -1 1 -1 1 -1 1 -1 1 -1 
1 -1 1 -1 1 -1 1 -1 1 -1 1 -1 1 -1 1 -1 
1 -1 1 -1 1 -1 1 -1 1 -1 1 -1 1 -1 1 -1 
1 -1 1 -1 1 -1 1 -1 1 -1 1 -1 1 -1 1 -1 
1 -1 1 -1 1 -1 1 -1 1 -1 1 -1 1 0 1 -1 
1 -1 1 -1 1 -1 1 -1 1 -1 1 -1 1 -1 1 0 
1 -1 1 -1 1 -1 1 -1 1 -1 1 -1 1 0 1 -1 
1 -1 1 -1 1 -1 1 -1 1 0 1 -1 1 -1 1 -1 
1 0 1 -1 1 -1 1 -1 1 -1 1 0 1 -1 1 -1 
1 -1 1 0 1 -1 1 -1 1 -1 1 -1 1 0 1 -1 
1 -1 1 -1 1 0 1 -1 1 -1 1 -1 1 0 1 -1 
1 -1 1 -1 1 0 1 -1 1 -1 1 -1 1 0 1 -1 
1 -1 1 -1 1 0 1 -1 1 -1 1 0 1 -1 1 -1 
1 -1 1 0 1 -1 1 -1 1 0 1 -1 1 -1 1 -1 
1 0 1 -1 1 -1 1 0 1 -1 1 -1 1 0 1 -1 
1 -1 1 0 1 -1 1 0 1 -1 1 -1 1 0 1 -1 
1 -1 1 0 1 -1 1 -1 1 0 1 -1 1 0 1 -1 
1 -1 1 0 1 -1 1 0 1 -1 1 -1 1 0 1 -1 
1 0 1 -1 1 -1 1 0 1 -1 1 0 1 -1 1 0 
1 -1 1 -1 1 0 1 -1 1 0 1 -1 1 0 1 -1 
1 0 1 -1 1 0 1 -1 1 -1 1 0 1 -1 1 0 
1 -1 1 0 1 -1 1 0 1 -1 1 0 1 -1 1 0 
1 -1 1 0 1 -1 1 0 1 -1 1 0 1 -1 1 0 
1 -1 1 0 1 -1 1 0 1 -1 1 -1 1 0 1 -1 
1 0 1 -1 1 0 1 -1 1 0 1 -1 1 0 1 -1 
1 0 1 -1 1 0 1 -1 1 0 1 -1 1 0 1 0 
1 -1 1 0 1 -1 1 0 1 -1 1 0 1 -1 1 0 
1 -1 1 0 1 -1 1 0 1 -1 1 0 1 -1 1 0 
1 -1 1 0 1 0 1 -1 1 0 1 -1 1 0 1 -1 
1 0 1 -1 1 0 1 0 1 -1 1 0 1 -1 1 0 
1 -1 1 0 1 -1 1 0 1 0 1 -1 1 0 1 -1 
1 0 1 -1 1 0 1 0 1 -1 1 0 1 -1 1 0 
1 0 1 -1 1 0 1 -1 1 0 1 -1 1 0 1 0 
1 -1 1 0 1 -1 1 0 1 0 1 -1 1 0 1 -1 
1 0 1 0 1 -1 1 0 1 -1 1 0 1 0 1 -1 
1 0 1 -1 1 0 1 0 1 -1 1 0 1 -1 1 0 
1 0 1 -1 1 0 1025 2816 300 MP stroke
1 -1 1 0 1 0 1 -1 1 0 1 0 1 -1 1 0 
1 -1 1 0 1 0 1 -1 1 0 1 -1 1 0 1 0 
1 -1 1 0 1 -1 1 0 1 0 1 -1 1 0 1 0 
1 -1 1 0 1 -1 1 0 1 0 1 -1 1 0 1 -1 
1 0 1 0 1 -1 1 0 1 0 1 -1 1 0 1 0 
1 -1 1 0 1 -1 1 0 1 0 1 -1 1 0 1 0 
1 -1 1 0 1 -1 1 0 1 0 1 -1 1 0 1 0 
1 -1 1 0 1 0 1 -1 1 0 1 -1 1 0 1 0 
1 -1 1 0 1 0 1 -1 1 0 1 0 1 -1 1 0 
1 0 1 -1 1 0 1 0 1 -1 1 0 1 -1 1 0 
1 0 1 -1 1 0 1 0 1 -1 1 0 1 0 1 -1 
1 0 1 0 1 -1 1 0 1 0 1 -1 1 0 1 0 
1 -1 1 0 1 0 1 -1 1 0 1 -1 1 0 1 0 
1 -1 1 0 1 0 1 -1 1 0 1 0 1 -1 1 0 
1 0 1 -1 1 0 1 0 1 -1 1 0 1 0 1 -1 
1 0 1 0 1 -1 1 0 1 0 1 -1 1 0 1 0 
1 -1 1 0 1 0 1 -1 1 0 1 0 1 -1 1 0 
1 -1 1 0 1 0 1 -1 1 0 1 0 1 -1 1 0 
1 0 1 -1 1 0 1 0 1 -1 1 0 1 0 1 -1 
1 0 1 0 1 -1 1 0 1 0 1 -1 1 0 1 0 
1 -1 1 0 1 0 1 -1 1 0 1 0 1 -1 1 0 
1 0 1 -1 1 0 1 0 1 -1 1 0 1 0 1 0 
1 -1 1 0 1 0 1 -1 1 0 1 0 1 -1 1 0 
1 0 1 -1 1 0 1 0 1 -1 1 0 1 0 1 -1 
1 0 1 0 1 -1 1 0 1 0 1 -1 1 0 1 0 
1 -1 1 0 1 0 1 -1 1 0 1 0 1 -1 1 0 
1 0 1 -1 1 0 1 0 1 -1 1 0 1 0 1 -1 
1 0 1 0 1 -1 1 0 1 0 1 -1 1 0 1 0 
1 -1 1 0 1 0 1 -1 1 0 1 0 1 -1 1 0 
1 0 1 -1 1 0 1 0 -1 0 790 2898 238 MP stroke
gr

24 w
c10
0 sg
1655 3187 mt 
(Years) s
 472 1718 mt  -90 rotate
(Trees) s
90 rotate
6 w
1 sg
0 2656 2030 0 0 -2656 3460 2899 4 MP
PP
-2030 0 0 2656 2030 0 0 -2656 3460 2899 5 MP stroke
4 w
DO
SO
6 w
0 sg
3460  243 mt 5490  243 L
3460 2899 mt 5490 2899 L
5490 2899 mt 5490  243 L
3460 2899 mt 3460  243 L
3460 2899 mt 5490 2899 L
3460 2899 mt 3460  243 L
3460 2899 mt 3460 2872 L
3460  244 mt 3460  270 L
3427 3044 mt 
(0) s
3967 2899 mt 3967 2872 L
3967  244 mt 3967  270 L
3934 3044 mt 
(5) s
4475 2899 mt 4475 2872 L
4475  244 mt 4475  270 L
4409 3044 mt 
(10) s
4982 2899 mt 4982 2872 L
4982  244 mt 4982  270 L
4916 3044 mt 
(15) s
5490 2899 mt 5490 2872 L
5490  244 mt 5490  270 L
5424 3044 mt 
(20) s
3460 2899 mt 3486 2899 L
5490 2899 mt 5463 2899 L
3359 2943 mt 
(0) s
3460 2456 mt 3486 2456 L
5490 2456 mt 5463 2456 L
3225 2500 mt 
(100) s
3460 2014 mt 3486 2014 L
5490 2014 mt 5463 2014 L
3225 2058 mt 
(200) s
3460 1571 mt 3486 1571 L
5490 1571 mt 5463 1571 L
3225 1615 mt 
(300) s
3460 1129 mt 3486 1129 L
5490 1129 mt 5463 1129 L
3225 1173 mt 
(400) s
3460  686 mt 3486  686 L
5490  686 mt 5463  686 L
3225  730 mt 
(500) s
3460  244 mt 3486  244 L
5490  244 mt 5463  244 L
3225  288 mt 
(600) s
3460  243 mt 5490  243 L
3460 2899 mt 5490 2899 L
5490 2899 mt 5490  243 L
3460 2899 mt 3460  243 L
gs 3460 244 2031 2656 rc
24 w
c8
1 -5 0 -69 1 -5 0 -77 1 -5 0 -77 1 -6 0 -77 
1 -5 0 -77 1 -5 0 -75 1 -5 0 -69 1 -5 0 -67 
1 -5 0 -65 1 -5 0 -58 1 -4 0 -52 1 -5 0 -46 
1 -4 0 -37 1 -5 0 -34 1 -6 0 -25 1 -5 0 -18 
1 -3 0 -15 1 -2 0 -9 1 -1 0 -3 1 -1 0 2 
1 1 0 8 1 1 0 15 1 2 0 18 1 2 0 26 
1 3 0 27 1 4 0 34 1 5 0 42 1 5 0 41 
1 5 0 53 1 5 0 50 1 6 0 62 1 5 0 59 
1 5 0 66 1 5 0 72 1 5 0 67 1 6 0 72 
1 6 0 72 1 6 0 71 1 6 0 70 1 5 0 64 
1 5 0 66 1 5 0 58 1 5 0 54 1 5 0 50 
1 4 0 37 1 4 0 33 1 3 0 24 1 2 0 15 
1 2 0 5 1 1 0 -3 1 -1 0 -12 1 -2 0 -21 
1 -3 0 -29 1 -3 0 -38 1 -3 0 -45 1 -4 0 -53 
1 -4 0 -56 1 -5 0 -62 1 -4 0 -68 1 -5 0 -63 
1 -4 0 -67 1 -4 0 -65 1 -5 0 -62 1 -4 0 -54 
1 -4 0 -54 1 -4 0 -42 1 -4 0 -40 1 -3 0 -29 
1 -2 0 -20 1 -2 0 -12 1 -1 0 -2 1 -1 0 7 
1 1 0 16 1 1 0 25 1 3 0 33 1 3 0 39 
1 3 0 51 1 3 0 52 1 4 0 60 1 4 0 62 
1 5 0 65 1 4 0 63 1 4 0 67 1 5 0 62 
1 4 0 57 1 4 0 58 1 4 0 46 1 4 0 42 
1 3 0 34 1 3 0 23 1 2 0 16 1 2 0 5 
1 1 0 -3 1 -1 0 -14 1 -2 0 -20 1 -3 0 -32 
1 -3 0 -41 1 -4 0 -46 1 -4 0 -55 1 -4 0 -63 
1 -5 0 -66 1 -6 0 -73 1 -6 0 -75 1 -6 0 -76 
1 -6 0 -76 1 -6 0 -76 1 -5 0 -70 1 -6 0 -74 
1 -5 0 -68 1 -5 0 -65 1 -5 0 -59 1 -5 0 -57 
1 -4 0 -47 1 -4 0 -46 1 -5 0 -32 1 -5 0 -32 
1 -5 0 -22 1 -4 0 -17 1 -2 0 -12 1 -1 0 -7 
1 -1 0 -1 1 1 0 4 1 1 0 11 1 2 0 15 
1 2 0 23 1 2 0 25 1 3 0 33 1 4 0 36 
1 4 0 44 1 5 0 47 1 5 0 49 1 5 0 56 
1 5 0 63 1 5 0 64 1 6 0 65 1 6 0 66 
1 5 0 73 1 5 0 72 1 6 0 71 1 6 0 71 
1 5 0 69 1 6 0 62 1 5 0 64 1 5 0 56 
1 5 0 52 1 4 0 43 1 4 0 35 1 3 0 30 
1 3 0 18 1 2 5340 851 300 MP stroke
0 10 1 1 0 3 1 -1 0 -8 1 -1 0 -17 1 -3 
0 -23 1 -3 0 -35 1 -3 0 -43 1 -4 0 -47 1 -4 
0 -54 1 -4 0 -62 1 -4 0 -63 1 -4 0 -63 1 -5 
0 -67 1 -4 0 -66 1 -4 0 -59 1 -5 0 -60 1 -4 
0 -56 1 -4 0 -48 1 -3 0 -44 1 -2 0 -33 1 -2 
0 -27 1 -2 0 -17 1 -1 1 -7 -1 0 2 2 0 12 
1 1 0 20 1 2 0 28 1 3 0 36 1 2 0 45 
1 3 0 53 1 3 0 58 1 4 0 57 1 4 0 64 
1 4 0 66 1 4 0 67 1 4 0 63 1 4 0 61 
1 5 0 55 1 4 0 52 1 4 0 44 1 4 0 36 
1 3 0 31 1 3 0 20 1 2 0 11 2 2 0 -8 
1 -1 0 -16 1 -2 0 -29 1 -3 0 -34 1 -4 0 -43 
1 -4 0 -52 1 -5 0 -56 1 -5 0 -64 1 -5 0 -72 
1 -5 0 -69 1 -6 0 -75 1 -6 0 -76 1 -5 0 -77 
1 -5 0 -76 1 -5 0 -75 1 -5 0 -68 1 -5 0 -71 
1 -5 0 -59 1 -5 0 -58 1 -5 0 -51 1 -5 0 -45 
1 -5 0 -41 1 -5 0 -29 1 -5 0 -26 1 -4 0 -23 
1 -3 0 -15 1 -2 0 -8 1 -1 1 -4 -1 0 2 2 
0 8 1 1 0 13 1 2 0 19 1 3 0 22 1 3 
0 30 1 4 0 35 1 4 0 38 1 4 0 45 1 5 
0 48 1 5 0 54 1 6 0 56 1 5 0 58 1 6 
0 64 1 5 0 71 1 6 0 66 1 5 0 72 1 6 
0 71 1 6 0 71 1 5 0 70 1 5 0 68 1 5 
0 66 1 5 0 57 1 5 0 54 1 4 0 46 1 4 
0 41 1 4 0 32 1 3 0 24 1 3 0 15 1 1 
0 6 1 1 0 -2 1 -1 0 -12 1 -2 0 -21 1 -2 
0 -29 1 -3 0 -37 1 -3 0 -45 1 -4 0 -52 1 -4 
0 -55 1 -5 0 -61 1 -5 0 -67 1 -4 0 -63 1 -5 
0 -66 1 -4 0 -65 1 -4 0 -62 1 -4 0 -54 1 -4 
0 -54 1 -3 0 -46 1 -3 0 -37 1 -3 0 -30 1 -2 
0 -22 1 -1 0 -12 1 -1 0 -2 1 -1 0 6 1 1 
0 14 1 2 0 25 1 2 0 33 1 2 0 42 1 3 
0 46 1 4 0 55 1 4 0 54 1 5 0 62 1 4 
0 64 1 5 0 66 1 4 0 62 1 5 0 62 1 4 
0 60 1 4 0 54 1 4 0 50 1 4 0 38 1 4 
0 34 1 3 0 25 1 2 0 17 1 2 0 5 1 1 
0 -2 1 -1 0 -13 1 -2 0 -20 1 -3 0 -31 1 -3 
0 -41 1 -4 0 -45 5189 1034 300 MP stroke
1 -4 0 -54 1 -4 0 -62 1 -5 0 -66 1 -5 0 -73 
1 -5 0 -75 1 -5 0 -76 1 -5 0 -76 1 -5 0 -76 
1 -5 0 -70 1 -5 0 -73 1 -6 0 -66 1 -5 0 -65 
1 -5 0 -64 1 -4 0 -52 1 -5 0 -50 1 -5 0 -41 
1 -4 0 -37 1 -5 0 -26 1 -5 0 -27 1 -3 0 -17 
1 -2 0 -12 1 -1 0 -7 1 -1 1 -1 0 5 1 1 
0 9 1 2 0 16 1 2 0 20 1 3 0 27 1 3 
0 32 1 4 0 36 1 5 0 39 1 4 0 46 1 5 
0 54 1 5 0 50 1 5 0 62 1 5 0 64 1 5 
0 65 1 5 0 65 1 6 0 71 1 5 0 72 1 5 
0 71 1 6 0 70 1 5 0 69 1 5 0 66 1 5 
0 59 1 5 0 56 1 5 0 52 1 4 0 43 1 4 
0 38 1 4 0 27 1 2 0 21 1 2 0 10 1 1 
0 2 1 1 0 -8 1 -1 0 -16 1 -2 0 -24 1 -2 
0 -34 1 -4 0 -42 1 -4 0 -46 1 -4 0 -54 1 -4 
0 -61 1 -4 0 -62 1 -4 0 -63 1 -4 0 -67 1 -4 
0 -65 1 -5 0 -63 1 -4 0 -59 1 -4 0 -53 1 -3 
0 -48 1 -4 0 -43 1 -3 0 -34 1 -3 0 -24 1 -2 
0 -18 1 -1 0 -8 1 -1 0 1 1 1 0 10 1 2 
0 19 1 2 0 30 1 2 0 36 1 3 0 43 1 4 
0 48 1 4 0 56 1 4 0 60 1 4 0 63 1 5 
0 65 1 4 0 62 1 4 0 66 1 5 0 61 1 4 
0 55 1 4 0 51 1 4 0 44 1 4 0 36 1 3 
0 32 1 2 0 20 1 2 0 11 1 1 0 2 1 1 
0 -7 1 -1 0 -18 1 -2 0 -25 1 -3 0 -34 1 -3 
0 -43 1 -4 0 -51 1 -4 0 -60 1 -5 0 -63 1 -5 
0 -67 1 -5 0 -73 1 -5 0 -75 1 -6 0 -70 1 -5 
0 -81 1 -5 0 -70 1 -5 0 -74 1 -5 0 -72 1 -5 
0 -66 1 -5 0 -64 1 -5 0 -52 1 -5 0 -55 1 -5 
0 -45 1 -5 0 -36 1 -4 0 -34 1 -5 0 -25 1 -5 
0 -22 1 -3 0 -15 1 -2 0 -9 1 -1 1 -4 -1 0 
2 2 0 6 1 2 0 13 1 2 0 16 1 3 0 24 
1 3 0 27 1 3 0 34 1 4 0 37 1 4 0 45 
1 4 0 47 1 5 0 54 1 5 0 56 1 5 0 62 
1 6 0 63 1 6 0 64 1 5 0 71 1 5 0 71 
1 6 0 71 1 5 0 70 1 5 0 69 1 6 0 67 
1 5 0 60 1 5 0 62 1 5 0 53 1 5 0 45 
1 4 0 41 1 3 5038 964 300 MP stroke
0 33 1 3 0 24 1 2 0 17 1 1 0 6 1 1 
0 -2 1 -1 0 -11 1 -1 0 -22 1 -3 0 -28 1 -3 
0 -37 1 -3 0 -44 1 -4 0 -52 1 -4 0 -55 1 -4 
0 -61 1 -4 0 -62 1 -5 0 -66 1 -5 0 -61 1 -4 
0 -64 1 -4 0 -62 1 -4 0 -58 1 -3 0 -54 1 -3 
0 -46 1 -3 0 -37 1 -3 0 -29 1 -3 0 -22 1 -1 
0 -13 1 -1 0 -2 1 -1 0 5 1 1 0 14 1 2 
0 24 1 2 0 32 1 3 0 40 1 3 0 46 1 4 
0 54 1 3 0 55 1 4 0 61 1 4 0 64 1 4 
0 65 1 5 0 66 1 4 0 61 1 4 0 56 1 4 
0 57 1 4 0 46 1 4 0 42 1 3 0 34 1 3 
0 26 1 2 0 15 1 2 0 7 1 1 0 -2 1 -1 
0 -11 1 -2 0 -20 1 -3 0 -31 1 -3 0 -39 1 -4 
0 -44 1 -5 0 -52 1 -5 0 -61 1 -5 0 -64 1 -6 
0 -71 1 -6 0 -68 1 -5 0 -75 1 -5 0 -75 1 -6 
0 -75 1 -5 0 -74 1 -5 0 -73 1 -5 0 -66 1 -5 
0 -64 1 -5 0 -63 1 -5 0 -51 1 -5 0 -50 1 -4 
0 -41 1 -4 0 -37 1 -4 0 -31 1 -5 0 -21 1 -4 
0 -18 1 -3 0 -14 1 -1 0 -7 2 -2 0 4 1 1 
0 10 1 1 0 14 1 2 0 22 1 3 0 23 1 4 
0 31 1 4 0 35 1 4 0 39 1 4 0 46 1 4 
0 53 1 5 0 54 1 5 0 56 1 5 0 63 1 5 
0 64 1 5 0 70 1 5 0 65 1 6 0 70 1 5 
0 70 1 6 0 69 1 5 0 68 1 5 0 66 1 5 
0 64 1 4 0 56 1 4 0 52 1 4 0 43 1 3 
0 39 1 3 0 27 1 2 0 21 1 2 0 11 1 1 
0 3 1 -1 0 -6 1 -1 0 -15 1 -2 0 -25 1 -3 
0 -31 1 -3 0 -41 1 -4 0 -46 1 -4 0 -52 1 -5 
0 -59 1 -5 0 -61 1 -4 0 -66 1 -5 0 -61 1 -5 
0 -64 1 -5 0 -62 1 -4 0 -59 1 -4 0 -56 1 -3 
0 -48 1 -3 0 -43 1 -3 0 -35 1 -2 0 -25 1 -2 
0 -17 1 -2 0 -8 1 -1 0 -1 0 2 1 1 0 9 
1 1 0 19 1 2 0 26 1 3 0 37 1 3 0 43 
1 3 0 48 1 3 0 56 1 4 0 59 1 4 0 62 
1 4 0 65 1 4 0 61 1 4 0 66 1 4 0 60 
1 5 0 54 1 4 0 52 1 3 0 48 1 4 0 36 
1 3 0 28 1 3 0 22 1 2 0 12 1 1 0 2 
1 1 0 -7 1 -1 4888 919 300 MP stroke
0 -16 1 -2 0 -24 1 -3 0 -33 1 -4 0 -41 1 -4 
0 -50 1 -5 0 -58 1 -5 0 -63 1 -4 0 -66 1 -5 
0 -72 1 -5 0 -74 1 -5 0 -75 1 -5 0 -75 1 -5 
0 -74 1 -5 0 -68 1 -5 0 -72 1 -5 0 -64 1 -5 
0 -63 1 -5 0 -57 1 -4 0 -51 1 -4 0 -45 1 -5 
0 -40 1 -5 0 -33 1 -5 0 -24 1 -5 0 -22 1 -2 
0 -14 1 -2 0 -11 1 -1 0 -4 1 -1 0 1 1 1 
0 6 1 1 0 11 1 2 0 18 1 3 0 21 1 3 
0 28 1 4 0 33 1 4 0 37 1 4 0 39 1 5 
0 51 1 5 0 48 1 5 0 54 1 5 0 62 1 5 
0 62 1 6 0 69 1 5 0 64 1 5 0 70 1 6 
0 69 1 6 0 69 1 5 0 68 1 6 0 66 1 5 
0 65 1 4 0 57 1 5 0 53 1 4 0 50 1 3 
0 41 1 4 0 32 1 3 0 24 1 2 0 17 1 1 
1 8 -1 0 2 -2 0 -11 1 -2 0 -18 1 -3 0 -27 
1 -3 0 -39 1 -3 0 -44 1 -3 0 -47 1 -4 0 -58 
1 -5 0 -55 1 -5 0 -65 1 -5 0 -61 1 -5 0 -65 
1 -4 0 -63 1 -4 0 -61 1 -4 0 -57 1 -4 0 -53 
1 -4 0 -45 1 -3 0 -37 1 -3 0 -32 1 -2 0 -21 
1 -2 0 -13 1 -1 0 -3 1 -1 0 6 1 1 0 14 
1 1 0 24 1 2 0 29 1 2 0 40 1 3 0 45 
1 3 0 53 1 4 0 57 1 4 0 60 1 4 0 63 
1 4 0 65 1 4 0 61 1 4 0 61 1 4 0 59 
1 4 0 57 1 4 0 46 1 4 0 41 1 4 0 34 
1 2 0 26 1 2 0 18 1 1 0 7 1 1 0 1 
0 -2 1 -1 0 -11 1 -2 0 -19 1 -3 0 -30 1 -3 
0 -35 1 -3 0 -48 1 -4 0 -52 1 -4 0 -60 1 -5 
0 -64 1 -5 0 -65 1 -5 0 -73 1 -5 0 -74 1 -5 
0 -74 1 -5 0 -74 1 -5 0 -73 1 -5 0 -72 1 -5 
0 -66 1 -5 0 -63 1 -5 0 -62 1 -5 0 -50 1 -5 
0 -50 1 -4 0 -40 1 -4 0 -37 1 -4 0 -30 1 -5 
0 -25 1 -4 0 -18 1 -2 0 -13 1 -1 0 -7 1 -1 
0 -3 1 1 0 3 1 1 0 8 1 2 0 15 1 2 
0 18 1 3 0 23 1 3 0 31 1 4 0 34 1 4 
0 38 1 4 0 45 1 4 0 52 1 5 0 53 1 5 
0 55 1 5 0 62 1 5 0 62 1 6 0 68 1 6 
0 63 1 6 0 69 1 5 0 69 1 6 0 73 1 5 
0 67 1 5 0 60 4739 1272 300 MP stroke
1 5 0 63 1 5 0 54 1 5 0 51 1 4 0 47 
1 3 0 35 1 3 0 30 1 3 0 20 1 2 0 12 
1 1 0 2 1 1 0 -6 1 -1 0 -16 1 -2 0 -21 
1 -3 0 -33 1 -3 0 -41 1 -3 0 -45 1 -4 0 -52 
1 -4 0 -59 1 -4 0 -61 1 -4 0 -61 1 -4 0 -66 
1 -4 0 -64 1 -4 0 -62 1 -4 0 -58 1 -4 0 -55 
1 -4 0 -47 1 -3 0 -43 1 -3 0 -34 1 -3 0 -26 
1 -2 0 -18 1 -1 0 -9 2 0 0 10 1 1 0 18 
1 2 0 26 1 2 0 34 1 3 0 42 1 3 0 50 
1 4 0 54 1 4 0 58 1 4 0 62 1 4 0 63 
1 4 0 61 1 4 0 65 1 4 0 59 1 5 0 53 
1 4 0 51 1 4 0 48 1 3 0 36 1 3 0 31 
1 3 0 21 1 2 0 12 1 1 0 3 1 1 0 -6 
1 -1 0 -15 1 -3 0 -23 1 -2 0 -32 1 -4 0 -40 
1 -4 0 -49 1 -4 0 -58 1 -5 0 -61 1 -5 0 -64 
1 -5 0 -71 1 -5 0 -67 1 -6 0 -73 1 -5 0 -79 
1 -5 0 -73 1 -5 0 -67 1 -5 0 -71 1 -5 0 -64 
1 -4 0 -63 1 -4 0 -56 1 -5 0 -50 1 -4 0 -45 
1 -4 0 -40 1 -5 0 -32 1 -5 0 -28 1 -5 0 -21 
1 -3 0 -14 1 -2 0 -11 1 -1 0 -5 2 0 0 7 
1 1 0 10 1 2 0 15 1 3 0 23 1 3 0 24 
1 4 0 32 1 4 0 36 1 4 0 43 1 4 0 46 
1 4 0 48 1 4 0 59 1 5 0 55 1 5 0 61 
1 6 0 67 1 5 0 63 1 6 0 68 1 6 0 68 
1 5 0 74 1 5 0 67 1 5 0 66 1 5 0 58 
1 5 0 61 1 4 0 53 1 4 0 49 1 4 0 40 
1 4 0 32 1 3 0 24 1 2 0 18 1 2 0 6 
1 1 0 1 0 -2 1 -1 0 -9 1 -1 0 -19 1 -2 
0 -26 1 -3 0 -38 1 -3 0 -43 1 -4 0 -46 1 -4 
0 -57 1 -4 0 -59 1 -5 0 -60 1 -4 0 -61 1 -4 
0 -64 1 -5 0 -62 1 -4 0 -60 1 -4 0 -57 1 -4 
0 -53 1 -3 0 -45 1 -3 0 -40 1 -2 0 -30 1 -2 
0 -24 1 -2 0 -12 1 -1 0 -4 1 -1 0 4 1 1 
0 13 1 2 0 22 1 3 0 28 1 2 0 39 1 3 
0 44 1 3 0 52 1 3 0 56 1 4 0 59 1 4 
0 62 1 4 0 64 1 4 0 64 1 4 0 60 1 4 
0 59 1 4 0 52 1 4 0 49 1 4 0 41 1 4 
0 33 1 3 0 26 4588 995 300 MP stroke
1 2 0 18 1 1 0 8 1 1 0 1 0 -1 1 -1 
0 -10 1 -1 0 -20 1 -2 0 -26 1 -3 0 -37 1 -4 
0 -42 1 -4 0 -55 1 -4 0 -55 1 -4 0 -67 1 -5 
0 -65 1 -5 0 -71 1 -5 0 -72 1 -5 0 -73 1 -5 
0 -73 1 -5 0 -72 1 -5 0 -71 1 -5 0 -64 1 -5 
0 -63 1 -5 0 -61 1 -4 0 -50 1 -5 0 -49 1 -4 
0 -44 1 -5 0 -35 1 -5 0 -29 1 -5 0 -24 1 -4 
0 -18 1 -2 0 -13 1 -1 0 -8 1 -1 0 -1 1 -1 
0 2 1 1 0 9 1 1 0 13 1 2 0 17 1 3 
0 25 1 3 0 27 1 3 0 34 1 4 0 37 1 4 
0 44 1 4 0 51 1 4 0 48 1 5 0 58 1 5 
0 60 1 5 0 62 1 5 0 67 1 5 0 63 1 5 
0 73 1 6 0 67 1 6 0 67 1 5 0 66 1 5 
0 64 1 5 0 61 1 5 0 54 1 4 0 51 1 4 
0 42 1 4 0 38 1 3 0 29 1 3 0 20 1 2 
0 13 1 1 0 2 1 1 0 -4 1 -1 0 -14 1 -2 
0 -22 1 -2 0 -32 1 -3 0 -40 1 -3 0 -44 1 -4 
0 -51 1 -4 0 -58 1 -4 0 -60 1 -4 0 -60 1 -4 
0 -64 1 -5 0 -63 1 -4 0 -61 1 -4 0 -58 1 -4 
0 -54 1 -4 0 -50 1 -3 0 -39 1 -3 0 -37 1 -3 
0 -26 1 -2 0 -18 1 -1 0 -10 2 0 0 8 1 1 
0 17 1 2 0 25 1 2 0 33 1 3 0 40 1 4 
0 48 1 4 0 53 1 4 0 57 1 4 0 60 1 4 
0 62 1 4 0 64 1 4 0 59 1 5 0 58 1 5 
0 57 1 4 0 50 1 4 0 47 1 4 0 36 1 3 
0 31 1 2 0 21 1 2 0 15 1 1 0 3 1 1 
0 -5 1 -1 0 -13 1 -2 0 -23 1 -3 0 -30 1 -4 
0 -39 1 -4 0 -47 1 -4 0 -57 1 -4 0 -60 1 -5 
0 -62 1 -5 0 -70 1 -5 0 -71 1 -5 0 -72 1 -5 
0 -73 1 -5 0 -71 1 -5 0 -71 1 -5 0 -65 1 -5 
0 -67 1 -5 0 -57 1 -5 0 -55 1 -4 0 -54 1 -4 
0 -44 1 -5 0 -39 1 -4 0 -32 1 -5 0 -28 1 -4 
0 -21 1 -3 0 -15 1 -2 0 -12 1 -1 0 -5 1 -1 
1 0 0 6 1 1 0 10 1 1 0 15 1 2 0 22 
1 3 0 25 1 3 0 31 1 4 0 35 1 4 0 38 
1 4 0 45 1 4 0 51 1 5 0 52 1 5 0 59 
1 5 0 60 1 5 0 61 1 5 0 67 1 5 0 67 
1 5 0 68 1 5 4437 1574 300 MP stroke
0 67 1 5 0 66 1 5 0 64 1 5 0 63 1 4 
0 60 1 5 0 52 1 4 0 48 1 4 0 40 1 3 
0 32 1 3 0 27 1 2 0 17 1 1 0 9 2 0 
0 -10 1 -1 0 -18 1 -2 0 -25 1 -3 0 -34 1 -3 
0 -41 1 -4 0 -49 1 -4 0 -52 1 -4 0 -58 1 -4 
0 -63 1 -5 0 -59 1 -5 0 -63 1 -4 0 -62 1 -4 
0 -59 1 -4 0 -56 1 -4 0 -52 1 -3 0 -45 1 -3 
0 -39 1 -3 0 -32 1 -2 0 -22 1 -2 0 -14 1 -1 
0 -4 1 -1 0 2 1 1 0 13 1 2 0 21 1 2 
0 27 1 3 0 37 1 3 0 43 1 3 0 50 1 4 
0 54 1 4 0 58 1 4 0 61 1 4 0 62 1 4 
0 63 1 5 0 58 1 5 0 57 1 4 0 56 1 4 
0 49 1 3 0 41 1 4 0 33 1 3 0 26 1 2 
0 18 1 2 0 9 1 1 0 1 1 -1 0 -10 1 -1 
0 -18 1 -2 0 -24 1 -3 0 -36 1 -4 0 -45 1 -4 
0 -49 1 -4 0 -53 1 -5 0 -65 1 -5 0 -63 1 -5 
0 -70 1 -5 0 -71 1 -5 0 -71 1 -5 0 -71 1 -5 
0 -71 1 -5 0 -70 1 -4 0 -64 1 -5 0 -61 1 -5 
0 -60 1 -5 0 -54 1 -4 0 -48 1 -5 0 -39 1 -4 
0 -35 1 -5 0 -33 1 -4 0 -24 1 -3 0 -18 1 -3 
0 -13 1 -2 0 -8 1 -1 1 -3 -1 0 2 2 0 8 
1 1 0 12 1 2 0 17 1 3 0 21 1 3 0 29 
1 4 0 33 1 4 0 36 1 4 0 42 1 5 0 45 
1 4 0 51 1 5 0 53 1 4 0 59 1 5 0 60 
1 5 0 66 1 5 0 66 1 5 0 67 1 5 0 67 
1 5 0 66 1 5 0 64 1 5 0 63 1 5 0 61 
1 5 0 57 1 5 0 50 1 4 0 42 1 3 0 38 
1 3 0 30 1 2 0 23 1 1 0 13 1 1 0 3 
1 1 0 -4 1 -1 0 -14 1 -1 0 -21 1 -2 0 -31 
1 -3 0 -35 1 -4 0 -46 1 -4 0 -50 1 -4 0 -52 
1 -4 0 -59 1 -4 0 -63 1 -4 0 -63 1 -5 0 -62 
1 -4 0 -60 1 -4 0 -57 1 -4 0 -54 1 -3 0 -50 
1 -3 0 -42 1 -3 0 -34 1 -2 0 -27 1 -2 0 -19 
1 -2 0 -9 1 -1 0 -2 1 1 0 7 1 2 0 16 
1 2 0 24 1 2 0 32 1 2 0 43 1 3 0 44 
1 3 0 53 1 3 0 56 1 4 0 59 1 4 0 61 
1 4 0 62 1 4 0 63 1 4 0 58 1 4 0 57 
1 4 0 50 1 3 4286 1192 300 MP stroke
0 44 1 3 0 39 1 3 0 32 1 2 0 23 1 2 
0 13 1 1 0 5 1 1 0 -4 1 -1 0 -12 1 -2 
0 -21 1 -3 0 -29 1 -3 0 -38 1 -4 0 -46 1 -4 
0 -55 1 -4 0 -59 1 -4 0 -62 1 -4 0 -69 1 -4 
0 -70 1 -5 0 -71 1 -5 0 -71 1 -5 0 -70 1 -5 
0 -69 1 -5 0 -69 1 -4 0 -62 1 -5 0 -61 1 -4 
0 -54 1 -5 0 -48 1 -5 0 -47 1 -5 0 -38 1 -5 
0 -31 1 -5 0 -27 1 -4 0 -20 1 -3 0 -18 1 -2 
0 -10 1 -1 0 -6 1 -1 1 -1 0 5 1 1 0 9 
1 2 0 14 1 2 0 19 1 3 0 26 1 3 0 27 
1 4 0 34 1 4 0 41 1 5 0 43 1 4 0 46 
1 4 0 52 1 4 0 58 1 5 0 59 1 5 0 59 
1 5 0 66 1 5 0 66 1 5 0 66 1 5 0 71 
1 5 0 65 1 5 0 63 1 5 0 62 1 5 0 59 
1 4 0 52 1 4 0 47 1 4 0 40 1 4 0 35 
1 2 0 24 1 3 0 18 1 1 0 9 1 1 0 1 
1 -1 0 -8 1 -1 0 -17 1 -2 0 -27 1 -2 0 -33 
1 -3 0 -41 1 -4 0 -44 1 -4 0 -54 1 -4 0 -57 
1 -4 0 -59 1 -4 0 -63 1 -4 0 -62 1 -4 0 -61 
1 -4 0 -58 1 -4 0 -55 1 -4 0 -52 1 -3 0 -44 
1 -3 0 -39 1 -3 0 -31 1 -3 0 -22 1 -1 0 -16 
1 -1 0 -5 1 -1 0 3 1 1 0 11 1 1 0 21 
1 2 0 29 1 2 0 37 1 3 0 42 1 3 0 50 
1 3 0 54 1 4 0 57 1 4 0 59 1 4 0 62 
1 4 0 63 1 4 0 58 1 4 0 57 1 4 0 56 
1 3 0 49 1 3 0 42 1 3 0 34 1 3 0 28 
1 3 0 17 1 2 0 9 1 1 0 2 1 -1 0 -8 
1 -1 0 -16 1 -2 0 -28 1 -3 0 -32 1 -3 0 -44 
1 -4 0 -48 1 -4 0 -52 1 -5 0 -64 1 -4 0 -62 
1 -5 0 -69 1 -5 0 -69 1 -5 0 -71 1 -5 0 -70 
1 -5 0 -70 1 -5 0 -68 1 -5 0 -67 1 -5 0 -61 
1 -4 0 -55 1 -5 0 -53 1 -4 0 -48 1 -4 0 -43 
1 -4 0 -35 1 -4 0 -28 1 -4 0 -28 1 -3 0 -18 
1 -2 0 -14 1 -2 0 -8 1 -1 0 -3 1 -1 0 2 
1 1 0 6 1 1 0 12 1 2 0 19 1 2 0 21 
1 3 0 25 1 4 0 32 1 4 0 36 1 4 0 43 
1 4 0 44 1 5 0 50 1 5 0 52 1 5 0 58 
1 5 0 65 1 5 4136 1857 300 MP stroke
0 60 1 5 0 66 1 5 0 66 1 5 0 66 1 5 
0 71 1 5 0 65 1 4 0 63 1 5 0 61 1 4 
0 53 1 5 0 54 1 4 0 42 1 4 0 37 1 4 
0 29 1 3 0 23 1 1 0 14 1 1 0 4 1 1 
0 -4 1 -1 0 -12 1 -2 0 -21 1 -2 0 -30 1 -3 
0 -35 1 -4 0 -42 1 -4 0 -49 1 -4 0 -56 1 -4 
0 -57 1 -4 0 -63 1 -4 0 -63 1 -4 0 -61 1 -4 
0 -60 1 -4 0 -56 1 -4 0 -54 1 -3 0 -49 1 -3 
0 -42 1 -3 0 -33 1 -3 0 -26 1 -2 0 -19 1 -1 
0 -10 1 -1 0 -2 1 1 0 8 1 1 0 15 1 2 
0 26 1 3 0 32 1 3 0 39 1 4 0 48 1 3 
0 53 1 3 0 56 1 4 0 60 1 4 0 61 1 4 
0 63 1 4 0 59 1 5 0 62 1 4 0 53 1 4 
0 55 1 3 0 44 1 3 0 40 1 3 0 32 1 3 
0 23 1 2 0 13 1 1 0 5 1 1 0 -3 1 -1 
0 -12 1 -2 0 -21 1 -3 0 -29 1 -3 0 -38 1 -4 
0 -46 1 -4 0 -50 1 -5 0 -58 1 -5 0 -66 1 -4 
0 -69 1 -5 0 -64 1 -5 0 -76 1 -5 0 -71 1 -5 
0 -70 1 -5 0 -70 1 -5 0 -63 1 -5 0 -67 1 -4 
0 -61 1 -4 0 -54 1 -5 0 -48 1 -4 0 -47 1 -5 
0 -38 1 -4 0 -31 1 -4 0 -26 1 -4 0 -24 1 -2 
0 -15 1 -2 0 -12 1 -1 0 -4 1 -1 1 0 0 6 
1 1 0 11 1 1 0 16 1 2 0 21 1 3 0 25 
1 3 0 29 1 4 0 36 1 4 0 43 1 4 0 45 
1 5 0 47 1 5 0 53 1 5 0 59 1 5 0 61 
1 5 0 67 1 5 0 63 1 5 0 68 1 5 0 73 
1 6 0 67 1 6 0 67 1 5 0 65 1 5 0 64 
1 4 0 61 1 5 0 53 1 4 0 49 1 4 0 41 
1 3 0 33 1 3 0 28 1 2 0 17 1 2 0 9 
1 1 0 1 0 -1 1 -1 0 -8 1 -2 0 -17 1 -2 
0 -25 1 -3 0 -34 1 -3 0 -41 1 -4 0 -48 1 -4 
0 -52 1 -4 0 -58 1 -4 0 -63 1 -5 0 -59 1 -4 
0 -63 1 -4 0 -62 1 -4 0 -59 1 -4 0 -55 1 -4 
0 -52 1 -3 0 -44 1 -3 0 -39 1 -2 0 -31 1 -2 
0 -21 1 -2 0 -12 1 -1 0 -3 1 -1 0 5 1 1 
0 15 1 2 0 22 1 2 0 32 1 2 0 40 1 3 
0 46 1 3 0 54 1 3 0 58 1 4 0 61 1 4 
0 63 1 5 0 65 3987 1390 300 MP stroke
1 4 0 62 1 4 0 66 1 4 0 56 1 4 0 58 
1 4 0 50 1 4 0 43 1 3 0 35 1 3 0 26 
1 3 0 18 1 2 0 9 2 0 0 -9 1 -2 0 -18 
1 -2 0 -29 1 -3 0 -37 1 -4 0 -42 1 -4 0 -51 
1 -5 0 -59 1 -5 0 -62 1 -5 0 -70 1 -5 0 -72 
1 -5 0 -73 1 -6 0 -73 1 -5 0 -73 1 -6 0 -72 
1 -5 0 -72 1 -5 0 -64 1 -5 0 -63 1 -5 0 -61 
1 -5 0 -50 1 -4 0 -49 1 -4 0 -43 1 -5 0 -34 
1 -5 0 -27 1 -5 0 -23 1 -3 0 -17 1 -3 0 -12 
1 -2 0 -6 1 -1 0 -1 1 1 0 5 1 1 0 10 
1 2 0 16 1 2 0 20 1 3 0 29 1 4 0 29 
1 4 0 38 1 4 0 40 1 5 0 47 1 5 0 55 
1 5 0 56 1 5 0 58 1 6 0 64 1 6 0 65 
1 6 0 72 1 5 0 73 1 6 0 72 1 6 0 72 
1 6 0 71 1 6 0 70 1 5 0 68 1 5 0 61 
1 5 0 57 1 4 0 54 1 4 0 45 1 4 0 39 
1 4 0 28 1 3 0 22 1 2 0 11 1 1 0 2 
1 1 0 -7 1 -1 0 -15 1 -2 0 -26 1 -2 0 -31 
1 -3 0 -42 1 -4 0 -50 1 -4 0 -53 1 -5 0 -56 
1 -4 0 -62 1 -4 0 -67 1 -5 0 -62 1 -4 0 -65 
1 -4 0 -63 1 -4 0 -60 1 -4 0 -55 1 -4 0 -47 
1 -3 0 -39 1 -3 0 -34 1 -2 0 -24 1 -2 0 -15 
1 -2 0 -5 1 -1 0 3 1 1 0 13 1 2 0 22 
1 2 0 30 1 3 0 38 1 3 0 46 1 4 0 55 
1 4 0 56 1 4 0 63 1 5 0 66 1 4 0 69 
1 4 0 65 1 5 0 64 1 5 0 63 1 5 0 61 
1 4 0 50 1 4 0 49 1 4 0 37 1 4 0 29 
1 2 0 21 1 2 0 12 1 1 0 2 1 -1 0 -9 
1 -1 0 -16 1 -3 0 -29 1 -3 0 -36 1 -3 0 -44 
1 -5 0 -53 1 -5 0 -62 1 -5 0 -66 1 -5 0 -69 
1 -5 0 -76 1 -6 0 -71 1 -6 0 -78 1 -6 0 -77 
1 -6 0 -77 1 -6 0 -75 1 -6 0 -69 1 -5 0 -72 
1 -6 0 -60 1 -5 0 -58 1 -5 0 -51 1 -5 0 -46 
1 -4 0 -36 1 -5 0 -33 1 -5 0 -25 1 -5 0 -18 
1 -3 0 -14 1 -1 0 -7 1 -1 0 -1 1 -1 0 5 
1 1 0 9 1 2 0 17 1 2 0 20 1 3 0 29 
1 3 0 34 1 4 0 38 1 4 0 42 1 4 0 49 
1 6 0 51 1 6 3836 1914 300 MP stroke
0 59 1 5 0 61 1 6 0 68 1 5 0 70 1 5 
0 70 1 6 0 77 1 6 0 76 1 6 0 71 1 6 
0 75 1 6 0 74 1 5 0 72 1 6 0 64 1 5 
0 61 1 4 0 57 1 5 0 47 1 4 0 43 1 4 
0 30 1 3 0 24 1 3 0 13 1 2 0 3 1 1 
0 -4 1 -2 0 -14 1 -2 0 -23 1 -3 0 -30 1 -4 
0 -43 1 -4 0 -47 1 -4 0 -51 1 -5 0 -62 1 -5 
0 -65 1 -4 0 -66 1 -4 0 -66 1 -4 0 -69 1 -5 
0 -62 1 -4 0 -64 1 -4 0 -60 1 -4 0 -51 1 -4 
0 -43 1 -3 0 -37 1 -3 0 -29 1 -2 0 -18 1 -2 
0 -8 1 -1 0 -1 0 1 1 1 0 10 1 2 0 18 
1 2 0 29 1 2 0 38 1 3 0 43 1 4 0 55 
1 4 0 56 1 4 0 65 1 4 0 63 1 5 0 69 
1 5 0 66 1 5 0 67 1 4 0 66 1 4 0 64 
1 4 0 52 1 4 0 52 1 4 0 40 1 3 0 31 
1 3 0 25 1 2 0 14 1 1 0 3 1 1 0 -6 
1 -2 0 -15 1 -2 0 -27 1 -3 0 -35 1 -4 0 -45 
1 -4 0 -50 1 -5 0 -64 1 -5 0 -63 1 -5 0 -71 
1 -5 0 -79 1 -6 0 -80 1 -6 0 -81 1 -6 0 -75 
1 -6 0 -81 1 -6 0 -79 1 -6 0 -72 1 -6 0 -76 
1 -5 0 -63 1 -6 0 -61 1 -5 0 -54 1 -5 0 -53 
1 -5 0 -42 1 -5 0 -34 1 -5 0 -24 1 -7 0 -24 
1 -3 0 -15 1 -2 0 -10 1 -1 0 -3 1 -1 0 2 
1 1 0 9 1 1 0 16 1 2 0 19 1 2 0 27 
1 3 0 33 1 4 0 37 1 4 0 41 1 5 0 49 
1 5 0 52 1 5 0 60 1 6 0 62 1 6 0 63 
1 6 0 71 1 6 0 72 1 6 0 72 1 6 0 79 
1 6 0 72 1 6 0 78 1 6 0 76 1 6 0 69 
1 5 0 72 1 6 0 63 1 5 0 59 1 5 0 50 
1 4 0 46 1 4 0 35 1 4 0 24 1 2 0 19 
1 2 0 7 1 1 0 1 0 -2 1 -1 0 -11 1 -2 
0 -21 1 -3 0 -26 1 -4 0 -38 1 -4 0 -47 1 -4 
0 -51 1 -5 0 -58 1 -5 0 -65 1 -5 0 -67 1 -5 
0 -67 1 -5 0 -71 1 -5 0 -65 1 -4 0 -67 1 -4 
0 -59 1 -4 0 -55 1 -4 0 -50 1 -3 0 -41 1 -3 
0 -32 1 -3 0 -23 1 -2 0 -13 1 -1 0 -3 1 -1 
0 5 1 1 0 16 1 2 0 24 1 2 0 36 1 3 
0 41 1 4 0 50 3688 1463 300 MP stroke
1 4 0 55 1 4 0 63 1 5 0 63 1 4 0 70 
1 5 0 66 1 5 0 67 1 5 0 67 1 4 0 65 
1 5 0 58 1 4 0 50 1 4 0 45 1 4 0 33 
1 3 0 28 1 3 0 18 1 2 0 6 1 1 0 -2 
1 -1 0 -11 1 -3 0 -24 1 -3 0 -31 1 -4 0 -39 
1 -4 0 -54 1 -4 0 -59 1 -5 0 -63 1 -5 0 -71 
1 -6 0 -79 1 -7 0 -75 1 -6 0 -83 1 -6 0 -83 
1 -6 0 -76 1 -6 0 -82 1 -6 0 -80 1 -6 0 -72 
1 -6 0 -71 1 -5 0 -63 1 -6 0 -61 1 -5 0 -49 
1 -5 0 -49 1 -5 0 -38 1 -5 0 -27 1 -6 0 -27 
1 -5 0 -19 1 -2 0 -12 1 -1 0 -7 2 0 0 6 
1 1 0 13 1 1 0 17 1 2 0 25 1 3 0 30 
1 3 0 36 1 4 0 39 1 5 0 48 1 5 0 52 
1 5 0 54 1 5 0 62 1 6 0 64 1 5 0 71 
1 6 0 73 1 6 0 73 1 6 0 73 1 6 0 80 
1 6 0 73 1 6 0 77 1 6 0 76 1 6 0 68 
1 6 0 65 1 5 0 62 1 5 0 57 1 5 0 43 
1 5 0 42 1 4 0 29 1 3 0 22 1 2 0 13 
1 1 0 3 1 -1 0 -6 1 -2 0 -17 1 -2 0 -25 
1 -3 0 -36 1 -4 0 -42 1 -4 0 -50 1 -4 0 -59 
1 -4 0 -61 1 -5 0 -67 1 -5 0 -68 1 -5 0 -67 
1 -5 0 -71 1 -5 0 -64 1 -5 0 -65 1 -4 0 -58 
1 -4 0 -52 1 -4 0 -44 1 -3 0 -36 1 -2 0 -30 
1 -2 0 -17 1 -2 1 -9 -1 0 2 2 0 11 1 2 
0 19 1 2 0 30 1 2 0 39 1 3 0 48 1 4 
0 53 1 4 0 58 1 4 0 66 1 5 0 64 1 5 
0 71 1 4 0 68 1 5 0 67 1 5 0 66 1 5 
0 59 1 4 0 52 1 4 0 48 1 4 0 43 1 3 
0 30 1 3 0 21 1 2 0 12 1 1 0 3 1 -1 
0 -8 1 -2 0 -17 1 -2 0 -28 1 -4 0 -37 1 -4 
0 -46 1 -5 0 -57 1 -5 0 -60 1 -5 0 -71 1 -5 
0 -74 1 -5 0 -80 1 -6 0 -83 1 -6 0 -83 1 -6 
0 -78 1 -6 0 -83 1 -5 0 -82 1 -6 0 -74 1 -6 
0 -72 1 -6 0 -70 1 -5 0 -63 1 -5 0 -56 1 -5 
0 -49 1 -5 0 -43 1 -5 0 -30 1 -6 0 -32 1 -6 
0 -17 1 -3 0 -17 1 -2 0 -9 1 -1 0 -2 1 -1 
0 2 1 1 0 10 1 1 0 16 1 2 0 22 1 3 
0 28 1 3 0 33 3537 2055 300 MP stroke
1 4 0 38 1 5 0 42 1 5 0 50 1 5 0 53 
1 6 0 61 1 5 0 63 1 6 0 65 1 6 0 72 
1 6 0 73 1 6 0 74 1 6 0 74 1 6 0 79 
1 7 0 78 1 6 0 72 1 5 0 76 1 5 0 67 
1 6 0 63 1 5 0 59 1 3 0 51 1 4 0 45 
1 4 0 35 1 3 0 27 1 2 0 16 1 2 0 7 
1 1 0 -2 1 -1 0 -11 1 -2 0 -22 1 -3 0 -30 
1 -4 0 -39 1 -4 0 -49 1 -4 0 -52 1 -4 0 -60 
1 -5 0 -67 1 -5 0 -63 1 -4 0 -73 1 -5 0 -67 
1 -5 0 -70 1 -5 0 -63 1 -4 0 -63 1 -5 0 -54 
1 -4 0 -46 1 -4 0 -40 1 -3 0 -32 1 -3 0 -21 
1 -2 0 -13 1 -1 0 -2 1 -1 0 7 1 2 0 15 
1 2 0 29 1 3 0 35 1 3 0 44 1 3 0 50 
1 4 0 58 1 4 0 68 1 5 0 66 1 5 0 70 
1 5 0 72 1 5 0 73 1 5 0 68 1 5 0 68 
1 5 0 66 1 5 0 59 1 4 0 47 1 5 0 44 
1 4 0 38 1 4 0 28 1 2 0 19 1 2 0 9 
1 1 0 2 1 1 0 -5 1 -1 0 -12 1 -2 0 -18 
1 -1 0 -25 1 -2 0 -27 1 -2 0 -31 1 -2 0 -32 
1 -2 0 -30 3460 686 155 MP stroke
c9
1 0 0 -2 1 -1 0 -3 1 -1 0 -2 1 -1 0 -2 
1 -1 0 -2 1 -1 0 -3 2 -2 0 -2 1 -1 0 -2 
2 -2 0 -2 2 -2 1 -1 1 -1 1 -1 1 -1 1 0 
1 0 1 0 1 1 1 0 1 1 0 1 2 2 0 1 
2 2 0 2 2 2 0 3 2 2 0 2 1 1 0 2 
1 1 0 2 1 1 0 2 1 1 0 2 1 1 0 2 
1 1 0 2 1 1 0 2 1 1 0 2 1 1 0 2 
1 1 0 2 2 2 0 2 2 2 1 1 1 1 1 1 
1 0 1 0 1 -1 1 -1 0 -1 2 -2 0 -2 2 -2 
0 -2 1 -1 0 -1 1 -1 0 -2 1 -1 0 -3 2 -2 
0 -2 1 -1 0 -3 2 -2 0 -2 2 -2 0 -1 2 -2 
1 0 1 -1 1 0 1 1 1 1 0 1 2 2 0 1 
1 1 0 1 1 1 0 1 1 1 0 3 2 2 0 2 
1 1 0 2 1 1 0 2 1 1 0 2 1 1 0 2 
2 2 0 2 1 1 0 1 2 2 1 1 1 0 1 0 
1 0 1 -1 1 -1 1 -1 0 -2 2 -2 0 -3 2 -2 
0 -3 1 -1 0 -2 1 -1 0 -2 1 -1 0 -2 1 -1 
0 -3 1 -1 0 -2 1 -1 0 -2 1 -1 0 -2 1 -1 
0 -2 1 -1 0 -3 2 -2 0 -2 1 -1 0 -2 2 -2 
0 -1 2 -2 1 -1 1 0 1 -1 1 0 1 0 1 0 
1 1 1 1 1 1 1 1 0 2 2 2 0 1 1 1 
0 2 2 2 0 2 1 1 0 2 1 1 0 2 1 1 
0 2 1 1 0 2 1 1 0 2 1 1 0 2 1 1 
0 2 1 1 0 3 1 1 0 2 1 1 0 2 1 1 
0 1 1 1 0 3 2 2 0 2 2 2 1 1 1 1 
1 0 1 0 1 0 0 -1 2 -2 1 -1 0 -2 2 -2 
0 -2 1 -1 0 -2 1 -1 0 -1 1 -1 0 -2 1 -1 
0 -2 1 -1 0 -2 1 -1 0 -3 2 -2 0 -2 1 -1 
0 -1 1 -1 0 -1 2 -2 1 -1 1 0 1 -1 1 1 
1 0 -1 0 2 2 0 1 2 2 0 2 2 2 0 2 
1 1 0 2 1 1 0 2 1 1 0 2 1 1 0 2 
1 1 0 3 2 2 0 3 2 2 0 2 2 2 1 1 
1 1 1 0 1 0 1 0 1 -1 1 -1 0 -2 2 -2 
0 -2 1 -1 0 -2 1 -1 0 -1 1 -1 0 -3 1 -1 
0 -2 1 -1 0 -2 1 -1 0 -3 1 -1 0 -2 1 -1 
0 -3 1 -1 0 -2 1 -1 0 -3 1 -1 0 -1 1 -1 
0 -2 1 -1 0 -2 1 -1 0 -2 2 -2 0 -2 2 -2 
1 -1 1 -1 1 0 5270 2871 300 MP stroke
1 -1 1 0 1 0 1 1 1 1 1 1 1 1 0 1 
2 2 0 2 2 2 0 2 1 1 0 2 1 1 0 1 
1 1 0 2 1 1 0 2 1 1 0 3 1 1 0 2 
1 1 0 2 1 1 0 3 1 1 0 2 1 1 0 2 
1 1 0 3 1 1 0 2 1 1 0 1 1 1 0 2 
1 1 0 2 2 2 1 1 1 1 1 1 1 0 1 0 
1 -1 1 -1 1 -1 0 -2 2 -2 0 -2 1 -1 0 -1 
1 -1 0 -2 1 -1 0 -2 1 -1 0 -2 1 -1 0 -2 
1 -1 0 -2 1 -1 0 -2 1 -1 0 -3 2 -2 0 -2 
2 -2 1 -1 1 -1 1 0 1 0 1 0 1 1 1 1 
0 2 2 2 0 3 2 2 0 2 1 1 0 2 1 1 
0 2 1 1 0 3 1 1 0 2 1 1 0 2 1 1 
0 1 1 1 0 3 2 2 0 2 2 2 1 1 1 1 
1 0 1 0 1 -1 1 -1 0 -2 2 -2 0 -2 1 -1 
0 -1 1 -1 0 -2 1 -1 0 -2 1 -1 0 -3 1 -1 
0 -3 1 -1 0 -2 1 -1 0 -3 1 -1 0 -3 1 -1 
0 -2 1 -1 0 -2 1 -1 0 -3 1 -1 0 -2 1 -1 
0 -2 1 -1 0 -1 1 -1 0 -2 1 -1 0 -1 1 -1 
0 -1 2 -2 1 -1 1 -1 1 0 1 -1 1 1 1 0 
1 1 1 0 -1 0 2 2 1 1 0 2 2 2 0 2 
2 2 0 2 1 1 0 2 1 1 0 2 1 1 0 2 
1 1 0 3 1 1 0 2 1 1 0 2 1 1 0 3 
1 1 0 3 1 1 0 2 1 1 0 3 1 1 0 2 
1 1 0 2 1 1 0 2 1 1 0 1 1 1 0 2 
2 2 1 1 1 1 1 1 1 0 1 -1 1 -1 0 -1 
2 -2 0 -2 2 -2 0 -2 1 -1 0 -2 1 -1 0 -2 
1 -1 0 -2 1 -1 0 -2 1 -1 0 -3 1 -1 0 -2 
1 -1 0 -2 1 -1 0 -2 2 -2 0 -2 2 -2 1 -1 
1 -1 1 0 1 0 1 1 0 1 2 2 0 2 2 2 
0 2 1 1 0 2 1 1 0 2 1 1 0 2 1 1 
0 3 1 1 0 2 1 1 0 2 1 1 0 2 1 1 
0 2 1 1 0 2 1 1 0 2 2 2 1 1 1 1 
1 1 1 0 1 -1 0 -1 2 -2 1 -1 0 -3 2 -2 
0 -3 1 -1 0 -2 1 -1 0 -3 1 -1 0 -2 1 -1 
0 -3 1 -1 0 -3 1 -1 0 -3 1 -1 0 -3 1 -1 
0 -2 1 -1 0 -3 1 -1 0 -2 1 -1 0 -2 1 -1 
0 -2 1 -1 0 -2 1 -1 0 -1 1 -1 0 -2 2 -2 
1 -1 1 -1 1 -1 5067 2869 300 MP stroke
1 0 1 0 1 0 1 1 1 0 1 1 0 2 2 2 
1 1 0 2 1 1 0 1 1 1 0 2 1 1 0 2 
1 1 0 2 1 1 0 2 1 1 0 3 1 1 0 2 
1 1 0 3 1 1 0 3 1 1 0 2 1 1 0 3 
1 1 0 3 1 1 0 2 1 1 0 3 1 1 0 2 
1 1 0 1 1 1 0 2 1 1 0 2 2 2 1 1 
1 1 1 0 1 0 1 -1 0 -1 2 -2 0 -2 2 -2 
0 -2 1 -1 0 -2 1 -1 0 -2 1 -1 0 -3 1 -1 
0 -2 1 -1 0 -3 1 -1 0 -2 1 -1 0 -2 1 -1 
0 -2 1 -1 0 -1 1 -1 0 -3 2 -2 1 -1 1 -1 
1 0 1 0 1 0 0 1 2 2 0 1 1 1 0 1 
1 1 0 2 1 1 0 2 1 1 0 2 1 1 0 2 
1 1 0 2 1 1 0 3 1 1 0 3 1 1 0 2 
1 1 0 2 1 1 0 3 2 2 0 2 1 1 0 1 
2 2 1 0 1 1 1 -1 1 0 -1 0 2 -2 1 -1 
0 -2 1 -1 0 -2 1 -1 0 -1 1 -1 0 -3 1 -1 
0 -2 1 -1 0 -3 1 -1 0 -3 1 -1 0 -3 1 -1 
0 -3 1 -1 0 -3 1 -1 0 -3 1 -1 0 -3 1 -1 
0 -3 1 -1 0 -2 1 -1 0 -2 1 -1 0 -2 1 -1 
0 -3 2 -2 0 -2 2 -2 1 -1 1 -1 1 0 1 -1 
1 0 1 1 1 0 0 1 2 2 1 1 0 2 2 2 
0 2 1 1 0 1 1 1 0 2 1 1 0 3 1 1 
0 2 1 1 0 2 1 1 0 3 1 1 0 3 1 1 
0 3 1 1 0 3 1 1 0 3 1 1 0 3 1 1 
0 2 1 1 0 3 1 1 0 3 1 1 0 3 2 2 
0 3 2 2 1 1 1 1 1 1 1 0 1 0 0 -1 
2 -2 0 -2 2 -2 0 -2 1 -1 0 -2 1 -1 0 -2 
1 -1 0 -3 1 -1 0 -2 1 -1 0 -3 1 -1 0 -2 
1 -1 0 -3 1 -1 0 -2 1 -1 0 -3 2 -2 0 -2 
1 -1 0 -1 2 -2 1 0 1 -1 1 1 1 0 -1 0 
2 2 1 1 0 2 1 1 0 1 1 1 0 2 1 1 
0 2 1 1 0 3 1 1 0 3 1 1 0 2 1 1 
0 3 1 1 0 2 1 1 0 3 1 1 0 2 1 1 
0 2 1 1 0 2 1 1 0 1 1 1 1 1 1 1 
1 1 1 0 1 -1 1 -1 0 -1 2 -2 0 -2 1 -1 
0 -2 1 -1 0 -2 1 -1 0 -3 1 -1 0 -3 1 -1 
0 -3 1 -1 0 -3 1 -1 0 -4 1 -1 0 -3 1 -1 
0 -3 1 -1 0 -3 4876 2837 300 MP stroke
1 -1 0 -3 1 -1 0 -3 1 -1 0 -2 1 -1 0 -3 
1 -1 0 -1 1 -1 0 -3 2 -2 0 -2 2 -2 1 -1 
1 -1 1 0 1 0 1 0 1 0 1 1 0 1 2 2 
0 2 2 2 0 2 1 1 0 1 1 1 0 2 1 1 
0 2 1 1 0 3 1 1 0 2 1 1 0 3 1 1 
0 3 1 1 0 4 1 1 0 2 1 1 0 4 1 1 
0 3 1 1 0 3 1 1 0 3 1 1 0 3 1 1 
0 2 1 1 0 2 1 1 0 3 2 2 0 2 2 2 
1 0 1 1 1 0 0 -1 2 -2 0 -1 2 -2 0 -2 
1 -1 0 -2 1 -1 0 -3 1 -1 0 -2 1 -1 0 -3 
1 -1 0 -3 1 -1 0 -2 1 -1 0 -3 1 -1 0 -3 
1 -1 0 -2 1 -1 0 -3 2 -2 0 -2 2 -2 1 -1 
1 -1 1 0 1 1 0 1 2 2 0 2 2 2 0 2 
1 1 0 2 1 1 0 3 1 1 0 3 1 1 0 3 
1 1 0 3 1 1 0 3 1 1 0 2 1 1 0 3 
1 1 0 2 1 1 0 3 2 2 0 2 2 2 1 1 
1 0 1 0 0 -1 2 -2 0 -1 1 -1 0 -1 1 -1 
0 -2 1 -1 0 -2 1 -1 0 -3 1 -1 0 -3 1 -1 
0 -3 1 -1 0 -3 1 -1 0 -4 1 -1 0 -4 1 -1 
0 -3 1 -1 0 -3 1 -1 0 -4 1 -1 0 -3 1 -1 
0 -3 1 -1 0 -2 1 -1 0 -3 1 -1 0 -1 1 -1 
0 -2 1 -1 0 -2 2 -2 0 -1 2 -2 1 0 1 -1 
1 0 1 1 1 1 1 1 0 1 2 2 0 2 2 2 
0 2 1 1 0 2 1 1 0 2 1 1 0 3 1 1 
0 3 1 1 0 2 1 1 0 4 1 1 0 3 1 1 
0 3 1 1 0 4 1 1 0 3 1 1 0 3 1 1 
0 4 1 1 0 3 1 1 0 2 1 1 0 3 1 1 
0 2 1 1 0 2 1 1 0 2 2 2 1 1 1 1 
1 0 1 -1 1 -1 0 -1 2 -2 0 -2 1 -1 0 -2 
1 -1 0 -2 1 -1 0 -3 1 -1 0 -3 1 -1 0 -3 
1 -1 0 -3 1 -1 0 -3 1 -1 0 -3 1 -1 0 -2 
1 -1 0 -3 1 -1 0 -2 1 -1 0 -2 2 -2 1 -1 
1 -1 1 -1 1 1 1 0 -1 0 2 2 0 2 2 2 
0 2 1 1 0 2 1 1 0 3 1 1 0 3 1 1 
0 3 1 1 0 3 1 1 0 3 1 1 0 3 1 1 
0 3 1 1 0 3 1 1 0 2 1 1 0 3 2 2 
0 2 2 2 1 0 1 0 1 0 0 -1 2 -2 0 -2 
1 -1 0 -1 1 -1 4682 2787 300 MP stroke
0 -3 1 -1 0 -2 1 -1 0 -4 1 -1 0 -3 1 -1 
0 -3 1 -1 0 -4 1 -1 0 -4 1 -1 0 -4 1 -1 
0 -4 1 -1 0 -3 1 -1 0 -3 1 -1 0 -4 1 -1 
0 -3 1 -1 0 -2 1 -1 0 -2 1 -1 0 -2 1 -1 
0 -2 1 -1 0 -2 2 -2 1 -1 1 -1 1 -1 1 0 
1 0 1 1 1 1 0 1 2 2 0 2 2 2 0 2 
1 1 0 2 1 1 0 2 1 1 0 3 1 1 0 2 
1 1 0 4 1 1 0 3 1 1 0 3 1 1 0 4 
1 1 0 3 1 1 0 4 1 1 0 4 1 1 0 4 
1 1 0 3 1 1 0 3 1 1 0 3 1 1 0 3 
1 1 0 2 1 1 0 1 1 1 0 2 1 1 1 1 
1 1 1 1 1 -1 1 -1 1 -1 0 -2 2 -2 0 -2 
1 -1 0 -3 1 -1 0 -2 1 -1 0 -4 1 -1 0 -3 
1 -1 0 -3 1 -1 0 -3 1 -1 0 -3 1 -1 0 -3 
1 -1 0 -3 1 -1 0 -2 1 -1 0 -3 2 -2 0 -2 
2 -2 1 0 1 0 1 0 -1 0 2 2 1 1 0 2 
1 1 0 1 1 1 0 3 1 1 0 2 1 1 0 3 
1 1 0 4 1 1 0 3 1 1 0 3 1 1 0 4 
1 1 0 3 1 1 0 3 1 1 0 3 1 1 0 2 
1 1 0 2 1 1 0 2 2 2 1 1 1 0 1 0 
1 -1 1 -1 0 -3 2 -2 0 -3 1 -1 0 -2 1 -1 
0 -4 1 -1 0 -3 1 -1 0 -4 1 -1 0 -4 1 -1 
0 -4 1 -1 0 -4 1 -1 0 -4 1 -1 0 -4 1 -1 
0 -3 1 -1 0 -4 1 -1 0 -3 1 -1 0 -3 1 -1 
0 -3 1 -1 0 -2 1 -1 0 -2 1 -1 0 -2 1 -1 
0 -2 2 -2 1 -1 1 -1 1 0 1 0 1 0 1 1 
1 1 0 2 2 2 0 1 1 1 0 2 1 1 0 2 
1 1 0 2 1 1 0 3 1 1 0 3 1 1 0 3 
1 1 0 3 1 1 0 4 1 1 0 4 1 1 0 4 
1 1 0 3 1 1 0 5 1 1 0 4 1 1 0 3 
1 1 0 4 1 1 0 3 1 1 0 3 1 1 0 3 
1 1 0 3 2 2 0 2 2 2 1 1 1 0 1 -1 
1 -1 0 -2 2 -2 0 -2 1 -1 0 -3 1 -1 0 -2 
1 -1 0 -3 1 -1 0 -4 1 -1 0 -3 1 -1 0 -4 
1 -1 0 -3 1 -1 0 -3 1 -1 0 -3 1 -1 0 -3 
1 -1 0 -2 1 -1 0 -2 1 -1 0 -2 1 -1 1 -1 
1 -1 1 -1 1 0 1 1 0 2 2 2 0 2 1 1 
0 2 1 1 0 3 4500 2815 300 MP stroke
1 1 0 3 1 1 0 3 1 1 0 4 1 1 0 3 
1 1 0 4 1 1 0 4 1 1 0 3 1 1 0 3 
1 1 0 3 1 1 0 2 1 1 0 3 2 2 1 1 
1 1 1 0 1 0 0 -1 2 -2 0 -2 1 -1 0 -2 
1 -1 0 -3 1 -1 0 -3 1 -1 0 -4 1 -1 0 -3 
1 -1 0 -4 1 -1 0 -5 1 -1 0 -4 1 -1 0 -5 
1 -1 0 -4 1 -1 0 -4 1 -1 0 -4 1 -1 0 -3 
1 -1 0 -4 1 -1 0 -3 1 -1 0 -3 1 -1 0 -2 
1 -1 0 -3 2 -2 0 -2 1 -1 1 -1 1 -1 1 -1 
1 0 1 0 1 1 1 1 1 1 0 2 2 2 0 2 
1 1 0 2 1 1 0 2 1 1 0 3 1 1 0 3 
1 1 0 3 1 1 0 3 1 1 0 4 1 1 0 4 
1 1 0 4 1 1 0 5 1 1 0 4 1 1 0 4 
1 1 0 4 1 1 0 4 1 1 0 4 1 1 0 3 
1 1 0 4 1 1 0 2 1 1 0 2 1 1 0 2 
1 1 0 1 2 2 1 0 1 0 0 -1 2 -2 0 -2 
2 -2 0 -3 1 -1 0 -3 1 -1 0 -3 1 -1 0 -3 
1 -1 0 -4 1 -1 0 -4 1 -1 0 -3 1 -1 0 -4 
1 -1 0 -3 1 -1 0 -4 1 -1 0 -2 1 -1 0 -4 
2 -2 0 -2 1 -1 1 -1 1 -1 1 0 1 0 -1 0 
2 2 0 2 2 2 0 2 1 1 0 3 1 1 0 3 
1 1 0 4 1 1 0 3 1 1 0 4 1 1 0 4 
1 1 0 4 1 1 0 4 1 1 0 3 1 1 0 3 
1 1 0 3 1 1 0 3 1 1 0 2 2 2 1 1 
1 1 1 0 1 -1 0 -2 2 -2 0 -2 1 -1 0 -3 
1 -1 0 -3 1 -1 0 -4 1 -1 0 -3 1 -1 0 -5 
1 -1 0 -4 1 -1 0 -5 1 -1 0 -5 1 -1 0 -4 
1 -1 0 -5 1 -1 0 -4 1 -1 0 -4 1 -1 0 -4 
1 -1 0 -4 1 -1 0 -3 1 -1 0 -3 1 -1 0 -2 
1 -1 0 -2 1 -1 0 -1 1 -1 0 -2 2 -2 1 -1 
1 0 1 0 1 0 1 1 1 1 0 2 2 2 0 2 
1 1 0 2 1 1 0 2 1 1 0 3 1 1 0 3 
1 1 0 3 1 1 0 4 1 1 0 3 1 1 0 5 
1 1 0 4 1 1 0 5 1 1 0 4 1 1 0 5 
1 1 0 4 1 1 0 4 1 1 0 4 1 1 0 4 
1 1 0 4 1 1 0 3 1 1 0 3 1 1 0 1 
1 1 0 2 1 1 1 1 1 1 1 0 1 0 0 -1 
2 -2 0 -2 1 -1 4320 2759 300 MP stroke
0 -2 1 -1 0 -3 1 -1 0 -3 1 -1 0 -4 1 -1 
0 -3 1 -1 0 -4 1 -1 0 -5 1 -1 0 -4 1 -1 
0 -3 1 -1 0 -4 1 -1 0 -3 1 -1 0 -3 1 -1 
0 -2 1 -1 0 -3 2 -2 1 -1 1 -1 1 1 1 0 
-1 0 2 2 0 2 1 1 0 2 1 1 0 2 1 1 
0 3 1 1 0 4 1 1 0 4 1 1 0 4 1 1 
0 4 1 1 0 4 1 1 0 4 1 1 0 4 1 1 
0 4 1 1 0 3 1 1 0 3 1 1 0 2 1 1 
0 2 2 2 1 1 1 0 1 -1 0 -1 2 -2 0 -2 
1 -1 0 -2 1 -1 0 -3 1 -1 0 -4 1 -1 0 -4 
1 -1 0 -5 1 -1 0 -4 1 -1 0 -5 1 -1 0 -5 
1 -1 0 -5 1 -1 0 -5 1 -1 0 -5 1 -1 0 -4 
1 -1 0 -5 1 -1 0 -3 1 -1 0 -4 1 -1 0 -3 
1 -1 0 -3 1 -1 0 -2 1 -1 0 -2 1 -1 0 -2 
2 -2 1 -1 1 -1 1 0 1 0 1 0 0 1 2 2 
0 2 2 2 0 2 1 1 0 2 1 1 0 3 1 1 
0 3 1 1 0 4 1 1 0 3 1 1 0 4 1 1 
0 4 1 1 0 5 1 1 0 4 1 1 0 5 1 1 
0 5 1 1 0 5 1 1 0 5 1 1 0 4 1 1 
0 4 1 1 0 4 1 1 0 4 1 1 0 2 1 1 
0 4 2 2 0 2 1 1 1 1 1 0 1 0 1 -1 
1 -1 0 -2 1 -1 0 -2 1 -1 0 -3 1 -1 0 -3 
1 -1 0 -3 1 -1 0 -4 1 -1 0 -5 1 -1 0 -4 
1 -1 0 -4 1 -1 0 -4 1 -1 0 -4 1 -1 0 -4 
1 -1 0 -3 1 -1 0 -3 1 -1 0 -2 1 -1 0 -2 
2 -2 1 -1 1 0 1 1 0 1 2 2 0 2 1 1 
0 2 1 1 0 3 1 1 0 4 1 1 0 3 1 1 
0 5 1 1 0 4 1 1 0 4 1 1 0 4 1 1 
0 5 1 1 0 3 1 1 0 4 1 1 0 3 1 1 
0 3 1 1 0 1 1 1 0 2 2 2 1 0 1 0 
0 -1 2 -2 0 -1 1 -1 0 -3 1 -1 0 -2 1 -1 
0 -4 1 -1 0 -4 1 -1 0 -4 1 -1 0 -5 1 -1 
0 -5 1 -1 0 -5 1 -1 0 -5 1 -1 0 -5 1 -1 
0 -5 1 -1 0 -5 1 -1 0 -5 1 -1 0 -4 1 -1 
0 -4 1 -1 0 -4 1 -1 0 -3 1 -1 0 -2 1 -1 
0 -2 1 -1 0 -2 1 -1 0 -2 2 -2 1 -1 1 0 
1 0 1 0 1 1 0 1 2 2 0 1 1 1 0 2 
1 1 0 2 1 1 4144 2842 300 MP stroke
0 2 1 1 0 3 1 1 0 3 1 1 0 4 1 1 
0 4 1 1 0 4 1 1 0 4 1 1 0 5 1 1 
0 4 1 1 0 5 1 1 0 5 1 1 0 4 1 1 
0 5 1 1 0 4 1 1 0 4 1 1 0 4 1 1 
0 3 1 1 0 3 1 1 0 2 1 1 0 1 1 1 
1 1 1 1 1 0 1 0 0 -2 2 -2 0 -2 1 -1 
0 -2 1 -1 0 -3 1 -1 0 -3 1 -1 0 -4 1 -1 
0 -4 1 -1 0 -5 1 -1 0 -4 1 -1 0 -4 1 -1 
0 -4 1 -1 0 -4 1 -1 0 -4 1 -1 0 -3 1 -1 
0 -2 1 -1 0 -3 2 -2 1 -1 1 -1 1 0 1 1 
0 2 2 2 0 2 1 1 0 3 1 1 0 3 1 1 
0 4 1 1 0 3 1 1 0 4 1 1 0 5 1 1 
0 4 1 1 0 4 1 1 0 3 1 1 0 4 1 1 
0 3 1 1 0 2 1 1 0 2 1 1 0 2 2 2 
1 1 1 -1 1 0 0 -2 2 -2 0 -2 1 -1 0 -3 
1 -1 0 -3 1 -1 0 -4 1 -1 0 -4 1 -1 0 -4 
1 -1 0 -5 1 -1 0 -5 1 -1 0 -5 1 -1 0 -5 
1 -1 0 -5 1 -1 0 -5 1 -1 0 -4 1 -1 0 -4 
1 -1 0 -4 1 -1 0 -4 1 -1 0 -3 1 -1 0 -2 
1 -1 0 -4 2 -2 0 -2 1 -1 0 -1 2 -2 1 0 
1 -1 1 0 1 1 1 1 0 1 2 2 0 2 1 1 
0 1 1 1 0 2 1 1 0 2 1 1 0 3 1 1 
0 3 1 1 0 3 1 1 0 3 1 1 0 4 1 1 
0 4 1 1 0 4 1 1 0 4 1 1 0 4 1 1 
0 4 1 1 0 4 1 1 0 3 1 1 0 3 1 1 
0 3 1 1 0 3 1 1 0 3 2 2 0 2 2 2 
1 0 1 0 1 0 -1 0 2 -2 1 -1 0 -2 1 -1 
0 -2 1 -1 0 -2 1 -1 0 -3 1 -1 0 -3 1 -1 
0 -4 1 -1 0 -3 1 -1 0 -4 1 -1 0 -4 1 -1 
0 -3 1 -1 0 -4 1 -1 0 -3 1 -1 0 -2 1 -1 
0 -3 1 -1 0 -1 1 -1 0 -2 2 -2 1 -1 1 0 
1 1 1 1 0 1 2 2 0 2 1 1 0 2 1 1 
0 2 1 1 0 3 1 1 0 3 1 1 0 3 1 1 
0 3 1 1 0 3 1 1 0 2 1 1 0 3 1 1 
0 2 1 1 0 1 1 1 0 2 2 2 1 1 1 0 
1 0 1 -1 0 -1 2 -2 0 -2 1 -1 0 -2 1 -1 
0 -3 1 -1 0 -2 1 -1 0 -3 1 -1 0 -4 1 -1 
0 -4 1 -1 0 -3 3967 2814 300 MP stroke
1 -1 0 -4 1 -1 0 -4 1 -1 0 -4 1 -1 0 -3 
1 -1 0 -4 1 -1 0 -3 1 -1 0 -3 1 -1 0 -2 
1 -1 0 -3 1 -1 0 -1 1 -1 0 -2 1 -1 0 -2 
2 -2 1 -1 1 -1 1 -1 1 -1 1 0 1 1 1 0 
1 1 1 1 1 1 0 2 2 2 0 2 2 2 0 2 
1 1 0 2 1 1 0 2 1 1 0 1 1 1 0 3 
1 1 0 2 1 1 0 2 1 1 0 2 1 1 0 2 
1 1 0 2 1 1 0 1 1 1 0 3 2 2 0 2 
2 2 1 1 1 1 1 1 1 0 1 0 1 -1 1 0 
0 -2 2 -2 0 -1 1 -1 0 -2 2 -2 0 -2 1 -1 
0 -2 1 -1 0 -2 1 -1 0 -2 1 -1 0 -2 1 -1 
0 -2 1 -1 0 -2 1 -1 0 -2 1 -1 0 -1 1 -1 
0 -2 2 -2 0 -1 2 -2 1 0 1 -1 1 0 1 1 
1 1 1 1 0 1 2 2 1 1 0 2 2 2 0 2 
1 1 0 1 1 1 0 2 2 2 0 1 2 2 1 1 
1 1 1 1 1 0 1 0 1 0 1 -1 1 -1 1 -1 
0 -2 2 -2 0 -2 2 -2 0 -2 1 -1 0 -1 1 -1 
0 -2 1 -1 0 -2 1 -1 0 -2 1 -1 0 -1 1 -1 
0 -3 2 -2 0 -2 1 -1 0 -2 2 -2 0 -2 1 -1 
1 -1 0 -2 2 -2 1 -1 1 -1 1 -1 1 0 1 -1 
1 0 1 0 1 0 1 0 1 0 1 1 1 0 1 1 
1 1 1 1 1 1 0 1 2 2 1 1 0 1 2 2 
0 1 2 2 1 1 0 1 2 2 1 1 1 1 1 1 
1 1 1 1 1 0 1 1 1 0 1 0 1 0 1 0 
1 -1 1 0 1 -1 1 -1 0 -1 2 -2 1 -1 0 -1 
2 -2 0 -1 2 -2 1 -1 0 -1 2 -2 1 -1 1 -1 
1 -1 1 0 1 -1 1 0 1 -1 1 0 1 0 1 1 
1 0 1 1 1 0 1 1 1 1 1 1 1 1 1 1 
1 0 1 1 1 1 1 1 1 0 1 1 1 0 1 0 
1 0 1 0 1 0 1 -1 1 -1 1 0 1 -1 1 -1 
1 -1 0 -1 2 -2 1 -1 1 -1 0 -1 2 -2 1 -1 
1 -1 1 -1 1 -1 1 -1 1 -1 1 -1 1 -1 1 0 
1 -1 1 -1 1 0 1 0 1 -1 1 0 1 0 1 0 
1 0 1 0 1 1 1 0 1 0 1 0 1 1 1 0 
1 1 1 0 1 1 1 0 1 1 1 1 1 0 1 1 
1 0 1 1 1 0 1 1 1 0 1 1 1 0 1 0 
1 0 1 1 1 0 1 0 1 0 1 -1 1 0 1 0 
1 -1 1 0 1 -1 3710 2883 300 MP stroke
1 0 1 -1 1 0 1 -1 1 0 1 -1 1 -1 1 0 
1 -1 1 0 1 -1 1 0 1 0 1 0 1 -1 1 0 
1 0 1 0 1 1 1 0 1 0 1 0 1 1 1 0 
1 0 1 1 1 0 1 1 1 0 1 0 1 0 1 1 
1 0 1 0 1 0 1 0 1 0 1 -1 1 0 1 0 
1 0 1 -1 1 0 1 -1 1 0 1 -1 1 0 1 -1 
1 0 1 -1 1 0 1 -1 1 0 1 -1 1 0 1 -1 
1 0 1 0 1 0 1 -1 1 0 1 0 1 0 1 0 
1 0 1 0 1 0 1 0 1 0 1 0 1 0 1 0 
1 0 1 0 1 1 1 0 1 0 1 0 1 1 1 0 
1 0 1 0 1 0 1 1 1 0 1 0 1 0 1 0 
1 1 1 0 1 0 1 0 1 0 1 0 1 0 1 0 
1 0 1 0 1 -1 1 0 1 0 1 0 1 0 1 -1 
1 0 1 0 1 0 1 -1 1 0 1 0 1 0 1 0 
1 -1 1 0 1 0 1 0 1 0 1 0 1 0 1 0 
1 0 1 0 1 0 1 1 1 0 1 0 1 0 1 0 
1 0 1 0 1 1 1 0 1 0 1 0 1 0 1 0 
1 0 1 0 1 0 1 0 1 0 1 0 1 -1 1 0 
1 0 1 0 1 0 1 -1 1 0 1 0 1 0 1 0 
1 -1 1 0 1 0 1 0 1 0 1 -1 1 0 1 0 
1 0 1 0 1 0 1 0 1 0 1 0 1 0 1 0 
1 0 1 0 1 0 1 0 1 0 1 0 1 0 1 0 
1 0 1 0 1 0 1 0 1 0 1 1 1 0 1 0 
1 0 1 0 1 0 1 0 1 0 1 0 1 0 1 0 
1 0 1 0 1 0 1 0 1 0 1 0 1 0 1 0 
1 0 1 0 1 0 1 0 1 0 1 0 1 0 1 0 
1 0 1 -1 1 0 1 0 1 0 1 0 1 0 1 0 
1 0 1 0 1 0 1 0 1 0 1 0 1 0 1 0 
1 0 1 0 1 0 1 1 1 0 1 0 1 0 1 0 
1 0 1 0 1 0 1 0 1 0 1 0 1 0 1 0 
1 0 1 0 1 0 1 0 1 0 1 0 1 0 1 0 
1 0 1 -1 0 -2 3460 2899 252 MP stroke
c10
1 0 0 -3 1 -1 0 -3 1 -1 0 -3 1 -1 0 -2 
1 -1 0 -2 1 -1 0 -2 2 -2 1 -1 1 0 1 0 
1 0 1 1 0 1 2 2 0 2 1 1 0 1 1 1 
0 2 1 1 0 3 1 1 0 3 1 1 0 3 1 1 
0 3 1 1 0 4 1 1 0 4 1 1 0 4 1 1 
0 4 1 1 0 4 1 1 0 5 1 1 0 4 1 1 
0 4 1 1 0 4 1 1 0 4 1 1 0 4 1 1 
0 3 1 1 0 3 1 1 0 3 1 1 0 3 2 2 
0 2 2 2 1 0 1 0 1 0 1 -1 0 -2 2 -2 
0 -2 1 -1 0 -2 1 -1 0 -2 1 -1 0 -3 1 -1 
0 -4 1 -1 0 -3 1 -1 0 -3 1 -1 0 -3 1 -1 
0 -3 1 -1 0 -3 1 -1 0 -2 1 -1 0 -2 1 -1 
0 -2 1 -1 0 -2 2 -2 1 -1 1 0 1 0 0 1 
2 2 1 1 0 2 1 1 0 2 1 1 0 2 1 1 
0 3 1 1 0 3 1 1 0 3 1 1 0 4 1 1 
0 3 1 1 0 3 1 1 0 3 1 1 0 2 1 1 
0 3 1 1 0 1 1 1 0 3 2 2 1 1 1 0 
1 0 1 -1 0 -2 2 -2 0 -2 1 -1 0 -3 1 -1 
0 -2 1 -1 0 -4 1 -1 0 -4 1 -1 0 -4 1 -1 
0 -5 1 -1 0 -4 1 -1 0 -5 1 -1 0 -5 1 -1 
0 -5 1 -1 0 -4 1 -1 0 -5 1 -1 0 -4 1 -1 
0 -4 1 -1 0 -4 1 -1 0 -3 1 -1 0 -2 1 -1 
0 -2 1 -1 0 -2 1 -1 0 -1 1 -1 1 -1 1 -1 
1 0 1 0 1 0 -1 0 2 2 1 1 0 2 1 1 
0 1 1 1 0 2 1 1 0 3 1 1 0 2 1 1 
0 4 1 1 0 3 1 1 0 4 1 1 0 4 1 1 
0 4 1 1 0 5 1 1 0 4 1 1 0 5 1 1 
0 5 1 1 0 4 1 1 0 4 1 1 0 5 1 1 
0 4 1 1 0 4 1 1 0 3 1 1 0 3 1 1 
0 2 1 1 0 2 1 1 0 2 2 2 1 1 1 1 
1 0 0 -1 2 -2 0 -2 2 -2 0 -2 1 -1 0 -3 
1 -1 0 -3 1 -1 0 -3 1 -1 0 -3 1 -1 0 -4 
1 -1 0 -3 1 -1 0 -3 1 -1 0 -4 1 -1 0 -2 
1 -1 0 -3 1 -1 0 -3 2 -2 0 -2 2 -2 1 0 
1 -1 1 1 1 1 0 2 2 2 0 2 1 1 0 3 
1 1 0 3 1 1 0 3 1 1 0 3 1 1 0 3 
1 1 0 4 1 1 0 3 1 1 0 3 1 1 0 3 
1 1 0 3 1 1 5310 2727 300 MP stroke
0 2 1 1 0 2 1 1 0 2 2 2 1 0 -1 0 
2 0 1 0 0 -1 2 -2 0 -2 1 -1 0 -2 1 -1 
0 -4 1 -1 0 -3 1 -1 0 -4 1 -1 0 -4 1 -1 
0 -5 1 -1 0 -5 1 -1 0 -5 1 -1 0 -5 1 -1 
0 -5 1 -1 0 -5 1 -1 0 -5 1 -1 0 -5 1 -1 
0 -4 1 -1 0 -4 1 -1 0 -3 1 -1 0 -3 1 -1 
0 -3 1 -1 0 -2 1 -1 0 -2 2 -2 1 -1 1 -1 
1 0 1 0 0 1 2 2 0 2 2 2 0 3 1 1 
0 2 1 1 0 3 1 1 0 3 1 1 0 3 1 1 
0 5 1 1 0 3 1 1 0 5 1 1 0 4 1 1 
0 5 1 1 0 5 1 1 0 5 1 1 0 5 1 1 
0 5 1 1 0 4 1 1 0 5 1 1 0 4 1 1 
0 3 1 1 0 4 1 1 0 3 1 1 0 2 1 1 
0 2 1 1 0 2 2 2 1 1 1 0 1 -1 1 -1 
0 -2 2 -2 0 -2 1 -1 0 -3 1 -1 0 -2 1 -1 
0 -4 1 -1 0 -3 1 -1 0 -4 1 -1 0 -3 1 -1 
0 -4 1 -1 0 -3 1 -1 0 -4 1 -1 0 -2 1 -1 
0 -3 1 -1 0 -2 1 -1 0 -2 2 -2 1 -1 1 -1 
1 1 1 0 0 2 2 2 0 2 1 1 0 2 1 1 
0 3 1 1 0 3 1 1 0 3 1 1 0 4 1 1 
0 4 1 1 0 3 1 1 0 4 1 1 0 3 1 1 
0 3 1 1 0 3 1 1 0 2 1 1 0 3 2 2 
1 1 1 1 1 -1 1 -1 1 -1 0 -2 1 -1 0 -2 
1 -1 0 -3 1 -1 0 -3 1 -1 0 -5 1 -1 0 -4 
1 -1 0 -5 1 -1 0 -5 1 -1 0 -5 1 -1 0 -5 
1 -1 0 -6 1 -1 0 -5 1 -1 0 -5 1 -1 0 -5 
1 -1 0 -5 1 -1 0 -5 1 -1 0 -4 1 -1 0 -3 
1 -1 0 -3 1 -1 0 -2 1 -1 0 -2 1 -1 0 -2 
2 -2 1 -1 1 0 1 0 1 0 0 2 2 2 0 1 
1 1 0 2 1 1 0 2 1 1 0 3 1 1 0 3 
1 1 0 4 1 1 0 4 1 1 0 4 1 1 0 5 
1 1 0 4 1 1 0 5 1 1 0 6 1 1 0 5 
1 1 0 5 1 1 0 5 1 1 0 5 1 1 0 4 
1 1 0 5 1 1 0 5 1 1 0 3 1 1 0 4 
1 1 0 3 1 1 0 2 1 1 0 2 1 1 0 1 
2 2 1 0 1 0 1 -1 0 -1 2 -2 0 -2 1 -1 
0 -3 1 -1 0 -3 1 -1 0 -3 1 -1 0 -3 1 -1 
0 -4 1 -1 0 -4 5134 2730 300 MP stroke
1 -1 0 -4 1 -1 0 -4 1 -1 0 -3 1 -1 0 -4 
1 -1 0 -2 1 -1 0 -3 1 -1 0 -3 2 -2 1 -1 
1 -1 1 0 1 0 0 1 2 2 0 2 1 1 0 2 
1 1 0 3 1 1 0 3 1 1 0 4 1 1 0 3 
1 1 0 4 1 1 0 4 1 1 0 4 1 1 0 4 
1 1 0 3 1 1 0 3 1 1 0 3 1 1 0 2 
1 1 0 2 2 2 1 1 1 0 1 0 0 -2 2 -2 
0 -2 1 -1 0 -2 1 -1 0 -4 1 -1 0 -4 1 -1 
0 -4 1 -1 0 -6 1 -1 0 -5 1 -1 0 -5 1 -1 
0 -6 1 -1 0 -6 1 -1 0 -5 1 -1 0 -6 1 -1 
0 -6 1 -1 0 -5 1 -1 0 -5 1 -1 0 -4 1 -1 
0 -4 1 -1 0 -3 1 -1 0 -3 1 -1 0 -2 1 -1 
0 -2 1 -1 0 -2 2 -2 1 -1 1 0 1 1 1 1 
1 1 0 2 1 1 0 1 1 1 0 3 1 1 0 3 
1 1 0 2 1 1 0 4 1 1 0 4 1 1 0 4 
1 1 0 5 1 1 0 5 1 1 0 6 1 1 0 5 
1 1 0 5 1 1 0 6 1 1 0 5 1 1 0 6 
1 1 0 5 1 1 0 5 1 1 0 5 1 1 0 4 
1 1 0 4 1 1 0 3 1 1 0 3 1 1 0 2 
1 1 0 2 1 1 1 1 1 1 1 1 1 -1 0 -1 
2 -2 0 -2 1 -1 0 -2 1 -1 0 -3 1 -1 0 -3 
1 -1 0 -4 1 -1 0 -4 1 -1 0 -4 1 -1 0 -4 
1 -1 0 -4 1 -1 0 -4 1 -1 0 -4 1 -1 0 -3 
1 -1 0 -3 1 -1 0 -2 1 -1 0 -3 2 -2 1 -1 
1 -1 1 0 0 1 2 2 0 2 1 1 0 2 1 1 
0 2 1 1 0 3 1 1 0 4 1 1 0 4 1 1 
0 4 1 1 0 4 1 1 0 4 1 1 0 4 1 1 
0 4 1 1 0 4 1 1 0 3 1 1 0 2 1 1 
0 2 1 1 0 2 2 2 1 1 1 -1 1 -1 0 -1 
1 -1 0 -1 1 -1 0 -3 1 -1 0 -3 1 -1 0 -4 
1 -1 0 -4 1 -1 0 -5 1 -1 0 -6 1 -1 0 -5 
1 -1 0 -6 1 -1 0 -7 1 -1 0 -6 1 -1 0 -6 
1 -1 0 -6 1 -1 0 -5 1 -1 0 -6 1 -1 0 -5 
1 -1 0 -4 1 -1 0 -4 1 -1 0 -3 1 -1 0 -3 
1 -1 0 -2 1 -1 0 -3 2 -2 1 -1 1 -1 1 0 
0 1 2 2 0 1 1 1 0 1 1 1 0 2 1 1 
0 3 1 1 0 3 1 1 0 4 1 1 0 4 1 1 
0 4 1 1 0 5 4961 2775 300 MP stroke
1 1 0 5 1 1 0 6 1 1 0 5 1 1 0 6 
1 1 0 6 1 1 0 6 1 1 0 6 1 1 0 6 
1 1 0 5 1 1 0 5 1 1 0 5 1 1 0 4 
1 1 0 4 1 1 0 4 1 1 0 2 1 1 0 2 
1 1 0 2 2 2 1 1 1 0 1 -1 0 -2 2 -2 
0 -3 1 -1 0 -2 1 -1 0 -4 1 -1 0 -4 1 -1 
0 -4 1 -1 0 -4 1 -1 0 -4 1 -1 0 -5 1 -1 
0 -4 1 -1 0 -4 1 -1 0 -4 1 -1 0 -3 1 -1 
0 -3 1 -1 0 -2 1 -1 0 -2 1 -1 1 -1 1 -1 
1 -1 1 1 0 1 2 2 0 2 1 1 0 3 1 1 
0 3 1 1 0 3 1 1 0 4 1 1 0 5 1 1 
0 4 1 1 0 5 1 1 0 4 1 1 0 5 1 1 
0 4 1 1 0 3 1 1 0 3 1 1 0 3 1 1 
0 2 2 2 1 1 1 1 1 -1 1 -1 0 -2 1 -1 
0 -2 1 -1 0 -3 1 -1 0 -3 1 -1 0 -5 1 -1 
0 -5 1 -1 0 -6 1 -1 0 -6 1 -1 0 -6 1 -1 
0 -6 1 -1 0 -7 1 -1 0 -6 1 -1 0 -7 1 -1 
0 -6 1 -1 0 -6 1 -1 0 -6 1 -1 0 -5 1 -1 
0 -4 1 -1 0 -4 1 -1 0 -4 1 -1 0 -2 1 -1 
0 -2 1 -1 0 -2 1 -1 1 -1 1 -1 1 0 1 0 
0 1 2 2 0 2 1 1 0 1 1 1 0 3 1 1 
0 3 1 1 0 4 1 1 0 4 1 1 0 5 1 1 
0 4 1 1 0 5 1 1 0 6 1 1 0 6 1 1 
0 6 1 1 0 7 1 1 0 6 1 1 0 6 1 1 
0 6 1 1 0 6 1 1 0 6 1 1 0 5 1 1 
0 5 1 1 0 5 1 1 0 3 1 1 0 4 1 1 
0 2 1 1 0 3 2 2 1 1 1 1 1 -1 0 -1 
2 -2 0 -2 1 -1 0 -3 1 -1 0 -3 1 -1 0 -4 
1 -1 0 -4 1 -1 0 -4 1 -1 0 -5 1 -1 0 -5 
1 -1 0 -5 1 -1 0 -4 1 -1 0 -5 1 -1 0 -3 
1 -1 0 -4 1 -1 0 -2 1 -1 0 -3 1 -1 0 -1 
1 -1 1 -1 1 -1 1 0 0 1 2 2 0 2 1 1 
0 2 1 1 0 3 1 1 0 4 1 1 0 4 1 1 
0 4 1 1 0 5 1 1 0 5 1 1 0 5 1 1 
0 4 1 1 0 5 1 1 0 4 1 1 0 3 1 1 
0 3 1 1 0 3 1 1 0 2 2 2 1 1 1 0 
0 -1 2 -2 0 -2 1 -1 0 -3 1 -1 0 -4 1 -1 
0 -4 1 -1 0 -5 4790 2689 300 MP stroke
1 -1 0 -6 1 -1 0 -6 1 -1 0 -7 1 -1 0 -6 
1 -1 0 -8 1 -1 0 -6 1 -1 0 -7 1 -1 0 -7 
1 -1 0 -6 1 -1 0 -6 1 -1 0 -6 1 -1 0 -5 
1 -1 0 -5 1 -1 0 -4 1 -1 0 -3 1 -1 0 -3 
1 -1 0 -2 1 -1 0 -1 1 -1 1 -1 1 -1 1 0 
0 1 2 2 0 1 1 1 0 2 1 1 0 2 1 1 
0 3 1 1 0 4 1 1 0 4 1 1 0 4 1 1 
0 6 1 1 0 5 1 1 0 6 1 1 0 6 1 1 
0 6 1 1 0 7 1 1 0 7 1 1 0 6 1 1 
0 7 1 1 0 7 1 1 0 6 1 1 0 6 1 1 
0 5 1 1 0 5 1 1 0 5 1 1 0 4 1 1 
0 3 1 1 0 2 1 1 0 3 2 2 1 0 1 0 
1 -1 1 -1 0 -2 1 -1 0 -3 1 -1 0 -3 1 -1 
0 -4 1 -1 0 -4 1 -1 0 -4 1 -1 0 -5 1 -1 
0 -6 1 -1 0 -4 1 -1 0 -6 1 -1 0 -4 1 -1 
0 -5 1 -1 0 -3 1 -1 0 -4 1 -1 0 -2 1 -1 
0 -2 1 -1 0 -2 2 -2 1 0 1 1 1 1 0 2 
1 1 0 2 1 1 0 3 1 1 0 3 1 1 0 5 
1 1 0 4 1 1 0 5 1 1 0 5 1 1 0 5 
1 1 0 5 1 1 0 5 1 1 0 5 1 1 0 4 
1 1 0 4 1 1 0 3 1 1 0 3 2 2 1 1 
1 1 1 -1 1 -1 0 -2 1 -1 0 -3 1 -1 0 -3 
1 -1 0 -4 1 -1 0 -5 1 -1 0 -6 1 -1 0 -6 
1 -1 0 -7 1 -1 0 -7 1 -1 0 -7 1 -1 0 -8 
1 -1 0 -7 1 -1 0 -7 1 -1 0 -8 1 -1 0 -6 
1 -1 0 -7 1 -1 0 -6 1 -1 0 -4 1 -1 0 -5 
1 -1 0 -4 1 -1 0 -3 1 -1 0 -3 1 -1 0 -2 
2 -2 1 -1 1 -1 1 1 0 1 2 2 0 1 1 1 
0 3 1 1 0 3 1 1 0 3 1 1 0 4 1 1 
0 5 1 1 0 5 1 1 0 6 1 1 0 6 1 1 
0 6 1 1 0 7 1 1 0 7 1 1 0 7 1 1 
0 7 1 1 0 7 1 1 0 7 1 1 0 7 1 1 
0 7 1 1 0 5 1 1 0 6 1 1 0 6 1 1 
0 4 1 1 0 4 1 1 0 3 1 1 0 2 1 1 
0 2 1 1 1 1 1 0 1 0 0 -2 2 -2 0 -2 
1 -1 0 -3 1 -1 0 -4 1 -1 0 -5 1 -1 0 -4 
1 -1 0 -5 1 -1 0 -5 1 -1 0 -6 1 -1 0 -5 
1 -1 0 -6 1 -1 4623 2697 300 MP stroke
0 -5 1 -1 0 -4 1 -1 0 -4 1 -1 0 -3 1 -1 
0 -3 1 -1 0 -2 2 -2 1 -1 1 0 0 1 2 2 
0 2 1 1 0 3 1 1 0 3 1 1 0 5 1 1 
0 4 1 1 0 5 1 1 0 6 1 1 0 5 1 1 
0 6 1 1 0 5 1 1 0 5 1 1 0 5 1 1 
0 4 1 1 0 4 1 1 0 3 1 1 0 2 1 1 
0 1 1 1 1 1 1 0 1 -1 0 -2 1 -1 0 -2 
1 -1 0 -3 1 -1 0 -4 1 -1 0 -5 1 -1 0 -6 
1 -1 0 -6 1 -1 0 -7 1 -1 0 -7 1 -1 0 -9 
1 -1 0 -7 1 -1 0 -8 1 -1 0 -8 1 -1 0 -8 
1 -1 0 -7 1 -1 0 -7 1 -1 0 -6 1 -1 0 -6 
1 -1 0 -6 1 -1 0 -4 1 -1 0 -4 1 -1 0 -3 
1 -1 0 -3 1 -1 0 -2 2 -2 1 0 -1 0 2 0 
1 0 -1 0 2 2 0 2 1 1 0 2 1 1 0 3 
1 1 0 3 1 1 0 4 1 1 0 5 1 1 0 5 
1 1 0 5 1 1 0 7 1 1 0 6 1 1 0 7 
1 1 0 8 1 1 0 7 1 1 0 8 1 1 0 7 
1 1 0 8 1 1 0 8 1 1 0 6 1 1 0 7 
1 1 0 7 1 1 0 6 1 1 0 5 1 1 0 4 
1 1 0 4 1 1 0 3 1 1 0 3 2 2 1 1 
1 0 0 -1 2 -2 0 -2 1 -1 0 -3 1 -1 0 -4 
1 -1 0 -4 1 -1 0 -5 1 -1 0 -5 1 -1 0 -5 
1 -1 0 -6 1 -1 0 -6 1 -1 0 -6 1 -1 0 -6 
1 -1 0 -5 1 -1 0 -4 1 -1 0 -4 1 -1 0 -3 
1 -1 0 -2 1 -1 0 -2 1 -1 1 -1 1 -1 1 1 
1 1 0 2 1 1 0 2 1 1 0 4 1 1 0 4 
1 1 0 5 1 1 0 5 1 1 0 6 1 1 0 6 
1 1 0 6 1 1 0 5 1 1 0 6 1 1 0 5 
1 1 0 5 1 1 0 5 1 1 0 3 1 1 0 3 
1 1 0 2 2 2 1 1 0 -1 2 -2 0 -1 1 -1 
0 -3 1 -1 0 -4 1 -1 0 -5 1 -1 0 -5 1 -1 
0 -7 1 -1 0 -7 1 -1 0 -8 1 -1 0 -8 1 -1 
0 -8 1 -1 0 -8 1 -1 0 -9 1 -1 0 -8 1 -1 
0 -9 1 -1 0 -7 1 -1 0 -7 1 -1 0 -7 1 -1 
0 -6 1 -1 0 -6 1 -1 0 -4 1 -1 0 -4 1 -1 
0 -3 1 -1 0 -2 1 -1 0 -2 2 -2 1 0 1 0 
-1 0 2 2 0 1 1 1 0 2 1 1 0 2 1 1 
0 4 1 1 0 3 4458 2770 300 MP stroke
1 1 0 5 1 1 0 5 1 1 0 6 1 1 0 7 
1 1 0 7 1 1 0 7 1 1 0 8 1 1 0 7 
1 1 0 9 1 1 0 8 1 1 0 7 1 1 0 8 
1 1 0 8 1 1 0 8 1 1 0 7 1 1 0 7 
1 1 0 6 1 1 0 5 1 1 0 4 1 1 0 4 
1 1 0 3 1 1 0 2 2 2 1 1 1 -1 1 -1 
0 -2 1 -1 0 -3 1 -1 0 -3 1 -1 0 -4 1 -1 
0 -5 1 -1 0 -6 1 -1 0 -5 1 -1 0 -7 1 -1 
0 -6 1 -1 0 -6 1 -1 0 -6 1 -1 0 -6 1 -1 
0 -5 1 -1 0 -5 1 -1 0 -4 1 -1 0 -3 1 -1 
0 -3 2 -2 1 -1 1 0 0 1 2 2 0 2 1 1 
0 4 1 1 0 4 1 1 0 4 1 1 0 6 1 1 
0 6 1 1 0 6 1 1 0 6 1 1 0 7 1 1 
0 6 1 1 0 6 1 1 0 5 1 1 0 5 1 1 
0 4 1 1 0 4 1 1 0 2 1 1 0 2 2 2 
1 0 1 -1 0 -2 1 -1 0 -2 1 -1 0 -4 1 -1 
0 -4 1 -1 0 -6 1 -1 0 -6 1 -1 0 -8 1 -1 
0 -8 1 -1 0 -8 1 -1 0 -9 1 -1 0 -8 1 -1 
0 -10 1 -1 0 -9 1 -1 0 -8 1 -1 0 -8 1 -1 
0 -9 1 -1 0 -7 1 -1 0 -7 1 -1 0 -6 1 -1 
0 -5 1 -1 0 -5 1 -1 0 -4 1 -1 0 -2 1 -1 
0 -3 2 -2 1 -1 1 0 1 0 -1 0 2 2 0 2 
1 1 0 2 1 1 0 4 1 1 0 3 1 1 0 5 
1 1 0 5 1 1 0 6 1 1 0 6 1 1 0 8 
1 1 0 7 1 1 0 8 1 1 0 8 1 1 0 9 
1 1 0 8 1 1 0 9 1 1 0 9 1 1 0 8 
1 1 0 8 1 1 0 7 1 1 0 8 1 1 0 6 
1 1 0 7 1 1 0 5 1 1 0 4 1 1 0 4 
1 1 0 2 1 1 0 2 2 2 1 0 1 -1 0 -2 
1 -1 0 -2 1 -1 0 -3 1 -1 0 -4 1 -1 0 -5 
1 -1 0 -6 1 -1 0 -6 1 -1 0 -6 1 -1 0 -7 
1 -1 0 -6 1 -1 0 -7 1 -1 0 -6 1 -1 0 -7 
1 -1 0 -5 1 -1 0 -4 1 -1 0 -4 1 -1 0 -3 
1 -1 0 -2 1 -1 1 -1 1 -1 1 1 1 1 0 2 
1 1 0 3 1 1 0 4 1 1 0 4 1 1 0 6 
1 1 0 6 1 1 0 6 1 1 0 7 1 1 0 7 
1 1 0 6 1 1 0 6 1 1 0 7 1 1 0 5 
1 1 0 5 1 1 4294 2608 300 MP stroke
0 4 1 1 0 3 1 1 0 3 2 2 1 1 1 0 
-1 0 2 -2 0 -2 1 -1 0 -3 1 -1 0 -5 1 -1 
0 -5 1 -1 0 -7 1 -1 0 -7 1 -1 0 -8 1 -1 
0 -9 1 -1 0 -9 1 -1 0 -9 1 -1 0 -9 1 -1 
0 -10 1 -1 0 -9 1 -1 0 -10 1 -1 0 -8 1 -1 
0 -8 1 -1 0 -8 1 -1 0 -7 1 -1 0 -6 1 -1 
0 -5 1 -1 0 -5 1 -1 0 -3 1 -1 0 -3 1 -1 
0 -2 2 -2 1 -1 1 1 0 1 2 2 0 2 1 1 
0 3 1 1 0 4 1 1 0 4 1 1 0 5 1 1 
0 6 1 1 0 6 1 1 0 8 1 1 0 7 1 1 
0 8 1 1 0 9 1 1 0 9 1 1 0 8 1 1 
0 9 1 1 0 10 1 1 0 9 1 1 0 8 1 1 
0 8 1 1 0 8 1 1 0 8 1 1 0 6 1 1 
0 6 1 1 0 5 1 1 0 4 1 1 0 4 1 1 
0 2 1 1 1 1 1 1 1 -1 1 -1 0 -2 1 -1 
0 -3 1 -1 0 -4 1 -1 0 -5 1 -1 0 -5 1 -1 
0 -6 1 -1 0 -7 1 -1 0 -7 1 -1 0 -7 1 -1 
0 -7 1 -1 0 -7 1 -1 0 -7 1 -1 0 -5 1 -1 
0 -6 1 -1 0 -4 1 -1 0 -4 1 -1 0 -2 1 -1 
0 -2 1 -1 1 -1 1 0 0 1 2 2 0 3 1 1 
0 3 1 1 0 4 1 1 0 5 1 1 0 6 1 1 
0 6 1 1 0 7 1 1 0 7 1 1 0 7 1 1 
0 7 1 1 0 7 1 1 0 5 1 1 0 6 1 1 
0 5 1 1 0 3 1 1 0 3 1 1 0 2 2 2 
1 0 0 -2 2 -2 0 -3 1 -1 0 -4 1 -1 0 -5 
1 -1 0 -7 1 -1 0 -7 1 -1 0 -8 1 -1 0 -8 
1 -1 0 -9 1 -1 0 -10 1 -1 0 -10 1 -1 0 -10 
1 -1 0 -10 1 -1 0 -9 1 -1 0 -9 1 -1 0 -9 
1 -1 0 -8 1 -1 0 -8 1 -1 0 -6 1 -1 0 -6 
1 -1 0 -5 1 -1 0 -5 1 -1 0 -3 1 -1 0 -3 
2 -2 1 -1 1 -1 1 1 0 2 2 2 0 3 1 1 
0 3 1 1 0 4 1 1 0 5 1 1 0 6 1 1 
0 6 1 1 0 6 1 1 0 8 1 1 0 7 1 1 
0 9 1 1 0 9 1 1 0 8 1 1 0 9 1 1 
0 9 1 1 0 9 1 1 0 9 1 1 0 8 1 1 
0 8 1 1 0 8 1 1 0 7 1 1 0 6 1 1 
0 5 1 1 0 5 1 1 0 3 1 1 0 4 2 2 
1 1 1 0 1 -1 4127 2581 300 MP stroke
0 -2 1 -1 0 -3 1 -1 0 -3 1 -1 0 -5 1 -1 
0 -5 1 -1 0 -6 1 -1 0 -7 1 -1 0 -7 1 -1 
0 -7 1 -1 0 -7 1 -1 0 -7 1 -1 0 -7 1 -1 
0 -6 1 -1 0 -6 1 -1 0 -5 1 -1 0 -4 1 -1 
0 -3 1 -1 0 -3 2 -2 1 -1 1 0 0 2 2 2 
0 3 1 1 0 4 1 1 0 4 1 1 0 5 1 1 
0 6 1 1 0 6 1 1 0 7 1 1 0 6 1 1 
0 7 1 1 0 6 1 1 0 5 1 1 0 6 1 1 
0 4 1 1 0 4 1 1 0 2 1 1 0 2 1 1 
1 1 1 1 0 -1 2 -2 0 -3 1 -1 0 -4 1 -1 
0 -4 1 -1 0 -6 1 -1 0 -7 1 -1 0 -7 1 -1 
0 -9 1 -1 0 -8 1 -1 0 -10 1 -1 0 -9 1 -1 
0 -9 1 -1 0 -10 1 -1 0 -9 1 -1 0 -9 1 -1 
0 -9 1 -1 0 -8 1 -1 0 -8 1 -1 0 -6 1 -1 
0 -7 1 -1 0 -5 1 -1 0 -4 1 -1 0 -4 1 -1 
0 -2 1 -1 0 -3 2 -2 1 0 1 0 0 1 2 2 
0 1 1 1 0 3 1 1 0 3 1 1 0 4 1 1 
0 5 1 1 0 4 1 1 0 6 1 1 0 7 1 1 
0 6 1 1 0 7 1 1 0 8 1 1 0 7 1 1 
0 7 1 1 0 8 1 1 0 8 1 1 0 7 1 1 
0 7 1 1 0 7 1 1 0 7 1 1 0 5 1 1 
0 6 1 1 0 4 1 1 0 4 1 1 0 3 1 1 
0 2 2 2 1 1 1 0 -1 0 2 -2 0 -1 1 -1 
0 -2 1 -1 0 -3 1 -1 0 -4 1 -1 0 -5 1 -1 
0 -5 1 -1 0 -6 1 -1 0 -6 1 -1 0 -6 1 -1 
0 -7 1 -1 0 -6 1 -1 0 -6 1 -1 0 -6 1 -1 
0 -5 1 -1 0 -5 1 -1 0 -4 1 -1 0 -3 1 -1 
0 -3 1 -1 0 -1 1 -1 1 -1 1 -1 1 0 0 2 
2 2 0 2 1 1 0 3 1 1 0 4 1 1 0 4 
1 1 0 3 1 1 0 5 1 1 0 5 1 1 0 4 
1 1 0 5 1 1 0 4 1 1 0 3 1 1 0 3 
1 1 0 2 1 1 0 3 2 2 1 0 1 0 0 -1 
2 -2 0 -3 1 -1 0 -3 1 -1 0 -4 1 -1 0 -4 
1 -1 0 -6 1 -1 0 -6 1 -1 0 -6 1 -1 0 -7 
1 -1 0 -8 1 -1 0 -7 1 -1 0 -8 1 -1 0 -8 
1 -1 0 -7 1 -1 0 -7 1 -1 0 -7 1 -1 0 -6 
1 -1 0 -6 1 -1 0 -5 1 -1 0 -5 1 -1 0 -4 
1 -1 0 -4 1 -1 3962 2800 300 MP stroke
0 -3 1 -1 0 -2 1 -1 0 -2 2 -2 1 -1 1 0 
1 0 1 1 0 1 2 2 0 2 1 1 0 2 1 1 
0 2 1 1 0 3 1 1 0 4 1 1 0 3 1 1 
0 4 1 1 0 4 1 1 0 4 1 1 0 5 1 1 
0 4 1 1 0 4 1 1 0 4 1 1 0 5 1 1 
0 4 1 1 0 4 1 1 0 3 1 1 0 3 1 1 
0 3 1 1 0 3 2 2 0 2 2 2 1 1 1 0 
1 -1 1 -1 0 -2 2 -2 0 -2 1 -1 0 -3 1 -1 
0 -3 1 -1 0 -3 1 -1 0 -4 1 -1 0 -4 1 -1 
0 -4 1 -1 0 -4 1 -1 0 -4 1 -1 0 -3 1 -1 
0 -4 1 -1 0 -4 1 -1 0 -3 1 -1 0 -2 1 -1 
0 -2 1 -1 0 -2 1 -1 0 -1 2 -2 1 -1 1 0 
1 0 1 1 0 2 2 2 0 1 1 1 0 1 1 1 
0 2 1 1 0 2 1 1 0 2 1 1 0 1 1 1 
0 3 2 2 0 3 2 2 1 1 1 1 1 1 1 0 
1 -1 1 -1 1 -1 0 -2 1 -1 0 -1 1 -1 0 -3 
1 -1 0 -2 1 -1 0 -3 1 -1 0 -3 1 -1 0 -4 
1 -1 0 -4 1 -1 0 -4 1 -1 0 -3 1 -1 0 -5 
1 -1 0 -4 1 -1 0 -3 1 -1 0 -4 1 -1 0 -4 
1 -1 0 -3 1 -1 0 -3 1 -1 0 -3 1 -1 0 -2 
1 -1 0 -2 1 -1 0 -3 2 -2 0 -2 2 -2 1 -1 
1 -1 1 0 1 0 1 0 1 1 1 0 -1 0 2 2 
1 1 1 1 0 2 2 2 0 2 2 2 0 2 1 1 
0 1 1 1 0 2 1 1 0 1 1 1 0 2 1 1 
0 1 1 1 0 2 2 2 0 2 1 1 0 1 1 1 
0 1 2 2 1 1 1 1 1 1 1 1 1 0 1 0 
1 0 1 -1 1 -1 0 -1 2 -2 1 -1 0 -2 2 -2 
0 -2 1 -1 0 -2 2 -2 0 -2 1 -1 0 -2 2 -2 
0 -3 2 -2 0 -2 2 -2 1 -1 0 -1 2 -2 1 0 
1 -1 1 0 1 0 1 0 1 1 1 0 1 1 1 1 
0 1 2 2 1 1 1 1 1 1 1 1 1 1 1 1 
1 1 1 0 1 0 1 0 1 0 1 -1 1 0 0 -1 
2 -2 1 -1 0 -2 2 -2 0 -1 1 -1 0 -2 2 -2 
0 -1 1 -1 0 -2 1 -1 0 -1 1 -1 0 -2 2 -2 
0 -2 1 -1 0 -1 1 -1 0 -2 2 -2 0 -1 2 -2 
0 -1 2 -2 1 -1 1 -1 1 0 1 -1 1 -1 1 0 
1 0 1 0 1 0 1 1 1 0 1 0 1 1 1 1 
1 0 1 1 1 1 3743 2873 300 MP stroke
1 1 1 1 1 1 1 1 1 1 1 1 1 1 1 1 
1 1 1 1 1 1 1 0 1 1 1 0 1 1 1 0 
1 0 1 0 1 0 1 0 1 -1 1 0 1 -1 1 0 
1 -1 1 -1 1 -1 1 -1 1 -1 1 -1 1 -1 1 -1 
1 -1 1 -1 1 -1 1 -1 1 0 1 -1 1 0 1 -1 
1 0 1 0 1 0 1 0 1 0 1 0 1 1 1 0 
1 0 1 1 1 0 1 1 1 0 1 1 1 0 1 1 
1 0 1 0 1 0 1 0 1 0 1 0 1 0 1 -1 
1 0 1 -1 1 -1 1 0 1 -1 1 -1 1 -1 1 -1 
1 -1 1 -1 1 -1 1 -1 1 -1 1 -1 1 0 1 -1 
1 -1 1 -1 1 0 1 -1 1 0 1 -1 1 0 1 -1 
1 0 1 0 1 0 1 0 1 0 1 0 1 0 1 0 
1 1 1 0 1 0 1 1 1 0 1 0 1 1 1 0 
1 0 1 1 1 0 1 1 1 0 1 0 1 1 1 0 
1 0 1 1 1 0 1 0 1 0 1 0 1 0 1 0 
1 0 1 0 1 0 1 -1 1 0 1 0 1 0 1 -1 
1 0 1 -1 1 0 1 0 1 -1 1 0 1 -1 1 0 
1 0 1 -1 1 0 1 0 1 0 1 0 1 0 1 0 
1 0 1 0 1 0 1 0 1 0 1 0 1 0 1 1 
1 0 1 0 1 0 1 0 1 0 1 1 1 0 1 0 
1 0 1 0 1 0 1 0 1 -1 1 0 1 0 1 0 
1 0 1 -1 1 0 1 0 1 -1 1 0 1 -1 1 0 
1 0 1 -1 1 0 1 -1 1 0 1 0 1 -1 1 0 
1 0 1 0 1 -1 1 0 1 0 1 0 1 0 1 0 
1 0 1 0 1 0 1 0 1 0 1 0 1 0 1 0 
1 0 1 0 1 1 1 0 1 0 1 0 1 0 1 0 
1 0 1 1 1 0 1 0 1 0 1 0 1 0 1 0 
1 0 1 0 1 0 1 0 1 0 1 0 1 0 1 0 
1 0 1 0 1 0 1 0 1 0 1 0 1 0 1 0 
1 -1 1 0 1 0 1 0 1 0 1 0 1 0 1 0 
1 0 1 0 1 0 1 0 1 0 1 0 1 0 1 0 
1 0 1 0 1 0 1 0 1 0 1 0 1 0 1 1 
1 0 1 0 1 0 1 0 1 0 1 0 1 0 1 0 
1 0 1 0 1 0 1 0 1 0 1 0 1 -1 1 0 
1 0 1 -1 1 0 1 0 1 -1 1 0 1 -1 1 -1 
1 0 1 -1 1 0 3460 2899 284 MP stroke
gr

24 w
c10
0 sg
4326 3187 mt 
(Years) s
3143 1775 mt  -90 rotate
(Psyllids) s
90 rotate
6 w

end %%Color Dict

eplot
%%EndObject

epage
end

showpage

%%Trailer
%%EOF
