%!PS-Adobe-3.0 EPSF-3.0
%%Creator: MATLAB, The MathWorks, Inc. Version 8.3.0.532 (R2014a). Operating System: Microsoft Windows 7 Enterprise .
%%Title: U:\My Documents\Citrus\Matlab\1st Model - Malaria\citmalariaNEWb.eps
%%CreationDate: 01/15/2016  15:49:45
%%DocumentNeededFonts: Helvetica
%%DocumentProcessColors: Cyan Magenta Yellow Black
%%LanguageLevel: 2
%%Pages: 1
%%BoundingBox:    96   238   515   553
%%EndComments

%%BeginProlog
% MathWorks dictionary
/MathWorks 160 dict begin
% definition operators
/bdef {bind def} bind def
/ldef {load def} bind def
/xdef {exch def} bdef
/xstore {exch store} bdef
% operator abbreviations
/c  /clip ldef
/cc /concat ldef
/cp /closepath ldef
/gr /grestore ldef
/gs /gsave ldef
/mt /moveto ldef
/np /newpath ldef
/cm /currentmatrix ldef
/sm /setmatrix ldef
/rm /rmoveto ldef
/rl /rlineto ldef
/s {show newpath} bdef
/sc {setcmykcolor} bdef
/sr /setrgbcolor ldef
/sg /setgray ldef
/w /setlinewidth ldef
/j /setlinejoin ldef
/cap /setlinecap ldef
/rc {rectclip} bdef
/rf {rectfill} bdef
% page state control
/pgsv () def
/bpage {/pgsv save def} bdef
/epage {pgsv restore} bdef
/bplot /gsave ldef
/eplot {stroke grestore} bdef
% orientation switch
/portraitMode 0 def /landscapeMode 1 def /rotateMode 2 def
% coordinate system mappings
/dpi2point 0 def
% font control
/FontSize 0 def
/FMS {/FontSize xstore findfont [FontSize 0 0 FontSize neg 0 0]
  makefont setfont} bdef
/ISOLatin1Encoding where {pop /WindowsLatin1Encoding 256 array bdef
ISOLatin1Encoding WindowsLatin1Encoding copy pop
/.notdef/.notdef/quotesinglbase/florin/quotedblbase/ellipsis/dagger
/daggerdbl/circumflex/perthousand/Scaron/guilsinglleft/OE/.notdef/.notdef
/.notdef/.notdef/quoteleft/quoteright/quotedblleft/quotedblright/bullet
/endash/emdash/tilde/trademark/scaron/guilsinglright/oe/.notdef/.notdef
/Ydieresis WindowsLatin1Encoding 128 32 getinterval astore pop}
{/WindowsLatin1Encoding StandardEncoding bdef} ifelse
/reencode {exch dup where {pop load} {pop StandardEncoding} ifelse
  exch dup 3 1 roll findfont dup length dict begin
  { 1 index /FID ne {def}{pop pop} ifelse } forall
  /Encoding exch def currentdict end definefont pop} bdef
/isroman {findfont /CharStrings get /Agrave known} bdef
/FMSR {3 1 roll 1 index dup isroman {reencode} {pop pop} ifelse
  exch FMS} bdef
/csm {1 dpi2point div -1 dpi2point div scale neg translate
 dup landscapeMode eq {pop -90 rotate}
  {rotateMode eq {90 rotate} if} ifelse} bdef
% line types: solid, dotted, dashed, dotdash
/SO { [] 0 setdash } bdef
/DO { [.5 dpi2point mul 4 dpi2point mul] 0 setdash } bdef
/DA { [6 dpi2point mul] 0 setdash } bdef
/DD { [.5 dpi2point mul 4 dpi2point mul 6 dpi2point mul 4
  dpi2point mul] 0 setdash } bdef
% macros for lines and objects
/L {lineto stroke} bdef
/MP {3 1 roll moveto 1 sub {rlineto} repeat} bdef
/AP {{rlineto} repeat} bdef
/PDlw -1 def
/W {/PDlw currentlinewidth def setlinewidth} def
/PP {closepath eofill} bdef
/DP {closepath stroke} bdef
/MR {4 -2 roll moveto dup  0 exch rlineto exch 0 rlineto
  neg 0 exch rlineto closepath} bdef
/FR {MR stroke} bdef
/PR {MR fill} bdef
/L1i {{currentfile picstr readhexstring pop} image} bdef
/tMatrix matrix def
/MakeOval {newpath tMatrix currentmatrix pop translate scale
0 0 1 0 360 arc tMatrix setmatrix} bdef
/FO {MakeOval stroke} bdef
/PO {MakeOval fill} bdef
/PD {currentlinewidth 2 div 0 360 arc fill
   PDlw -1 eq not {PDlw w /PDlw -1 def} if} def
/FA {newpath tMatrix currentmatrix pop translate scale
  0 0 1 5 -2 roll arc tMatrix setmatrix stroke} bdef
/PA {newpath tMatrix currentmatrix pop	translate 0 0 moveto scale
  0 0 1 5 -2 roll arc closepath tMatrix setmatrix fill} bdef
/FAn {newpath tMatrix currentmatrix pop translate scale
  0 0 1 5 -2 roll arcn tMatrix setmatrix stroke} bdef
/PAn {newpath tMatrix currentmatrix pop translate 0 0 moveto scale
  0 0 1 5 -2 roll arcn closepath tMatrix setmatrix fill} bdef
/vradius 0 def /hradius 0 def /lry 0 def
/lrx 0 def /uly 0 def /ulx 0 def /rad 0 def
/MRR {/vradius xdef /hradius xdef /lry xdef /lrx xdef /uly xdef
  /ulx xdef newpath tMatrix currentmatrix pop ulx hradius add uly
  vradius add translate hradius vradius scale 0 0 1 180 270 arc 
  tMatrix setmatrix lrx hradius sub uly vradius add translate
  hradius vradius scale 0 0 1 270 360 arc tMatrix setmatrix
  lrx hradius sub lry vradius sub translate hradius vradius scale
  0 0 1 0 90 arc tMatrix setmatrix ulx hradius add lry vradius sub
  translate hradius vradius scale 0 0 1 90 180 arc tMatrix setmatrix
  closepath} bdef
/FRR {MRR stroke } bdef
/PRR {MRR fill } bdef
/MlrRR {/lry xdef /lrx xdef /uly xdef /ulx xdef /rad lry uly sub 2 div def
  newpath tMatrix currentmatrix pop ulx rad add uly rad add translate
  rad rad scale 0 0 1 90 270 arc tMatrix setmatrix lrx rad sub lry rad
  sub translate rad rad scale 0 0 1 270 90 arc tMatrix setmatrix
  closepath} bdef
/FlrRR {MlrRR stroke } bdef
/PlrRR {MlrRR fill } bdef
/MtbRR {/lry xdef /lrx xdef /uly xdef /ulx xdef /rad lrx ulx sub 2 div def
  newpath tMatrix currentmatrix pop ulx rad add uly rad add translate
  rad rad scale 0 0 1 180 360 arc tMatrix setmatrix lrx rad sub lry rad
  sub translate rad rad scale 0 0 1 0 180 arc tMatrix setmatrix
  closepath} bdef
/FtbRR {MtbRR stroke } bdef
/PtbRR {MtbRR fill } bdef
/stri 6 array def /dtri 6 array def
/smat 6 array def /dmat 6 array def
/tmat1 6 array def /tmat2 6 array def /dif 3 array def
/asub {/ind2 exch def /ind1 exch def dup dup
  ind1 get exch ind2 get sub exch } bdef
/tri_to_matrix {
  2 0 asub 3 1 asub 4 0 asub 5 1 asub
  dup 0 get exch 1 get 7 -1 roll astore } bdef
/compute_transform {
  dmat dtri tri_to_matrix tmat1 invertmatrix 
  smat stri tri_to_matrix tmat2 concatmatrix } bdef
/ds {stri astore pop} bdef
/dt {dtri astore pop} bdef
/db {2 copy /cols xdef /rows xdef mul dup 3 mul string
  currentfile 
  3 index 0 eq {/ASCIIHexDecode filter}
  {/ASCII85Decode filter 3 index 2 eq {/RunLengthDecode filter} if }
  ifelse exch readstring pop
  dup 0 3 index getinterval /rbmap xdef
  dup 2 index dup getinterval /gbmap xdef
  1 index dup 2 mul exch getinterval /bbmap xdef pop pop}bdef
/it {gs np dtri aload pop moveto lineto lineto cp c
  cols rows 8 compute_transform 
  rbmap gbmap bbmap true 3 colorimage gr}bdef
/il {newpath moveto lineto stroke}bdef
currentdict end def
%%EndProlog

%%BeginSetup
MathWorks begin

0 cap

end
%%EndSetup

%%Page: 1 1
%%BeginPageSetup
%%PageBoundingBox:    96   238   515   553
MathWorks begin
bpage
%%EndPageSetup

%%BeginObject: obj1
bplot

/dpi2point 12 def
portraitMode 1152 6636 csm

    0     0  5039  3780 rc
87 dict begin %Colortable dictionary
/c0 { 0.000000 0.000000 0.000000 sr} bdef
/c1 { 1.000000 1.000000 1.000000 sr} bdef
/c2 { 0.900000 0.000000 0.000000 sr} bdef
/c3 { 0.000000 0.820000 0.000000 sr} bdef
/c4 { 0.000000 0.000000 0.800000 sr} bdef
/c5 { 0.910000 0.820000 0.320000 sr} bdef
/c6 { 1.000000 0.260000 0.820000 sr} bdef
/c7 { 0.000000 0.820000 0.820000 sr} bdef
c0
1 j
1 sg
   0    0 5040 3781 rf
6 w
0 3213 1915 0 0 -3213 504 3402 4 MP
PP
-1915 0 0 3213 1915 0 0 -3213 504 3402 5 MP stroke
4 w
DO
SO
6 w
0 sg
 504  189 mt 2419  189 L
 504 3402 mt 2419 3402 L
2419 3402 mt 2419  189 L
 504 3402 mt  504  189 L
 504 3402 mt 2419 3402 L
 504 3402 mt  504  189 L
 504 3402 mt  504 3369 L
 504  189 mt  504  221 L
%%IncludeResource: font Helvetica
/Helvetica /WindowsLatin1Encoding 120 FMSR

 471 3547 mt 
(0) s
 982 3402 mt  982 3369 L
 982  189 mt  982  221 L
 949 3547 mt 
(2) s
1461 3402 mt 1461 3369 L
1461  189 mt 1461  221 L
1428 3547 mt 
(4) s
1940 3402 mt 1940 3369 L
1940  189 mt 1940  221 L
1907 3547 mt 
(6) s
2419 3402 mt 2419 3369 L
2419  189 mt 2419  221 L
2386 3547 mt 
(8) s
 504 3402 mt  536 3402 L
2419 3402 mt 2386 3402 L
 403 3446 mt 
(0) s
 504 2866 mt  536 2866 L
2419 2866 mt 2386 2866 L
 336 2910 mt 
(20) s
 504 2331 mt  536 2331 L
2419 2331 mt 2386 2331 L
 336 2375 mt 
(40) s
 504 1795 mt  536 1795 L
2419 1795 mt 2386 1795 L
 336 1839 mt 
(60) s
 504 1260 mt  536 1260 L
2419 1260 mt 2386 1260 L
 336 1304 mt 
(80) s
 504  724 mt  536  724 L
2419  724 mt 2386  724 L
 269  768 mt 
(100) s
 504  189 mt  536  189 L
2419  189 mt 2386  189 L
 269  233 mt 
(120) s
 504  189 mt 2419  189 L
 504 3402 mt 2419 3402 L
2419 3402 mt 2419  189 L
 504 3402 mt  504  189 L
gs 504 189 1916 3214 rc
24 w
/c8 { 0.000000 0.000000 1.000000 sr} bdef
c8
1 0 1 0 1 0 1 0 1 1 1 0 1 0 1 0 
1 0 1 0 1 0 1 1 1 0 1 0 1 0 1 0 
1 0 1 0 1 1 1 0 1 0 1 0 1 0 1 0 
1 1 1 0 1 0 1 0 1 0 1 1 1 0 1 0 
1 1 1 0 1 0 1 0 1 1 1 0 1 0 1 1 
1 0 1 1 1 0 1 0 1 1 1 0 1 1 1 0 
1 1 1 0 1 1 1 0 1 1 1 0 1 1 1 1 
1 0 1 1 1 1 1 0 1 1 1 1 1 0 1 1 
1 1 1 1 1 1 1 0 1 1 1 1 1 1 1 1 
1 1 1 0 1 1 1 1 1 1 1 1 1 1 1 1 
1 1 1 0 1 1 1 1 1 1 1 1 1 1 1 1 
1 1 1 0 1 1 1 1 1 1 1 0 1 1 1 1 
1 0 1 1 1 1 1 0 1 1 1 0 1 1 1 0 
1 0 1 1 1 0 1 0 1 0 1 0 1 0 1 0 
1 0 1 0 1 0 1 0 1 0 1 -1 1 0 1 0 
1 -1 1 0 1 -1 1 0 1 -1 1 0 1 -1 1 -1 
1 0 1 -1 1 -1 1 -1 1 0 1 -1 1 -1 1 -1 
1 -1 1 -1 1 -1 1 0 1 -1 1 -1 1 -1 1 -1 
1 -1 1 -1 1 -1 1 -1 1 -1 1 -1 1 -1 1 -1 
1 -1 1 -1 1 -1 1 -1 1 -1 1 0 1 -1 1 -1 
1 -1 1 -1 1 -1 1 -1 1 0 1 -1 1 -1 1 -1 
1 -1 1 -1 1 -1 1 0 1 -1 1 -1 1 -1 1 0 
1 -1 1 -1 1 0 1 -1 1 -1 1 0 1 -1 1 0 
1 -1 1 -1 1 0 1 -1 1 0 1 -1 1 0 1 0 
1 -1 1 0 1 0 1 0 1 -1 1 0 1 0 1 0 
1 0 1 0 1 0 1 -1 1 0 1 1 1 0 1 0 
1 0 1 0 1 0 1 0 1 0 1 0 1 0 1 1 
1 0 1 0 1 0 1 0 1 1 1 0 1 0 1 0 
1 0 1 1 1 0 1 0 1 0 1 1 1 0 1 0 
1 0 1 0 1 0 1 1 1 0 1 0 1 0 1 0 
1 1 1 0 1 0 1 0 1 0 1 0 1 0 1 1 
1 0 1 0 1 0 1 0 1 0 1 0 1 1 1 0 
1 0 1 0 1 0 1 0 1 1 1 0 1 0 1 0 
1 0 1 1 1 0 1 0 1 0 1 1 1 0 1 0 
1 0 1 1 1 0 1 0 1 1 1 0 1 0 1 1 
1 0 1 1 1 0 1 0 1 1 1 0 1 1 1 0 
1 1 1 0 1 1 1 1 1 0 1 1 1 0 1 1 
1 1 1 0 1 1 2121 3285 300 MP stroke
1 1 1 1 1 0 1 1 1 1 1 1 1 0 1 1 
1 1 1 1 1 1 1 1 1 1 1 0 1 1 1 1 
1 1 1 1 1 1 1 1 1 1 1 1 1 1 1 0 
1 1 1 1 1 1 1 1 1 1 1 1 1 0 1 1 
1 1 1 1 1 0 1 1 1 1 1 1 1 0 1 1 
1 0 1 1 1 0 1 1 1 0 1 0 1 1 1 0 
1 0 1 0 1 0 1 0 1 0 1 0 1 0 1 0 
1 0 1 0 1 -1 1 0 1 0 1 -1 1 0 1 -1 
1 0 1 -1 1 -1 1 0 1 -1 1 -1 1 0 1 -1 
1 -1 1 -1 1 -1 1 0 1 -1 1 -1 1 -1 1 -1 
1 -1 1 -1 1 -1 1 -1 1 -1 1 -1 1 -1 1 0 
1 -1 1 -1 1 -1 1 -1 1 -1 1 -1 1 -1 1 -1 
1 -1 1 -1 1 -1 1 -1 1 0 1 -1 1 -1 1 -1 
1 -1 1 -1 1 -1 1 0 1 -1 1 -1 1 -1 1 -1 
1 0 1 -1 1 -1 1 -1 1 0 1 -1 1 -1 1 0 
1 -1 1 -1 1 0 1 -1 1 0 1 -1 1 0 1 -1 
1 0 1 -1 1 0 1 -1 1 0 1 0 1 0 1 -1 
1 0 1 0 1 0 1 0 1 0 1 -1 1 0 1 0 
1 0 1 0 1 1 1 0 1 0 1 0 1 0 1 0 
1 0 1 1 1 0 1 0 1 0 1 0 1 1 1 0 
1 0 1 0 1 1 1 0 1 0 1 0 1 1 1 0 
1 0 1 0 1 1 1 0 1 0 1 1 1 0 1 0 
1 0 1 0 1 1 1 0 1 0 1 0 1 1 1 0 
1 0 1 0 1 0 1 1 1 0 1 0 1 0 1 0 
1 1 1 0 1 0 1 0 1 1 1 0 1 0 1 0 
1 1 1 0 1 0 1 0 1 1 1 0 1 0 1 0 
1 1 1 0 1 1 1 0 1 0 1 1 1 0 1 0 
1 1 1 0 1 1 1 0 1 1 1 0 1 1 1 0 
1 1 1 0 1 1 1 1 1 0 1 1 1 1 1 0 
1 1 1 1 1 1 1 0 1 1 1 1 1 1 1 1 
1 1 1 0 1 1 1 1 1 1 1 1 1 1 1 1 
1 1 1 1 1 1 1 1 1 1 1 1 1 1 1 1 
0 1 2 2 1 1 1 1 1 1 1 1 1 1 1 1 
1 1 1 1 1 1 1 1 1 1 0 1 2 2 1 0 
1 1 1 1 1 1 1 1 1 1 1 1 1 0 1 1 
1 1 1 1 1 0 1 1 1 0 1 1 1 0 1 0 
1 1 1 0 1 0 1 0 1 0 1 0 1 0 1 0 
1 0 1 0 1 0 1822 3230 300 MP stroke
1 0 1 -1 1 0 1 -1 1 0 1 0 1 -1 1 -1 
1 0 1 -1 1 -1 1 0 1 -1 1 -1 1 0 1 -1 
1 -1 1 -1 1 -1 1 -1 1 -1 1 0 1 -1 1 -1 
1 -1 1 -1 1 -1 1 -1 1 -1 1 -1 1 -1 1 -1 
1 0 1 -1 1 -1 1 -1 1 -1 1 -1 1 -1 1 -1 
1 0 1 -1 1 -1 1 -1 1 -1 1 0 1 -1 1 -1 
1 -1 1 0 1 -1 1 -1 1 -1 1 0 1 -1 1 -1 
1 0 1 -1 1 -1 1 0 1 -1 1 0 1 -1 1 0 
1 -1 1 0 1 0 1 -1 1 0 1 0 1 0 1 -1 
1 0 1 0 1 0 1 0 1 0 1 0 1 0 1 0 
1 0 1 0 1 1 1 0 1 0 1 1 1 0 1 0 
1 1 1 0 1 1 1 0 1 1 1 0 1 1 1 1 
1 0 1 1 1 0 1 1 1 1 1 0 1 1 1 1 
1 0 1 1 1 1 1 1 1 0 1 1 1 1 1 1 
1 0 1 1 1 1 1 0 1 1 1 1 1 1 1 0 
1 1 1 1 1 1 1 0 1 1 1 1 1 1 1 0 
1 1 1 1 1 1 1 0 1 1 1 1 1 1 1 1 
1 0 1 1 1 1 1 1 1 1 1 1 1 1 1 1 
1 1 1 1 1 1 1 0 0 1 2 2 1 1 1 1 
1 1 1 1 1 1 0 1 2 2 1 1 0 1 2 2 
1 1 0 1 2 2 0 1 2 2 0 1 2 2 0 1 
1 1 1 1 0 2 2 2 1 1 0 2 2 2 0 1 
1 1 0 1 1 1 0 1 1 1 1 1 0 2 1 1 
0 1 1 1 0 1 1 1 0 1 1 1 0 2 2 2 
0 2 1 1 0 1 1 1 0 1 1 1 0 2 1 1 
0 2 2 2 0 2 1 1 0 1 1 1 0 2 1 1 
0 1 1 1 0 2 1 1 0 1 1 1 0 2 1 1 
0 2 1 1 0 1 1 1 0 2 1 1 0 1 1 1 
0 2 1 1 0 2 1 1 0 1 1 1 0 2 1 1 
0 1 1 1 0 2 1 1 0 1 1 1 0 3 2 2 
0 3 2 2 0 3 2 2 0 2 1 1 0 1 1 1 
0 2 2 2 0 2 1 1 0 1 1 1 0 2 2 2 
0 1 1 1 0 1 1 1 0 1 2 2 0 1 2 2 
0 1 2 2 1 1 1 1 1 1 1 1 1 1 1 1 
1 0 1 1 1 1 1 0 1 0 1 1 1 0 1 0 
1 0 1 0 1 0 1 0 1 0 1 -1 1 0 1 0 
1 -1 1 0 1 -1 1 0 1 -1 1 0 1 -1 1 0 
1 -1 1 -1 1 0 1559 3069 300 MP stroke
1 -1 1 -1 1 0 1 -1 1 -1 1 0 1 -1 1 -1 
1 0 1 -1 1 -1 1 0 1 -1 1 0 1 -1 1 0 
1 -1 1 0 1 -1 1 0 1 -1 1 0 1 -1 1 0 
1 0 1 -1 1 0 1 0 1 0 1 -1 1 0 1 0 
1 0 1 0 1 0 1 0 1 0 1 0 1 1 1 0 
1 0 1 1 1 0 1 1 1 0 1 1 1 1 1 1 
1 1 1 1 1 1 1 1 0 1 2 2 1 1 0 2 
2 2 1 1 0 2 2 2 0 2 2 2 0 2 2 2 
0 3 2 2 0 2 1 1 0 1 1 1 0 2 1 1 
0 2 1 1 0 1 1 1 0 2 1 1 0 2 1 1 
0 1 1 1 0 2 1 1 0 2 1 1 0 2 1 1 
0 2 1 1 0 2 1 1 0 2 1 1 0 2 1 1 
0 3 1 1 0 2 1 1 0 2 1 1 0 2 1 1 
0 2 1 1 0 3 1 1 0 2 1 1 0 2 1 1 
0 2 1 1 0 3 1 1 0 2 1 1 0 2 1 1 
0 2 1 1 0 3 1 1 0 2 1 1 0 2 1 1 
0 3 1 1 0 2 1 1 0 3 1 1 0 2 1 1 
0 3 1 1 0 2 1 1 0 2 1 1 0 3 1 1 
0 3 1 1 0 2 1 1 0 3 1 1 0 2 1 1 
0 3 1 1 0 3 1 1 0 2 1 1 0 3 1 1 
0 3 1 1 0 3 1 1 0 3 1 1 0 3 1 1 
0 2 1 1 0 4 1 1 0 3 1 1 0 4 1 1 
0 3 1 1 0 3 1 1 0 3 1 1 0 3 1 1 
0 3 1 1 0 4 1 1 0 4 1 1 0 4 1 1 
0 3 1 1 0 4 1 1 0 4 1 1 0 4 1 1 
0 4 1 1 0 4 1 1 0 4 1 1 0 4 1 1 
0 4 1 2 0 4 1 1 0 4 1 1 0 5 1 1 
0 4 1 1 0 5 1 1 0 6 1 1 0 4 1 1 
0 4 1 2 0 5 1 1 0 5 1 1 0 6 1 1 
0 5 1 1 0 4 1 2 0 6 1 2 0 4 1 2 
0 4 1 2 0 5 1 1 0 7 1 1 0 5 1 2 
0 4 1 2 0 6 1 2 0 5 1 1 0 7 1 1 
0 5 1 2 0 6 1 2 0 5 1 1 0 7 1 1 
0 5 1 1 0 7 1 1 0 6 1 2 0 6 1 2 
0 6 1 1 0 6 1 2 0 5 1 2 0 6 1 1 
0 7 1 2 0 6 1 1 0 6 1 1 0 7 1 1 
0 6 1 1 0 7 1 1 0 7 1 1 0 5 1 2 
0 6 1 1 0 7 1377 2477 300 MP stroke
1 1 0 5 1 1 0 6 1 2 0 6 1 1 0 6 
1 1 0 6 1 1 0 6 1 1 0 6 1 1 0 5 
1 1 0 6 1 1 0 4 1 1 0 5 1 1 0 6 
1 1 0 5 1 1 0 4 1 1 0 5 1 1 0 5 
1 1 0 3 1 1 0 4 1 1 0 4 1 1 0 3 
1 1 0 4 1 1 0 4 1 1 0 3 1 1 0 3 
1 1 0 2 1 1 0 3 1 1 0 1 1 1 0 3 
1 1 0 2 1 1 0 2 1 1 0 1 1 1 0 2 
2 2 0 2 1 1 0 1 1 1 0 1 2 2 1 1 
1 1 1 1 1 1 1 1 1 1 1 1 1 0 1 1 
1 0 1 0 1 0 1 1 1 0 1 0 1 0 1 0 
1 0 1 0 1 0 1 0 1 -1 1 0 1 0 1 0 
1 0 1 0 1 0 1 0 1 0 1 0 1 0 1 1 
1 0 1 0 1 0 1 0 1 1 1 0 1 0 1 1 
1 0 1 0 1 1 1 0 1 1 1 1 1 0 1 1 
1 1 1 1 1 1 1 1 1 1 1 1 0 1 2 2 
0 1 2 2 0 1 2 2 0 2 2 2 0 2 2 2 
0 2 1 1 0 1 1 1 0 2 1 1 0 1 1 1 
0 2 1 1 0 2 1 1 0 3 1 1 0 2 1 1 
0 2 1 1 0 3 1 1 0 2 1 1 0 3 1 1 
0 3 1 1 0 3 1 1 0 3 1 1 0 4 1 1 
0 3 1 1 0 3 1 1 0 4 1 1 0 3 1 1 
0 4 1 1 0 4 1 1 0 4 1 1 0 5 1 1 
0 3 1 1 0 5 1 1 0 3 1 1 0 4 1 2 
0 4 1 1 0 4 1 1 0 5 1 1 0 4 1 1 
0 4 1 1 0 4 1 2 0 4 1 1 0 5 1 1 
0 4 1 1 0 4 1 1 0 5 1 1 0 4 1 1 
0 5 1 1 0 4 1 1 0 5 1 1 0 4 1 1 
0 5 1 1 0 4 1 1 0 5 1 1 0 5 1 1 
0 4 1 1 0 4 1 1 0 5 1 1 0 5 1 1 
0 4 1 1 0 4 1 1 0 6 1 1 0 4 1 1 
0 5 1 1 0 4 1 1 0 5 1 1 0 5 1 1 
0 5 1 1 0 4 1 1 0 5 1 1 0 4 1 1 
0 5 1 1 0 5 1 1 0 5 1 1 0 5 1 1 
0 5 1 1 0 4 1 1 0 5 1 2 0 5 1 1 
0 4 1 2 0 4 1 2 0 4 1 1 0 6 1 2 
0 4 1 2 0 3 1 2 0 6 1 2 0 4 1 1 
0 4 1 2 0 5 1193 1848 300 MP stroke
1 2 0 5 1 2 0 4 1 2 0 5 1 1 0 6 
1 2 0 4 1 2 0 4 1 2 0 6 1 1 0 6 
1 2 0 4 1 2 0 6 1 1 0 5 1 2 0 6 
1 1 0 5 1 1 0 7 1 1 0 5 1 1 0 7 
1 1 0 5 1 2 0 6 1 2 0 5 1 2 0 6 
1 2 0 5 1 2 0 5 1 1 0 7 1 2 0 5 
1 2 0 5 1 2 0 7 1 1 0 6 1 1 0 6 
1 1 0 7 1 2 0 5 1 2 0 5 1 2 0 7 
1 2 0 5 1 1 0 7 1 2 0 5 1 2 0 6 
1 2 0 5 1 1 0 7 1 2 0 4 1 2 0 6 
1 2 0 6 1 2 0 6 1 1 0 6 1 2 0 6 
1 1 0 4 1 2 0 6 1 1 0 7 1 1 0 6 
1 1 0 6 1 1 0 5 1 1 0 6 1 1 0 6 
1 1 0 5 1 2 0 4 1 2 0 6 1 1 0 4 
1 1 0 6 1 1 0 5 1 1 0 5 1 1 0 4 
1 1 0 6 1 1 0 4 1 1 0 4 1 1 0 4 
1 1 0 5 1 1 0 3 1 1 0 5 1 1 0 3 
1 1 0 4 1 1 0 3 1 1 0 3 1 1 0 3 
1 1 0 3 1 1 0 3 1 1 0 3 1 1 0 2 
1 1 0 2 1 1 0 3 1 1 0 2 1 1 0 1 
1 1 0 2 1 1 0 2 1 1 0 1 1 1 0 1 
1 1 0 2 2 2 0 2 2 2 0 1 2 2 1 1 
0 1 2 2 1 1 1 1 1 0 1 1 1 1 1 0 
1 1 1 1 1 0 1 0 1 1 1 0 1 0 1 0 
1 1 1 0 1 0 1 0 1 0 1 0 1 0 1 1 
1 0 1 0 1 0 1 0 1 0 1 0 1 1 1 0 
1 0 1 0 1 1 1 0 1 0 1 0 1 1 1 0 
1 0 1 1 1 0 1 0 1 1 1 0 1 1 1 0 
1 1 1 0 1 1 1 1 1 0 1 1 1 1 1 1 
1 1 1 0 1 1 1 1 0 1 2 2 1 1 1 1 
0 1 2 2 0 1 2 2 1 1 0 2 2 2 1 1 
0 2 2 2 0 2 2 2 0 2 2 2 0 2 1 1 
0 1 1 1 0 1 1 1 0 2 1 1 0 1 1 1 
0 1 1 1 0 2 1 1 0 1 1 1 0 2 1 1 
0 3 2 2 0 2 1 1 0 2 1 1 0 2 1 1 
0 2 1 1 0 1 1 1 0 2 1 1 0 2 1 1 
0 2 1 1 0 1 1 1 0 3 1 1 0 1 1 1 
0 2 1 1 0 2 1000 1197 300 MP stroke
1 1 0 2 1 1 0 1 1 1 0 2 1 1 0 2 
1 1 0 2 1 1 0 2 1 1 0 2 1 1 0 2 
1 1 0 1 1 1 0 2 1 1 0 2 1 1 0 2 
1 1 0 1 1 1 0 2 1 1 0 2 1 1 0 2 
1 1 0 2 1 1 0 1 1 1 0 2 1 1 0 2 
1 1 0 2 1 1 0 2 1 1 0 1 1 1 0 2 
1 1 0 2 1 1 0 1 1 1 0 2 1 1 0 2 
1 1 0 2 1 1 0 2 1 1 0 1 1 1 0 2 
1 1 0 2 1 1 0 2 1 1 0 2 1 1 0 1 
1 1 0 2 1 1 0 2 1 1 0 2 1 1 0 2 
1 1 0 1 1 2 0 1 1 1 0 2 1 1 0 2 
1 1 0 2 1 1 0 2 1 1 0 2 1 1 0 2 
1 1 0 1 1 1 0 3 1 1 0 2 1 1 0 1 
1 1 0 3 1 1 0 1 1 1 0 2 1 1 0 2 
1 1 0 2 1 1 0 2 1 1 0 2 1 1 0 2 
1 1 0 2 1 1 0 2 1 1 0 2 1 1 0 2 
1 1 0 3 1 1 0 1 1 1 0 2 1 1 0 3 
1 1 0 1 1 1 0 2 1 1 0 3 1 1 0 1 
1 1 0 2 1 1 0 2 1 1 0 3 1 1 0 1 
1 1 0 2 1 1 0 2 1 1 0 2 1 1 0 2 
1 1 0 2 1 1 0 2 1 1 0 2 1 1 0 1 
1 1 0 3 1 1 0 1 1 1 0 2 1 1 0 2 
1 1 0 1 1 1 0 2 1 1 0 2 1 1 0 1 
1 1 0 2 1 1 0 2 1 1 0 2 2 2 0 2 
1 1 0 2 2 2 0 2 1 1 0 1 1 1 0 1 
1 1 0 2 2 2 0 2 1 1 0 1 1 1 1 1 
0 2 1 1 0 1 2 2 0 2 2 2 0 1 2 2 
0 1 2 2 0 1 2 2 1 1 1 1 0 1 2 2 
1 1 1 1 1 1 1 1 1 1 1 0 1 1 1 1 
1 1 1 0 1 1 1 0 1 1 1 0 1 1 1 0 
1 1 1 0 1 0 1 1 1 0 1 0 1 0 1 0 
1 1 1 0 1 0 1 0 1 0 1 0 1 0 1 0 
1 0 1 1 1 0 1 0 1 0 1 0 1 0 1 0 
1 0 1 0 1 0 1 0 1 0 1 0 1 0 1 0 
1 0 1 1 1 0 1 0 1 0 1 0 1 0 1 0 
1 0 1 0 1 1 1 0 1 0 1 0 1 0 1 0 
1 0 1 1 1 0 1 0 1 0 1 1 1 0 1 0 
1 0 1 1 1 0 802 855 300 MP stroke
1 0 1 1 1 0 1 0 1 1 1 0 1 1 1 0 
1 1 1 0 1 1 1 0 1 1 1 0 1 1 1 1 
1 0 1 1 1 1 1 0 1 1 1 1 1 1 1 0 
1 1 1 1 1 1 1 0 1 1 1 1 1 1 1 1 
1 1 1 0 1 1 1 1 1 1 1 1 1 1 1 0 
1 1 1 1 1 1 1 1 1 1 1 0 1 1 1 1 
1 1 1 1 1 1 1 0 1 1 1 1 1 1 1 1 
1 0 1 1 1 1 1 1 1 1 1 0 1 1 1 1 
1 1 1 1 1 0 1 1 1 1 1 1 1 1 1 0 
1 1 1 1 1 1 1 0 1 1 1 1 1 1 1 1 
1 0 1 1 1 1 1 1 1 1 1 0 1 1 1 1 
1 1 1 0 1 1 1 1 1 1 1 1 1 0 1 1 
1 1 1 1 1 1 1 0 1 1 1 1 1 1 1 0 
1 1 1 1 1 1 1 1 1 0 1 1 1 1 1 1 
1 0 1 1 1 1 1 1 1 0 1 1 1 1 1 1 
1 0 1 1 1 1 1 1 1 0 1 1 1 1 1 0 
1 1 1 1 1 0 1 1 1 1 1 0 1 1 1 0 
1 1 1 1 1 0 1 1 1 0 1 1 1 0 1 1 
1 0 1 1 1 0 1 1 1 0 1 1 1 0 1 1 
1 0 1 1 1 0 1 0 1 1 1 0 1 0 1 1 
1 0 1 0 1 1 1 0 1 0 1 1 1 0 1 0 
1 0 1 1 1 0 1 0 1 0 1 0 1 0 1 1 
1 0 1 0 1 0 1 0 1 0 1 0 1 0 1 1 
1 0 1 0 1 0 1 0 1 0 1 0 1 0 1 0 
1 0 1 0 1 0 1 0 1 0 1 0 1 0 1 0 
1 0 1 0 1 0 1 0 1 0 1 0 1 0 1 0 
1 1 1 0 1 0 1 0 1 0 1 0 1 0 1 0 
1 0 1 0 1 0 1 0 1 0 1 0 1 0 1 0 
1 0 1 0 1 0 1 0 1 1 1 0 1 0 1 0 
1 0 1 0 1 0 1 0 1 0 1 1 1 0 1 0 
1 0 1 0 1 0 1 1 1 0 1 0 1 0 1 0 
1 1 1 0 1 0 1 0 1 1 1 0 1 0 1 0 
1 1 1 0 1 0 1 1 1 0 1 0 1 0 1 1 
1 0 1 0 1 1 1 0 1 0 1 0 1 1 1 0 
1 0 1 1 1 0 1 0 1 0 1 0 1 1 1 0 
1 0 1 0 1 0 1 1 1 0 1 0 1 0 1 0 
1 0 1 0 1 0 1 0 1 0 1 0 1 0 1 0 
1 0 1 0 504 724 299 MP stroke
/c9 { 1.000000 0.000000 0.000000 sr} bdef
c9
1 0 1 1 1 0 1 1 1 0 1 1 1 0 1 1 
1 1 1 0 1 1 1 1 1 1 1 0 1 1 1 1 
1 1 1 1 1 1 1 1 1 1 1 0 1 1 1 1 
1 1 1 1 1 1 1 1 1 1 1 1 1 1 1 1 
1 1 1 1 1 0 1 1 1 1 1 1 1 1 1 1 
1 1 1 1 1 1 1 1 1 0 1 1 1 1 1 1 
1 1 1 1 1 0 1 1 1 1 1 1 1 1 1 0 
1 1 1 1 1 0 1 1 1 1 1 0 1 1 1 1 
1 0 1 1 1 0 1 1 1 0 1 1 1 0 1 0 
1 1 1 0 1 0 1 1 1 0 1 0 1 0 1 1 
1 0 1 0 1 0 1 0 1 0 1 0 1 0 1 0 
1 0 1 0 1 0 1 0 1 0 1 -1 1 0 1 0 
1 0 1 0 1 0 1 0 1 -1 1 0 1 0 1 0 
1 0 1 -1 1 0 1 0 1 0 1 0 1 -1 1 0 
1 0 1 0 1 0 1 0 1 -1 1 0 1 0 1 0 
1 0 1 0 1 0 1 -1 1 0 1 0 1 0 1 0 
1 0 1 0 1 0 1 -1 1 0 1 0 1 0 1 0 
1 0 1 0 1 -1 1 0 1 0 1 0 1 0 1 0 
1 -1 1 0 1 0 1 0 1 0 1 -1 1 0 1 0 
1 0 1 -1 1 0 1 0 1 -1 1 0 1 0 1 -1 
1 0 1 -1 1 0 1 0 1 -1 1 0 1 -1 1 0 
1 -1 1 0 1 -1 1 0 1 -1 1 -1 1 0 1 -1 
1 -1 1 0 1 -1 1 -1 1 0 1 -1 1 -1 1 -1 
1 0 1 -1 1 -1 1 -1 1 -1 1 -1 1 0 1 -1 
1 -1 1 -1 1 -1 1 -1 1 -1 1 -1 1 -1 1 -1 
1 -1 1 -1 1 0 1 -1 1 -1 1 -1 1 -1 1 -1 
1 -1 1 -1 1 0 1 -1 1 -1 1 -1 1 -1 1 0 
1 -1 1 -1 1 0 1 -1 1 0 1 -1 1 0 1 -1 
1 0 1 0 1 -1 1 0 1 0 1 0 1 0 1 0 
1 0 1 0 1 0 1 0 1 0 1 0 1 1 1 0 
1 1 1 0 1 0 1 1 1 1 1 0 1 1 1 0 
1 1 1 1 1 1 1 0 1 1 1 1 1 1 1 1 
1 0 1 1 1 1 1 1 1 1 1 1 1 1 1 1 
1 1 1 1 1 1 1 1 1 0 -1 0 2 2 1 0 
1 1 1 1 1 1 1 1 1 1 1 1 1 1 1 1 
1 1 1 0 1 1 1 1 1 1 1 1 1 1 1 1 
1 0 1 1 1 1 1 1 1 1 1 0 1 1 1 1 
1 1 1 0 1 1 2122 925 300 MP stroke
1 1 1 0 1 1 1 1 1 0 1 1 1 0 1 1 
1 0 1 1 1 0 1 1 1 0 1 0 1 1 1 0 
1 0 1 1 1 0 1 0 1 0 1 0 1 0 1 0 
1 0 1 0 1 0 1 0 1 0 1 0 1 0 1 0 
1 0 1 0 1 0 1 -1 1 0 1 0 1 0 1 0 
1 -1 1 0 1 0 1 0 1 0 1 -1 1 0 1 0 
1 0 1 -1 1 0 1 0 1 0 1 -1 1 0 1 0 
1 0 1 0 1 -1 1 0 1 0 1 0 1 0 1 -1 
1 0 1 0 1 0 1 0 1 -1 1 0 1 0 1 0 
1 0 1 0 1 -1 1 0 1 0 1 0 1 0 1 -1 
1 0 1 0 1 0 1 -1 1 0 1 0 1 0 1 -1 
1 0 1 0 1 -1 1 0 1 0 1 -1 1 0 1 0 
1 -1 1 0 1 -1 1 0 1 0 1 -1 1 0 1 -1 
1 0 1 -1 1 -1 1 0 1 -1 1 0 1 -1 1 -1 
1 0 1 -1 1 -1 1 0 1 -1 1 -1 1 -1 1 -1 
1 0 1 -1 1 -1 1 -1 1 -1 1 -1 1 -1 1 -1 
1 -1 1 -1 1 -1 1 -1 1 -1 1 -1 1 -1 1 -1 
1 -1 0 -1 2 -2 1 -1 1 -1 1 -1 1 -1 1 -1 
1 -1 1 -1 1 -1 1 -1 0 -1 2 -2 1 -1 1 -1 
1 -1 1 -1 1 -1 1 -1 1 0 1 -1 1 -1 1 -1 
1 -1 1 0 1 -1 1 -1 1 0 1 -1 1 0 1 -1 
1 0 1 0 1 -1 1 0 1 0 1 0 1 0 1 0 
1 0 1 0 1 0 1 0 1 0 1 1 1 0 1 0 
1 1 1 0 1 1 1 0 1 1 1 1 1 0 1 1 
1 1 1 0 1 1 1 1 1 1 1 1 1 0 1 1 
1 1 1 1 1 1 1 1 1 1 1 1 1 1 1 1 
1 1 1 0 1 1 1 1 1 1 1 1 1 1 1 1 
1 1 1 1 1 0 1 1 1 1 1 1 1 1 1 1 
1 1 1 0 1 1 1 1 1 1 1 0 1 1 1 1 
1 1 1 0 1 1 1 1 1 1 1 0 1 1 1 0 
1 1 1 1 1 0 1 1 1 0 1 1 1 0 1 0 
1 1 1 0 1 0 1 1 1 0 1 0 1 0 1 0 
1 0 1 0 1 0 1 0 1 0 1 0 1 0 1 0 
1 0 1 -1 1 0 1 0 1 -1 1 0 1 0 1 -1 
1 0 1 -1 1 0 1 -1 1 0 1 -1 1 -1 1 0 
1 -1 1 0 1 -1 1 -1 1 0 1 -1 1 0 1 -1 
1 -1 1 0 1 -1 1 -1 1 0 1 -1 1 -1 1 0 
1 -1 1 -1 1 0 1823 959 300 MP stroke
1 -1 1 -1 1 0 1 -1 1 -1 1 0 1 -1 1 -1 
1 0 1 -1 1 -1 1 0 1 -1 1 -1 1 0 1 -1 
1 -1 1 -1 1 0 1 -1 1 -1 1 -1 1 -1 1 0 
1 -1 1 -1 1 -1 1 -1 1 -1 1 -1 1 -1 1 -1 
1 -1 1 -1 1 -1 1 -1 1 -1 0 -1 2 -2 1 -1 
1 -1 0 -1 2 -2 0 -1 2 -2 0 -1 2 -2 1 -1 
1 -1 0 -2 2 -2 1 -1 0 -2 2 -2 0 -1 1 -1 
0 -1 2 -2 0 -2 2 -2 0 -2 2 -2 0 -2 2 -2 
0 -2 2 -2 0 -2 1 -1 0 -1 1 -1 0 -2 2 -2 
0 -2 1 -1 0 -1 1 -1 0 -2 1 -1 0 -2 2 -2 
0 -3 2 -2 0 -3 2 -2 0 -3 2 -2 0 -2 1 -1 
0 -2 1 -1 0 -1 1 -1 0 -3 2 -2 0 -2 1 -1 
0 -2 1 -1 0 -1 1 -1 0 -3 2 -2 0 -3 2 -2 
0 -2 1 -1 0 -1 1 -1 0 -2 1 -1 0 -1 1 -1 
0 -2 1 -1 0 -1 1 -1 0 -1 1 -1 0 -2 2 -2 
0 -2 2 -2 0 -2 2 -2 1 -1 0 -2 2 -2 0 -1 
2 -2 1 -1 1 -1 1 -1 1 -1 1 -1 1 -1 1 -1 
1 -1 1 0 1 -1 1 0 1 -1 1 0 1 0 1 0 
1 0 1 0 1 0 1 0 1 0 1 0 1 1 1 0 
1 1 1 0 1 1 1 0 1 1 1 1 1 0 1 1 
1 1 1 0 1 1 1 1 1 1 1 0 1 1 1 1 
1 1 1 0 1 1 1 1 1 0 1 1 1 1 1 1 
1 0 1 1 1 1 1 0 1 1 1 0 1 1 1 0 
1 1 1 1 1 0 1 1 1 0 1 0 1 1 1 0 
1 1 1 0 1 0 1 0 1 1 1 0 1 0 1 0 
1 0 1 0 1 0 1 0 1 -1 1 0 1 0 1 -1 
1 0 1 -1 1 0 1 -1 1 -1 1 -1 1 -1 1 -1 
1 -1 0 -1 2 -2 0 -1 2 -2 1 -1 0 -2 2 -2 
0 -1 2 -2 0 -2 2 -2 0 -2 1 -1 0 -1 1 -1 
0 -2 2 -2 0 -3 2 -2 0 -2 1 -1 0 -1 1 -1 
0 -2 1 -1 0 -1 1 -1 0 -2 1 -1 0 -2 1 -1 
0 -2 1 -1 0 -1 1 -1 0 -2 1 -1 0 -2 1 -1 
0 -2 1 -1 0 -1 1 -1 0 -2 1 -1 0 -2 1 -1 
0 -2 1 -1 0 -2 1 -1 0 -2 1 -1 0 -2 1 -1 
0 -2 1 -1 0 -2 1 -1 0 -2 1 -1 0 -2 1 -1 
0 -2 1 -1 0 -2 1 -1 0 -2 1 -1 0 -3 1 -1 
0 -2 1 -1 0 -2 1 -1 0 -2 1 -1 0 -2 1 -1 
0 -2 1 -1 0 -3 1577 1255 300 MP stroke
1 -1 0 -2 1 -1 0 -2 1 -1 0 -2 1 -1 0 -3 
1 -1 0 -2 1 -1 0 -2 1 -1 0 -3 1 -1 0 -2 
1 -1 0 -3 1 -1 0 -2 1 -1 0 -3 1 -1 0 -2 
1 -1 0 -3 1 -1 0 -2 1 -1 0 -3 1 -1 0 -3 
1 -1 0 -3 1 -1 0 -3 1 -1 0 -3 1 -1 0 -3 
1 -1 0 -3 1 -1 0 -3 1 -1 0 -3 1 -1 0 -3 
1 -1 0 -4 1 -1 0 -3 1 -1 0 -3 1 -1 0 -4 
1 -1 0 -4 1 -1 0 -4 1 -1 0 -3 1 -1 0 -4 
1 -1 0 -5 1 -1 0 -3 1 -1 0 -5 1 -1 0 -4 
1 -1 0 -4 1 -1 0 -4 1 -1 0 -4 1 -1 0 -5 
1 -1 0 -5 1 -1 0 -4 1 -1 0 -5 1 -1 0 -5 
1 -1 0 -5 1 -1 0 -5 1 -1 0 -5 1 -1 0 -5 
1 -1 0 -5 1 -1 0 -6 1 -1 0 -5 1 -1 0 -6 
1 -1 0 -5 1 -1 0 -6 1 -1 0 -6 1 -1 0 -6 
1 -1 0 -6 1 -1 0 -5 1 -1 0 -6 1 -1 0 -7 
1 -1 0 -6 1 -1 0 -6 1 -1 0 -6 1 -1 0 -6 
1 -1 0 -7 1 -1 0 -6 1 -1 0 -7 1 -1 0 -6 
1 -1 0 -7 1 -1 0 -6 1 -1 0 -7 1 -1 0 -6 
1 -1 0 -7 1 -1 0 -6 1 -1 0 -6 1 -1 0 -7 
1 -1 0 -6 1 -1 0 -6 1 -1 0 -7 1 -1 0 -6 
1 -1 0 -6 1 -1 0 -6 1 -1 0 -6 1 -1 0 -6 
1 -1 0 -6 1 -1 0 -6 1 -1 0 -5 1 -2 0 -5 
1 -1 0 -5 1 -1 0 -6 1 -1 0 -4 1 -1 0 -5 
1 -1 0 -5 1 -1 0 -5 1 -1 0 -5 1 -1 0 -4 
1 -1 0 -4 1 -1 0 -3 1 -1 0 -5 1 -1 0 -3 
1 -1 0 -3 1 -1 0 -4 1 -1 0 -3 1 -1 0 -3 
1 -1 0 -2 1 -1 0 -2 1 -1 0 -3 1 -1 0 -2 
1 -1 0 -2 1 -1 0 -1 1 -1 0 -3 2 -2 0 -2 
1 -1 1 -1 0 -2 2 -2 0 -1 2 -2 1 -1 1 -1 
1 -1 1 -1 1 0 1 -1 1 0 1 -1 1 0 1 0 
1 0 1 0 1 0 1 0 1 0 1 0 1 0 1 1 
1 0 1 0 1 0 1 0 1 1 1 0 1 0 1 0 
1 1 1 0 1 0 1 0 1 0 1 0 1 0 1 0 
1 0 1 0 1 0 1 0 1 0 1 0 1 0 1 -1 
1 0 1 0 1 0 1 -1 1 0 1 -1 1 0 1 -1 
1 -1 1 0 1 -1 1 -1 1 -1 1 -1 0 -1 2 -2 
0 -1 2 -2 1 -1 0 -2 2 -2 0 -1 1 -1 1 -1 
0 -2 1 -1 0 -1 1392 1899 300 MP stroke
1 -1 0 -1 1 -1 0 -2 1 -1 0 -2 1 -1 0 -1 
1 -1 0 -2 1 -1 0 -3 1 -1 0 -2 1 -1 0 -2 
1 -1 0 -3 1 -1 0 -2 1 -1 0 -3 1 -1 0 -3 
1 -1 0 -2 1 -1 0 -4 1 -1 0 -3 1 -1 0 -3 
1 -1 0 -3 1 -1 0 -4 1 -1 0 -3 1 -1 0 -4 
1 -1 0 -4 1 -1 0 -3 1 -1 0 -4 1 -1 0 -4 
1 -1 0 -3 1 -1 0 -4 1 -1 0 -4 1 -1 0 -4 
1 -1 0 -5 1 -1 0 -4 1 -1 0 -4 1 -1 0 -3 
1 -1 0 -4 1 -1 0 -5 1 -1 0 -4 1 -1 0 -4 
1 -1 0 -5 1 -1 0 -4 1 -1 0 -4 1 -1 0 -4 
1 -1 0 -5 1 -1 0 -3 1 -1 0 -5 1 -1 0 -4 
1 -1 0 -5 1 -1 0 -3 1 -1 0 -5 1 -1 0 -4 
1 -1 0 -5 1 -1 0 -4 1 -1 0 -4 1 -1 0 -4 
1 -1 0 -5 1 -1 0 -4 1 -1 0 -4 1 -1 0 -4 
1 -1 0 -5 1 -1 0 -5 1 -1 0 -4 1 -1 0 -4 
1 -1 0 -5 1 -1 0 -4 1 -1 0 -5 1 -1 0 -4 
1 -1 0 -5 1 -1 0 -4 1 -1 0 -5 1 -1 0 -5 
1 -1 0 -4 1 -1 0 -5 1 -1 0 -5 1 -1 0 -5 
1 -1 0 -5 1 -1 0 -5 1 -1 0 -5 1 -1 0 -5 
1 -1 0 -5 1 -1 0 -5 1 -1 0 -5 1 -1 0 -5 
1 -1 0 -6 1 -1 0 -5 1 -1 0 -5 1 -1 0 -6 
1 -1 0 -6 1 -1 0 -5 1 -2 0 -5 1 -1 0 -6 
1 -1 0 -5 1 -1 0 -5 1 -1 0 -6 1 -1 0 -6 
1 -1 0 -6 1 -1 0 -6 1 -1 0 -6 1 -1 0 -6 
1 -1 0 -6 1 -1 0 -6 1 -1 0 -7 1 -1 0 -5 
1 -1 0 -7 1 -1 0 -6 1 -1 0 -7 1 -1 0 -6 
1 -1 0 -6 1 -1 0 -7 1 -1 0 -5 1 -1 0 -7 
1 -1 0 -7 1 -1 0 -6 1 -1 0 -6 1 -1 0 -7 
1 -1 0 -6 1 -1 0 -6 1 -1 0 -7 1 -1 0 -7 
1 -1 0 -6 1 -1 0 -6 1 -1 0 -7 1 -1 0 -6 
1 -1 0 -6 1 -1 0 -6 1 -1 0 -6 1 -1 0 -7 
1 -1 0 -5 1 -1 0 -7 1 -1 0 -5 1 -1 0 -6 
1 -1 0 -6 1 -1 0 -6 1 -1 0 -6 1 -1 0 -5 
1 -1 0 -5 1 -1 0 -6 1 -1 0 -5 1 -1 0 -5 
1 -1 0 -5 1 -1 0 -5 1 -1 0 -5 1 -1 0 -4 
1 -1 0 -5 1 -1 0 -4 1 -1 0 -5 1 -1 0 -3 
1 -1 0 -5 1 -1 0 -4 1 -1 0 -3 1 -1 0 -4 
1 -1 0 -3 1 -1 1242 2753 300 MP stroke
0 -3 1 -1 0 -3 1 -1 0 -3 1 -1 0 -3 1 -1 
0 -2 1 -1 0 -3 1 -1 0 -3 1 -1 0 -1 1 -1 
0 -3 1 -1 0 -1 1 -1 0 -2 1 -1 0 -1 1 -1 
0 -2 1 -1 0 -2 2 -2 0 -2 2 -2 1 -1 0 -2 
2 -2 1 -1 1 -1 1 -1 1 -1 1 -1 1 -1 1 -1 
1 0 1 -1 1 0 1 -1 1 0 1 0 1 -1 1 0 
1 0 1 0 1 0 1 0 1 -1 1 0 1 0 1 0 
1 0 1 0 1 0 1 0 1 0 1 0 1 0 1 0 
1 0 1 0 1 0 1 -1 1 0 1 0 1 0 1 0 
1 0 1 -1 1 0 1 0 1 0 1 -1 1 0 1 0 
1 -1 1 0 1 0 1 -1 1 0 1 -1 1 0 1 -1 
1 -1 1 0 1 -1 1 -1 1 -1 1 0 1 -1 0 -1 
2 -2 1 -1 1 -1 1 -1 1 -1 0 -1 2 -2 1 -1 
0 -2 2 -2 1 -1 0 -2 2 -2 0 -2 2 -2 0 -1 
1 -1 0 -1 1 -1 0 -1 1 -1 0 -1 1 -1 0 -2 
2 -2 0 -3 2 -2 0 -2 1 -1 0 -1 1 -1 0 -2 
1 -1 0 -1 1 -1 0 -2 1 -1 0 -1 1 -1 0 -2 
1 -1 0 -1 1 -1 0 -2 1 -1 0 -2 1 -1 0 -2 
1 -1 0 -1 1 -1 0 -2 1 -1 0 -2 1 -1 0 -1 
1 -1 0 -2 1 -1 0 -2 1 -1 0 -1 1 -1 0 -2 
1 -1 0 -2 1 -1 0 -1 1 -1 0 -3 1 -1 0 -1 
1 -1 0 -2 1 -1 0 -1 1 -1 0 -2 1 -1 0 -2 
1 -1 0 -1 1 -1 0 -2 1 -1 0 -2 1 -1 0 -2 
1 -1 0 -1 1 -1 0 -2 1 -1 0 -1 1 -1 0 -2 
1 -1 0 -2 1 -1 0 -1 1 -1 0 -2 1 -1 0 -2 
1 -1 0 -1 1 -1 0 -2 1 -1 0 -1 1 -1 0 -2 
1 -1 0 -2 1 -1 0 -2 1 -1 0 -1 1 -1 0 -2 
1 -1 0 -2 1 -1 0 -1 1 -1 0 -3 2 -2 0 -2 
1 -1 0 -2 1 -1 0 -2 1 -1 0 -2 1 -1 0 -1 
1 -1 0 -2 1 -1 0 -2 1 -1 0 -1 1 -1 0 -2 
1 -1 0 -2 1 -1 0 -3 2 -2 0 -2 1 -1 0 -2 
1 -1 0 -2 1 -1 0 -2 1 -1 0 -2 1 -1 0 -2 
1 -1 0 -2 1 -1 0 -1 1 -1 0 -2 1 -1 0 -2 
1 -1 0 -2 1 -1 0 -2 1 -1 0 -2 1 -1 0 -2 
1 -1 0 -2 1 -1 0 -2 1 -1 0 -2 1 -1 0 -2 
1 -1 0 -2 1 -1 0 -1 1 -1 0 -2 1 -1 0 -2 
1 -1 0 -2 1 -1 0 -2 1 -1 0 -2 1 -1 0 -2 
1 -1 0 -2 1 -1 1046 3120 300 MP stroke
0 -2 1 -1 0 -2 1 -1 0 -2 1 -1 0 -2 1 -1 
0 -2 1 -1 0 -2 1 -1 0 -1 1 -1 0 -2 1 -1 
0 -2 1 -1 0 -2 1 -1 0 -2 1 -1 0 -2 1 -1 
0 -1 1 -1 0 -2 1 -1 0 -2 1 -1 0 -2 1 -1 
0 -1 1 -1 0 -2 1 -1 0 -1 1 -1 0 -2 1 -1 
0 -2 1 -1 0 -1 1 -1 0 -1 1 -1 0 -2 1 -1 
0 -2 2 -2 0 -2 1 -1 0 -1 1 -1 0 -2 2 -2 
0 -2 2 -2 0 -2 2 -2 0 -2 2 -2 0 -2 2 -2 
0 -1 1 -1 0 -1 2 -2 0 -1 2 -2 1 -1 0 -1 
2 -2 1 -1 1 -1 0 -1 2 -2 1 -1 1 0 1 -1 
1 -1 1 -1 1 -1 1 -1 1 0 1 -1 1 -1 1 0 
1 -1 1 0 1 -1 1 0 1 0 1 -1 1 0 1 0 
1 -1 1 0 1 0 1 0 1 0 1 -1 1 0 1 0 
1 0 1 0 1 0 1 0 1 0 1 0 1 0 1 0 
1 0 1 0 1 0 1 0 1 0 1 0 1 0 1 0 
1 0 1 0 1 0 1 -1 1 0 1 0 1 0 1 0 
1 0 1 0 1 0 1 0 1 0 1 0 1 0 1 0 
1 -1 1 0 1 0 1 0 1 0 1 0 1 0 1 -1 
1 0 1 0 1 0 1 0 1 -1 1 0 1 0 1 -1 
1 0 1 0 1 -1 1 0 1 0 1 -1 1 0 1 0 
1 -1 1 0 1 -1 1 0 1 -1 1 -1 1 0 1 -1 
1 0 1 -1 1 -1 1 0 1 -1 1 -1 1 0 1 -1 
1 -1 1 -1 1 0 1 -1 1 -1 1 -1 1 0 1 -1 
1 -1 1 -1 1 -1 1 0 1 -1 1 -1 1 -1 1 -1 
1 0 1 -1 1 -1 1 -1 1 -1 1 -1 1 0 1 -1 
1 -1 1 -1 1 -1 1 0 1 -1 1 -1 1 -1 1 0 
1 -1 1 -1 1 -1 1 -1 1 0 1 -1 1 -1 1 -1 
1 0 1 -1 1 -1 1 -1 1 0 1 -1 1 -1 1 -1 
1 0 1 -1 1 -1 1 -1 1 0 1 -1 1 -1 1 -1 
1 -1 1 0 1 -1 1 -1 1 -1 1 0 1 -1 1 -1 
1 -1 1 0 1 -1 1 -1 1 -1 1 -1 1 0 1 -1 
1 -1 1 -1 1 0 1 -1 1 -1 1 -1 1 0 1 -1 
1 -1 1 -1 1 0 1 -1 1 -1 1 -1 1 -1 1 0 
1 -1 1 -1 1 0 1 -1 1 -1 1 -1 1 0 1 -1 
1 -1 1 0 1 -1 1 -1 1 -1 1 0 1 -1 1 -1 
1 0 1 -1 1 -1 1 0 1 -1 1 0 1 -1 1 -1 
1 0 1 -1 1 0 1 -1 1 -1 1 0 1 -1 1 0 
1 0 1 -1 1 0 774 3352 300 MP stroke
1 -1 1 0 1 -1 1 0 1 -1 1 0 1 -1 1 0 
1 0 1 -1 1 0 1 0 1 -1 1 0 1 0 1 0 
1 -1 1 0 1 0 1 0 1 -1 1 0 1 0 1 0 
1 -1 1 0 1 0 1 0 1 0 1 0 1 0 1 -1 
1 0 1 0 1 0 1 0 1 0 1 0 1 0 1 0 
1 0 1 0 1 0 1 0 1 0 1 0 1 0 1 -1 
1 0 1 0 1 0 1 0 1 0 1 0 1 0 1 0 
1 0 1 0 1 0 1 0 1 0 1 0 1 0 1 0 
1 0 1 0 1 0 1 0 1 0 1 0 1 0 1 0 
1 0 1 0 1 0 1 0 1 0 1 0 1 -1 1 0 
1 0 1 0 1 0 1 0 1 0 1 0 1 0 1 0 
1 0 1 -1 1 0 1 0 1 0 1 0 1 0 1 -1 
1 0 1 0 1 0 1 0 1 -1 1 0 1 0 1 0 
1 0 1 -1 1 0 1 0 1 -1 1 0 1 0 1 0 
1 -1 1 0 1 0 1 -1 1 0 1 0 1 -1 1 0 
1 0 1 0 1 -1 1 0 1 0 1 -1 1 0 1 0 
1 0 1 0 1 -1 1 0 1 0 1 0 1 0 1 -1 
1 0 1 0 1 0 1 0 1 0 1 0 1 0 1 0 
1 0 1 0 1 0 1 0 1 0 1 0 1 0 1 0 
1 0 1 0 1 0 1 0 1 0 1 0 1 0 1 0 
1 0 1 0 1 0 1 0 1 0 1 0 1 0 1 0 
1 0 1 0 1 0 1 0 1 0 1 0 1 0 1 0 
1 0 1 0 1 0 1 0 1 0 1 0 1 0 1 0 
1 0 1 0 1 0 1 0 1 0 1 0 1 0 1 0 
1 0 1 0 1 0 1 0 1 0 1 0 1 0 1 0 
1 1 1 0 1 0 1 0 1 0 1 0 1 0 1 0 
1 0 1 0 1 0 1 0 1 0 1 0 1 0 1 0 
1 0 1 0 1 0 1 0 1 0 1 0 1 0 1 0 
1 0 1 0 1 0 1 0 1 0 1 0 1 0 1 0 
1 0 1 0 1 0 1 0 1 0 1 0 1 0 1 0 
1 0 1 0 1 0 1 0 1 0 1 0 1 0 1 0 
1 0 1 0 1 0 1 0 1 0 1 0 1 0 1 0 
1 0 1 0 1 0 1 0 1 0 1 0 1 0 1 0 
1 0 1 0 1 0 1 0 1 0 1 0 504 3375 271 MP stroke
/c10 { 1.000000 0.000000 1.000000 sr} bdef
c10
1 0 1 -1 0 -1 2 -2 1 0 -1 0 2 -2 1 -1 
1 -1 1 -1 1 -1 1 -1 1 -1 1 -1 1 -1 1 -1 
1 -1 1 -1 1 -1 1 -1 1 -1 1 -1 1 -1 1 -1 
1 -1 1 -1 1 -1 1 -1 1 -1 1 -1 1 -1 1 -1 
1 -1 1 -1 1 -1 1 -1 1 -1 0 -1 2 -2 1 -1 
1 0 -1 0 2 -2 1 -1 1 -1 1 -1 1 -1 1 -1 
1 -1 1 -1 1 -1 1 -1 1 -1 1 -1 1 -1 1 -1 
1 -1 1 -1 1 -1 1 -1 1 -1 0 -1 2 -2 1 0 
0 -1 2 -2 1 -1 1 -1 1 -1 1 -1 1 -1 1 -1 
1 -1 1 -1 1 -1 1 -1 1 -1 1 -1 1 -1 1 -1 
1 -1 1 -1 1 -1 1 -1 0 -1 2 -2 1 -1 1 -1 
1 -1 1 -1 1 -1 1 -1 1 -1 1 -1 1 -1 1 -1 
1 -1 1 -1 1 -1 1 -1 1 -1 1 -1 1 -1 1 -1 
0 -1 2 -2 1 0 -1 0 2 -2 1 -1 1 -1 1 -1 
1 -1 1 -1 1 -1 1 -1 1 -1 1 -1 1 -1 1 -1 
1 -1 1 -1 1 -1 1 -1 1 -1 1 -1 0 -1 2 -2 
1 -1 1 -1 1 -1 1 -1 1 -1 1 -1 1 -1 1 -1 
1 -1 1 -1 1 -1 1 -1 1 -1 1 -1 1 -1 1 -1 
1 -1 1 -1 1 -1 1 -1 1 -1 1 -1 0 -1 2 -2 
1 -1 1 -1 1 -1 1 -1 1 -1 1 -1 1 -1 1 -1 
1 -1 1 -1 1 -1 1 -1 1 -1 1 -1 1 -1 1 -1 
1 -1 1 -1 1 -1 1 -1 0 -1 2 -2 1 -1 1 -1 
1 -1 1 -1 1 -1 1 -1 1 -1 1 -1 1 -1 1 -1 
1 -1 1 -1 1 -1 1 -1 1 -1 1 -1 1 -1 1 -1 
1 -1 1 -1 1 -1 1 -1 1 -1 1 -1 1 -1 1 -1 
1 -1 0 -1 2 -2 1 -1 1 -1 1 -1 1 -1 1 -1 
1 -1 1 -1 1 -1 1 -1 1 -1 1 -1 1 -1 1 -1 
1 -1 1 -1 1 -1 1 -1 1 -1 1 -1 1 -1 1 -1 
1 -1 1 -1 1 -1 1 -1 1 -1 1 -1 1 -1 1 -1 
1 -1 1 -1 1 -1 1 -1 1 -1 1 -1 1 -1 1 -1 
1 -1 1 -1 1 -1 0 -1 2 -2 1 0 -1 0 2 -2 
1 -1 1 -1 1 -1 1 -1 1 -1 1 -1 1 -1 1 -1 
1 -1 1 -1 1 -1 1 -1 1 -1 1 -1 1 -1 1 -1 
1 -1 1 -1 1 -1 1 -1 1 -1 1 -1 1 -1 1 -1 
1 -1 1 -1 1 -1 1 -1 1 -1 1 -1 1 -1 0 -1 
2 -2 1 -1 1 -1 1 -1 1 -1 1 -1 1 -1 1 -1 
1 -1 1 -1 1 -1 1 -1 1 -1 1 -1 1 -1 1 -1 
1 -1 1 -1 1 -1 2125 2448 300 MP stroke
1 -1 1 -1 1 -1 1 -1 1 -1 1 -1 0 -1 2 -2 
1 -1 1 -1 1 -1 1 -1 1 -1 1 -1 1 -1 1 -1 
1 -1 1 -1 1 -1 1 -1 1 -1 1 -1 1 -1 1 -1 
1 -1 1 -1 1 -1 1 -1 0 -1 2 -2 1 -1 1 -1 
1 -1 1 -1 1 -1 1 -1 1 -1 1 -1 1 -1 1 -1 
1 -1 1 -1 1 -1 1 -1 1 -1 1 -1 1 -1 0 -1 
2 -2 1 0 -1 0 2 -2 1 -1 1 -1 1 -1 1 -1 
1 -1 1 -1 1 -1 1 -1 1 -1 1 -1 1 -1 1 -1 
1 -1 1 -1 1 -1 1 -1 1 -1 1 -1 0 -1 2 -2 
1 -1 1 -1 1 -1 1 -1 1 -1 1 -1 1 -1 1 -1 
1 -1 1 -1 1 -1 1 -1 1 -1 1 -1 1 -1 1 -1 
1 -1 1 -1 1 -1 1 -1 1 -1 1 -1 1 -1 0 -1 
2 -2 1 -1 1 -1 1 -1 1 -1 1 -1 1 -1 1 -1 
1 -1 1 -1 1 -1 1 -1 1 -1 1 -1 1 -1 1 -1 
1 -1 1 -1 1 -1 1 -1 1 -1 1 -1 1 -1 1 -1 
0 -1 2 -2 1 -1 1 -1 1 -1 1 -1 1 -1 1 -1 
1 -1 1 -1 1 -1 1 -1 1 -1 1 -1 1 -1 1 -1 
1 -1 1 -1 1 -1 1 -1 1 -1 1 -1 1 -1 1 -1 
1 -1 1 -1 1 -1 1 -1 1 -1 1 -1 1 -1 1 -1 
1 -1 1 -1 1 -1 1 -1 1 -1 0 -1 2 -2 1 -1 
1 -1 1 -1 1 -1 1 -1 1 -1 1 -1 1 -1 1 -1 
1 -1 1 -1 1 -1 1 -1 1 -1 1 -1 1 -1 1 -1 
1 -1 1 -1 1 -1 1 -1 1 -1 1 -1 1 -1 1 -1 
1 -1 1 -1 1 -1 1 -1 1 -1 1 -1 1 -1 1 -1 
1 -1 1 -1 1 -1 1 -1 1 -1 1 -1 1 -1 1 -1 
1 -1 1 -1 1 -1 1 -1 1 -1 1 -1 1 -1 1 -1 
1 -1 1 -1 1 -1 1 -1 1 -1 1 -1 0 -1 2 -2 
1 -1 1 -1 1 -1 1 -1 1 -1 1 -1 1 -1 1 -1 
1 -1 1 -1 1 -1 1 -1 1 -1 1 -1 1 -1 1 -1 
1 -1 1 -1 1 -1 1 -1 1 -1 1 -1 1 -1 1 -1 
1 -1 1 -1 1 -1 1 -1 1 -1 1 -1 1 -1 0 -1 
2 -2 1 -1 1 0 -1 0 2 -2 1 -1 1 -1 1 -1 
1 -1 1 -1 1 -1 1 -1 1 -1 1 -1 1 -1 1 -1 
1 -1 1 -1 1 -1 1 -1 1 -1 1 -1 1 -1 1 -1 
1 -1 1 -1 1 -1 0 -1 2 -2 1 -1 1 -1 1 -1 
1 -1 1 -1 1 -1 1 -1 1 -1 1 -1 1 -1 1 -1 
1 -1 1 -1 1 -1 1 -1 1 -1 1 -1 1 -1 1 -1 
1 -1 1 -1 1 -1 1828 2755 300 MP stroke
1 -1 1 -1 1 -1 1 -1 1 -1 1 -1 0 -1 2 -2 
1 -1 1 -1 1 -1 1 -1 1 -1 1 -1 1 -1 1 -1 
1 -1 1 -1 1 -1 1 -1 1 -1 1 -1 1 -1 1 -1 
1 -1 1 -1 1 -1 1 -1 1 -1 1 -1 1 -1 1 -1 
1 -1 1 -1 1 -1 1 -1 1 -1 1 -1 1 -1 1 -1 
1 -1 1 -1 1 -1 1 -1 0 -1 2 -2 1 -1 1 0 
-1 0 2 -2 1 -1 1 0 -1 0 2 -2 1 -1 1 -1 
1 -1 1 -1 1 -1 1 -1 1 -1 1 -1 1 -1 1 -1 
1 -1 1 -1 1 -1 1 -1 1 -1 1 -1 1 -1 1 -1 
1 -1 1 -1 1 -1 1 -1 1 -1 1 -1 1 -1 1 -1 
1 -1 1 -1 1 0 -1 0 2 -2 1 0 1 -1 1 -1 
1 -1 1 -1 1 -1 1 -1 1 -1 1 -1 1 -1 1 -1 
1 -1 1 -1 1 -1 1 -1 1 -1 1 -1 1 -1 1 -1 
1 -1 1 -1 1 -1 1 -1 1 -1 1 -1 1 -1 1 -1 
1 -1 1 -1 1 -1 1 -1 1 -1 1 0 1 -1 1 -1 
1 -1 1 -1 1 -1 1 -1 1 -1 1 -1 1 -1 1 -1 
1 -1 1 -1 1 -1 1 -1 1 -1 1 -1 1 -1 1 -1 
1 -1 1 -1 1 -1 1 0 1 -1 1 -1 1 -1 1 -1 
1 -1 1 -1 1 -1 1 -1 1 -1 1 -1 1 -1 1 -1 
1 -1 1 -1 1 -1 1 -1 1 -1 1 -1 1 -1 1 -1 
1 -1 1 0 -1 0 2 -2 1 0 1 -1 1 -1 1 -1 
1 -1 1 -1 1 -1 1 -1 1 -1 1 -1 1 -1 1 -1 
1 -1 1 -1 1 -1 1 -1 1 -1 1 -1 1 -1 1 -1 
1 -1 1 -1 1 -1 1 -1 1 -1 1 -1 1 0 -1 0 
2 -2 1 0 1 -1 1 -1 1 -1 1 -1 1 -1 1 -1 
1 -1 1 -1 1 -1 1 -1 1 -1 1 -1 1 -1 1 -1 
1 -1 1 -1 1 -1 1 -1 1 -1 1 -1 1 -1 1 -1 
1 -1 1 -1 1 -1 1 -1 1 0 1 -1 1 -1 1 -1 
1 -1 1 -1 1 -1 1 -1 1 -1 1 -1 1 -1 1 -1 
1 -1 1 -1 1 -1 1 -1 1 -1 1 -1 1 -1 1 -1 
1 0 1 -1 1 -1 1 -1 1 -1 1 -1 1 -1 1 -1 
1 -1 1 -1 1 -1 1 -1 1 -1 1 -1 1 0 1 -1 
1 -1 1 -1 1 -1 1 -1 1 -1 1 -1 1 -1 1 -1 
1 -1 1 -1 1 0 1 -1 1 -1 1 -1 1 -1 1 -1 
1 -1 1 -1 1 -1 1 -1 1 0 1 -1 1 -1 1 -1 
1 -1 1 -1 1 -1 1 -1 1 0 1 -1 1 -1 1 -1 
1 -1 1 -1 1 -1 1 -1 1 -1 1 0 1 -1 1 -1 
1 -1 1 -1 1 -1 1534 3039 300 MP stroke
1 0 1 -1 1 -1 1 -1 1 -1 1 -1 1 0 1 -1 
1 -1 1 -1 1 -1 1 -1 1 0 1 -1 1 -1 1 -1 
1 -1 1 0 1 -1 1 -1 1 -1 1 0 1 -1 1 -1 
1 -1 1 -1 1 0 1 -1 1 -1 1 -1 1 0 1 -1 
1 -1 1 -1 1 0 1 -1 1 -1 1 -1 1 0 1 -1 
1 -1 1 -1 1 0 1 -1 1 -1 1 -1 1 0 1 -1 
1 -1 1 0 1 -1 1 -1 1 0 1 -1 1 -1 1 0 
1 -1 1 -1 1 -1 1 0 1 -1 1 -1 1 0 1 -1 
1 -1 1 0 1 -1 1 -1 1 0 1 -1 1 -1 1 0 
1 -1 1 -1 1 0 1 -1 1 -1 1 0 1 -1 1 -1 
1 -1 1 0 1 -1 1 0 1 -1 1 -1 1 -1 1 0 
1 -1 1 -1 1 0 1 -1 1 0 1 -1 1 -1 1 -1 
1 0 1 -1 1 -1 1 0 1 -1 1 -1 1 0 1 -1 
1 -1 1 0 1 -1 1 -1 1 0 1 -1 1 -1 1 0 
1 -1 1 -1 1 0 1 -1 1 -1 1 -1 1 0 1 -1 
1 -1 1 0 1 -1 1 -1 1 0 1 -1 1 -1 1 0 
1 -1 1 -1 1 -1 1 0 1 -1 1 -1 1 0 1 -1 
1 -1 1 0 1 -1 1 -1 1 0 1 -1 1 -1 1 0 
1 -1 1 -1 1 0 1 -1 1 -1 1 0 1 -1 1 -1 
1 0 1 -1 1 -1 1 0 1 -1 1 -1 1 0 1 -1 
1 -1 1 -1 1 0 1 -1 1 -1 1 0 1 -1 1 0 
1 -1 1 -1 1 0 1 -1 1 -1 1 0 1 -1 1 -1 
1 0 1 -1 1 -1 1 0 1 -1 1 -1 1 0 1 -1 
1 0 1 -1 1 -1 1 0 1 -1 1 -1 1 0 1 -1 
1 0 1 -1 1 -1 1 0 1 -1 1 0 1 -1 1 -1 
1 0 1 -1 1 0 1 -1 1 -1 1 0 1 -1 1 0 
1 -1 1 0 1 -1 1 0 1 -1 1 -1 1 0 1 -1 
1 0 1 -1 1 0 1 -1 1 0 1 -1 1 -1 1 0 
1 -1 1 0 1 -1 1 0 1 -1 1 0 1 -1 1 0 
1 -1 1 0 1 -1 1 0 1 -1 1 0 1 -1 1 0 
1 -1 1 0 1 -1 1 0 1 -1 1 0 1 -1 1 0 
1 -1 1 0 1 -1 1 0 1 -1 1 0 1 0 1 -1 
1 0 1 -1 1 0 1 -1 1 0 1 0 1 -1 1 0 
1 -1 1 0 1 -1 1 0 1 0 1 -1 1 0 1 -1 
1 0 1 0 1 -1 1 0 1 -1 1 0 1 0 1 -1 
1 0 1 0 1 -1 1 0 1 -1 1 0 1 0 1 -1 
1 0 1 0 1 -1 1 0 1 -1 1 0 1 0 1 -1 
1 0 1 0 1 -1 1235 3224 300 MP stroke
1 0 1 0 1 -1 1 0 1 0 1 -1 1 0 1 0 
1 -1 1 0 1 0 1 -1 1 0 1 0 1 -1 1 0 
1 -1 1 0 1 0 1 -1 1 0 1 0 1 -1 1 0 
1 0 1 -1 1 0 1 0 1 -1 1 0 1 0 1 -1 
1 0 1 0 1 -1 1 0 1 0 1 -1 1 0 1 -1 
1 0 1 0 1 -1 1 0 1 0 1 -1 1 0 1 0 
1 -1 1 0 1 0 1 -1 1 0 1 0 1 -1 1 0 
1 -1 1 0 1 0 1 -1 1 0 1 0 1 -1 1 0 
1 0 1 -1 1 0 1 0 1 -1 1 0 1 0 1 -1 
1 0 1 -1 1 0 1 0 1 -1 1 0 1 0 1 -1 
1 0 1 0 1 -1 1 0 1 -1 1 0 1 0 1 -1 
1 0 1 0 1 -1 1 0 1 0 1 -1 1 0 1 -1 
1 0 1 0 1 -1 1 0 1 0 1 -1 1 0 1 0 
1 -1 1 0 1 0 1 -1 1 0 1 -1 1 0 1 0 
1 -1 1 0 1 0 1 -1 1 0 1 0 1 -1 1 0 
1 0 1 -1 1 0 1 0 1 -1 1 0 1 0 1 -1 
1 0 1 0 1 -1 1 0 1 0 1 -1 1 0 1 0 
1 -1 1 0 1 0 1 -1 1 0 1 0 1 -1 1 0 
1 0 1 0 1 -1 1 0 1 0 1 -1 1 0 1 0 
1 -1 1 0 1 0 1 -1 1 0 1 0 1 0 1 -1 
1 0 1 0 1 -1 1 0 1 0 1 -1 1 0 1 0 
1 0 1 -1 1 0 1 0 1 -1 1 0 1 0 1 0 
1 -1 1 0 1 0 1 -1 1 0 1 0 1 0 1 -1 
1 0 1 0 1 0 1 -1 1 0 1 0 1 0 1 -1 
1 0 1 0 1 -1 1 0 1 0 1 0 1 -1 1 0 
1 0 1 0 1 -1 1 0 1 0 1 0 1 0 1 -1 
1 0 1 0 1 0 1 -1 1 0 1 0 1 0 1 -1 
1 0 1 0 1 0 1 -1 1 0 1 0 1 0 1 -1 
1 0 1 0 1 0 1 -1 1 0 1 0 1 0 1 0 
1 -1 1 0 1 0 1 0 1 -1 1 0 1 0 1 0 
1 0 1 -1 1 0 1 0 1 0 1 -1 1 0 1 0 
1 0 1 0 1 -1 1 0 1 0 1 0 1 -1 1 0 
1 0 1 0 1 0 1 -1 1 0 1 0 1 0 1 -1 
1 0 1 0 1 0 1 0 1 -1 1 0 1 0 1 0 
1 -1 1 0 1 0 1 0 1 -1 1 0 1 0 1 0 
1 0 1 -1 1 0 1 0 1 0 1 -1 1 0 1 0 
1 0 1 0 1 -1 1 0 1 0 1 0 1 -1 1 0 
1 0 1 0 1 -1 936 3313 300 MP stroke
1 0 1 0 1 0 1 0 1 -1 1 0 1 0 1 0 
1 -1 1 0 1 0 1 0 1 -1 1 0 1 0 1 0 
1 0 1 -1 1 0 1 0 1 0 1 -1 1 0 1 0 
1 0 1 -1 1 0 1 0 1 0 1 -1 1 0 1 0 
1 0 1 0 1 -1 1 0 1 0 1 0 1 -1 1 0 
1 0 1 0 1 -1 1 0 1 0 1 0 1 0 1 -1 
1 0 1 0 1 0 1 -1 1 0 1 0 1 0 1 -1 
1 0 1 0 1 0 1 0 1 -1 1 0 1 0 1 0 
1 -1 1 0 1 0 1 0 1 0 1 -1 1 0 1 0 
1 0 1 -1 1 0 1 0 1 0 1 0 1 -1 1 0 
1 0 1 0 1 -1 1 0 1 0 1 0 1 0 1 -1 
1 0 1 0 1 0 1 -1 1 0 1 0 1 0 1 0 
1 -1 1 0 1 0 1 0 1 0 1 -1 1 0 1 0 
1 0 1 -1 1 0 1 0 1 0 1 0 1 -1 1 0 
1 0 1 0 1 0 1 -1 1 0 1 0 1 0 1 -1 
1 0 1 0 1 0 1 0 1 -1 1 0 1 0 1 0 
1 0 1 -1 1 0 1 0 1 0 1 0 1 -1 1 0 
1 0 1 0 1 0 1 -1 1 0 1 0 1 0 1 0 
1 -1 1 0 1 0 1 0 1 0 1 -1 1 0 1 0 
1 0 1 -1 1 0 1 0 1 0 1 0 1 0 1 -1 
1 0 1 0 1 0 1 0 1 -1 1 0 1 0 1 0 
1 -1 1 0 1 0 1 0 1 0 1 0 1 -1 1 0 
1 0 1 0 1 0 1 -1 1 0 1 0 1 0 1 0 
1 -1 1 0 1 0 1 0 1 0 1 -1 1 0 1 0 
1 0 1 0 1 -1 1 0 1 0 1 0 1 0 1 -1 
1 0 1 0 1 0 1 0 1 -1 1 0 1 0 1 0 
1 0 1 -1 1 0 1 0 1 0 1 0 1 -1 1 0 
1 0 1 0 1 0 1 -1 1 0 1 0 1 0 1 0 
1 -1 1 0 1 0 1 0 1 0 1 -1 1 0 1 0 
1 0 1 0 1 -1 1 0 1 0 1 0 1 0 1 0 
1 -1 1 0 1 0 1 0 1 -1 1 0 1 0 1 0 
1 0 1 0 1 -1 1 0 1 0 1 0 1 -1 1 0 
1 0 1 0 1 0 1 0 1 -1 1 0 1 0 1 0 
1 0 1 -1 1 0 1 0 1 0 1 0 1 -1 1 0 
1 0 1 0 1 0 1 -1 1 0 1 0 1 0 1 0 
1 -1 1 0 1 0 1 0 1 0 1 -1 1 0 1 0 
1 0 1 0 1 -1 1 0 1 0 1 0 1 0 1 -1 
1 0 1 0 1 0 637 3375 300 MP stroke
1 0 1 -1 1 0 1 0 1 0 1 0 1 -1 1 0 
1 0 1 0 1 0 1 -1 1 0 1 0 1 0 1 0 
1 -1 1 0 1 0 1 0 1 0 1 0 1 -1 1 0 
1 0 1 0 1 0 1 -1 1 0 1 0 1 0 1 0 
1 -1 1 0 1 0 1 0 1 0 1 -1 1 0 1 0 
1 0 1 0 1 -1 1 0 1 0 1 0 1 0 1 -1 
1 0 1 0 1 0 1 0 1 -1 1 0 1 0 1 0 
1 0 1 -1 1 0 1 0 1 0 1 0 1 -1 1 0 
1 0 1 0 1 0 1 -1 1 0 1 0 1 0 1 0 
1 0 1 -1 1 0 1 0 1 0 1 0 1 -1 1 0 
1 0 1 0 1 0 1 -1 1 0 1 0 1 0 1 0 
1 -1 1 0 1 0 1 0 1 0 1 -1 1 0 1 0 
1 0 1 0 1 -1 1 0 1 0 1 0 1 0 1 -1 
1 0 1 0 1 0 1 0 1 -1 1 0 1 0 1 0 
1 0 1 -1 1 0 1 0 1 0 1 0 1 -1 1 0 
1 0 1 0 1 0 1 -1 1 0 1 0 1 0 1 0 
1 -1 1 0 1 0 1 0 1 0 -1 0 505 3401 135 MP stroke
gr

24 w
c10
0 sg
1312 3690 mt 
(Years) s
 187 1942 mt  -90 rotate
(Trees) s
90 rotate
 487 3445 mt 
( ) s
2403  231 mt 
( ) s
6 w
1700  384 mt 
(Susceptible) s
gs 1236 249 1125 481 rc
24 w
c8
357 0 1307 341 2 MP stroke
gr

24 w
c8
0 sg
1700  532 mt 
(Infected) s
gs 1236 249 1125 481 rc
c9
357 0 1307 489 2 MP stroke
gr

c9
0 sg
1700  680 mt 
(Removed) s
gs 1236 249 1125 481 rc
c10
357 0 1307 636 2 MP stroke
6 w
gr

6 w
c10
1 sg
0 3213 1914 0 0 -3213 2923 3402 4 MP
PP
-1914 0 0 3213 1914 0 0 -3213 2923 3402 5 MP stroke
4 w
DO
SO
6 w
0 sg
2923  189 mt 4837  189 L
2923 3402 mt 4837 3402 L
4837 3402 mt 4837  189 L
2923 3402 mt 2923  189 L
2923 3402 mt 4837 3402 L
2923 3402 mt 2923  189 L
2923 3402 mt 2923 3369 L
2923  189 mt 2923  221 L
2890 3547 mt 
(0) s
3401 3402 mt 3401 3369 L
3401  189 mt 3401  221 L
3368 3547 mt 
(2) s
3880 3402 mt 3880 3369 L
3880  189 mt 3880  221 L
3847 3547 mt 
(4) s
4358 3402 mt 4358 3369 L
4358  189 mt 4358  221 L
4325 3547 mt 
(6) s
4837 3402 mt 4837 3369 L
4837  189 mt 4837  221 L
4804 3547 mt 
(8) s
2923 3402 mt 2955 3402 L
4837 3402 mt 4804 3402 L
2822 3446 mt 
(0) s
2923 2943 mt 2955 2943 L
4837 2943 mt 4804 2943 L
2688 2987 mt 
(100) s
2923 2484 mt 2955 2484 L
4837 2484 mt 4804 2484 L
2688 2528 mt 
(200) s
2923 2025 mt 2955 2025 L
4837 2025 mt 4804 2025 L
2688 2069 mt 
(300) s
2923 1566 mt 2955 1566 L
4837 1566 mt 4804 1566 L
2688 1610 mt 
(400) s
2923 1107 mt 2955 1107 L
4837 1107 mt 4804 1107 L
2688 1151 mt 
(500) s
2923  648 mt 2955  648 L
4837  648 mt 4804  648 L
2688  692 mt 
(600) s
2923  189 mt 2955  189 L
4837  189 mt 4804  189 L
2688  233 mt 
(700) s
2923  189 mt 4837  189 L
2923 3402 mt 4837 3402 L
4837 3402 mt 4837  189 L
2923 3402 mt 2923  189 L
gs 2923 189 1915 3214 rc
24 w
c8
1 -3 0 -26 1 -4 0 -31 1 -5 0 -32 1 -4 0 -29 
1 -4 0 -34 1 -5 0 -29 1 -5 0 -34 1 -5 0 -30 
1 -5 0 -30 1 -5 0 -36 1 -5 0 -31 1 -5 0 -31 
1 -5 0 -25 1 -6 0 -30 1 -6 0 -25 1 -6 0 -31 
1 -5 0 -26 1 -5 0 -26 1 -5 0 -26 1 -5 0 -21 
1 -5 0 -21 1 -5 0 -22 1 -5 0 -22 1 -6 0 -17 
1 -5 0 -17 1 -5 0 -15 1 -5 0 -14 1 -5 0 -13 
1 -4 0 -13 1 -4 0 -15 1 -3 0 -10 1 -4 0 -9 
1 -3 0 -8 1 -3 0 -9 1 -3 0 -6 1 -2 0 -7 
1 -1 0 -5 1 -1 0 -5 1 -1 0 -3 1 -1 0 -2 
1 -1 0 -1 1 -1 1 0 1 0 1 1 0 2 1 1 
0 2 1 1 0 4 1 1 0 4 1 1 0 6 1 1 
0 5 1 2 0 8 1 2 0 6 1 3 0 7 1 2 
0 10 1 3 0 8 1 3 0 9 1 3 0 13 1 3 
0 10 1 4 0 10 1 4 0 15 1 4 0 12 1 4 
0 12 1 4 0 17 1 5 0 13 1 5 0 18 1 5 
0 14 1 4 0 20 1 4 0 15 1 5 0 19 1 5 
0 20 1 5 0 14 1 5 0 20 1 5 0 20 1 5 
0 20 1 5 0 25 1 5 0 20 1 5 0 20 1 5 
0 25 1 5 0 20 1 5 0 24 1 5 0 24 1 5 
0 19 1 5 0 24 1 5 0 23 1 5 0 23 1 4 
0 23 1 5 0 22 1 4 0 22 1 4 0 22 1 4 
0 21 1 4 0 20 1 4 0 23 1 4 0 18 1 4 
0 18 1 3 0 17 1 4 0 19 1 3 0 15 1 3 
0 14 1 2 0 13 1 3 0 11 1 2 0 11 1 2 
0 10 1 1 0 7 1 1 0 6 1 1 0 3 1 1 
0 2 1 1 1 0 0 -2 1 -1 0 -4 1 -1 0 -6 
1 -1 0 -9 1 -2 0 -10 1 -2 0 -12 1 -2 0 -17 
1 -2 0 -17 1 -3 0 -19 1 -3 0 -21 1 -4 0 -24 
1 -4 0 -31 1 -4 0 -24 1 -5 0 -32 1 -5 0 -34 
1 -6 0 -37 1 -7 0 -33 1 -6 0 -40 1 -7 0 -40 
1 -6 0 -47 1 -7 0 -40 1 -6 0 -47 1 -7 0 -46 
1 -7 0 -53 1 -6 0 -46 1 -7 0 -52 1 -6 0 -52 
1 -6 0 -51 1 -6 0 -55 1 -7 0 -54 1 -6 0 -52 
1 -6 0 -57 1 -5 0 -54 1 -6 0 -51 1 -5 0 -54 
1 -5 0 -50 1 -4 0 -51 1 -4 0 -49 1 -4 0 -49 
1 -3 0 -45 1 -4 0 -44 1 -3 0 -44 1 -2 0 -38 
1 -2 0 -36 1 -1 4686 3309 300 MP stroke
0 -32 1 -1 0 -24 1 -1 0 -16 1 -1 0 -2 1 1 
1 1 0 1 2 2 0 1 1 1 1 1 0 2 2 2 
0 2 1 1 0 1 1 1 0 2 1 1 0 2 1 1 
0 2 1 1 0 3 1 1 0 3 1 1 0 4 1 1 
0 4 1 1 0 4 1 1 0 5 1 1 0 6 1 1 
0 7 1 1 0 6 1 1 0 8 1 2 0 8 1 1 
0 10 1 1 0 10 1 1 0 13 1 1 0 13 1 2 
0 12 1 2 0 15 1 2 0 18 1 2 0 17 1 2 
0 19 1 2 0 23 1 2 0 24 1 3 0 26 1 3 
0 27 1 3 0 30 1 3 0 32 1 3 0 35 1 3 
0 37 1 4 0 41 1 5 0 44 1 5 0 44 1 5 
0 51 1 6 0 55 1 2 0 57 1 6 0 64 1 6 
0 63 1 7 0 72 1 7 0 69 1 7 0 79 1 7 
0 85 1 2 0 74 1 4 0 63 1 5 0 58 1 6 
0 51 1 8 0 48 1 11 0 45 1 10 0 38 1 9 
0 33 1 8 0 37 1 7 0 31 1 6 0 28 1 5 
0 24 1 4 0 21 1 4 0 20 1 3 0 14 1 2 
0 11 1 2 0 9 1 2 0 4 1 1 0 2 1 1 
1 -1 0 -3 1 -1 0 -7 1 -1 0 -8 1 -2 0 -11 
1 -3 0 -13 1 -3 0 -18 1 -3 0 -18 1 -3 0 -19 
1 -3 0 -25 1 -3 0 -22 1 -4 0 -28 1 -4 0 -28 
1 -5 0 -25 1 -4 0 -31 1 -5 0 -27 1 -5 0 -32 
1 -5 0 -33 1 -5 0 -29 1 -5 0 -35 1 -5 0 -29 
1 -5 0 -31 1 -5 0 -30 1 -5 0 -31 1 -5 0 -31 
1 -5 0 -31 1 -5 0 -31 1 -5 0 -31 1 -5 0 -26 
1 -5 0 -26 1 -5 0 -26 1 -5 0 -26 1 -5 0 -21 
1 -5 0 -26 1 -6 0 -21 1 -5 0 -17 1 -5 0 -17 
1 -6 0 -16 1 -6 0 -21 1 -5 0 -14 1 -5 0 -13 
1 -4 0 -13 1 -4 0 -11 1 -4 0 -10 1 -4 0 -12 
1 -3 0 -9 1 -3 0 -7 1 -3 0 -6 1 -2 0 -8 
1 -1 0 -6 1 -2 0 -3 1 -1 0 -4 1 -1 0 -3 
1 -1 0 -1 1 -1 1 -1 1 0 -1 0 2 2 1 1 
0 3 1 1 0 3 1 1 0 4 1 2 0 4 1 1 
0 7 1 1 0 6 1 2 0 8 1 3 0 7 1 2 
0 8 1 2 0 11 1 3 0 9 1 3 0 9 1 3 
0 14 1 3 0 11 1 3 0 11 1 4 0 16 1 4 
0 12 1 4 0 13 1 4 0 18 1 4 0 14 1 5 
0 18 1 5 0 14 4532 2337 300 MP stroke
1 5 0 19 1 5 0 15 1 5 0 19 1 5 0 20 
1 5 0 20 1 5 0 20 1 5 0 20 1 5 0 20 
1 5 0 20 1 5 0 25 1 5 0 20 1 5 0 24 
1 5 0 20 1 5 0 24 1 5 0 24 1 5 0 19 
1 5 0 23 1 5 0 23 1 5 0 23 1 4 0 23 
1 4 0 22 1 4 0 22 1 4 0 21 1 4 0 24 
1 4 0 20 1 3 0 19 1 4 0 18 1 3 0 18 
1 3 0 20 1 3 0 15 1 3 0 14 1 3 0 13 
1 3 0 12 1 2 0 12 1 2 0 9 1 2 0 7 
1 1 0 7 1 1 0 3 1 1 0 2 1 1 1 1 
-1 0 2 -2 0 -4 1 -1 0 -5 1 -1 0 -7 1 -2 
0 -11 1 -2 0 -11 1 -2 0 -14 1 -3 0 -18 1 -3 
0 -19 1 -3 0 -21 1 -3 0 -24 1 -4 0 -25 1 -5 
0 -28 1 -5 0 -30 1 -6 0 -33 1 -6 0 -37 1 -6 
0 -33 1 -6 0 -40 1 -7 0 -39 1 -7 0 -40 1 -7 
0 -46 1 -7 0 -47 1 -7 0 -46 1 -7 0 -46 1 -7 
0 -53 1 -6 0 -46 1 -6 0 -52 1 -6 0 -57 1 -7 
0 -49 1 -6 0 -55 1 -6 0 -53 1 -6 0 -57 1 -6 
0 -49 1 -5 0 -58 1 -5 0 -50 1 -4 0 -51 1 -5 
0 -52 1 -4 0 -49 1 -4 0 -50 1 -4 0 -46 1 -4 
0 -46 1 -3 0 -42 1 -3 0 -39 1 -2 0 -36 1 -2 
0 -33 1 -1 0 -27 1 -1 0 -18 1 -1 1 -5 -1 0 
2 2 1 1 1 1 0 2 2 2 0 2 2 2 0 1 
1 1 0 2 1 1 0 1 1 1 0 3 1 1 0 2 
1 1 0 3 1 1 0 3 1 1 0 3 1 1 0 4 
1 1 0 4 1 1 0 5 1 1 0 6 1 1 0 6 
1 1 0 7 1 1 0 7 1 1 0 9 1 1 0 9 
1 2 0 11 1 1 0 11 1 1 0 13 1 2 0 13 
1 2 0 15 1 2 0 16 1 2 0 17 1 2 0 19 
1 2 0 22 1 2 0 24 1 3 0 25 1 3 0 25 
1 2 0 30 1 3 0 34 1 4 0 33 1 4 0 36 
1 4 0 41 1 4 0 44 1 4 0 44 1 5 0 51 
1 5 0 54 1 6 0 55 1 5 0 57 1 6 0 69 
1 6 0 66 1 7 0 75 1 7 0 78 1 8 0 82 
1 1 0 75 1 4 0 66 1 4 0 60 1 6 0 56 
1 7 0 44 1 11 0 45 1 11 0 40 1 9 0 35 
1 8 0 38 1 7 0 33 1 6 0 29 1 5 0 25 
1 4 0 22 1 4 4378 1464 300 MP stroke
0 18 1 3 0 18 1 2 0 12 1 2 0 10 1 2 
0 5 1 1 0 3 1 1 1 0 0 -3 1 -1 0 -5 
1 -1 0 -9 1 -1 0 -12 1 -2 0 -13 1 -2 0 -16 
1 -2 0 -20 1 -3 0 -19 1 -4 0 -20 1 -4 0 -25 
1 -4 0 -27 1 -4 0 -24 1 -5 0 -29 1 -5 0 -26 
1 -4 0 -32 1 -5 0 -32 1 -5 0 -28 1 -5 0 -34 
1 -5 0 -29 1 -5 0 -35 1 -5 0 -30 1 -5 0 -31 
1 -5 0 -30 1 -5 0 -31 1 -5 0 -31 1 -5 0 -31 
1 -5 0 -26 1 -5 0 -31 1 -5 0 -26 1 -5 0 -26 
1 -6 0 -26 1 -5 0 -21 1 -5 0 -26 1 -5 0 -22 
1 -5 0 -16 1 -6 0 -22 1 -6 0 -16 1 -6 0 -16 
1 -5 0 -14 1 -5 0 -14 1 -4 0 -13 1 -4 0 -16 
1 -3 0 -11 1 -3 0 -10 1 -3 0 -9 1 -3 0 -8 
1 -2 0 -9 1 -2 0 -6 1 -2 0 -6 1 -1 0 -6 
1 -1 0 -3 1 -1 0 -3 1 -1 0 -1 1 -1 1 -1 
1 0 1 1 1 1 0 3 1 1 0 3 1 1 0 4 
1 1 0 5 1 2 0 4 1 2 0 6 1 2 0 8 
1 2 0 7 1 2 0 10 1 3 0 8 1 3 0 8 
1 3 0 13 1 3 0 10 1 3 0 11 1 3 0 15 
1 4 0 12 1 4 0 12 1 4 0 17 1 4 0 14 
1 4 0 14 1 4 0 19 1 5 0 14 1 5 0 19 
1 5 0 15 1 4 0 20 1 5 0 20 1 5 0 20 
1 5 0 20 1 5 0 20 1 5 0 20 1 5 0 20 
1 5 0 25 1 5 0 20 1 5 0 25 1 5 0 20 
1 5 0 24 1 5 0 19 1 5 0 24 1 5 0 24 
1 5 0 23 1 5 0 23 1 4 0 23 1 4 0 22 
1 5 0 21 1 4 0 21 1 5 0 20 1 4 0 24 
1 4 0 19 1 3 0 19 1 3 0 18 1 3 0 17 
1 3 0 18 1 3 0 15 1 3 0 13 1 3 0 12 
1 2 0 11 1 2 0 10 1 1 0 9 1 2 0 6 
1 1 0 4 1 1 0 3 1 1 1 1 -1 0 2 -2 
0 -2 1 -1 0 -6 1 -1 0 -7 1 -2 0 -9 1 -2 
0 -11 1 -2 0 -16 1 -2 0 -16 1 -3 0 -18 1 -3 
0 -20 1 -4 0 -26 1 -4 0 -26 1 -4 0 -29 1 -4 
0 -26 1 -5 0 -34 1 -5 0 -37 1 -6 0 -33 1 -6 
0 -40 1 -6 0 -40 1 -7 0 -40 1 -7 0 -47 1 -7 
0 -46 1 -7 0 -47 1 -7 0 -46 1 -7 0 -46 1 -7 
0 -53 1 -6 0 -52 4226 2364 300 MP stroke
1 -6 0 -51 1 -7 0 -56 1 -6 0 -49 1 -6 0 -60 
1 -6 0 -52 1 -5 0 -56 1 -5 0 -53 1 -6 0 -50 
1 -5 0 -52 1 -4 0 -53 1 -5 0 -49 1 -4 0 -51 
1 -4 0 -47 1 -4 0 -43 1 -3 0 -45 1 -3 0 -38 
1 -2 0 -38 1 -2 0 -33 1 -2 0 -28 1 -1 0 -21 
1 -1 1 -9 -1 0 2 2 1 1 0 1 2 2 0 2 
2 2 0 2 2 2 0 2 1 1 0 2 1 1 0 2 
1 1 0 3 1 1 0 2 1 1 0 3 1 1 0 4 
1 1 0 4 1 1 0 5 1 1 0 5 1 1 0 6 
1 1 0 6 1 1 0 7 1 1 0 7 1 1 0 9 
1 1 0 10 1 1 0 11 1 2 0 11 1 1 0 13 
1 2 0 14 1 1 0 16 1 1 0 17 1 2 0 17 
1 2 0 19 1 2 0 23 1 2 0 25 1 2 0 24 
1 2 0 28 1 3 0 30 1 3 0 32 1 3 0 34 
1 4 0 37 1 4 0 41 1 5 0 45 1 5 0 44 
1 5 0 51 1 6 0 49 1 6 0 57 1 6 0 63 
1 6 0 63 1 7 0 67 1 7 0 70 1 7 0 80 
1 7 0 83 1 8 0 76 1 3 0 69 1 4 0 63 
1 6 0 61 1 7 0 43 1 10 0 45 1 11 0 41 
1 10 0 45 1 8 0 31 1 8 0 34 1 7 0 30 
1 5 0 26 1 5 0 23 1 4 0 19 1 3 0 19 
1 3 0 13 1 2 0 11 1 2 0 6 1 1 0 4 
1 1 1 0 0 -2 1 -1 0 -4 1 -2 0 -8 1 -1 
0 -11 1 -2 0 -13 1 -3 0 -15 1 -3 0 -17 1 -3 
0 -22 1 -3 0 -21 1 -3 0 -26 1 -3 0 -24 1 -4 
0 -28 1 -4 0 -26 1 -4 0 -31 1 -5 0 -32 1 -4 
0 -28 1 -5 0 -34 1 -4 0 -30 1 -5 0 -34 1 -5 
0 -31 1 -5 0 -30 1 -5 0 -36 1 -5 0 -31 1 -5 
0 -32 1 -5 0 -31 1 -5 0 -26 1 -5 0 -32 1 -5 
0 -26 1 -5 0 -32 1 -5 0 -26 1 -5 0 -21 1 -6 
0 -26 1 -5 0 -21 1 -6 0 -21 1 -5 0 -22 1 -6 
0 -16 1 -6 0 -23 1 -5 0 -16 1 -5 0 -15 1 -5 
0 -13 1 -5 0 -13 1 -4 0 -11 1 -4 0 -14 1 -4 
0 -9 1 -3 0 -9 1 -3 0 -8 1 -2 0 -9 1 -2 
0 -6 1 -2 0 -4 1 -2 0 -5 1 -1 0 -4 1 -1 
0 -2 1 -1 0 -1 1 -1 0 -1 2 0 0 1 2 2 
0 2 1 1 0 4 1 1 0 5 1 2 0 4 1 1 
0 6 1 1 0 8 4070 2538 300 MP stroke
1 2 0 7 1 2 0 7 1 3 0 10 1 3 0 8 
1 3 0 9 1 3 0 13 1 4 0 10 1 4 0 11 
1 3 0 16 1 4 0 12 1 4 0 13 1 4 0 18 
1 5 0 14 1 4 0 14 1 5 0 19 1 5 0 15 
1 5 0 20 1 5 0 15 1 5 0 20 1 5 0 20 
1 6 0 20 1 5 0 21 1 5 0 21 1 5 0 21 
1 5 0 20 1 5 0 26 1 5 0 21 1 5 0 20 
1 6 0 25 1 5 0 25 1 5 0 20 1 5 0 25 
1 5 0 24 1 5 0 24 1 4 0 24 1 5 0 23 
1 4 0 23 1 4 0 22 1 5 0 21 1 4 0 21 
1 4 0 20 1 4 0 20 1 4 0 18 1 4 0 21 
1 3 0 17 1 3 0 16 1 3 0 15 1 3 0 13 
1 3 0 12 1 2 0 11 1 2 0 11 1 2 0 7 
1 1 0 7 1 1 0 3 1 1 0 3 1 1 1 0 
-1 0 2 -2 0 -3 1 -1 0 -5 1 -1 0 -8 1 -2 
0 -11 1 -2 0 -13 1 -2 0 -15 1 -3 0 -17 1 -3 
0 -20 1 -3 0 -19 1 -4 0 -24 1 -5 0 -27 1 -5 
0 -30 1 -6 0 -27 1 -6 0 -37 1 -6 0 -33 1 -7 
0 -34 1 -6 0 -41 1 -7 0 -41 1 -7 0 -42 1 -7 
0 -48 1 -7 0 -41 1 -7 0 -48 1 -7 0 -55 1 -7 
0 -48 1 -6 0 -54 1 -7 0 -53 1 -7 0 -53 1 -6 
0 -52 1 -6 0 -57 1 -6 0 -55 1 -6 0 -54 1 -5 
0 -58 1 -5 0 -55 1 -5 0 -52 1 -5 0 -54 1 -5 
0 -55 1 -4 0 -51 1 -4 0 -52 1 -4 0 -45 1 -3 
0 -48 1 -3 0 -44 1 -3 0 -42 1 -3 0 -38 1 -2 
0 -33 1 -2 0 -30 1 -1 0 -23 1 -1 0 -11 1 -1 
0 1 2 2 0 2 2 2 0 3 2 2 0 2 1 1 
0 2 1 1 0 3 1 1 0 2 1 1 0 3 1 1 
0 4 1 1 0 3 1 1 0 5 1 1 0 4 1 1 
0 6 1 1 0 6 1 1 0 6 1 1 0 8 1 1 
0 7 1 1 0 9 1 2 0 9 1 1 0 11 1 1 
0 13 1 1 0 12 1 2 0 14 1 2 0 15 1 2 
0 17 1 1 0 18 1 2 0 20 1 2 0 21 1 2 
0 25 1 2 0 24 1 3 0 28 1 3 0 27 1 4 
0 32 1 4 0 35 1 4 0 34 1 5 0 38 1 4 
0 42 1 5 0 46 1 6 0 49 1 6 0 46 1 6 
0 54 1 6 0 62 1 7 0 58 1 6 0 66 1 7 
0 68 1 7 0 72 3917 2223 300 MP stroke
1 8 0 74 1 9 0 86 1 8 0 80 1 10 0 88 
1 3 0 77 1 4 0 66 1 6 0 63 1 8 0 54 
1 11 0 47 1 11 0 44 1 10 0 47 1 9 0 34 
1 8 0 37 1 7 0 33 1 6 0 28 1 5 0 25 
1 5 0 25 1 3 0 18 1 3 0 13 1 3 0 12 
1 2 0 7 1 1 0 4 1 1 1 1 0 -2 1 -1 
0 -5 1 -1 0 -9 1 -2 0 -11 1 -2 0 -14 1 -2 
0 -17 1 -2 0 -19 1 -3 0 -23 1 -4 0 -22 1 -3 
0 -24 1 -4 0 -29 1 -4 0 -26 1 -4 0 -32 1 -5 
0 -28 1 -5 0 -34 1 -5 0 -30 1 -5 0 -36 1 -5 
0 -31 1 -5 0 -37 1 -6 0 -32 1 -5 0 -33 1 -5 
0 -33 1 -5 0 -33 1 -6 0 -33 1 -5 0 -34 1 -5 
0 -28 1 -5 0 -34 1 -5 0 -28 1 -5 0 -28 1 -6 
0 -27 1 -6 0 -28 1 -5 0 -23 1 -5 0 -23 1 -5 
0 -23 1 -6 0 -17 1 -6 0 -23 1 -6 0 -17 1 -6 
0 -15 1 -5 0 -15 1 -5 0 -13 1 -5 0 -12 1 -4 
0 -11 1 -4 0 -14 1 -3 0 -9 1 -3 0 -8 1 -2 
0 -7 1 -3 0 -6 1 -2 0 -6 1 -1 0 -4 1 -1 
0 -4 1 -1 0 -2 1 -1 0 -1 1 -1 1 0 0 1 
2 2 0 3 1 1 0 3 1 1 0 5 1 1 0 4 
1 2 0 7 1 2 0 5 1 3 0 8 1 3 0 7 
1 3 0 11 1 3 0 9 1 3 0 10 1 3 0 14 
1 3 0 11 1 4 0 12 1 4 0 12 1 5 0 17 
1 4 0 14 1 4 0 14 1 5 0 19 1 5 0 15 
1 5 0 15 1 5 0 21 1 5 0 16 1 6 0 21 
1 5 0 22 1 5 0 17 1 5 0 22 1 6 0 22 
1 6 0 22 1 6 0 22 1 5 0 23 1 5 0 22 
1 6 0 22 1 6 0 22 1 5 0 28 1 5 0 22 
1 5 0 22 1 5 0 27 1 5 0 21 1 5 0 26 
1 5 0 26 1 5 0 19 1 5 0 25 1 5 0 23 
1 5 0 23 1 5 0 17 1 5 0 22 1 4 0 21 
1 4 0 20 1 3 0 19 1 4 0 18 1 4 0 16 
1 4 0 15 1 3 0 15 1 2 0 14 1 2 0 9 
1 3 0 10 1 2 0 8 1 2 0 6 1 2 0 4 
1 1 0 2 1 1 1 1 -1 0 2 -2 0 -3 1 -1 
0 -5 1 -1 0 -8 1 -2 0 -10 1 -2 0 -12 1 -3 
0 -14 1 -3 0 -17 1 -4 0 -20 1 -4 0 -22 1 -5 
0 -20 1 -5 0 -28 3765 1357 300 MP stroke
1 -6 0 -31 1 -6 0 -27 1 -7 0 -30 1 -8 0 -37 
1 -8 0 -37 1 -8 0 -38 1 -8 0 -45 1 -8 0 -46 
1 -7 0 -46 1 -8 0 -46 1 -8 0 -46 1 -7 0 -54 
1 -7 0 -53 1 -8 0 -60 1 -8 0 -52 1 -7 0 -59 
1 -8 0 -58 1 -7 0 -57 1 -7 0 -56 1 -7 0 -61 
1 -7 0 -59 1 -7 0 -58 1 -6 0 -55 1 -6 0 -59 
1 -6 0 -61 1 -6 0 -52 1 -6 0 -58 1 -5 0 -49 
1 -5 0 -54 1 -4 0 -51 1 -4 0 -46 1 -4 0 -45 
1 -3 0 -42 1 -2 0 -41 1 -2 0 -36 1 -1 0 -30 
1 -1 0 -24 1 -1 0 -15 1 -1 0 -1 0 1 1 1 
0 2 1 1 0 2 1 1 0 2 1 1 0 3 1 1 
0 4 1 1 0 3 1 1 0 4 1 1 0 4 1 1 
0 4 1 1 0 6 1 1 0 5 1 1 0 7 1 1 
0 6 1 1 0 8 1 1 0 9 1 1 0 8 1 1 
0 10 1 2 0 10 1 2 0 11 1 2 0 12 1 2 
0 14 1 2 0 14 1 2 0 17 1 1 0 19 1 2 
0 19 1 2 0 21 1 2 0 23 1 2 0 24 1 3 
0 25 1 3 0 28 1 3 0 29 1 4 0 35 1 4 
0 32 1 4 0 39 1 4 0 38 1 5 0 43 1 5 
0 41 1 6 0 51 1 6 0 50 1 7 0 47 1 8 
0 59 1 9 0 55 1 9 0 57 1 10 0 69 1 10 
0 70 1 7 0 76 1 10 0 67 1 11 0 82 1 12 
0 87 1 12 0 77 1 12 0 93 1 13 0 92 1 3 
0 87 1 5 0 71 1 7 0 69 1 9 0 58 1 11 
0 64 1 15 0 41 1 13 0 49 1 11 0 33 1 11 
0 39 1 9 0 34 1 9 0 30 1 7 0 26 1 6 
0 22 1 5 0 18 1 4 0 15 1 3 0 13 1 2 
0 6 1 2 0 3 1 1 1 1 0 -2 1 -1 0 -7 
1 -1 0 -10 1 -2 0 -11 1 -3 0 -15 1 -3 0 -18 
1 -3 0 -24 1 -3 0 -23 1 -4 0 -24 1 -4 0 -26 
1 -5 0 -32 1 -5 0 -29 1 -4 0 -31 1 -5 0 -31 
1 -5 0 -38 1 -5 0 -33 1 -6 0 -34 1 -6 0 -34 
1 -6 0 -35 1 -6 0 -35 1 -6 0 -36 1 -6 0 -36 
1 -6 0 -36 1 -6 0 -31 1 -6 0 -36 1 -6 0 -31 
1 -6 0 -30 1 -6 0 -31 1 -6 0 -31 1 -6 0 -24 
1 -6 0 -25 1 -6 0 -24 1 -7 0 -24 1 -6 0 -26 
1 -6 0 -19 1 -7 0 -13 1 -7 0 -21 1 -7 0 -13 
1 -6 0 -12 1 -6 3615 1908 300 MP stroke
0 -11 1 -5 0 -15 1 -4 0 -9 1 -4 0 -11 1 -4 
0 -9 1 -2 0 -8 1 -2 0 -6 1 -2 0 -5 1 -1 
0 -4 1 -1 0 -4 1 -1 0 -1 1 -1 1 -1 1 0 
-1 0 2 2 0 2 1 1 0 3 1 1 0 5 1 1 
0 5 1 1 0 7 1 2 0 6 1 2 0 9 1 2 
0 8 1 2 0 11 1 3 0 9 1 3 0 13 1 4 
0 10 1 4 0 11 1 4 0 15 1 5 0 12 1 4 
0 13 1 5 0 18 1 5 0 14 1 5 0 14 1 5 
0 20 1 5 0 16 1 5 0 16 1 5 0 22 1 6 
0 16 1 6 0 22 1 6 0 17 1 5 0 23 1 6 
0 17 1 6 0 23 1 5 0 23 1 6 0 18 1 5 
0 23 1 6 0 23 1 6 0 22 1 6 0 23 1 5 
0 23 1 5 0 22 1 6 0 22 1 5 0 21 1 6 
0 21 1 5 0 26 1 5 0 20 1 5 0 19 1 5 
0 24 1 5 0 18 1 5 0 17 1 5 0 21 1 4 
0 17 1 4 0 19 1 4 0 15 1 3 0 17 1 4 
0 16 1 3 0 11 1 3 0 13 1 3 0 9 1 3 
0 10 1 2 0 7 1 1 0 6 1 1 0 5 1 1 
0 2 1 1 1 1 1 -1 0 -4 1 -1 0 -3 1 -2 
0 -7 1 -2 0 -10 1 -3 0 -9 1 -4 0 -12 1 -4 
0 -14 1 -5 0 -21 1 -6 0 -19 1 -6 0 -21 1 -7 
0 -23 1 -8 0 -26 1 -9 0 -28 1 -9 0 -26 1 -9 
0 -35 1 -9 0 -35 1 -9 0 -43 1 -9 0 -34 1 -9 
0 -43 1 -9 0 -52 1 -9 0 -43 1 -9 0 -52 1 -8 
0 -52 1 -9 0 -60 1 -8 0 -52 1 -8 0 -60 1 -8 
0 -59 1 -9 0 -58 1 -8 0 -58 1 -8 0 -65 1 -8 
0 -64 1 -8 0 -62 1 -8 0 -61 1 -7 0 -67 1 -7 
0 -58 1 -7 0 -62 1 -7 0 -67 1 -6 0 -57 1 -7 
0 -60 1 -6 0 -62 1 -6 0 -58 1 -5 0 -53 1 -5 
0 -53 1 -5 0 -53 1 -4 0 -49 1 -4 0 -47 1 -3 
0 -45 1 -2 0 -40 1 -3 0 -34 1 -2 0 -32 1 -1 
0 -25 1 -1 0 -17 1 -1 0 -4 0 1 1 1 0 3 
1 1 0 3 1 1 0 3 1 1 0 4 1 1 0 5 
1 1 0 4 1 1 0 5 1 1 0 6 1 1 0 6 
1 1 0 6 1 1 0 8 1 1 0 8 1 1 0 8 
1 1 0 10 1 1 0 11 1 1 0 10 1 2 0 11 
1 2 0 13 1 1 0 15 1 2 0 14 1 2 0 18 
1 2 0 18 1 2 3464 3117 300 MP stroke
0 18 1 2 0 21 1 2 0 23 1 2 0 25 1 2 
0 26 1 3 0 28 1 3 0 30 1 3 0 33 1 4 
0 32 1 4 0 40 1 5 0 34 1 6 0 43 1 5 
0 42 1 6 0 47 1 7 0 51 1 8 0 48 1 9 
0 54 1 9 0 50 1 10 0 55 1 11 0 61 1 13 
0 68 1 14 0 60 1 16 0 67 1 18 0 69 1 17 
0 70 1 19 0 75 1 20 0 79 1 20 0 82 1 21 
0 84 1 21 0 96 1 2 0 90 1 5 0 83 1 7 
0 71 1 9 0 69 1 11 0 49 1 15 0 50 1 21 
0 39 1 19 0 35 1 16 0 32 1 14 0 42 1 12 
0 24 1 11 0 19 1 8 0 28 1 6 0 16 1 5 
0 15 1 4 0 11 1 2 0 9 1 2 0 4 1 1 
1 0 0 -2 1 -1 0 -7 1 -2 0 -8 1 -2 0 -13 
1 -3 0 -16 1 -3 0 -19 1 -3 0 -22 1 -3 0 -24 
1 -4 0 -26 1 -4 0 -27 1 -5 0 -29 1 -5 0 -35 
1 -5 0 -32 1 -5 0 -33 1 -6 0 -35 1 -6 0 -35 
1 -6 0 -35 1 -6 0 -37 1 -6 0 -36 1 -7 0 -37 
1 -6 0 -32 1 -6 0 -38 1 -6 0 -38 1 -7 0 -32 
1 -6 0 -32 1 -7 0 -32 1 -6 0 -32 1 -7 0 -32 
1 -6 0 -26 1 -7 0 -32 1 -6 0 -26 1 -7 0 -26 
1 -6 0 -20 1 -6 0 -21 1 -6 0 -21 1 -7 0 -22 
1 -7 0 -17 1 -10 0 -9 1 -10 0 -9 1 -9 0 -7 
1 -6 0 -11 1 -5 0 -14 1 -4 0 -7 1 -3 0 -10 
1 -2 0 -8 1 -2 0 -7 1 -1 0 -7 1 -1 0 -4 
1 -1 0 -2 1 -1 0 -2 1 -1 1 -1 0 1 2 2 
0 3 1 1 0 3 1 1 0 5 1 1 0 5 1 1 
0 8 1 2 0 6 1 2 0 9 1 3 0 7 1 3 
0 12 1 2 0 10 1 3 0 10 1 3 0 14 1 4 
0 11 1 4 0 12 1 4 0 17 1 4 0 14 1 4 
0 14 1 5 0 19 1 4 0 15 1 5 0 15 1 5 
0 16 1 5 0 21 1 6 0 16 1 5 0 17 1 5 
0 22 1 6 0 17 1 6 0 22 1 6 0 17 1 6 
0 22 1 6 0 17 1 6 0 23 1 5 0 23 1 6 
0 16 1 6 0 22 1 6 0 22 1 6 0 21 1 6 
0 21 1 5 0 16 1 6 0 20 1 5 0 26 1 5 
0 19 1 5 0 19 1 5 0 19 1 4 0 18 1 5 
0 17 1 4 0 21 1 4 0 15 1 4 0 15 1 4 
0 17 1 4 0 13 3313 807 300 MP stroke
1 3 0 12 1 3 0 14 1 2 0 10 1 2 0 9 
1 2 0 10 1 1 0 7 1 1 0 5 1 1 0 3 
1 1 0 1 1 1 1 0 0 -2 1 -1 0 -4 1 -1 
0 -6 1 -2 0 -6 1 -2 0 -11 1 -3 0 -10 1 -4 
0 -12 1 -5 0 -15 1 -6 0 -20 1 -8 0 -18 1 -11 
0 -11 1 -12 0 -24 1 -13 0 -22 1 -11 0 -20 1 -10 
0 -33 1 -9 0 -29 1 -10 0 -37 1 -9 0 -38 1 -9 
0 -46 1 -9 0 -47 1 -9 0 -46 1 -9 0 -47 1 -10 
0 -45 1 -10 0 -54 1 -9 0 -55 1 -9 0 -54 1 -9 
0 -63 1 -9 0 -63 1 -9 0 -61 1 -9 0 -61 1 -9 
0 -60 1 -8 0 -68 1 -8 0 -58 1 -9 0 -65 1 -8 
0 -63 1 -8 0 -69 1 -8 0 -60 1 -7 0 -65 1 -7 
0 -63 1 -6 0 -67 1 -6 0 -63 1 -6 0 -59 1 -6 
0 -55 1 -5 0 -61 1 -5 0 -55 1 -5 0 -51 1 -4 
0 -51 1 -3 0 -46 1 -4 0 -46 1 -3 0 -40 1 -2 
0 -39 1 -2 0 -32 1 -1 0 -27 1 -1 0 -20 1 -1 
0 -6 1 1 0 3 1 1 0 3 1 1 0 4 1 1 
0 4 1 1 0 5 1 1 0 5 1 1 0 5 1 1 
0 6 1 1 0 7 1 1 0 7 1 1 0 7 1 1 
0 9 1 1 0 9 1 1 0 9 1 2 0 11 1 1 
0 12 1 1 0 13 1 1 0 13 1 2 0 16 1 2 
0 14 1 2 0 18 1 2 0 17 1 3 0 20 1 2 
0 22 1 3 0 23 1 3 0 25 1 2 0 27 1 3 
0 29 1 3 0 32 1 4 0 30 1 4 0 34 1 5 
0 37 1 5 0 41 1 5 0 40 1 6 0 44 1 6 
0 49 1 7 0 47 1 8 0 51 1 9 0 57 1 10 
0 53 1 11 0 59 1 13 0 52 1 14 0 74 1 15 
0 50 1 17 0 75 1 20 0 63 1 23 0 73 1 26 
0 56 1 30 0 63 1 32 0 65 1 33 0 67 1 34 
0 104 1 11 0 92 1 5 0 83 1 7 0 74 1 9 
0 66 1 10 0 59 1 13 0 45 1 18 0 45 1 24 
0 28 1 27 0 26 1 24 0 22 1 19 0 29 1 12 
0 30 1 9 0 22 1 7 0 22 1 4 0 17 1 3 
0 12 1 2 0 8 1 1 0 6 1 1 1 1 -1 0 
2 -2 0 -6 1 -1 0 -10 1 -2 0 -11 1 -2 0 -16 
1 -3 0 -19 1 -3 0 -21 1 -4 0 -23 1 -4 0 -29 
1 -4 0 -28 1 -4 0 -29 1 -5 0 -31 1 -5 0 -32 
1 -5 0 -34 1 -5 3162 730 300 MP stroke
0 -34 1 -6 0 -35 1 -6 0 -36 1 -6 0 -36 1 -7 
0 -37 1 -6 0 -38 1 -6 0 -38 1 -7 0 -32 1 -6 
0 -39 1 -6 0 -33 1 -6 0 -33 1 -6 0 -33 1 -7 
0 -32 1 -7 0 -32 1 -7 0 -33 1 -6 0 -26 1 -7 
0 -26 1 -7 0 -26 1 -7 0 -20 1 -7 0 -20 1 -7 
0 -21 1 -7 0 -22 1 -8 0 -16 1 -9 0 -11 1 -9 
0 -12 1 -9 0 -7 1 -7 0 -11 1 -5 0 -14 1 -4 
0 -8 1 -3 0 -10 1 -3 0 -7 1 -3 0 -6 1 -2 
0 -5 1 -2 0 -5 1 -1 0 -2 1 -1 0 -2 1 -1 
1 -1 1 1 0 1 1 1 0 1 1 1 0 4 1 1 
0 4 1 1 0 6 1 2 0 5 1 2 0 8 1 2 
0 7 1 3 0 10 1 3 0 8 1 3 0 9 1 3 
0 13 1 4 0 10 1 4 0 11 1 4 0 16 1 4 
0 12 1 5 0 13 1 4 0 18 1 5 0 14 1 5 
0 14 1 5 0 15 1 5 0 21 1 5 0 16 1 5 
0 16 1 6 0 16 1 6 0 22 1 5 0 17 1 5 
0 23 1 6 0 16 1 6 0 23 1 5 0 17 1 6 
0 23 1 5 0 17 1 6 0 22 1 6 0 22 1 5 
0 17 1 5 0 22 1 5 0 21 1 6 0 20 1 6 
0 20 1 5 0 20 1 5 0 19 1 5 0 19 1 5 
0 18 1 4 0 18 1 4 0 17 1 5 0 20 1 4 
0 15 1 4 0 14 1 4 0 14 1 3 0 16 1 3 
0 12 1 2 0 11 1 3 0 11 1 3 0 8 1 2 
0 7 1 1 0 6 1 2 0 5 1 1 0 2 1 1 
1 1 1 -1 0 -2 1 -1 0 -4 1 -1 0 -6 1 -2 
0 -9 1 -2 0 -9 1 -3 0 -14 1 -4 0 -13 1 -5 
0 -17 1 -6 0 -10 1 -8 0 -17 1 -10 0 -23 1 -19 
0 -14 1 -13 0 -23 1 -11 0 -22 1 -10 0 -37 1 -7 
0 -30 1 -10 0 -38 1 -10 0 -38 1 -9 0 -47 1 -10 
0 -37 1 -10 0 -47 1 -9 0 -50 1 -9 0 -56 1 -9 
0 -47 1 -9 0 -56 1 -9 0 -55 1 -9 0 -64 1 -9 
0 -54 1 -9 0 -63 1 -9 0 -62 1 -9 0 -70 1 -8 
0 -60 1 -9 0 -67 1 -9 0 -66 1 -8 0 -64 1 -8 
0 -63 1 -8 0 -68 1 -8 0 -58 1 -7 0 -64 1 -7 
0 -68 1 -6 0 -58 1 -6 0 -67 1 -6 0 -56 1 -6 
0 -57 1 -5 0 -58 1 -4 0 -53 1 -4 0 -52 1 -4 
0 -47 1 -4 0 -45 1 -3 0 -45 1 -2 0 -37 1 -2 
0 -34 1 -2 0 -29 3011 3295 300 MP stroke
1 -1 0 -21 1 -1 0 -10 1 -1 0 3 1 1 0 3 
1 1 0 4 1 1 0 4 1 1 0 4 1 1 0 5 
1 1 0 5 1 1 0 5 1 1 0 6 1 1 0 7 
1 1 0 8 1 1 0 8 1 1 0 8 1 1 0 9 
1 1 0 11 1 1 0 10 1 2 0 11 1 2 0 13 
1 1 0 14 1 1 0 17 1 1 0 16 1 2 0 18 
1 2 0 18 1 2 0 21 1 2 0 23 1 2 0 24 
1 3 0 23 1 3 0 28 1 3 0 29 1 4 0 29 
1 4 0 35 1 5 0 35 1 5 0 34 1 5 0 43 
1 5 0 42 1 6 0 39 1 7 0 51 1 8 0 48 
1 9 0 45 1 9 0 60 1 10 0 56 1 12 0 50 
1 13 0 55 1 15 0 62 1 16 0 71 1 19 0 60 
1 21 0 70 1 25 0 53 1 29 0 62 1 34 0 74 
1 38 0 38 1 38 0 77 1 39 0 72 1 4 0 83 
1 6 0 71 1 7 0 65 1 9 0 61 1 12 0 52 
1 16 0 38 1 20 0 24 1 22 0 21 1 25 0 21 
1 16 0 25 1 10 0 17 1 7 0 19 1 5 0 18 
1 3 0 10 1 3 0 9 1 1 0 3 1 1 1 -1 
0 -4 1 -1 0 -9 1 -2 0 -11 1 -2 0 -15 1 -3 
0 -20 1 -3 0 -23 1 -4 0 -25 1 -4 0 -28 1 -5 
0 -35 1 -5 0 -29 1 -6 0 -39 1 -6 0 -36 1 -6 
0 -38 1 -6 0 -45 1 -7 0 -40 1 -7 0 -50 2923 1107 176 MP stroke
/c11 { 0.000000 0.600000 0.298000 sr} bdef
c11
1 0 0 -3 1 -1 0 -3 1 -1 0 -4 1 -1 0 -3 
1 -1 0 -4 1 -1 0 -3 1 -1 0 -4 1 -1 0 -3 
1 -1 0 -3 1 -1 0 -3 1 -1 0 -4 1 -1 0 -3 
1 -1 0 -2 1 -1 0 -3 1 -1 0 -3 1 -1 0 -3 
1 -1 0 -2 1 -1 0 -2 1 -1 0 -3 1 -1 0 -1 
1 -1 0 -2 1 -1 0 -2 1 -1 0 -2 1 -1 0 -1 
1 -1 0 -2 2 -2 0 -2 2 -2 0 -1 2 -2 1 -1 
1 -1 1 -1 1 -1 1 -1 1 0 1 0 1 -1 1 0 
1 0 1 1 1 0 1 0 1 1 1 1 1 1 1 1 
1 1 1 1 0 1 2 2 0 1 2 2 0 1 1 1 
0 1 1 1 1 1 0 2 1 1 0 1 1 1 0 1 
1 1 0 2 1 1 0 1 1 1 0 1 1 1 0 2 
1 1 0 2 1 1 0 2 1 1 0 2 1 1 0 2 
1 1 0 2 1 1 0 2 1 1 0 2 1 1 0 2 
1 1 0 2 1 1 0 2 1 1 0 3 1 1 0 3 
1 1 0 2 1 1 0 2 1 1 0 3 1 1 0 2 
1 1 0 3 1 1 0 2 1 1 0 2 1 1 0 3 
1 1 0 2 1 1 0 2 1 1 0 3 1 1 0 2 
1 1 0 2 1 1 0 1 1 1 0 2 1 1 0 2 
1 1 0 2 1 1 0 1 1 1 0 2 2 2 0 2 
2 2 1 1 1 1 1 1 1 1 1 0 1 0 1 0 
1 -1 1 0 -1 0 2 -2 1 -1 0 -2 2 -2 0 -1 
1 -1 0 -2 1 -1 0 -2 1 -1 0 -3 1 -1 0 -2 
1 -1 0 -3 1 -1 0 -3 1 -1 0 -4 1 -1 0 -5 
1 -1 0 -3 1 -1 0 -5 1 -1 0 -5 1 -1 0 -5 
1 -1 0 -5 1 -1 0 -5 1 -1 0 -6 1 -1 0 -6 
1 -1 0 -6 1 -1 0 -6 1 -1 0 -6 1 -1 0 -6 
1 -1 0 -6 1 -1 0 -7 1 -1 0 -6 1 -1 0 -6 
1 -1 0 -6 1 -1 0 -7 1 -1 0 -6 1 -1 0 -6 
1 -1 0 -6 1 -1 0 -5 1 -1 0 -5 1 -1 0 -5 
1 -1 0 -5 1 -1 0 -5 1 -1 0 -4 1 -1 0 -3 
1 -1 0 -4 1 -1 0 -2 1 -1 0 -2 2 -2 1 -1 
1 -1 1 0 1 0 1 1 1 0 1 0 1 0 1 1 
1 0 1 0 1 1 1 0 1 1 1 0 1 1 1 1 
1 0 1 1 1 1 1 1 1 1 1 1 0 1 2 2 
1 1 0 2 2 2 1 1 0 2 1 1 0 2 2 2 
0 2 1 1 0 2 1 1 0 2 1 1 0 3 1 1 
0 3 1 1 0 3 4649 3352 300 MP stroke
1 1 0 3 1 1 0 4 1 1 0 4 1 1 0 4 
1 1 0 5 1 1 0 5 1 1 0 6 1 1 0 6 
1 1 0 6 1 1 0 8 1 1 0 7 1 1 0 8 
1 1 0 9 1 1 0 8 1 1 0 9 1 1 0 7 
1 1 0 7 1 1 0 7 1 1 0 7 1 1 0 6 
1 1 0 5 1 1 0 5 1 1 0 5 1 1 0 4 
1 1 0 3 1 1 0 3 1 1 0 3 1 1 0 2 
1 1 0 2 1 1 0 2 2 2 1 1 1 1 1 1 
1 0 1 -1 1 -1 1 -1 1 -1 0 -2 2 -2 0 -2 
1 -1 0 -1 1 -1 0 -3 1 -1 0 -2 1 -1 0 -2 
1 -1 0 -3 1 -1 0 -3 1 -1 0 -3 1 -1 0 -3 
1 -1 0 -3 1 -1 0 -4 1 -1 0 -3 1 -1 0 -3 
1 -1 0 -4 1 -1 0 -3 1 -1 0 -4 1 -1 0 -3 
1 -1 0 -3 1 -1 0 -3 1 -1 0 -3 1 -1 0 -3 
1 -1 0 -3 1 -1 0 -3 1 -1 0 -3 1 -1 0 -3 
1 -1 0 -2 1 -1 0 -2 1 -1 0 -3 1 -1 0 -2 
1 -1 0 -2 1 -1 0 -2 1 -1 0 -1 1 -1 0 -2 
2 -2 0 -2 1 -1 0 -1 1 -1 0 -1 1 -1 1 -1 
0 -1 2 -2 1 -1 1 -1 1 -1 1 0 1 -1 1 0 
1 -1 1 0 1 0 1 1 1 0 1 0 1 1 1 1 
1 0 1 1 1 1 0 1 2 2 1 1 0 2 2 2 
0 1 2 2 0 2 2 2 0 1 1 1 0 2 1 1 
0 1 1 1 0 1 1 1 0 2 1 1 0 1 1 1 
0 2 1 1 0 2 1 1 0 2 1 1 0 2 1 1 
0 2 1 1 0 2 1 1 0 2 1 1 0 2 1 1 
0 3 1 1 0 2 1 1 0 2 1 1 0 3 1 1 
0 2 1 1 0 3 1 1 0 2 1 1 0 2 1 1 
0 3 1 1 0 2 1 1 0 3 1 1 0 2 1 1 
0 2 1 1 0 2 1 1 0 3 1 1 0 2 1 1 
0 2 1 1 0 2 1 1 0 1 1 1 0 2 1 1 
0 2 1 1 0 1 1 1 0 2 2 2 0 2 2 2 
0 1 2 2 1 0 1 1 1 1 1 0 1 0 1 -1 
1 0 1 -1 0 -2 2 -2 0 -1 1 -1 0 -1 1 -1 
0 -2 1 -1 0 -2 1 -1 0 -2 1 -1 0 -3 1 -1 
0 -2 1 -1 0 -4 1 -1 0 -3 1 -1 0 -4 1 -1 
0 -4 1 -1 0 -5 1 -1 0 -5 1 -1 0 -5 1 -1 
0 -5 1 -1 0 -5 1 -1 0 -6 1 -1 0 -5 1 -1 
0 -6 1 -1 0 -6 4470 3264 300 MP stroke
1 -1 0 -7 1 -1 0 -5 1 -1 0 -7 1 -1 0 -6 
1 -1 0 -6 1 -1 0 -7 1 -1 0 -6 1 -1 0 -6 
1 -1 0 -6 1 -1 0 -6 1 -1 0 -5 1 -1 0 -7 
1 -1 0 -5 1 -1 0 -5 1 -1 0 -5 1 -1 0 -4 
1 -1 0 -5 1 -1 0 -3 1 -1 0 -4 1 -1 0 -2 
1 -1 0 -3 2 -2 1 -1 1 -1 1 0 1 0 1 1 
1 0 1 0 1 0 1 1 1 0 1 0 1 1 1 0 
1 1 1 0 1 1 1 0 1 1 1 1 1 1 1 1 
1 1 1 1 1 1 0 1 2 2 1 1 0 2 2 2 
0 2 2 2 0 2 1 1 0 2 1 1 0 1 1 1 
0 3 1 1 0 2 1 1 0 3 1 1 0 3 1 1 
0 3 1 1 0 3 1 1 0 4 1 1 0 5 1 1 
0 4 1 1 0 6 1 1 0 5 1 1 0 6 1 1 
0 6 1 1 0 8 1 1 0 7 1 1 0 8 1 1 
0 8 1 1 0 9 1 1 0 7 1 1 0 9 1 1 
0 7 1 1 0 7 1 1 0 6 1 1 0 6 1 1 
0 6 1 1 0 5 1 1 0 4 1 1 0 5 1 1 
0 3 1 1 0 3 1 1 0 3 1 1 0 3 1 1 
0 1 1 1 0 2 1 1 0 1 2 2 1 1 1 0 
1 0 1 0 1 -1 1 -1 0 -1 2 -2 0 -2 2 -2 
0 -2 1 -1 0 -2 1 -1 0 -2 1 -1 0 -3 1 -1 
0 -2 1 -1 0 -3 1 -1 0 -3 1 -1 0 -3 1 -1 
0 -3 1 -1 0 -3 1 -1 0 -4 1 -1 0 -3 1 -1 
0 -3 1 -1 0 -4 1 -1 0 -3 1 -1 0 -4 1 -1 
0 -3 1 -1 0 -3 1 -1 0 -3 1 -1 0 -3 1 -1 
0 -3 1 -1 0 -3 1 -1 0 -3 1 -1 0 -3 1 -1 
0 -2 1 -1 0 -2 1 -1 0 -3 1 -1 0 -1 1 -1 
0 -3 1 -1 0 -1 1 -1 0 -2 1 -1 0 -1 1 -1 
0 -2 1 -1 0 -1 1 -1 0 -1 1 -1 1 -1 0 -2 
2 -2 1 -1 1 -1 1 -1 1 -1 1 -1 1 0 1 0 
1 -1 1 0 1 0 1 0 1 1 1 0 1 1 1 0 
1 1 1 1 1 1 1 1 0 1 2 2 0 1 2 2 
0 1 1 1 0 1 2 2 0 2 1 1 0 1 1 1 
0 1 1 1 0 2 2 2 0 2 1 1 0 2 1 1 
0 1 1 1 0 2 1 1 0 2 1 1 0 2 1 1 
0 2 1 1 0 1 1 1 0 3 1 1 0 2 1 1 
0 2 1 1 0 3 1 1 0 2 1 1 0 2 1 1 
0 2 1 1 0 3 4283 3228 300 MP stroke
1 1 0 2 1 1 0 3 1 1 0 2 1 1 0 3 
1 1 0 2 1 1 0 2 1 1 0 2 1 1 0 3 
1 1 0 2 1 1 0 2 1 1 0 2 1 1 0 2 
1 1 0 1 1 1 0 2 1 1 0 3 2 2 0 2 
2 2 0 2 2 2 1 1 1 1 1 1 1 1 1 1 
1 0 1 0 1 -1 1 0 0 -1 2 -2 0 -1 2 -2 
0 -2 1 -1 0 -1 1 -1 0 -2 1 -1 0 -3 1 -1 
0 -2 1 -1 0 -3 1 -1 0 -3 1 -1 0 -4 1 -1 
0 -4 1 -1 0 -4 1 -1 0 -4 1 -1 0 -4 1 -1 
0 -6 1 -1 0 -4 1 -1 0 -6 1 -1 0 -5 1 -1 
0 -6 1 -1 0 -6 1 -1 0 -6 1 -1 0 -6 1 -1 
0 -6 1 -1 0 -6 1 -1 0 -6 1 -1 0 -6 1 -1 
0 -6 1 -1 0 -7 1 -1 0 -5 1 -1 0 -7 1 -1 
0 -5 1 -1 0 -6 1 -1 0 -6 1 -1 0 -5 1 -1 
0 -5 1 -1 0 -5 1 -1 0 -5 1 -1 0 -4 1 -1 
0 -4 1 -1 0 -3 1 -1 0 -3 1 -1 0 -1 1 -1 
0 -2 2 -2 1 -1 1 0 1 0 1 1 1 0 1 0 
1 0 1 1 1 0 1 0 1 1 1 0 1 1 1 0 
1 1 1 0 1 1 1 1 1 1 1 1 1 1 1 1 
1 1 0 1 2 2 0 1 2 2 0 2 2 2 0 2 
2 2 0 2 1 1 0 2 1 1 0 2 1 1 0 2 
1 1 0 3 1 1 0 2 1 1 0 3 1 1 0 4 
1 1 0 4 1 1 0 4 1 1 0 4 1 1 0 5 
1 1 0 5 1 1 0 6 1 1 0 6 1 1 0 7 
1 1 0 6 1 1 0 8 1 1 0 8 1 1 0 8 
1 1 0 7 1 1 0 8 1 1 0 7 1 1 0 7 
1 1 0 6 1 1 0 6 1 1 0 5 1 1 0 5 
1 1 0 4 1 1 0 4 1 1 0 3 1 1 0 4 
1 1 0 2 1 1 0 2 1 1 0 2 1 1 0 2 
2 2 1 1 1 1 1 0 1 0 1 0 1 -1 1 -1 
0 -1 2 -2 0 -1 1 -1 0 -1 1 -1 0 -2 1 -1 
0 -1 1 -1 0 -2 1 -1 0 -3 1 -1 0 -2 1 -1 
0 -3 1 -1 0 -2 1 -1 0 -3 1 -1 0 -3 1 -1 
0 -3 1 -1 0 -4 1 -1 0 -2 1 -1 0 -4 1 -1 
0 -3 1 -1 0 -3 1 -1 0 -3 1 -1 0 -3 1 -1 
0 -3 1 -1 0 -3 1 -1 0 -3 1 -1 0 -3 1 -1 
0 -2 1 -1 0 -3 1 -1 0 -2 1 -1 0 -3 1 -1 
0 -2 1 -1 0 -2 4102 3276 300 MP stroke
1 -1 0 -2 1 -1 0 -1 1 -1 0 -2 1 -1 0 -1 
1 -1 0 -2 1 -1 0 -1 1 -1 0 -2 2 -2 0 -1 
2 -2 0 -1 2 -2 1 -1 1 -1 1 0 1 -1 1 0 
1 -1 1 0 1 0 1 0 1 0 1 0 1 1 1 0 
1 1 1 1 1 1 1 1 1 1 1 1 0 1 2 2 
1 1 0 2 2 2 1 1 0 2 1 1 0 1 1 1 
1 1 0 2 1 1 0 2 2 2 0 2 1 1 0 2 
1 1 0 1 1 1 0 2 1 1 0 1 1 1 0 2 
1 1 0 2 1 1 0 2 1 1 0 2 1 1 0 2 
1 1 0 2 1 1 0 2 1 1 0 2 1 1 0 2 
1 1 0 2 1 1 0 2 1 1 0 2 1 1 0 2 
1 1 0 3 1 1 0 1 1 1 0 2 1 1 0 2 
1 1 0 2 1 1 0 2 1 1 0 2 1 1 0 1 
1 1 0 2 1 1 0 2 2 2 0 2 2 2 0 2 
2 2 0 1 2 2 1 1 1 1 1 0 1 1 1 0 
1 0 1 -1 1 0 0 -1 2 -2 0 -1 2 -2 0 -2 
2 -2 0 -2 1 -1 0 -2 1 -1 0 -2 1 -1 0 -3 
1 -1 0 -3 1 -1 0 -2 1 -1 0 -4 1 -1 0 -4 
1 -1 0 -4 1 -1 0 -3 1 -1 0 -5 1 -1 0 -5 
1 -1 0 -4 1 -1 0 -5 1 -1 0 -5 1 -1 0 -5 
1 -1 0 -6 1 -1 0 -4 1 -1 0 -6 1 -1 0 -6 
1 -1 0 -5 1 -1 0 -6 1 -1 0 -5 1 -1 0 -6 
1 -1 0 -5 1 -1 0 -5 1 -1 0 -6 1 -1 0 -5 
1 -1 0 -5 1 -1 0 -5 1 -1 0 -4 1 -1 0 -5 
1 -1 0 -4 1 -1 0 -4 1 -1 0 -4 1 -1 0 -3 
1 -1 0 -3 1 -1 0 -3 2 -2 0 -2 2 -2 1 0 
1 -1 1 1 1 0 1 0 1 0 1 1 1 0 1 0 
1 1 1 0 1 0 1 1 1 0 1 1 1 1 1 0 
1 1 1 1 1 1 1 1 1 1 1 1 1 1 0 1 
2 2 1 1 0 2 2 2 0 1 1 1 0 1 1 1 
0 2 2 2 0 2 1 1 0 2 1 1 0 2 1 1 
0 2 1 1 0 2 1 1 0 3 1 1 0 3 1 1 
0 3 1 1 0 3 1 1 0 4 1 1 0 4 1 1 
0 5 1 1 0 4 1 1 0 4 1 1 0 6 1 1 
0 5 1 1 0 6 1 1 0 5 1 1 0 6 1 1 
0 5 1 1 0 6 1 1 0 4 1 1 0 5 1 1 
0 3 1 1 0 4 1 1 0 3 1 1 0 3 1 1 
0 2 1 1 0 2 3907 3234 300 MP stroke
1 1 0 2 1 1 0 1 1 1 0 1 1 1 0 1 
2 2 1 1 1 0 1 1 1 0 1 -1 1 0 1 -1 
1 -1 1 -1 0 -2 2 -2 0 -1 1 -1 0 -1 1 -1 
0 -2 2 -2 0 -2 1 -1 0 -2 1 -1 0 -1 1 -1 
0 -2 1 -1 0 -2 1 -1 0 -2 1 -1 0 -2 1 -1 
0 -2 1 -1 0 -2 1 -1 0 -2 1 -1 0 -2 1 -1 
0 -2 1 -1 0 -2 1 -1 0 -2 1 -1 0 -2 1 -1 
0 -2 1 -1 0 -1 1 -1 0 -3 2 -2 0 -3 2 -2 
0 -2 1 -1 0 -2 2 -2 0 -2 2 -2 0 -1 1 -1 
0 -1 2 -2 0 -1 2 -2 1 -1 1 -1 1 -1 1 -1 
1 0 1 -1 1 -1 1 0 1 0 1 -1 1 0 1 0 
1 0 1 1 1 0 1 0 1 1 1 0 1 1 1 0 
1 1 1 1 1 1 1 1 1 1 1 1 1 1 0 1 
2 2 0 1 2 2 0 1 2 2 0 1 2 2 0 1 
1 1 0 1 2 2 0 1 1 1 1 1 0 2 2 2 
0 2 2 2 0 2 2 2 0 1 1 1 0 1 1 1 
1 1 0 2 2 2 0 2 2 2 0 1 2 2 0 2 
2 2 1 1 0 1 2 2 0 1 2 2 1 1 1 1 
1 1 1 0 1 1 1 1 1 0 1 1 1 0 1 0 
1 0 1 -1 1 0 1 -1 1 -1 1 -1 1 -1 1 -1 
1 -1 0 -2 2 -2 0 -2 2 -2 0 -2 1 -1 0 -1 
1 -1 0 -2 1 -1 0 -2 1 -1 0 -2 1 -1 0 -2 
1 -1 0 -3 1 -1 0 -2 1 -1 0 -2 1 -1 0 -3 
1 -1 0 -3 1 -1 0 -3 1 -1 0 -3 1 -1 0 -3 
1 -1 0 -3 1 -1 0 -3 1 -1 0 -3 1 -1 0 -3 
1 -1 0 -4 1 -1 0 -3 1 -1 0 -3 1 -1 0 -3 
1 -1 0 -4 1 -1 0 -3 1 -1 0 -3 1 -1 0 -3 
1 -1 0 -3 1 -1 0 -2 1 -1 0 -3 1 -1 0 -2 
1 -1 0 -3 1 -1 0 -2 1 -1 0 -2 1 -1 0 -2 
1 -1 0 -1 1 -1 0 -2 1 -1 0 -2 2 -2 1 -1 
1 -1 1 -1 1 -1 1 0 1 0 1 0 1 1 1 0 
1 0 1 0 1 0 1 1 1 0 1 0 1 1 1 0 
1 0 1 1 1 0 1 1 1 0 1 1 1 0 1 1 
1 1 1 0 1 1 1 1 1 1 1 1 1 1 1 1 
0 1 2 2 1 1 1 1 0 2 2 2 1 1 0 2 
2 2 0 2 2 2 0 1 1 1 0 2 2 2 0 3 
2 2 0 2 1 1 0 2 1 1 0 2 1 1 0 2 
1 1 0 1 1 1 3678 3342 300 MP stroke
0 2 1 1 0 2 1 1 0 2 1 1 0 2 2 2 
0 2 2 2 0 1 2 2 1 1 1 1 1 1 1 0 
1 1 1 0 1 1 1 0 1 0 1 0 1 0 1 -1 
1 0 1 -1 1 0 1 -1 1 -1 1 -1 1 -1 1 -1 
1 -1 1 -1 0 -1 2 -2 1 -1 1 -1 0 -1 2 -2 
1 -1 0 -1 2 -2 1 -1 1 -1 0 -1 2 -2 1 -1 
1 -1 1 -1 1 -1 1 -1 1 -1 1 -1 1 -1 1 -1 
1 -1 1 -1 1 -1 1 0 1 -1 1 -1 1 0 1 -1 
1 0 1 -1 1 0 1 0 1 -1 1 0 1 0 1 0 
1 0 1 0 1 -1 1 0 1 1 1 0 1 0 1 0 
1 0 1 0 1 0 1 1 1 0 1 0 1 1 1 0 
1 1 1 0 1 0 1 1 1 0 1 1 1 0 1 1 
1 1 1 0 1 1 1 0 1 1 1 1 1 0 1 1 
1 1 1 0 1 1 1 0 1 1 1 1 1 0 1 1 
1 0 1 1 1 0 1 1 1 0 1 1 1 0 1 1 
1 0 1 1 1 0 1 0 1 1 1 0 1 0 1 0 
1 0 1 0 1 0 1 0 1 0 1 0 1 0 1 0 
1 -1 1 0 1 0 1 -1 1 0 1 -1 1 -1 1 0 
1 -1 1 -1 1 -1 1 -1 1 -1 1 -1 1 -1 0 -1 
2 -2 1 -1 1 -1 0 -1 2 -2 0 -1 2 -2 1 -1 
0 -2 2 -2 0 -1 2 -2 0 -1 2 -2 1 -1 0 -2 
2 -2 0 -1 2 -2 0 -1 2 -2 0 -1 2 -2 0 -1 
2 -2 1 -1 1 -1 0 -1 2 -2 1 -1 1 -1 1 -1 
1 -1 1 -1 1 0 1 -1 1 0 1 -1 1 0 1 0 
1 0 1 0 1 0 1 0 1 0 1 0 1 0 1 0 
1 0 1 0 1 0 1 1 1 0 1 0 1 0 1 0 
1 0 1 1 1 0 1 0 1 0 1 0 1 1 1 0 
1 0 1 0 1 1 1 0 1 0 1 1 1 0 1 1 
1 0 1 1 1 0 1 1 1 0 1 1 1 0 1 1 
1 1 1 0 1 1 1 1 1 0 1 1 1 1 1 1 
1 1 1 0 1 1 1 1 1 1 1 0 1 1 1 0 
1 1 1 0 1 1 1 0 1 0 1 0 1 1 1 0 
1 0 1 0 1 0 1 0 1 0 1 0 1 -1 1 0 
1 0 1 0 1 0 1 -1 1 0 1 0 1 0 1 -1 
1 0 1 -1 1 0 1 0 1 -1 1 0 1 0 1 -1 
1 0 1 0 1 -1 1 0 1 0 1 -1 1 0 1 0 
1 -1 1 0 1 0 1 -1 1 0 1 0 1 0 1 -1 
1 0 1 0 1 0 3382 3387 300 MP stroke
1 -1 1 0 1 0 1 0 1 0 1 0 1 0 1 0 
1 -1 1 0 1 0 1 0 1 0 1 0 1 0 1 0 
1 0 1 0 1 0 1 0 1 0 1 0 1 1 1 0 
1 0 1 0 1 0 1 0 1 0 1 0 1 0 1 0 
1 1 1 0 1 0 1 0 1 0 1 0 1 0 1 1 
1 0 1 0 1 0 1 0 1 0 1 0 1 1 1 0 
1 0 1 0 1 0 1 0 1 0 1 1 1 0 1 0 
1 0 1 0 1 0 1 0 1 0 1 0 1 0 1 0 
1 0 1 0 1 0 1 0 1 0 1 0 1 0 1 0 
1 0 1 0 1 0 1 0 1 0 1 0 1 0 1 -1 
1 0 1 0 1 0 1 0 1 -1 1 0 1 0 1 0 
1 -1 1 0 1 0 1 -1 1 0 1 0 1 -1 1 0 
1 -1 1 0 1 0 1 -1 1 0 1 -1 1 0 1 -1 
1 0 1 0 1 -1 1 0 1 -1 1 0 1 -1 1 0 
1 0 1 -1 1 0 1 -1 1 0 1 0 1 -1 1 0 
1 0 1 0 1 -1 1 0 1 0 1 0 1 -1 1 0 
1 0 1 0 1 0 1 0 1 0 1 0 1 0 1 0 
1 0 1 0 1 0 1 0 1 0 1 0 1 0 1 0 
1 0 1 0 1 0 1 0 1 0 1 0 1 0 1 0 
1 0 1 1 1 0 1 0 1 0 1 0 1 0 1 0 
1 0 1 0 1 0 1 0 1 0 1 1 1 0 1 0 
1 0 1 0 1 0 1 0 1 1 1 0 1 0 1 0 
1 0 1 1 1 0 1 0 1 0 1 0 1 1 1 0 
1 0 1 0 1 0 1 0 1 0 1 1 1 0 1 0 
1 0 1 0 1 0 1 0 1 0 1 0 1 0 1 0 
1 0 1 0 1 0 1 0 1 0 1 0 1 0 1 0 
1 0 1 0 1 -1 1 0 1 0 1 0 1 0 1 0 
1 0 1 0 1 0 1 0 1 0 1 -1 1 0 1 0 
1 0 1 0 1 0 1 0 1 0 1 0 1 0 1 0 
1 0 1 -1 1 0 1 0 1 0 1 0 1 0 1 0 
1 0 1 0 1 0 1 0 1 0 1 0 1 0 1 0 
1 0 1 0 1 0 1 0 1 0 1 0 1 0 1 0 
1 0 1 0 1 0 1 0 1 0 1 0 1 0 1 0 
1 0 1 0 1 0 1 0 1 0 1 0 1 0 1 0 
1 0 1 0 1 0 1 0 1 0 1 0 1 0 1 0 
1 0 1 0 1 0 1 0 1 0 1 0 1 0 1 0 
1 0 1 0 1 0 1 1 1 0 1 0 1 0 1 0 
1 0 1 0 1 0 3083 3397 300 MP stroke
1 0 1 0 1 0 1 0 1 0 1 -1 1 0 1 0 
1 0 1 0 1 0 1 0 1 0 1 0 1 0 1 0 
1 0 1 0 1 0 1 0 1 0 1 0 1 0 1 0 
1 0 1 0 1 0 1 0 1 0 1 0 1 0 1 0 
1 -1 1 0 1 0 1 0 1 0 1 0 1 0 1 0 
1 0 1 0 1 0 1 0 1 0 1 -1 1 0 1 0 
1 0 1 0 1 0 1 0 1 0 1 0 1 0 1 0 
1 -1 1 0 1 0 1 0 1 0 1 0 1 0 1 0 
1 0 1 0 1 0 1 0 1 0 1 0 1 0 1 0 
1 0 1 0 1 0 1 0 1 0 1 0 1 0 1 0 
1 0 1 0 1 0 1 0 1 0 1 0 1 0 1 0 
1 0 1 0 1 0 1 0 1 0 1 0 1 0 1 0 
1 0 1 0 1 0 1 0 1 0 1 0 1 0 1 0 
1 0 1 0 1 0 1 0 1 1 1 0 1 0 1 0 
1 0 1 0 1 0 1 0 1 0 1 0 1 0 1 1 
1 0 1 0 1 0 1 0 1 0 1 0 1 0 1 1 
1 0 1 0 1 0 1 0 1 0 1 0 1 0 1 0 
1 0 1 0 1 0 1 0 1 0 1 0 1 0 1 0 
1 0 1 0 1 0 1 0 1 0 1 0 1 0 1 0 
1 0 1 0 1 0 1 -1 1 0 1 -1 1 -1 1 0 
-1 0 2924 3401 162 MP stroke
c9
1 0 0 -2 1 -1 0 -3 1 -1 0 -3 2 -2 0 -2 
1 -1 0 -2 2 -2 1 -1 1 -1 1 -1 1 -1 1 0 
1 0 1 1 1 1 1 1 1 1 0 2 2 2 0 2 
1 1 0 1 1 1 0 2 1 1 0 3 1 1 0 2 
1 1 0 3 1 1 0 3 1 1 0 3 1 1 0 3 
1 1 0 3 1 2 0 4 1 1 0 4 1 1 0 4 
1 1 0 3 1 2 0 5 1 1 0 4 1 1 0 5 
1 1 0 4 1 1 0 5 1 1 0 5 1 1 0 4 
1 1 0 5 1 1 0 5 1 1 0 4 1 1 0 5 
1 1 0 5 1 1 0 4 1 1 0 5 1 1 0 4 
1 1 0 5 1 1 0 4 1 1 0 5 1 1 0 3 
1 2 0 3 1 1 0 4 1 1 0 3 1 1 0 3 
1 1 0 3 1 1 0 3 1 1 0 2 1 1 0 2 
1 1 0 2 1 1 0 1 1 1 0 2 2 2 1 1 
1 1 1 0 1 0 1 0 -1 0 2 -2 1 -1 0 -1 
1 -1 0 -1 1 -1 0 -2 1 -1 0 -4 1 -1 0 -3 
1 -1 0 -3 1 -1 0 -5 1 -1 0 -4 1 -1 0 -6 
1 -2 0 -6 1 -1 0 -6 1 -1 0 -7 1 -2 0 -7 
1 -2 0 -8 1 -2 0 -8 1 -2 0 -9 1 -2 0 -10 
1 -1 0 -10 1 -2 0 -11 1 -2 0 -11 1 -2 0 -13 
1 -2 0 -12 1 -2 0 -12 1 -3 0 -12 1 -3 0 -15 
1 -3 0 -13 1 -3 0 -13 1 -3 0 -14 1 -3 0 -14 
1 -3 0 -15 1 -3 0 -18 1 -3 0 -14 1 -3 0 -17 
1 -3 0 -14 1 -3 0 -17 1 -3 0 -16 1 -3 0 -19 
1 -3 0 -16 1 -2 0 -16 1 -3 0 -18 1 -3 0 -16 
1 -2 0 -16 1 -3 0 -18 1 -2 0 -16 1 -2 0 -16 
1 -2 0 -15 1 -3 0 -15 1 -2 0 -18 1 -2 0 -12 
1 -3 0 -14 1 -3 0 -14 1 -2 0 -14 1 -3 0 -11 
1 -2 0 -13 1 -2 0 -11 1 -2 0 -12 1 -2 0 -10 
1 -1 0 -11 1 -1 0 -9 1 -2 0 -9 1 -1 0 -8 
1 -1 0 -8 1 -1 0 -6 1 -1 0 -6 1 -1 0 -5 
1 -1 0 -5 1 -1 0 -3 1 -1 0 -3 1 -1 0 -3 
1 -1 0 -1 1 -1 1 -1 1 -1 1 -1 1 1 1 1 
1 1 0 2 2 2 0 2 2 2 0 2 2 2 0 2 
1 1 0 2 1 1 0 2 1 1 0 2 1 1 0 2 
1 1 0 3 1 1 0 3 1 1 0 3 1 1 0 3 
1 1 0 4 1 1 0 4 1 1 0 4 1 1 0 5 
1 1 0 5 1 1 4670 3288 300 MP stroke
0 5 1 1 0 6 1 1 0 6 1 1 0 8 1 1 
0 6 1 1 0 8 1 1 0 9 1 1 0 10 1 1 
0 9 1 1 0 10 1 2 0 11 1 1 0 11 1 2 
0 11 1 2 0 13 1 1 0 14 1 2 0 13 1 1 
0 15 1 1 0 17 1 2 0 15 1 2 0 15 1 2 
0 18 1 2 0 18 1 2 0 18 1 2 0 18 1 2 
0 18 1 2 0 19 1 1 0 19 1 2 0 18 1 2 
0 19 1 2 0 19 1 2 0 17 1 2 0 18 1 2 
0 17 1 1 0 15 1 2 0 16 1 1 0 14 1 2 
0 14 1 1 0 12 1 1 0 13 1 1 0 11 1 1 
0 11 1 1 0 9 1 1 0 8 1 1 0 7 1 2 
0 6 1 1 0 6 1 1 0 5 1 1 0 3 1 1 
0 3 1 1 0 2 1 1 0 1 1 1 1 1 1 1 
1 0 1 -1 1 -1 0 -2 2 -2 0 -2 1 -1 0 -2 
1 -1 0 -2 1 -1 0 -3 1 -1 0 -2 1 -1 0 -3 
1 -1 0 -3 1 -1 0 -4 1 -1 0 -2 1 -1 0 -3 
1 -1 0 -4 1 -1 0 -2 1 -1 0 -3 1 -1 0 -3 
1 -1 0 -2 1 -1 0 -2 1 -1 0 -2 1 -1 0 -2 
1 -1 0 -2 1 -1 0 -1 1 -1 0 -1 1 -1 1 -1 
1 -1 1 -1 1 -1 1 0 1 0 1 0 1 1 0 1 
2 2 0 1 2 2 0 2 1 1 0 2 1 1 0 2 
1 1 0 1 1 1 0 3 1 1 0 2 1 1 0 4 
1 1 0 3 1 1 0 3 1 1 0 3 1 1 0 4 
1 1 0 3 1 2 0 4 1 2 0 3 1 2 0 3 
1 1 0 4 1 1 0 5 1 1 0 5 1 2 0 3 
1 1 0 5 1 2 0 4 1 2 0 3 1 1 0 5 
1 2 0 5 1 1 0 5 1 1 0 4 1 1 0 5 
1 1 0 4 1 1 0 5 1 1 0 4 1 1 0 5 
1 1 0 3 1 2 0 4 1 1 0 4 1 1 0 3 
1 1 0 4 1 1 0 3 1 1 0 2 1 1 0 4 
1 1 0 2 1 1 0 2 1 1 0 2 1 1 0 1 
1 1 0 1 1 1 0 1 1 1 1 1 1 1 1 0 
-1 0 2 0 1 0 1 -1 0 -1 2 -2 0 -2 1 -1 
0 -2 1 -1 0 -2 1 -1 0 -3 1 -1 0 -4 1 -1 
0 -4 1 -1 0 -5 1 -2 0 -4 1 -1 0 -7 1 -1 
0 -7 1 -1 0 -6 1 -1 0 -8 1 -1 0 -8 1 -2 
0 -8 1 -2 0 -9 1 -2 0 -9 1 -2 0 -10 1 -2 
0 -10 1 -2 0 -13 4508 2630 300 MP stroke
1 -2 0 -11 1 -3 0 -11 1 -2 0 -12 1 -3 0 -12 
1 -2 0 -16 1 -2 0 -13 1 -3 0 -14 1 -2 0 -14 
1 -3 0 -14 1 -3 0 -18 1 -3 0 -15 1 -3 0 -14 
1 -3 0 -17 1 -3 0 -14 1 -3 0 -17 1 -3 0 -16 
1 -3 0 -16 1 -3 0 -19 1 -3 0 -15 1 -3 0 -16 
1 -3 0 -18 1 -3 0 -15 1 -3 0 -15 1 -3 0 -18 
1 -3 0 -15 1 -3 0 -15 1 -2 0 -15 1 -3 0 -15 
1 -2 0 -15 1 -2 0 -15 1 -2 0 -15 1 -2 0 -14 
1 -2 0 -12 1 -2 0 -13 1 -2 0 -12 1 -2 0 -10 
1 -2 0 -12 1 -1 0 -11 1 -1 0 -9 1 -2 0 -8 
1 -2 0 -8 1 -1 0 -7 1 -1 0 -7 1 -1 0 -7 
1 -1 0 -5 1 -1 0 -5 1 -1 0 -3 1 -1 0 -4 
1 -1 0 -2 1 -1 0 -2 2 -2 1 -1 1 -1 1 0 
1 1 0 1 2 2 0 2 2 2 0 2 2 2 0 3 
2 2 0 2 1 1 0 2 1 1 0 2 1 1 0 2 
1 1 0 3 1 1 0 3 1 1 0 3 1 1 0 3 
1 1 0 3 1 1 0 4 1 1 0 4 1 1 0 5 
1 1 0 5 1 1 0 5 1 1 0 6 1 1 0 6 
1 1 0 6 1 2 0 7 1 1 0 8 1 1 0 8 
1 1 0 9 1 1 0 10 1 1 0 9 1 2 0 10 
1 2 0 11 1 1 0 13 1 1 0 12 1 2 0 13 
1 2 0 14 1 2 0 14 1 2 0 14 1 2 0 15 
1 2 0 16 1 1 0 18 1 2 0 17 1 2 0 18 
1 2 0 17 1 1 0 19 1 2 0 20 1 2 0 18 
1 2 0 18 1 2 0 19 1 2 0 19 1 2 0 17 
1 2 0 18 1 2 0 17 1 1 0 16 1 2 0 14 
1 2 0 15 1 2 0 13 1 1 0 13 1 2 0 12 
1 1 0 11 1 1 0 10 1 1 0 10 1 1 0 9 
1 1 0 7 1 1 0 6 1 2 0 5 1 2 0 4 
1 1 0 4 1 1 0 3 1 1 0 2 1 1 0 2 
1 1 1 1 1 1 1 0 1 -1 1 -1 0 -1 2 -2 
0 -2 1 -1 0 -2 1 -1 0 -2 1 -1 0 -2 1 -1 
0 -3 1 -1 0 -3 1 -1 0 -3 1 -1 0 -3 1 -1 
0 -3 1 -1 0 -3 1 -1 0 -3 1 -1 0 -3 1 -1 
0 -3 1 -1 0 -2 1 -1 0 -3 1 -1 0 -2 1 -1 
0 -2 1 -1 0 -3 2 -2 0 -2 1 -1 0 -1 2 -2 
1 -1 1 -1 1 -1 1 0 1 0 1 0 1 1 1 1 
0 1 2 2 0 1 4341 2688 300 MP stroke
1 1 0 1 1 1 0 2 1 1 0 1 1 1 0 2 
1 1 0 3 1 1 0 2 1 1 0 3 1 1 0 3 
1 1 0 3 1 1 0 3 1 1 0 5 1 1 0 3 
1 1 0 4 1 1 0 4 1 1 0 4 1 1 0 5 
1 1 0 4 1 1 0 5 1 1 0 5 1 1 0 3 
1 2 0 5 1 1 0 5 1 1 0 3 1 2 0 4 
1 2 0 5 1 1 0 3 1 2 0 4 1 2 0 4 
1 2 0 3 1 2 0 4 1 1 0 4 1 1 0 4 
1 1 0 4 1 2 0 3 1 1 0 4 1 1 0 3 
1 1 0 3 1 1 0 3 1 1 0 3 1 1 0 2 
1 1 0 2 1 1 0 2 1 1 0 1 1 1 0 2 
1 1 1 1 1 1 1 1 1 1 1 0 1 -1 1 -1 
0 -1 2 -2 0 -1 1 -1 0 -2 1 -1 0 -3 1 -1 
0 -2 1 -1 0 -5 1 -1 0 -3 1 -1 0 -6 1 -1 
0 -4 1 -2 0 -6 1 -1 0 -5 1 -2 0 -7 1 -1 
0 -8 1 -1 0 -8 1 -2 0 -8 1 -2 0 -9 1 -1 
0 -10 1 -2 0 -9 1 -2 0 -10 1 -2 0 -11 1 -2 
0 -13 1 -2 0 -12 1 -2 0 -12 1 -2 0 -13 1 -2 
0 -13 1 -2 0 -16 1 -2 0 -14 1 -2 0 -14 1 -3 
0 -14 1 -3 0 -15 1 -3 0 -14 1 -3 0 -17 1 -3 
0 -14 1 -3 0 -17 1 -3 0 -17 1 -3 0 -16 1 -3 
0 -16 1 -3 0 -16 1 -2 0 -19 1 -3 0 -15 1 -3 
0 -16 1 -2 0 -16 1 -2 0 -19 1 -2 0 -16 1 -2 
0 -15 1 -3 0 -15 1 -3 0 -17 1 -3 0 -14 1 -3 
0 -15 1 -2 0 -12 1 -2 0 -15 1 -2 0 -14 1 -3 
0 -11 1 -2 0 -13 1 -2 0 -12 1 -2 0 -11 1 -1 
0 -12 1 -2 0 -10 1 -1 0 -10 1 -1 0 -9 1 -1 
0 -8 1 -1 0 -8 1 -1 0 -7 1 -1 0 -6 1 -1 
0 -6 1 -1 0 -4 1 -1 0 -4 1 -1 0 -3 1 -1 
0 -3 1 -1 0 -2 1 -1 0 -1 2 -2 1 0 1 0 
1 0 -1 0 2 2 0 1 2 2 0 2 2 2 0 2 
2 2 0 3 2 2 0 2 1 1 0 2 1 1 0 2 
1 1 0 2 1 1 0 3 1 1 0 3 1 1 0 3 
1 1 0 3 1 1 0 4 1 1 0 4 1 1 0 4 
1 1 0 5 1 1 0 5 1 1 0 5 1 1 0 7 
1 1 0 6 1 1 0 7 1 1 0 7 1 1 0 8 
1 1 0 8 1 1 0 10 1 1 0 8 1 2 0 10 
1 1 0 11 1 1 4180 3189 300 MP stroke
0 12 1 1 0 12 1 1 0 13 1 2 0 13 1 1 
0 14 1 2 0 14 1 1 0 15 1 2 0 14 1 2 
0 17 1 1 0 18 1 1 0 16 1 2 0 17 1 2 
0 17 1 2 0 18 1 2 0 17 1 2 0 18 1 2 
0 18 1 2 0 18 1 2 0 16 1 2 0 18 1 1 
0 15 1 2 0 16 1 1 0 16 1 1 0 14 1 1 
0 13 1 1 0 12 1 2 0 12 1 1 0 11 1 1 
0 9 1 1 0 10 1 1 0 8 1 1 0 8 1 1 
0 5 1 2 0 5 1 1 0 5 1 1 0 4 1 1 
0 3 1 1 0 2 1 1 0 2 2 2 1 0 1 1 
1 -1 1 -1 1 -1 0 -2 2 -2 0 -2 1 -1 0 -2 
1 -1 0 -2 1 -1 0 -2 1 -1 0 -3 1 -1 0 -3 
1 -1 0 -2 1 -1 0 -3 1 -1 0 -3 1 -1 0 -3 
1 -1 0 -2 1 -1 0 -3 1 -1 0 -2 1 -1 0 -2 
1 -1 0 -2 1 -1 0 -2 1 -1 0 -2 1 -1 0 -2 
2 -2 0 -2 2 -2 1 -1 1 -1 1 0 1 -1 1 0 
1 0 1 1 1 1 0 1 2 2 0 1 2 2 0 2 
1 1 0 1 1 1 0 2 1 1 0 2 1 1 0 3 
1 1 0 2 1 1 0 3 1 1 0 3 1 1 0 2 
1 1 0 3 1 1 0 5 1 1 0 3 1 1 0 3 
1 1 0 4 1 1 0 4 1 1 0 4 1 1 0 3 
1 1 0 5 1 1 0 4 1 1 0 3 1 1 0 5 
1 1 0 4 1 1 0 5 1 1 0 3 1 1 0 5 
1 1 0 3 1 1 0 4 1 1 0 5 1 1 0 3 
1 1 0 3 1 1 0 4 1 1 0 3 1 1 0 3 
1 1 0 3 1 1 0 3 1 1 0 2 1 1 0 3 
1 1 0 1 1 1 0 2 1 1 0 2 1 1 0 1 
1 1 0 1 2 2 1 1 1 0 1 1 1 0 1 -1 
1 -1 0 -1 2 -2 0 -2 1 -1 0 -1 1 -1 0 -3 
1 -1 0 -3 1 -1 0 -3 1 -1 0 -4 1 -1 0 -4 
1 -1 0 -5 1 -1 0 -6 1 -1 0 -6 1 -2 0 -5 
1 -1 0 -7 1 -2 0 -7 1 -2 0 -8 1 -2 0 -8 
1 -2 0 -8 1 -2 0 -9 1 -2 0 -10 1 -2 0 -10 
1 -2 0 -10 1 -2 0 -11 1 -2 0 -11 1 -2 0 -12 
1 -2 0 -14 1 -2 0 -12 1 -3 0 -12 1 -3 0 -13 
1 -2 0 -13 1 -3 0 -14 1 -2 0 -14 1 -3 0 -16 
1 -3 0 -13 1 -3 0 -16 1 -2 0 -14 1 -2 0 -16 
1 -2 0 -16 1 -2 4013 2949 300 MP stroke
0 -16 1 -2 0 -15 1 -3 0 -15 1 -3 0 -15 1 -2 
0 -18 1 -2 0 -15 1 -3 0 -14 1 -3 0 -15 1 -2 
0 -15 1 -2 0 -12 1 -3 0 -14 1 -2 0 -14 1 -3 
0 -14 1 -2 0 -12 1 -2 0 -14 1 -2 0 -11 1 -2 
0 -11 1 -2 0 -12 1 -1 0 -11 1 -2 0 -10 1 -1 
0 -11 1 -1 0 -8 1 -2 0 -8 1 -1 0 -9 1 -1 
0 -8 1 -1 0 -7 1 -1 0 -6 1 -1 0 -5 1 -1 
0 -5 1 -1 0 -4 1 -1 0 -3 1 -1 0 -3 1 -1 
0 -2 1 -1 0 -3 2 -2 1 -1 1 -1 1 0 1 1 
1 1 1 1 1 1 0 2 2 2 0 1 2 2 0 2 
2 2 0 2 1 1 0 1 1 1 0 2 1 1 0 2 
1 1 0 2 1 1 0 1 1 1 0 3 1 1 0 3 
1 1 0 2 1 1 0 3 1 1 0 3 1 1 0 4 
1 1 0 4 1 1 0 4 1 1 0 4 1 1 0 5 
1 1 0 5 1 1 0 6 1 1 0 6 1 1 0 6 
1 1 0 8 1 1 0 7 1 1 0 8 1 1 0 9 
1 1 0 8 1 1 0 9 1 1 0 10 1 1 0 11 
1 1 0 10 1 1 0 11 1 2 0 11 1 1 0 12 
1 2 0 11 1 2 0 13 1 1 0 12 1 1 0 14 
1 1 0 14 1 1 0 13 1 2 0 13 1 1 0 14 
1 1 0 14 1 2 0 13 1 2 0 11 1 2 0 12 
1 1 0 13 1 2 0 11 1 1 0 11 1 1 0 10 
1 1 0 9 1 1 0 9 1 1 0 9 1 1 0 7 
1 1 0 7 1 1 0 7 1 1 0 6 1 1 0 5 
1 1 0 4 1 1 0 4 1 1 0 3 1 1 0 3 
1 1 0 1 1 1 0 2 1 1 1 1 1 1 1 1 
1 0 1 0 1 0 1 -1 1 -1 0 -2 2 -2 0 -1 
1 -1 0 -1 1 -1 0 -2 2 -2 0 -2 1 -1 0 -1 
1 -1 0 -2 1 -1 0 -1 1 -1 0 -2 1 -1 0 -1 
1 -1 0 -2 2 -2 0 -2 1 -1 0 -1 1 -1 1 -1 
0 -2 2 -2 1 -1 1 -1 1 -1 1 -1 1 0 1 -1 
1 0 1 0 1 0 1 1 1 1 1 0 0 1 2 2 
1 1 1 1 0 2 2 2 0 2 2 2 0 2 1 1 
0 1 1 1 0 1 1 1 0 2 1 1 0 1 1 1 
0 2 1 1 0 2 1 1 0 2 1 1 0 1 1 1 
0 2 1 1 0 2 1 1 0 2 1 1 0 2 1 1 
0 2 1 1 0 2 1 1 0 2 1 1 0 2 1 1 
0 2 1 1 0 2 3838 2802 300 MP stroke
1 1 0 1 1 1 0 2 1 1 0 1 1 1 0 2 
1 1 0 1 1 1 0 2 2 2 0 1 1 1 0 1 
2 2 1 1 1 1 1 1 1 1 1 0 1 0 1 0 
1 0 1 0 1 -1 0 -1 2 -2 0 -1 1 -1 0 -1 
1 -1 0 -1 1 -1 0 -2 1 -1 0 -2 1 -1 0 -2 
1 -1 0 -3 1 -1 0 -3 1 -1 0 -4 1 -1 0 -3 
1 -1 0 -4 1 -1 0 -5 1 -1 0 -5 1 -1 0 -4 
1 -2 0 -6 1 -1 0 -5 1 -1 0 -7 1 -1 0 -7 
1 -1 0 -6 1 -1 0 -7 1 -2 0 -7 1 -2 0 -8 
1 -1 0 -7 1 -1 0 -8 1 -2 0 -8 1 -2 0 -9 
1 -2 0 -8 1 -2 0 -9 1 -2 0 -9 1 -2 0 -10 
1 -2 0 -9 1 -2 0 -10 1 -2 0 -8 1 -2 0 -10 
1 -3 0 -10 1 -2 0 -10 1 -2 0 -11 1 -2 0 -10 
1 -2 0 -10 1 -2 0 -11 1 -2 0 -10 1 -2 0 -10 
1 -2 0 -10 1 -2 0 -10 1 -2 0 -10 1 -2 0 -10 
1 -2 0 -10 1 -2 0 -10 1 -2 0 -9 1 -2 0 -8 
1 -2 0 -9 1 -2 0 -10 1 -2 0 -7 1 -2 0 -7 
1 -2 0 -9 1 -1 0 -8 1 -2 0 -7 1 -1 0 -8 
1 -1 0 -7 1 -1 0 -7 1 -1 0 -6 1 -1 0 -5 
1 -1 0 -6 1 -1 0 -5 1 -1 0 -5 1 -1 0 -4 
1 -1 0 -4 1 -1 0 -3 1 -1 0 -3 1 -1 0 -2 
1 -1 0 -3 1 -1 0 -2 2 -2 0 -2 2 -2 1 -1 
1 -1 1 0 1 0 1 0 1 0 1 1 1 1 1 1 
1 0 1 1 1 1 1 1 0 1 2 2 1 1 0 1 
2 2 0 1 2 2 0 1 2 2 0 2 2 2 0 2 
2 2 0 2 1 1 0 1 1 1 0 2 1 1 0 2 
1 1 0 2 1 1 0 2 1 1 0 3 1 1 0 2 
1 1 0 3 1 1 0 3 1 1 0 3 1 1 0 3 
1 1 0 4 1 1 0 4 1 1 0 4 1 1 0 4 
1 1 0 5 1 1 0 4 1 1 0 5 1 1 0 5 
1 1 0 6 1 1 0 4 1 1 0 6 1 1 0 5 
1 1 0 6 1 1 0 5 1 1 0 6 1 1 0 6 
1 1 0 5 1 1 0 6 1 1 0 5 1 1 0 4 
1 1 0 5 1 1 0 5 1 1 0 4 1 1 0 4 
1 1 0 3 1 1 0 4 1 1 0 3 1 1 0 2 
1 1 0 3 1 1 0 3 2 2 0 3 2 2 0 2 
1 1 0 1 2 2 1 1 1 1 1 0 1 1 1 0 
1 0 -1 0 2 0 3659 3132 300 MP stroke
1 0 1 0 1 0 1 -1 1 -1 1 0 1 -1 1 -1 
1 -1 1 0 1 -1 1 -1 1 -1 1 -1 1 -1 1 -1 
1 -1 1 0 1 -1 1 -1 1 0 1 -1 1 0 1 -1 
1 0 1 0 1 -1 1 0 1 0 1 0 1 0 1 0 
1 0 1 1 1 0 1 0 1 1 1 0 1 1 1 0 
1 1 1 1 1 0 1 1 1 1 1 0 1 1 1 1 
1 1 1 0 1 1 1 1 1 1 1 0 1 1 1 1 
1 0 1 1 1 1 1 0 1 1 1 0 1 1 1 0 
1 0 1 0 1 1 1 0 1 0 1 0 1 -1 1 0 
1 0 1 -1 1 0 1 -1 1 -1 1 -1 1 0 0 -1 
2 -2 0 -1 2 -2 1 -1 0 -2 2 -2 0 -1 1 -1 
0 -1 1 -1 0 -1 1 -1 0 -1 1 -1 0 -2 1 -1 
0 -2 1 -1 0 -1 1 -1 0 -2 1 -1 0 -2 1 -1 
0 -2 1 -1 0 -2 1 -1 0 -3 1 -1 0 -3 1 -1 
0 -2 1 -1 0 -3 1 -1 0 -3 1 -1 0 -3 1 -1 
0 -2 1 -1 0 -4 1 -1 0 -3 1 -1 0 -4 1 -1 
0 -3 1 -1 0 -3 1 -1 0 -4 1 -1 0 -4 1 -1 
0 -4 1 -1 0 -3 1 -1 0 -4 1 -1 0 -4 1 -1 
0 -3 1 -1 0 -5 1 -1 0 -4 1 -1 0 -3 1 -1 
0 -4 1 -1 0 -5 1 -1 0 -3 1 -1 0 -4 1 -1 
0 -5 1 -1 0 -3 1 -1 0 -4 1 -1 0 -3 1 -1 
0 -5 1 -1 0 -3 1 -1 0 -3 1 -2 0 -3 1 -1 
0 -3 1 -1 0 -3 1 -1 0 -3 1 -1 0 -3 1 -1 
0 -3 1 -1 0 -3 1 -1 0 -2 1 -1 0 -2 1 -1 
0 -3 1 -1 0 -1 1 -1 0 -2 1 -1 0 -2 1 -1 
0 -3 2 -2 0 -2 1 -1 0 -1 1 -1 0 -2 2 -2 
0 -1 2 -2 1 -1 0 -1 2 -2 1 0 1 -1 1 -1 
1 0 1 -1 1 0 1 0 1 0 1 0 1 0 1 0 
1 0 1 0 1 1 1 0 1 0 1 0 1 1 1 0 
1 1 1 0 1 0 1 1 1 0 1 1 1 0 1 1 
1 1 1 0 1 1 1 1 1 0 1 1 1 1 1 1 
1 1 1 1 1 1 1 1 0 1 2 2 1 1 0 1 
2 2 0 1 2 2 1 1 0 2 2 2 1 1 0 2 
2 2 0 2 2 2 0 1 1 1 0 1 1 1 1 1 
0 2 2 2 0 2 2 2 1 1 0 2 2 2 1 1 
0 1 2 2 1 1 1 1 1 1 1 1 1 1 1 1 
1 1 1 0 1 1 1 0 1 1 1 0 1 0 1 1 
1 0 1 0 1 0 3421 3321 300 MP stroke
1 0 1 0 1 0 1 0 1 0 1 -1 1 0 1 0 
1 0 1 0 1 -1 1 0 1 0 1 0 1 -1 1 0 
1 0 1 0 1 -1 1 0 1 0 1 0 1 0 1 0 
1 0 1 -1 1 0 1 0 1 0 1 0 1 0 1 0 
1 0 1 0 1 0 1 0 1 0 1 0 1 0 1 0 
1 1 1 0 1 0 1 0 1 0 1 0 1 0 1 0 
1 1 1 0 1 0 1 0 1 0 1 0 1 0 1 1 
1 0 1 0 1 0 1 0 1 0 1 0 1 0 1 0 
1 0 1 0 1 0 1 0 1 0 1 0 1 -1 1 0 
1 0 1 0 1 0 1 -1 1 0 1 0 1 -1 1 0 
1 0 1 -1 1 0 1 -1 1 0 1 -1 1 -1 1 0 
1 -1 1 -1 1 -1 1 0 1 -1 1 -1 1 -1 1 -1 
1 -1 1 -1 1 -1 1 -1 1 -1 1 -1 1 -1 0 -1 
2 -2 1 -1 1 -1 0 -1 2 -2 1 -1 1 -1 0 -1 
2 -2 1 -1 0 -1 2 -2 0 -1 2 -2 1 -1 0 -1 
2 -2 1 -1 0 -1 2 -2 1 -1 0 -1 2 -2 1 -1 
1 -1 0 -1 2 -2 1 -1 1 -1 1 -1 1 -1 1 -1 
1 -1 1 -1 1 -1 1 -1 1 -1 1 0 1 -1 1 -1 
1 -1 1 0 1 -1 1 -1 1 0 1 -1 1 0 1 0 
1 -1 1 0 1 0 1 -1 1 0 1 0 1 0 1 0 
1 0 1 0 1 0 1 0 1 0 1 0 1 0 1 0 
1 0 1 0 1 0 1 0 1 0 1 0 1 0 1 0 
1 1 1 0 1 0 1 0 1 0 1 0 1 0 1 1 
1 0 1 0 1 0 1 0 1 1 1 0 1 0 1 0 
1 1 1 0 1 0 1 0 1 1 1 0 1 0 1 1 
1 0 1 1 1 0 1 0 1 1 1 0 1 1 1 0 
1 1 1 0 1 1 1 0 1 1 1 0 1 1 1 0 
1 1 1 0 1 0 1 1 1 0 1 0 1 1 1 0 
1 0 1 1 1 0 1 0 1 0 1 0 1 0 1 1 
1 0 1 0 1 0 1 0 1 0 1 0 1 0 1 0 
1 0 1 0 1 0 1 0 1 0 1 0 1 0 1 0 
1 0 1 -1 1 0 1 0 1 0 1 0 1 0 1 0 
1 0 1 0 1 0 1 0 1 0 1 0 1 0 1 -1 
1 0 1 0 1 0 1 0 1 0 1 0 1 0 1 0 
1 0 1 0 1 0 1 0 1 0 1 0 1 0 1 0 
1 0 1 0 1 0 1 0 1 0 1 0 1 0 1 0 
1 0 1 0 1 0 1 0 1 0 1 0 1 0 1 0 
1 0 1 0 1 0 3122 3383 300 MP stroke
1 0 1 0 1 0 1 0 1 0 1 0 1 0 1 0 
1 0 1 0 1 0 1 0 1 0 1 -1 1 0 1 0 
1 0 1 0 1 0 1 0 1 0 1 0 1 -1 1 0 
1 0 1 0 1 0 1 0 1 -1 1 0 1 0 1 0 
1 0 1 -1 1 0 1 0 1 0 1 -1 1 0 1 0 
1 0 1 -1 1 0 1 0 1 0 1 -1 1 0 1 0 
1 0 1 -1 1 0 1 0 1 0 1 -1 1 0 1 0 
1 -1 1 0 1 0 1 0 1 -1 1 0 1 0 1 0 
1 -1 1 0 1 0 1 0 1 -1 1 0 1 0 1 -1 
1 0 1 0 1 0 1 -1 1 0 1 0 1 0 1 0 
1 -1 1 0 1 0 1 0 1 0 1 0 1 -1 1 0 
1 0 1 0 1 0 1 0 1 0 1 0 1 0 1 -1 
1 0 1 0 1 0 1 0 1 0 1 0 1 0 1 0 
1 0 1 0 1 0 1 0 1 0 1 0 1 0 1 1 
1 0 1 0 1 0 1 0 1 0 1 0 1 0 1 0 
1 0 1 0 1 0 1 0 1 0 1 0 1 0 1 0 
1 1 1 0 1 0 1 0 1 0 1 0 1 0 1 0 
1 1 1 0 1 0 1 0 1 0 1 0 1 1 1 0 
1 0 1 0 1 0 1 1 1 0 1 0 1 0 1 0 
1 0 1 1 1 0 1 0 1 0 1 0 1 0 1 0 
1 1 1 0 1 0 1 0 1 0 1 0 1 0 1 0 
1 -1 1 0 1 0 1 0 1 0 1 0 1 0 1 -1 
1 0 1 0 1 0 1 -1 1 0 1 0 1 -1 1 0 
1 0 1 -1 1 0 1 0 1 -1 1 0 1 -1 1 0 
1 0 1 -1 1 0 1 0 1 0 1 0 1 0 2923 3402 200 MP stroke
gr

24 w
c9
0 sg
3731 3690 mt 
(Years) s
2606 1999 mt  -90 rotate
(Psyllids) s
90 rotate
2906 3445 mt 
( ) s
4821  231 mt 
( ) s
6 w
4118  384 mt 
(Susceptible) s
gs 3654 249 1125 481 rc
24 w
c8
357 0 3725 341 2 MP stroke
gr

24 w
c8
0 sg
4118  532 mt 
(Exposed) s
gs 3654 249 1125 481 rc
c11
357 0 3725 489 2 MP stroke
gr

c11
0 sg
4118  680 mt 
(Infected) s
gs 3654 249 1125 481 rc
c9
357 0 3725 636 2 MP stroke
6 w
gr

6 w
c9

end %%Color Dict

eplot
%%EndObject

epage
end

showpage

%%Trailer
%%EOF
