%!PS-Adobe-3.0 EPSF-3.0
%%Creator: MATLAB, The MathWorks, Inc. Version 8.3.0.532 (R2014a). Operating System: Microsoft Windows 7 Enterprise .
%%Title: U:\My Documents\Citrus\Matlab\1st Model - Malaria\citmalnew.eps
%%CreationDate: 11/19/2015  13:18:51
%%DocumentNeededFonts: Helvetica
%%DocumentProcessColors: Cyan Magenta Yellow Black
%%LanguageLevel: 2
%%Pages: 1
%%BoundingBox:    96   240   515   551
%%EndComments

%%BeginProlog
% MathWorks dictionary
/MathWorks 160 dict begin
% definition operators
/bdef {bind def} bind def
/ldef {load def} bind def
/xdef {exch def} bdef
/xstore {exch store} bdef
% operator abbreviations
/c  /clip ldef
/cc /concat ldef
/cp /closepath ldef
/gr /grestore ldef
/gs /gsave ldef
/mt /moveto ldef
/np /newpath ldef
/cm /currentmatrix ldef
/sm /setmatrix ldef
/rm /rmoveto ldef
/rl /rlineto ldef
/s {show newpath} bdef
/sc {setcmykcolor} bdef
/sr /setrgbcolor ldef
/sg /setgray ldef
/w /setlinewidth ldef
/j /setlinejoin ldef
/cap /setlinecap ldef
/rc {rectclip} bdef
/rf {rectfill} bdef
% page state control
/pgsv () def
/bpage {/pgsv save def} bdef
/epage {pgsv restore} bdef
/bplot /gsave ldef
/eplot {stroke grestore} bdef
% orientation switch
/portraitMode 0 def /landscapeMode 1 def /rotateMode 2 def
% coordinate system mappings
/dpi2point 0 def
% font control
/FontSize 0 def
/FMS {/FontSize xstore findfont [FontSize 0 0 FontSize neg 0 0]
  makefont setfont} bdef
/ISOLatin1Encoding where {pop /WindowsLatin1Encoding 256 array bdef
ISOLatin1Encoding WindowsLatin1Encoding copy pop
/.notdef/.notdef/quotesinglbase/florin/quotedblbase/ellipsis/dagger
/daggerdbl/circumflex/perthousand/Scaron/guilsinglleft/OE/.notdef/.notdef
/.notdef/.notdef/quoteleft/quoteright/quotedblleft/quotedblright/bullet
/endash/emdash/tilde/trademark/scaron/guilsinglright/oe/.notdef/.notdef
/Ydieresis WindowsLatin1Encoding 128 32 getinterval astore pop}
{/WindowsLatin1Encoding StandardEncoding bdef} ifelse
/reencode {exch dup where {pop load} {pop StandardEncoding} ifelse
  exch dup 3 1 roll findfont dup length dict begin
  { 1 index /FID ne {def}{pop pop} ifelse } forall
  /Encoding exch def currentdict end definefont pop} bdef
/isroman {findfont /CharStrings get /Agrave known} bdef
/FMSR {3 1 roll 1 index dup isroman {reencode} {pop pop} ifelse
  exch FMS} bdef
/csm {1 dpi2point div -1 dpi2point div scale neg translate
 dup landscapeMode eq {pop -90 rotate}
  {rotateMode eq {90 rotate} if} ifelse} bdef
% line types: solid, dotted, dashed, dotdash
/SO { [] 0 setdash } bdef
/DO { [.5 dpi2point mul 4 dpi2point mul] 0 setdash } bdef
/DA { [6 dpi2point mul] 0 setdash } bdef
/DD { [.5 dpi2point mul 4 dpi2point mul 6 dpi2point mul 4
  dpi2point mul] 0 setdash } bdef
% macros for lines and objects
/L {lineto stroke} bdef
/MP {3 1 roll moveto 1 sub {rlineto} repeat} bdef
/AP {{rlineto} repeat} bdef
/PDlw -1 def
/W {/PDlw currentlinewidth def setlinewidth} def
/PP {closepath eofill} bdef
/DP {closepath stroke} bdef
/MR {4 -2 roll moveto dup  0 exch rlineto exch 0 rlineto
  neg 0 exch rlineto closepath} bdef
/FR {MR stroke} bdef
/PR {MR fill} bdef
/L1i {{currentfile picstr readhexstring pop} image} bdef
/tMatrix matrix def
/MakeOval {newpath tMatrix currentmatrix pop translate scale
0 0 1 0 360 arc tMatrix setmatrix} bdef
/FO {MakeOval stroke} bdef
/PO {MakeOval fill} bdef
/PD {currentlinewidth 2 div 0 360 arc fill
   PDlw -1 eq not {PDlw w /PDlw -1 def} if} def
/FA {newpath tMatrix currentmatrix pop translate scale
  0 0 1 5 -2 roll arc tMatrix setmatrix stroke} bdef
/PA {newpath tMatrix currentmatrix pop	translate 0 0 moveto scale
  0 0 1 5 -2 roll arc closepath tMatrix setmatrix fill} bdef
/FAn {newpath tMatrix currentmatrix pop translate scale
  0 0 1 5 -2 roll arcn tMatrix setmatrix stroke} bdef
/PAn {newpath tMatrix currentmatrix pop translate 0 0 moveto scale
  0 0 1 5 -2 roll arcn closepath tMatrix setmatrix fill} bdef
/vradius 0 def /hradius 0 def /lry 0 def
/lrx 0 def /uly 0 def /ulx 0 def /rad 0 def
/MRR {/vradius xdef /hradius xdef /lry xdef /lrx xdef /uly xdef
  /ulx xdef newpath tMatrix currentmatrix pop ulx hradius add uly
  vradius add translate hradius vradius scale 0 0 1 180 270 arc 
  tMatrix setmatrix lrx hradius sub uly vradius add translate
  hradius vradius scale 0 0 1 270 360 arc tMatrix setmatrix
  lrx hradius sub lry vradius sub translate hradius vradius scale
  0 0 1 0 90 arc tMatrix setmatrix ulx hradius add lry vradius sub
  translate hradius vradius scale 0 0 1 90 180 arc tMatrix setmatrix
  closepath} bdef
/FRR {MRR stroke } bdef
/PRR {MRR fill } bdef
/MlrRR {/lry xdef /lrx xdef /uly xdef /ulx xdef /rad lry uly sub 2 div def
  newpath tMatrix currentmatrix pop ulx rad add uly rad add translate
  rad rad scale 0 0 1 90 270 arc tMatrix setmatrix lrx rad sub lry rad
  sub translate rad rad scale 0 0 1 270 90 arc tMatrix setmatrix
  closepath} bdef
/FlrRR {MlrRR stroke } bdef
/PlrRR {MlrRR fill } bdef
/MtbRR {/lry xdef /lrx xdef /uly xdef /ulx xdef /rad lrx ulx sub 2 div def
  newpath tMatrix currentmatrix pop ulx rad add uly rad add translate
  rad rad scale 0 0 1 180 360 arc tMatrix setmatrix lrx rad sub lry rad
  sub translate rad rad scale 0 0 1 0 180 arc tMatrix setmatrix
  closepath} bdef
/FtbRR {MtbRR stroke } bdef
/PtbRR {MtbRR fill } bdef
/stri 6 array def /dtri 6 array def
/smat 6 array def /dmat 6 array def
/tmat1 6 array def /tmat2 6 array def /dif 3 array def
/asub {/ind2 exch def /ind1 exch def dup dup
  ind1 get exch ind2 get sub exch } bdef
/tri_to_matrix {
  2 0 asub 3 1 asub 4 0 asub 5 1 asub
  dup 0 get exch 1 get 7 -1 roll astore } bdef
/compute_transform {
  dmat dtri tri_to_matrix tmat1 invertmatrix 
  smat stri tri_to_matrix tmat2 concatmatrix } bdef
/ds {stri astore pop} bdef
/dt {dtri astore pop} bdef
/db {2 copy /cols xdef /rows xdef mul dup 3 mul string
  currentfile 
  3 index 0 eq {/ASCIIHexDecode filter}
  {/ASCII85Decode filter 3 index 2 eq {/RunLengthDecode filter} if }
  ifelse exch readstring pop
  dup 0 3 index getinterval /rbmap xdef
  dup 2 index dup getinterval /gbmap xdef
  1 index dup 2 mul exch getinterval /bbmap xdef pop pop}bdef
/it {gs np dtri aload pop moveto lineto lineto cp c
  cols rows 8 compute_transform 
  rbmap gbmap bbmap true 3 colorimage gr}bdef
/il {newpath moveto lineto stroke}bdef
currentdict end def
%%EndProlog

%%BeginSetup
MathWorks begin

0 cap

end
%%EndSetup

%%Page: 1 1
%%BeginPageSetup
%%PageBoundingBox:    96   240   515   551
MathWorks begin
bpage
%%EndPageSetup

%%BeginObject: obj1
bplot

/dpi2point 12 def
portraitMode 1152 6612 csm

    0     0  5039  3726 rc
86 dict begin %Colortable dictionary
/c0 { 0.000000 0.000000 0.000000 sr} bdef
/c1 { 1.000000 1.000000 1.000000 sr} bdef
/c2 { 0.900000 0.000000 0.000000 sr} bdef
/c3 { 0.000000 0.820000 0.000000 sr} bdef
/c4 { 0.000000 0.000000 0.800000 sr} bdef
/c5 { 0.910000 0.820000 0.320000 sr} bdef
/c6 { 1.000000 0.260000 0.820000 sr} bdef
/c7 { 0.000000 0.820000 0.820000 sr} bdef
c0
1 j
1 sg
   0    0 5040 3727 rf
6 w
0 3167 1915 0 0 -3167 504 3353 4 MP
PP
-1915 0 0 3167 1915 0 0 -3167 504 3353 5 MP stroke
4 w
DO
SO
6 w
0 sg
 504  186 mt 2419  186 L
 504 3353 mt 2419 3353 L
2419 3353 mt 2419  186 L
 504 3353 mt  504  186 L
 504 3353 mt 2419 3353 L
 504 3353 mt  504  186 L
 504 3353 mt  504 3321 L
 504  186 mt  504  217 L
%%IncludeResource: font Helvetica
/Helvetica /WindowsLatin1Encoding 120 FMSR

 471 3498 mt 
(0) s
 982 3353 mt  982 3321 L
 982  186 mt  982  217 L
 949 3498 mt 
(5) s
1461 3353 mt 1461 3321 L
1461  186 mt 1461  217 L
1395 3498 mt 
(10) s
1940 3353 mt 1940 3321 L
1940  186 mt 1940  217 L
1874 3498 mt 
(15) s
2419 3353 mt 2419 3321 L
2419  186 mt 2419  217 L
2353 3498 mt 
(20) s
 504 3353 mt  535 3353 L
2419 3353 mt 2387 3353 L
 403 3397 mt 
(0) s
 504 2900 mt  535 2900 L
2419 2900 mt 2387 2900 L
 336 2944 mt 
(20) s
 504 2448 mt  535 2448 L
2419 2448 mt 2387 2448 L
 336 2492 mt 
(40) s
 504 1995 mt  535 1995 L
2419 1995 mt 2387 1995 L
 336 2039 mt 
(60) s
 504 1543 mt  535 1543 L
2419 1543 mt 2387 1543 L
 336 1587 mt 
(80) s
 504 1090 mt  535 1090 L
2419 1090 mt 2387 1090 L
 269 1134 mt 
(100) s
 504  638 mt  535  638 L
2419  638 mt 2387  638 L
 269  682 mt 
(120) s
 504  186 mt  535  186 L
2419  186 mt 2387  186 L
 269  230 mt 
(140) s
 504  186 mt 2419  186 L
 504 3353 mt 2419 3353 L
2419 3353 mt 2419  186 L
 504 3353 mt  504  186 L
gs 504 186 1916 3168 rc
24 w
/c8 { 0.000000 0.000000 1.000000 sr} bdef
c8
1 0 1 0 1 0 1 1 1 0 1 0 1 1 1 0 
1 0 1 1 1 0 1 1 1 0 1 1 1 1 1 0 
1 1 1 0 1 1 1 1 1 0 1 1 1 1 1 1 
1 0 1 1 1 0 1 1 1 1 1 0 1 1 1 0 
1 0 1 1 1 0 1 0 1 0 1 0 1 0 1 0 
1 0 1 -1 1 0 1 0 1 -1 1 -1 1 -1 1 0 
1 -1 1 -1 0 -1 2 -2 1 -1 1 -1 0 -1 2 -2 
1 -1 0 -1 2 -2 1 -1 0 -1 2 -2 1 -1 1 -1 
1 -1 1 -1 1 -1 1 -1 1 -1 1 -1 1 -1 1 -1 
1 -1 1 0 1 -1 1 0 1 -1 1 0 1 0 1 -1 
1 0 1 0 1 0 1 0 1 0 1 0 1 0 1 0 
1 0 1 1 1 0 1 0 1 0 1 0 1 0 1 1 
1 0 1 0 1 0 1 1 1 0 1 0 1 1 1 0 
1 1 1 0 1 1 1 0 1 1 1 0 1 1 1 0 
1 1 1 1 1 0 1 1 1 1 1 1 1 0 1 1 
1 1 1 0 1 1 1 0 1 1 1 1 1 0 1 0 
1 1 1 0 1 0 1 1 1 0 1 0 1 0 1 -1 
1 0 1 0 1 -1 1 0 1 -1 1 0 1 -1 1 -1 
1 -1 1 -1 1 -1 0 -1 2 -2 1 -1 0 -1 2 -2 
1 -1 0 -1 2 -2 1 -1 1 -1 0 -1 2 -2 1 -1 
1 -1 1 -1 1 -1 1 -1 1 -1 1 -1 1 -1 1 -1 
1 -1 1 0 1 -1 1 0 1 -1 1 0 1 0 1 0 
1 -1 1 0 1 0 1 0 1 0 1 0 1 1 1 0 
1 0 1 0 1 0 1 0 1 0 1 1 1 0 1 0 
1 0 1 1 1 0 1 0 1 0 1 1 1 0 1 1 
1 0 1 1 1 0 1 1 1 0 1 1 1 0 1 1 
1 1 1 0 1 1 1 1 1 0 1 1 1 1 1 1 
1 0 1 1 1 1 1 0 1 1 1 0 1 1 1 0 
1 1 1 0 1 0 1 0 1 0 1 0 1 0 1 0 
1 0 1 0 1 -1 1 0 1 -1 1 -1 1 -1 1 -1 
1 0 -1 0 2 -2 1 -1 1 -1 1 -1 0 -1 2 -2 
1 -1 0 -1 2 -2 0 -1 2 -2 1 -1 1 -1 0 -1 
2 -2 1 -1 1 -1 1 -1 1 -1 1 -1 1 -1 1 -1 
1 -1 1 0 1 -1 1 0 1 -1 1 0 1 -1 1 0 
1 0 1 0 1 0 1 0 1 0 1 0 1 0 1 0 
1 0 1 0 1 0 1 1 1 0 1 0 1 0 1 0 
1 1 1 0 1 0 1 0 1 1 1 0 1 0 1 1 
1 0 1 1 1 0 2121 3078 300 MP stroke
1 1 1 0 1 1 1 0 1 1 1 1 1 0 1 1 
1 1 1 1 1 0 1 1 1 1 1 0 1 1 1 1 
1 1 1 0 1 1 1 0 1 1 1 0 1 1 1 0 
1 0 1 0 1 0 1 0 1 0 1 0 1 0 1 0 
1 -1 1 0 1 -1 1 -1 1 -1 1 -1 1 -1 1 -1 
1 -1 1 -1 0 -1 2 -2 1 -1 0 -1 2 -2 0 -1 
2 -2 1 -1 0 -1 2 -2 1 -1 1 -1 1 -1 1 -1 
1 -1 1 -1 1 -1 1 -1 1 -1 1 -1 1 -1 1 0 
1 -1 1 0 1 -1 1 0 1 0 1 0 1 0 1 0 
1 0 1 0 1 0 1 0 1 0 1 0 1 0 1 0 
1 1 1 0 1 0 1 0 1 0 1 1 1 0 1 0 
1 0 1 1 1 0 1 0 1 1 1 0 1 1 1 0 
1 1 1 0 1 1 1 1 1 0 1 1 1 1 1 0 
1 1 1 1 1 0 1 1 1 1 1 1 1 0 1 1 
1 1 1 0 1 1 1 1 1 0 1 1 1 0 1 0 
1 1 1 0 1 0 1 0 1 0 1 0 1 -1 1 0 
1 -1 1 0 1 -1 1 -1 1 -1 1 -1 1 -1 1 -1 
1 -1 1 -1 0 -1 2 -2 1 -1 0 -1 2 -2 0 -1 
2 -2 1 -1 0 -1 2 -2 1 -1 1 -1 1 -1 1 -1 
1 -1 1 -1 1 -1 1 -1 1 -1 1 -1 1 -1 1 0 
1 -1 1 0 1 0 1 -1 1 0 1 0 1 0 1 0 
1 0 1 0 1 0 1 0 1 0 1 0 1 0 1 1 
1 0 1 0 1 0 1 0 1 1 1 0 1 0 1 0 
1 1 1 0 1 0 1 1 1 0 1 1 1 0 1 1 
1 0 1 1 1 0 1 1 1 1 1 0 1 1 1 1 
1 0 1 1 1 1 1 1 1 0 1 1 1 1 1 1 
1 0 1 1 1 1 1 0 1 1 1 0 1 1 1 0 
1 0 1 0 1 0 1 0 1 0 1 0 1 0 1 -1 
1 0 1 -1 1 0 1 -1 1 -1 1 -1 1 -1 1 -1 
0 -1 2 -2 1 -1 0 -1 2 -2 0 -1 2 -2 1 -1 
0 -1 2 -2 1 -1 0 -1 2 -2 1 -1 1 -1 1 -1 
1 -1 1 -1 1 -1 1 -1 1 -1 1 -1 1 0 1 -1 
1 0 1 -1 1 0 1 0 1 -1 1 0 1 0 1 0 
1 0 1 0 1 0 1 0 1 1 1 0 1 0 1 0 
1 0 1 0 1 1 1 0 1 0 1 0 1 1 1 0 
1 0 1 0 1 1 1 0 1 1 1 0 1 1 1 0 
1 1 1 0 1 1 1 1 1 0 1 1 1 1 1 0 
1 1 1 1 1 1 1822 3117 300 MP stroke
1 1 1 0 1 1 1 1 1 1 1 0 1 1 1 1 
1 0 1 1 1 0 1 1 1 0 1 0 1 0 1 0 
1 0 1 0 1 0 1 0 1 -1 1 0 1 -1 1 0 
1 -1 1 -1 1 -1 1 -1 0 -1 2 -2 1 -1 0 -1 
2 -2 1 -1 0 -1 2 -2 0 -1 2 -2 1 -1 0 -1 
2 -2 1 -1 1 -1 1 -1 0 -1 2 -2 1 -1 1 0 
1 -1 1 -1 1 -1 1 -1 1 0 1 -1 1 0 1 0 
1 -1 1 0 1 0 1 0 1 0 1 0 1 0 1 0 
1 0 1 0 1 1 1 0 1 0 1 0 1 0 1 0 
1 1 1 0 1 0 1 0 1 1 1 0 1 0 1 1 
1 0 1 1 1 0 1 1 1 0 1 1 1 0 1 1 
1 1 1 0 1 1 1 1 1 0 1 1 1 1 1 1 
1 1 1 0 1 1 1 1 1 1 1 0 1 1 1 1 
1 0 1 1 1 0 1 1 1 0 1 0 1 1 1 0 
1 0 1 0 1 -1 1 0 1 0 1 -1 1 0 1 -1 
1 -1 1 -1 1 -1 1 -1 0 -1 2 -2 1 -1 0 -1 
2 -2 1 -1 0 -1 2 -2 0 -1 2 -2 1 -1 0 -1 
2 -2 1 -1 1 -1 0 -1 2 -2 1 -1 1 -1 1 -1 
1 0 1 -1 1 -1 1 -1 1 0 1 -1 1 0 1 0 
1 0 1 -1 1 0 1 0 1 0 1 0 1 0 1 0 
1 0 1 1 1 0 1 0 1 0 1 0 1 0 1 1 
1 0 1 0 1 0 1 1 1 0 1 0 1 1 1 0 
1 0 1 1 1 0 1 1 1 0 1 1 1 1 1 0 
1 1 1 1 1 0 1 1 1 1 1 1 1 0 1 1 
1 1 1 1 1 1 1 1 1 0 1 1 1 1 1 0 
1 1 1 1 1 0 1 1 1 0 1 0 1 0 1 0 
1 0 1 0 1 0 1 0 1 -1 1 0 1 -1 1 -1 
1 0 1 -1 0 -1 2 -2 1 -1 1 -1 0 -1 2 -2 
0 -1 2 -2 1 -1 0 -1 2 -2 0 -1 2 -2 1 -1 
0 -1 2 -2 1 -1 1 -1 1 -1 1 -1 1 -1 1 -1 
1 -1 1 -1 1 0 1 -1 1 -1 1 0 1 0 1 -1 
1 0 1 0 1 0 1 0 1 0 1 0 1 0 1 0 
1 0 1 0 1 0 1 1 1 0 1 0 1 0 1 0 
1 1 1 0 1 0 1 0 1 1 1 0 1 0 1 1 
1 0 1 1 1 0 1 0 1 1 1 1 1 0 1 1 
1 1 1 0 1 1 1 1 1 1 1 1 1 0 1 1 
1 1 1 1 1 1 1 0 1 1 1 1 1 1 1 0 
1 1 1 1 1 0 1523 3153 300 MP stroke
1 1 1 0 1 0 1 0 1 1 1 0 1 -1 1 0 
1 0 1 0 1 -1 1 -1 1 0 1 -1 1 -1 1 -1 
0 -1 2 -2 1 -1 0 -1 2 -2 0 -1 2 -2 0 -1 
2 -2 1 -1 0 -1 2 -2 1 -1 0 -1 2 -2 1 -1 
1 -1 1 -1 1 -1 1 -1 1 -1 1 -1 1 -1 1 -1 
1 0 1 -1 1 0 1 0 1 -1 1 0 1 0 1 0 
1 0 1 0 1 0 1 0 1 0 1 0 1 0 1 0 
1 1 1 0 1 0 1 0 1 0 1 1 1 0 1 0 
1 0 1 1 1 0 1 0 1 1 1 0 1 1 1 0 
1 1 1 0 1 1 1 1 1 0 1 1 1 1 1 0 
1 1 1 1 1 1 1 1 1 1 1 0 1 1 1 1 
1 1 1 1 1 1 1 0 1 1 1 1 1 0 1 1 
1 0 1 1 1 0 1 0 1 0 1 0 1 0 1 0 
1 0 1 -1 1 0 1 -1 1 -1 1 -1 1 -1 1 -1 
1 -1 1 -1 0 -1 2 -2 0 -1 2 -2 0 -1 2 -2 
1 -1 0 -1 2 -2 0 -1 2 -2 1 -1 1 -1 0 -1 
2 -2 1 -1 1 -1 1 -1 1 -1 1 0 1 -1 1 -1 
1 -1 1 0 1 0 1 -1 1 0 1 0 1 0 1 0 
1 0 1 0 1 0 1 0 1 0 1 0 1 0 1 0 
1 0 1 1 1 0 1 0 1 0 1 0 1 1 1 0 
1 0 1 1 1 0 1 0 1 1 1 0 1 1 1 0 
1 1 1 0 1 1 1 0 1 1 1 1 1 1 1 0 
1 1 1 1 1 1 1 1 1 1 1 1 1 1 1 0 
1 1 1 1 1 1 1 1 1 1 1 0 1 1 1 1 
1 0 1 0 1 1 1 0 1 0 1 0 1 0 1 0 
1 0 1 -1 1 0 1 -1 1 -1 1 -1 1 -1 1 -1 
1 -1 0 -1 2 -2 0 -1 2 -2 1 -1 0 -1 2 -2 
0 -1 2 -2 0 -1 2 -2 1 -1 0 -1 2 -2 1 -1 
1 -1 1 -1 1 -1 1 -1 1 -1 1 -1 1 -1 1 0 
1 -1 1 0 1 -1 1 0 1 0 1 0 1 0 1 0 
1 0 1 0 1 0 1 0 1 0 1 0 1 0 1 0 
1 1 1 0 1 0 1 0 1 0 1 1 1 0 1 0 
1 1 1 0 1 0 1 1 1 0 1 1 1 0 1 1 
1 0 1 1 1 0 1 1 1 1 1 1 1 1 1 0 
1 1 1 1 1 1 1 1 1 1 1 1 1 1 1 1 
1 1 1 1 1 1 1 0 1 1 1 1 1 1 1 0 
1 1 1 0 1 1 1 0 1 0 1 0 1 0 1 0 
1 0 1 0 1 -1 1224 3188 300 MP stroke
1 -1 1 0 1 -1 1 -1 0 -1 2 -2 1 -1 0 -1 
2 -2 0 -1 2 -2 0 -1 2 -2 1 -1 0 -1 2 -2 
0 -1 2 -2 1 -1 1 -1 1 -1 0 -1 2 -2 1 -1 
1 0 1 -1 1 -1 1 -1 1 0 1 -1 1 0 1 -1 
1 0 1 0 1 0 1 0 1 0 1 0 1 0 1 0 
1 0 1 1 1 0 1 0 1 0 1 1 1 0 1 0 
1 0 1 1 1 0 1 0 1 1 1 0 1 1 1 0 
1 1 1 0 1 1 1 0 1 1 1 1 1 0 1 1 
1 1 1 1 1 1 1 1 1 1 1 1 1 1 1 1 
1 1 0 1 2 2 1 1 1 1 1 1 1 1 1 1 
1 1 1 1 1 1 1 1 1 1 1 1 1 1 1 0 
1 1 1 0 1 0 1 0 1 0 1 0 1 0 1 -1 
1 0 1 -1 1 -1 1 -1 1 -1 1 -1 0 -1 2 -2 
1 -1 0 -1 2 -2 0 -1 2 -2 1 -1 0 -1 2 -2 
1 -1 0 -1 2 -2 1 -1 1 -1 1 -1 1 -1 1 -1 
1 -1 1 0 1 -1 1 -1 1 0 1 0 1 -1 1 0 
1 0 1 0 1 1 1 0 1 0 1 1 1 0 1 0 
1 1 1 0 1 1 1 1 1 0 1 1 1 0 1 1 
1 1 1 1 1 0 1 1 1 1 1 1 1 1 1 0 
1 1 1 1 0 1 2 2 1 1 1 1 0 1 2 2 
0 1 2 2 1 1 0 2 2 2 0 1 2 2 0 2 
2 2 0 2 2 2 0 2 2 2 0 2 2 2 0 2 
2 2 0 1 2 2 0 2 2 2 0 1 2 2 1 1 
1 1 1 1 1 1 1 1 1 0 1 1 1 0 1 0 
1 0 1 0 1 -1 1 0 1 -1 1 -1 1 -1 1 -1 
0 -1 2 -2 1 -1 1 -1 0 -1 2 -2 1 -1 1 -1 
1 -1 1 -1 1 -1 1 -1 1 0 1 -1 1 0 1 -1 
1 0 1 0 1 0 1 0 1 1 1 0 1 1 1 1 
1 1 0 1 2 2 0 1 2 2 0 2 2 2 0 2 
2 2 0 2 2 2 0 3 2 2 0 2 1 1 0 1 
1 1 0 2 1 1 0 1 1 1 0 2 1 1 0 2 
1 1 0 2 1 1 0 2 1 1 0 2 1 1 0 2 
1 1 0 2 1 1 0 3 1 1 0 2 1 1 0 3 
1 1 0 2 1 1 0 3 1 1 0 4 1 1 0 3 
1 1 0 3 1 1 0 4 1 1 0 4 1 1 0 3 
1 1 0 4 1 1 0 4 1 1 0 5 1 1 0 4 
1 1 0 4 1 1 0 5 1 1 0 5 1 1 0 5 
1 1 0 4 1 1 956 3020 300 MP stroke
0 5 1 1 0 5 1 1 0 6 1 1 0 5 1 1 
0 4 1 1 0 5 1 1 0 5 1 1 0 4 1 1 
0 5 1 1 0 4 1 1 0 4 1 1 0 4 1 1 
0 3 1 1 0 4 1 1 0 3 1 1 0 2 1 1 
0 3 1 1 0 2 1 1 0 1 1 1 0 2 1 1 
0 1 1 1 1 1 1 1 1 1 1 1 1 0 1 0 
1 0 1 0 1 -1 1 0 1 0 1 -1 1 0 1 0 
1 0 1 1 1 0 1 1 1 1 1 1 0 1 2 2 
0 2 2 2 0 2 1 1 0 2 1 1 0 3 1 1 
0 3 1 1 0 4 1 1 0 4 1 1 0 5 1 1 
0 5 1 1 0 6 1 1 0 6 1 1 0 7 1 1 
0 7 1 1 0 7 1 1 0 8 1 1 0 7 1 1 
0 8 1 1 0 9 1 1 0 8 1 1 0 9 1 1 
0 9 1 1 0 9 1 1 0 9 1 1 0 10 1 1 
0 9 1 1 0 10 1 1 0 10 1 1 0 10 1 1 
0 10 1 1 0 11 1 1 0 11 1 1 0 11 1 1 
0 12 1 1 0 11 1 1 0 12 1 1 0 12 1 1 
0 12 1 2 0 11 1 2 0 13 1 2 0 12 1 2 
0 13 1 1 0 12 1 2 0 14 1 1 0 14 1 2 
0 13 1 2 0 13 1 1 0 15 1 1 0 13 1 2 
0 14 1 2 0 14 1 1 0 15 1 1 0 14 1 1 
0 14 1 1 0 14 1 1 0 13 1 1 0 14 1 1 
0 12 1 1 0 13 1 1 0 13 1 1 0 11 1 1 
0 12 1 1 0 10 1 1 0 11 1 1 0 9 1 1 
0 9 1 1 0 9 1 1 0 7 1 1 0 8 1 1 
0 6 1 1 0 5 1 1 0 5 1 1 0 5 1 1 
0 4 1 1 0 3 1 1 0 2 1 1 0 3 2 2 
0 2 2 2 1 1 1 1 1 1 1 1 1 1 0 1 
2 2 1 1 0 2 2 2 0 2 2 2 0 2 1 1 
0 2 1 1 0 3 1 1 0 2 1 1 0 4 1 1 
0 3 1 1 0 4 1 1 0 5 1 1 0 5 1 1 
0 5 1 1 0 6 1 1 0 7 1 1 0 6 1 1 
0 8 1 1 0 7 1 1 0 8 1 1 0 8 1 1 
0 9 1 1 0 8 1 1 0 9 1 1 0 8 1 1 
0 9 1 1 0 9 1 1 0 9 1 1 0 9 1 1 
0 9 1 1 0 9 1 1 0 9 1 1 0 10 1 1 
0 9 1 1 0 9 1 1 0 10 1 1 0 9 1 1 
0 10 1 1 0 9 787 1821 300 MP stroke
1 1 0 9 1 1 0 11 1 1 0 10 1 1 0 10 
1 1 0 9 1 2 0 10 1 1 0 9 1 2 0 9 
1 2 0 10 1 2 0 9 1 1 0 10 1 1 0 11 
1 2 0 9 1 1 0 11 1 1 0 10 1 1 0 10 
1 1 0 10 1 1 0 9 1 1 0 11 1 1 0 9 
1 1 0 9 1 1 0 9 1 1 0 9 1 1 0 9 
1 1 0 7 1 1 0 8 1 1 0 8 1 1 0 7 
1 1 0 8 1 1 0 6 1 1 0 6 1 1 0 6 
1 1 0 5 1 1 0 5 1 1 0 5 1 1 0 4 
1 1 0 3 1 1 0 3 1 1 0 3 1 1 0 3 
1 1 0 2 1 1 0 2 1 1 0 1 1 1 0 2 
2 2 0 1 2 2 1 1 1 0 1 1 1 1 1 0 
1 1 1 0 1 1 1 1 1 1 1 1 1 1 1 1 
1 1 0 1 2 2 0 1 2 2 0 2 2 2 0 2 
2 2 0 3 2 2 0 2 1 1 0 2 1 1 0 2 
1 1 0 3 1 1 0 2 1 1 0 2 1 1 0 3 
1 1 0 2 1 1 0 3 1 1 0 3 1 1 0 2 
1 1 0 3 1 1 0 3 1 1 0 3 1 1 0 2 
1 1 0 3 1 1 0 3 1 1 0 3 1 1 0 2 
1 1 0 3 1 1 0 3 1 1 0 3 1 1 0 3 
1 1 0 3 1 1 0 3 1 1 0 3 1 1 0 3 
1 1 0 3 1 1 0 3 1 1 0 4 1 1 0 3 
1 1 0 3 1 1 0 4 1 1 0 2 1 1 0 4 
1 1 0 3 1 1 0 3 1 1 0 3 1 1 0 4 
1 1 0 3 1 1 0 3 1 1 0 3 1 1 0 3 
1 1 0 3 1 1 0 3 1 1 0 2 1 1 0 3 
1 1 0 2 1 1 0 3 1 1 0 2 1 1 0 2 
1 1 0 2 1 1 0 2 1 1 0 3 2 2 0 3 
2 2 0 2 2 2 0 2 2 2 0 1 2 2 1 1 
1 1 1 1 1 1 1 1 1 1 1 0 1 1 1 0 
1 1 1 0 1 0 1 0 1 0 1 1 1 0 1 0 
1 0 1 1 1 0 1 0 1 1 1 0 1 1 1 0 
1 1 1 0 1 1 1 0 1 1 1 1 1 1 1 1 
1 1 1 1 1 0 -1 0 2 2 1 1 1 1 1 1 
1 1 1 1 0 1 2 2 1 1 1 1 1 1 0 1 
2 2 1 1 1 1 1 1 0 1 2 2 1 1 1 1 
0 1 2 2 1 1 1 1 0 1 2 2 1 1 0 1 
2 2 1 1 1 1 585 1132 300 MP stroke
0 1 2 2 1 1 0 1 2 2 1 1 1 1 1 1 
1 1 0 1 2 2 1 1 1 1 1 1 1 1 1 1 
1 0 1 1 1 1 1 1 1 1 1 0 1 1 1 1 
1 0 1 1 1 0 1 1 1 0 1 0 1 1 1 0 
1 0 1 1 1 0 1 0 1 0 1 0 1 1 1 0 
1 0 1 0 1 0 1 0 1 0 1 0 1 0 1 1 
1 0 1 0 1 0 1 0 1 1 1 0 1 0 1 0 
1 1 1 0 1 0 1 1 1 0 1 1 1 0 1 1 
1 0 1 1 1 0 1 1 1 0 1 1 1 0 1 1 
1 0 1 1 1 0 1 0 1 1 1 0 1 0 1 0 
1 0 504 1090 82 MP stroke
/c9 { 0.000000 0.600000 0.298000 sr} bdef
c9
1 0 1 1 1 1 1 1 0 1 2 2 1 1 1 1 
0 1 2 2 1 1 0 1 2 2 1 1 1 1 0 1 
2 2 1 1 1 1 1 1 1 1 1 1 1 1 1 1 
1 0 1 1 1 1 1 0 1 1 1 0 1 0 1 1 
1 0 1 0 1 0 1 0 1 0 1 0 1 0 1 0 
1 0 1 0 1 0 1 0 1 0 1 0 1 -1 1 0 
1 0 1 0 1 0 1 -1 1 0 1 0 1 0 1 -1 
1 0 1 -1 1 0 1 -1 1 0 1 -1 1 0 1 -1 
1 0 1 -1 1 -1 1 0 1 -1 1 -1 1 0 1 -1 
1 -1 1 -1 1 0 1 -1 1 0 1 -1 1 0 1 -1 
1 0 1 -1 1 0 1 0 1 0 1 0 1 0 1 0 
1 0 1 0 1 1 1 0 1 1 1 0 1 1 1 1 
1 1 1 1 1 1 1 1 0 1 2 2 1 1 0 1 
2 2 1 1 0 1 2 2 1 1 0 1 2 2 1 1 
1 1 1 1 1 1 1 1 1 1 1 1 1 1 1 1 
1 1 1 0 1 1 1 0 1 1 1 0 1 1 1 0 
1 0 1 0 1 0 1 0 1 0 1 0 1 0 1 0 
1 0 1 0 1 0 1 0 1 0 1 0 1 0 1 -1 
1 0 1 0 1 0 1 0 1 -1 1 0 1 0 1 -1 
1 0 1 -1 1 0 1 -1 1 0 1 -1 1 0 1 -1 
1 0 1 -1 1 -1 1 0 1 -1 1 -1 1 -1 1 0 
1 -1 1 -1 1 0 1 -1 1 -1 1 0 1 -1 1 0 
1 -1 1 0 1 0 1 0 1 0 1 -1 1 1 1 0 
1 0 1 0 1 1 1 0 1 1 1 0 1 1 1 1 
1 1 1 1 1 1 0 1 2 2 1 1 0 1 2 2 
1 1 0 1 2 2 1 1 0 1 2 2 1 1 1 1 
1 1 1 1 1 1 1 1 1 1 1 1 1 1 1 1 
1 1 1 0 1 1 1 1 1 0 1 0 1 1 1 0 
1 0 1 0 1 0 1 0 1 0 1 0 1 0 1 0 
1 0 1 0 1 0 1 0 1 0 1 0 1 0 1 -1 
1 0 1 0 1 0 1 -1 1 0 1 0 1 0 1 -1 
1 0 1 -1 1 0 1 -1 1 0 1 -1 1 0 1 -1 
1 -1 1 0 1 -1 1 -1 1 0 1 -1 1 -1 1 -1 
1 0 1 -1 1 -1 1 0 1 -1 1 0 1 -1 1 0 
1 -1 1 0 1 -1 1 0 1 0 1 0 1 0 1 0 
1 1 1 0 1 0 1 1 1 0 1 1 1 1 1 1 
1 1 1 1 1 1 1 1 0 1 2 2 1 1 0 1 
2 2 0 1 2 2 2120 1497 300 MP stroke
1 1 0 1 2 2 1 1 1 1 1 1 1 1 1 1 
1 1 1 1 1 1 1 1 1 1 1 1 1 0 1 1 
1 1 1 0 1 0 1 1 1 0 1 0 1 0 1 0 
1 0 1 0 1 0 1 0 1 0 1 0 1 0 1 0 
1 0 1 0 1 0 1 -1 1 0 1 0 1 0 1 0 
1 -1 1 0 1 0 1 -1 1 0 1 0 1 -1 1 0 
1 -1 1 0 1 -1 1 -1 1 0 1 -1 1 -1 1 0 
1 -1 1 -1 1 -1 1 0 1 -1 1 -1 1 0 1 -1 
1 -1 1 0 1 -1 1 -1 1 0 1 0 1 -1 1 0 
1 0 1 0 1 0 1 0 1 0 1 0 1 0 1 1 
1 0 1 1 1 1 1 1 1 0 0 1 2 2 1 1 
1 1 0 1 2 2 1 1 0 1 2 2 1 1 0 1 
2 2 1 1 0 1 2 2 1 1 1 1 1 1 1 1 
1 1 1 1 1 1 1 1 1 1 1 1 1 0 1 1 
1 0 1 1 1 0 1 0 1 1 1 0 1 0 1 0 
1 0 1 0 1 0 1 0 1 0 1 0 1 0 1 0 
1 -1 1 0 1 0 1 0 1 0 1 0 1 -1 1 0 
1 0 1 0 1 -1 1 0 1 0 1 -1 1 0 1 -1 
1 0 1 -1 1 0 1 -1 1 -1 1 0 1 -1 1 -1 
1 -1 1 0 1 -1 1 -1 1 -1 1 0 1 -1 1 -1 
1 0 1 -1 1 -1 1 0 1 -1 1 0 1 0 1 -1 
1 0 1 0 1 0 1 0 1 0 1 0 1 1 1 0 
1 1 1 0 1 1 1 1 1 1 1 1 1 1 1 1 
0 1 2 2 0 1 2 2 1 1 0 1 2 2 0 1 
2 2 1 1 1 1 0 1 2 2 1 1 1 1 1 1 
1 1 1 1 1 1 1 1 1 1 1 0 1 1 1 0 
1 1 1 0 1 1 1 0 1 0 1 0 1 0 1 0 
1 0 1 0 1 0 1 0 1 0 1 0 1 0 1 0 
1 0 1 0 1 0 1 0 1 -1 1 0 1 0 1 0 
1 -1 1 0 1 0 1 -1 1 0 1 0 1 -1 1 0 
1 -1 1 0 1 -1 1 -1 1 0 1 -1 1 -1 1 -1 
1 0 1 -1 1 -1 1 -1 1 0 1 -1 1 -1 1 -1 
1 0 1 -1 1 0 1 -1 1 -1 1 0 1 0 1 -1 
1 0 1 0 1 0 1 0 1 0 1 0 1 1 1 0 
1 1 1 1 1 0 1 1 1 1 1 1 0 1 2 2 
1 1 0 1 2 2 1 1 0 1 2 2 0 1 2 2 
1 1 0 1 2 2 1 1 1 1 1 1 1 1 0 1 
2 2 1 0 1 1 1821 1432 300 MP stroke
1 1 1 1 1 1 1 0 1 1 1 0 1 1 1 0 
1 0 1 0 1 1 1 0 1 0 1 0 1 0 1 0 
1 0 1 0 1 0 1 0 1 -1 1 0 1 0 1 0 
1 0 1 0 1 0 1 -1 1 0 1 0 1 0 1 -1 
1 0 1 -1 1 0 1 0 1 -1 1 -1 1 0 1 -1 
1 0 1 -1 1 -1 1 -1 1 0 1 -1 1 -1 1 -1 
1 0 1 -1 1 -1 1 -1 1 0 1 -1 1 -1 1 0 
1 -1 1 -1 1 0 1 0 1 -1 1 0 1 0 1 0 
1 0 1 0 1 0 1 1 1 0 1 1 1 1 1 0 
1 1 1 1 1 1 0 1 2 2 1 1 0 1 2 2 
0 1 2 2 1 1 0 1 2 2 0 1 2 2 1 1 
1 1 0 1 2 2 1 1 1 1 1 1 1 1 1 1 
1 0 1 1 1 1 1 1 1 0 1 1 1 0 1 0 
1 0 1 1 1 0 1 0 1 0 1 0 1 0 1 0 
1 0 1 0 1 0 1 0 1 0 1 -1 1 0 1 0 
1 0 1 0 1 0 1 -1 1 0 1 0 1 0 1 -1 
1 0 1 0 1 -1 1 0 1 -1 1 0 1 -1 1 -1 
1 0 1 -1 1 -1 1 -1 1 0 1 -1 1 -1 1 -1 
1 -1 1 0 1 -1 1 -1 1 -1 1 0 1 -1 1 -1 
1 0 1 -1 1 0 1 -1 1 0 1 0 1 0 1 0 
1 0 1 0 1 0 1 1 1 0 1 1 1 0 1 1 
1 1 1 1 1 1 0 1 2 2 1 1 0 1 2 2 
0 1 2 2 0 1 2 2 1 1 0 1 2 2 1 1 
1 1 0 1 2 2 1 1 1 1 1 1 1 1 1 1 
1 1 1 0 1 1 1 1 1 0 1 1 1 0 1 0 
1 0 1 1 1 0 1 0 1 0 1 0 1 0 1 0 
1 0 1 0 1 0 1 0 1 0 1 -1 1 0 1 0 
1 0 1 0 1 0 1 -1 1 0 1 0 1 0 1 -1 
1 0 1 0 1 -1 1 0 1 -1 1 0 1 -1 1 -1 
1 0 1 -1 1 -1 1 -1 1 0 1 -1 1 -1 1 -1 
1 -1 1 -1 1 0 1 -1 1 -1 1 -1 1 0 1 -1 
1 -1 1 0 1 -1 1 0 1 0 1 -1 1 0 1 0 
1 0 1 0 1 1 1 0 1 1 1 0 1 1 1 1 
1 1 1 1 1 1 1 1 0 1 2 2 0 1 2 2 
1 1 0 1 2 2 0 1 2 2 0 1 2 2 1 1 
1 1 1 1 0 1 2 2 1 1 1 1 1 1 1 1 
1 0 1 1 1 1 1 0 1 1 1 0 1 1 1 0 
1 0 1 0 1 0 1522 1376 300 MP stroke
1 1 1 0 1 0 1 0 1 0 1 0 1 0 1 -1 
1 0 1 0 1 0 1 0 1 0 1 0 1 0 1 -1 
1 0 1 0 1 0 1 -1 1 0 1 0 1 -1 1 0 
1 -1 1 0 1 -1 1 0 1 -1 1 -1 1 -1 1 0 
1 -1 1 -1 1 -1 1 -1 1 0 1 -1 1 -1 1 -1 
1 -1 1 -1 1 0 1 -1 1 -1 1 0 1 -1 1 0 
1 -1 1 0 1 0 1 -1 1 0 1 0 1 1 1 0 
1 0 1 1 1 1 1 0 1 1 1 1 1 1 1 1 
0 1 2 2 0 1 2 2 1 1 0 1 2 2 0 1 
2 2 0 1 2 2 1 1 0 1 2 2 1 1 1 1 
1 1 1 1 1 1 1 1 1 1 1 1 1 1 1 0 
1 1 1 0 1 1 1 0 1 0 1 0 1 1 1 0 
1 0 1 0 1 0 1 0 1 0 1 0 1 0 1 0 
1 0 1 0 1 -1 1 0 1 0 1 0 1 0 1 0 
1 -1 1 0 1 0 1 0 1 -1 1 0 1 0 1 -1 
1 0 1 -1 1 -1 1 0 1 -1 1 -1 1 0 1 -1 
1 -1 1 -1 1 -1 1 -1 1 0 1 -1 1 -1 1 -1 
1 -1 1 -1 1 -1 1 0 1 -1 1 -1 1 0 1 -1 
1 0 1 -1 1 0 1 0 1 0 1 0 1 0 1 0 
1 1 1 0 1 1 1 1 1 1 1 0 -1 0 2 2 
1 1 1 1 0 1 2 2 0 1 2 2 0 1 2 2 
1 1 0 1 2 2 0 1 2 2 1 1 1 1 0 1 
2 2 1 1 1 1 1 1 1 1 1 1 1 0 1 1 
1 1 1 0 1 1 1 0 1 0 1 1 1 0 1 0 
1 0 1 0 1 0 1 0 1 0 1 0 1 0 1 0 
1 0 1 0 1 0 1 0 1 0 1 -1 1 0 1 0 
1 0 1 0 1 -1 1 0 1 0 1 -1 1 0 1 0 
1 -1 1 0 1 -1 1 -1 1 0 1 -1 1 -1 1 -1 
1 0 1 -1 1 -1 1 -1 1 -1 1 -1 1 -1 1 -1 
1 -1 1 -1 1 -1 1 0 1 -1 1 -1 1 -1 1 -1 
1 0 1 -1 1 0 1 0 1 -1 1 0 1 0 1 0 
1 1 1 0 1 1 1 0 1 1 1 1 1 1 1 1 
1 1 0 1 2 2 1 1 0 1 2 2 0 1 2 2 
0 1 2 2 0 1 2 2 1 1 0 1 2 2 1 1 
1 1 1 1 1 1 1 1 1 1 1 1 1 1 1 0 
1 1 1 0 1 1 1 0 1 0 1 1 1 0 1 0 
1 0 1 0 1 0 1 0 1 0 1 0 1 -1 1 0 
1 0 1 0 1 0 1224 1332 300 MP stroke
1 0 1 -1 1 0 1 0 1 0 1 0 1 -1 1 0 
1 -1 1 0 1 0 1 -1 1 0 1 -1 1 -1 1 0 
1 -1 1 -1 1 -1 1 -1 1 -1 1 -1 1 -1 1 -1 
1 -1 1 -1 1 -1 1 -1 1 -1 0 -1 2 -2 1 -1 
1 -1 1 -1 1 -1 1 -1 1 0 1 -1 1 -1 1 -1 
1 0 1 0 1 -1 1 0 1 0 1 0 1 1 1 0 
1 1 1 0 1 1 1 1 1 1 1 1 0 1 2 2 
1 1 0 1 2 2 0 1 2 2 0 1 2 2 1 1 
0 1 2 2 1 1 1 1 1 1 1 1 1 1 1 1 
1 1 1 1 1 1 1 0 1 1 1 0 1 1 1 0 
1 0 1 0 1 0 1 0 1 0 1 0 1 -1 1 0 
1 0 1 0 1 -1 1 0 1 -1 1 0 1 0 1 -1 
1 0 1 -1 1 0 1 -1 1 -1 1 0 1 -1 1 -1 
1 0 1 -1 1 -1 1 -1 1 -1 1 -1 0 -1 2 -2 
1 -1 0 -1 2 -2 0 -1 2 -2 1 -1 0 -2 2 -2 
0 -2 2 -2 1 -1 0 -2 2 -2 0 -2 2 -2 0 -2 
2 -2 0 -2 2 -2 0 -1 2 -2 0 -1 2 -2 1 -1 
0 -1 2 -2 1 0 1 -1 1 -1 1 0 1 0 1 -1 
1 1 1 0 1 0 1 1 1 1 1 1 1 1 1 1 
1 1 0 1 2 2 1 1 0 1 2 2 1 1 1 1 
1 1 1 1 1 1 1 1 1 1 1 1 1 0 1 1 
1 0 1 1 1 0 1 0 1 0 1 0 1 -1 1 0 
1 -1 1 -1 1 -1 1 -1 0 -1 2 -2 0 -1 2 -2 
1 -1 0 -2 2 -2 0 -1 2 -2 0 -2 2 -2 0 -2 
2 -2 0 -2 2 -2 0 -2 1 -1 0 -2 2 -2 0 -2 
1 -1 0 -2 1 -1 0 -1 1 -1 0 -2 1 -1 0 -2 
1 -1 0 -2 1 -1 0 -3 1 -1 0 -2 1 -1 0 -3 
1 -1 0 -3 1 -1 0 -3 1 -1 0 -3 1 -1 0 -3 
1 -1 0 -4 1 -1 0 -4 1 -1 0 -4 1 -1 0 -4 
1 -1 0 -4 1 -1 0 -4 1 -1 0 -5 1 -1 0 -4 
1 -1 0 -5 1 -1 0 -5 1 -1 0 -4 1 -1 0 -5 
1 -1 0 -5 1 -1 0 -5 1 -1 0 -5 1 -1 0 -4 
1 -1 0 -5 1 -1 0 -4 1 -1 0 -4 1 -1 0 -5 
1 -1 0 -4 1 -1 0 -3 1 -1 0 -3 1 -1 0 -4 
1 -1 0 -2 1 -1 0 -2 1 -1 0 -3 1 -1 0 -2 
2 -2 0 -2 2 -2 1 -1 1 -1 1 0 1 0 1 0 
1 0 1 0 1 1 1 1 1 0 1 1 1 0 1 1 
1 0 1 0 1 0 966 1593 300 MP stroke
1 0 1 0 1 -1 1 -1 1 -1 0 -1 2 -2 0 -1 
2 -2 0 -2 1 -1 0 -2 1 -1 0 -2 1 -1 0 -3 
1 -1 0 -3 1 -1 0 -3 1 -1 0 -4 1 -1 0 -4 
1 -1 0 -4 1 -1 0 -5 1 -1 0 -5 1 -1 0 -5 
1 -1 0 -5 1 -1 0 -5 1 -1 0 -6 1 -1 0 -6 
1 -1 0 -5 1 -1 0 -7 1 -1 0 -6 1 -1 0 -6 
1 -1 0 -7 1 -1 0 -7 1 -1 0 -7 1 -1 0 -7 
1 -1 0 -7 1 -1 0 -8 1 -1 0 -8 1 -1 0 -9 
1 -1 0 -8 1 -1 0 -9 1 -1 0 -9 1 -1 0 -10 
1 -1 0 -10 1 -1 0 -10 1 -1 0 -11 1 -1 0 -11 
1 -1 0 -12 1 -1 0 -12 1 -1 0 -13 1 -1 0 -13 
1 -1 0 -12 1 -1 0 -14 1 -1 0 -14 1 -1 0 -15 
1 -1 0 -14 1 -1 0 -15 1 -1 0 -14 1 -1 0 -15 
1 -1 0 -15 1 -1 0 -16 1 -1 0 -15 1 -1 0 -15 
1 -1 0 -15 1 -1 0 -15 1 -1 0 -14 1 -1 0 -15 
1 -1 0 -14 1 -1 0 -12 1 -1 0 -14 1 -1 0 -12 
1 -1 0 -11 1 -1 0 -11 1 -1 0 -10 1 -1 0 -10 
1 -1 0 -8 1 -1 0 -8 1 -1 0 -7 1 -1 0 -6 
1 -1 0 -5 1 -1 0 -5 1 -1 0 -4 1 -1 0 -3 
1 -1 0 -2 1 -1 0 -2 1 -1 0 -2 2 -2 1 -1 
1 -1 1 -1 1 -1 1 -1 1 -1 1 -1 1 -1 1 -1 
0 -2 2 -2 0 -2 2 -2 0 -2 1 -1 0 -2 1 -1 
0 -2 1 -1 0 -2 1 -1 0 -3 1 -1 0 -4 1 -1 
0 -3 1 -1 0 -4 1 -1 0 -5 1 -1 0 -4 1 -1 
0 -5 1 -1 0 -6 1 -1 0 -5 1 -1 0 -7 1 -1 
0 -6 1 -1 0 -7 1 -1 0 -6 1 -1 0 -7 1 -1 
0 -7 1 -1 0 -7 1 -1 0 -7 1 -1 0 -8 1 -1 
0 -6 1 -1 0 -8 1 -1 0 -8 1 -1 0 -7 1 -1 
0 -7 1 -1 0 -8 1 -1 0 -8 1 -1 0 -8 1 -1 
0 -8 1 -1 0 -8 1 -1 0 -8 1 -1 0 -9 1 -1 
0 -8 1 -1 0 -9 1 -1 0 -9 1 -1 0 -9 1 -1 
0 -10 1 -1 0 -9 1 -1 0 -10 1 -1 0 -10 1 -1 
0 -10 1 -1 0 -11 1 -1 0 -11 1 -1 0 -10 1 -1 
0 -11 1 -1 0 -11 1 -1 0 -10 1 -1 0 -11 1 -1 
0 -11 1 -1 0 -11 1 -1 0 -10 1 -1 0 -11 1 -1 
0 -10 1 -1 0 -11 1 -1 0 -10 1 -1 0 -9 1 -1 
0 -10 1 -1 0 -9 1 -1 0 -10 1 -1 0 -8 1 -1 
0 -9 1 -1 0 -7 805 2910 300 MP stroke
1 -1 0 -7 1 -1 0 -7 1 -1 0 -7 1 -1 0 -6 
1 -1 0 -5 1 -1 0 -5 1 -1 0 -5 1 -1 0 -4 
1 -1 0 -3 1 -1 0 -3 1 -1 0 -3 1 -1 0 -2 
1 -1 0 -3 2 -2 0 -2 2 -2 1 -1 1 -1 1 -1 
1 -1 1 -1 1 0 1 -1 1 0 1 -1 1 -1 1 0 
1 -1 1 -1 1 -1 1 -1 0 -1 2 -2 0 -1 2 -2 
1 -1 0 -2 2 -2 0 -2 2 -2 0 -2 1 -1 0 -2 
1 -1 0 -1 1 -1 0 -2 1 -1 0 -2 1 -1 0 -2 
1 -1 0 -3 1 -1 0 -2 1 -1 0 -2 1 -1 0 -2 
1 -1 0 -3 1 -1 0 -2 1 -1 0 -2 1 -1 0 -3 
1 -1 0 -2 1 -1 0 -3 1 -1 0 -2 1 -1 0 -3 
1 -1 0 -2 1 -1 0 -3 1 -1 0 -3 1 -1 0 -2 
1 -1 0 -3 1 -1 0 -2 1 -1 0 -3 1 -1 0 -3 
1 -1 0 -3 1 -1 0 -3 1 -1 0 -3 1 -1 0 -2 
1 -1 0 -4 1 -1 0 -3 1 -1 0 -3 1 -1 0 -3 
1 -1 0 -3 1 -1 0 -3 1 -1 0 -3 1 -1 0 -4 
1 -1 0 -3 1 -1 0 -3 1 -1 0 -3 1 -1 0 -3 
1 -1 0 -3 1 -1 0 -4 1 -1 0 -2 1 -1 0 -4 
1 -1 0 -2 1 -1 0 -3 1 -1 0 -3 1 -1 0 -2 
1 -1 0 -3 1 -1 0 -2 1 -1 0 -2 1 -1 0 -2 
1 -1 0 -2 1 -1 0 -3 2 -2 0 -3 2 -2 0 -2 
2 -2 0 -2 2 -2 0 -1 2 -2 1 -1 1 -1 1 -1 
1 -1 1 0 1 -1 1 0 1 -1 1 0 1 0 1 -1 
1 0 1 0 1 0 1 0 1 0 1 -1 1 0 1 0 
1 0 1 -1 1 0 1 -1 1 0 1 0 1 -1 1 -1 
1 0 1 -1 1 -1 1 0 1 -1 1 -1 1 -1 1 -1 
1 -1 1 -1 1 -1 1 -1 1 -1 1 -1 1 -1 0 -1 
2 -2 1 -1 1 -1 1 -1 1 -1 1 -1 0 -1 2 -2 
1 -1 1 -1 1 -1 1 -1 0 -1 2 -2 1 -1 1 -1 
0 -1 2 -2 1 -1 1 -1 0 -1 2 -2 1 -1 1 -1 
0 -1 2 -2 1 -1 1 -1 1 -1 0 -1 2 -2 1 -1 
1 -1 1 -1 1 -1 1 -1 1 -1 1 -1 1 -1 1 -1 
1 -1 1 -1 1 0 1 -1 1 -1 1 0 1 -1 1 -1 
1 0 1 -1 1 0 1 -1 1 0 1 0 1 -1 1 0 
1 0 1 0 1 -1 1 0 1 0 1 0 1 0 1 0 
1 0 1 0 1 0 1 -1 1 0 1 0 1 0 1 0 
1 0 1 0 1 -1 1 0 1 0 1 0 1 -1 1 0 
1 0 1 -1 1 0 573 3323 300 MP stroke
1 -1 1 0 1 0 1 -1 1 0 1 -1 1 -1 1 0 
1 -1 1 0 1 -1 1 0 1 0 1 -1 1 0 1 0 
1 -1 1 0 1 0 1 0 1 0 1 0 1 0 1 0 
1 0 1 0 1 0 1 0 1 0 1 0 1 0 1 0 
1 0 1 0 1 0 1 0 1 0 1 1 1 0 1 0 
1 0 1 0 1 0 1 0 1 0 1 0 1 0 1 0 
1 0 1 0 1 0 1 0 1 0 1 0 1 0 1 0 
1 0 1 0 1 0 1 0 1 0 1 0 1 0 1 0 
1 0 1 0 1 0 1 0 1 0 504 3330 70 MP stroke
/c10 { 1.000000 0.000000 0.000000 sr} bdef
c10
-1 0 2 -2 0 -1 2 -2 1 -1 0 -2 2 -2 0 -1 
2 -2 1 -1 0 -2 2 -2 1 -1 0 -2 2 -2 1 -1 
0 -2 2 -2 0 -1 2 -2 1 -1 0 -2 2 -2 1 -1 
0 -2 2 -2 1 -1 0 -2 2 -2 1 -1 0 -2 2 -2 
0 -1 2 -2 1 -1 0 -2 2 -2 1 -1 0 -2 2 -2 
1 -1 0 -2 2 -2 0 -1 2 -2 1 -1 0 -2 2 -2 
1 -1 0 -2 2 -2 1 -1 0 -2 2 -2 0 -1 2 -2 
1 -1 0 -2 2 -2 1 -1 0 -2 2 -2 1 -1 0 -2 
2 -2 0 -1 2 -2 1 -1 0 -2 2 -2 1 -1 0 -2 
2 -2 0 -1 2 -2 1 -1 0 -2 2 -2 1 -1 0 -2 
2 -2 0 -1 2 -2 1 -1 0 -2 2 -2 0 -1 2 -2 
1 -1 0 -2 2 -2 1 -1 0 -2 2 -2 1 -1 0 -2 
2 -2 0 -1 2 -2 1 -1 0 -2 2 -2 1 -1 0 -2 
2 -2 1 -1 0 -2 2 -2 0 -1 2 -2 1 -1 0 -2 
2 -2 1 -1 0 -2 2 -2 1 -1 0 -2 2 -2 0 -1 
2 -2 1 -1 0 -2 2 -2 1 -1 0 -2 2 -2 1 -1 
0 -2 2 -2 1 -1 0 -2 2 -2 1 -1 0 -2 2 -2 
1 -1 0 -2 2 -2 1 -1 0 -2 2 -2 0 -1 2 -2 
1 -1 0 -2 2 -2 1 -1 0 -2 2 -2 1 -1 0 -2 
2 -2 1 -1 0 -2 2 -2 1 -1 0 -2 2 -2 1 -1 
0 -2 2 -2 0 -1 2 -2 1 -1 0 -2 2 -2 1 -1 
0 -2 2 -2 1 -1 0 -2 2 -2 1 -1 0 -2 2 -2 
0 -1 2 -2 1 -1 0 -2 2 -2 1 -1 0 -2 2 -2 
1 -1 0 -2 2 -2 0 -1 2 -2 1 -1 0 -2 2 -2 
1 -1 0 -2 2 -2 1 -1 0 -2 2 -2 0 -1 2 -2 
1 -1 0 -2 2 -2 1 -1 0 -2 2 -2 1 -1 0 -2 
2 -2 1 -1 0 -2 2 -2 1 -1 0 -2 2 -2 1 -1 
0 -2 2 -2 1 -1 0 -2 2 -2 1 -1 0 -2 2 -2 
1 -1 0 -2 2 -2 1 -1 0 -2 2 -2 1 -1 0 -2 
2 -2 1 -1 0 -2 2 -2 1 -1 0 -2 2 -2 1 -1 
0 -2 2 -2 1 -1 0 -2 2 -2 1 -1 0 -2 2 -2 
1 -1 0 -2 2 -2 1 -1 0 -2 2 -2 1 -1 0 -2 
2 -2 1 -1 0 -2 2 -2 0 -1 2 -2 1 -1 0 -2 
2 -2 1 -1 0 -2 2 -2 1 -1 0 -2 2 -2 1 -1 
0 -2 2 -2 1 -1 0 -2 2 -2 0 -1 2 -2 1 -1 
0 -2 2 -2 1 -1 0 -2 2 -2 1 -1 0 -2 2 -2 
1 -1 0 -2 2 -2 1 -1 0 -2 2 -2 1 -1 0 -2 
2 -2 1 -1 0 -2 2121 1039 300 MP stroke
2 -2 1 -1 0 -2 2 -2 1 -1 0 -2 2 -2 1 -1 
0 -2 2 -2 1 -1 0 -2 2 -2 1 -1 0 -2 2 -2 
1 -1 0 -2 2 -2 1 -1 0 -2 2 -2 1 -1 0 -2 
2 -2 0 -1 2 -2 0 -2 2 -2 1 -1 0 -2 2 -2 
1 -1 0 -2 2 -2 1 -1 0 -2 2 -2 1 -1 0 -2 
2 -2 1 -1 0 -2 2 -2 1 -1 0 -2 2 -2 1 -1 
0 -2 2 -2 1 -1 0 -2 2 -2 1 -1 0 -2 2 -2 
1 -1 0 -2 2 -2 1 -1 0 -2 2 -2 1 -1 0 -2 
2 -2 1 -1 0 -2 2 -2 1 -1 0 -2 2 -2 1 -1 
0 -2 2 -2 1 -1 0 -2 2 -2 1 -1 0 -2 2 -2 
1 -1 0 -2 2 -2 0 -1 2 -2 0 -1 2 -2 0 -2 
2 -2 1 -1 0 -2 2 -2 1 -1 0 -2 2 -2 1 -1 
0 -2 2 -2 1 -1 0 -2 2 -2 1 -1 0 -2 2 -2 
1 -1 0 -2 2 -2 0 -1 2 -2 0 -2 2 -2 1 -1 
0 -2 2 -2 1 -1 0 -2 2 -2 1 -1 0 -2 2 -2 
0 -1 2 -2 0 -2 2 -2 1 -1 0 -2 2 -2 1 -1 
0 -2 2 -2 0 -1 2 -2 0 -2 2 -2 0 -1 2 -2 
0 -1 2 -2 0 -2 2 -2 1 -1 0 -2 2 -2 1 -1 
0 -2 2 -2 1 -1 0 -2 2 -2 1 -1 0 -2 2 -2 
0 -1 2 -2 0 -2 2 -2 0 -1 2 -2 0 -1 2 -2 
0 -2 2 -2 1 -1 0 -2 2 -2 1 -1 0 -2 2 -2 
1 -1 0 -2 2 -2 1 -1 0 -2 2 -2 1 -1 0 -2 
2 -2 1 -1 0 -2 2 -2 1 -1 0 -2 2 -2 1 -1 
0 -2 2 -2 1 -1 0 -2 2 -2 0 -1 2 -2 0 -2 
2 -2 1 -1 0 -2 2 -2 1 -1 0 -2 2 -2 1 -1 
0 -2 2 -2 0 -1 2 -2 0 -2 2 -2 1 -1 0 -2 
2 -2 0 -1 2 -2 0 -2 2 -2 1 -1 0 -2 2 -2 
1 -1 0 -2 2 -2 0 -1 2 -2 0 -2 2 -2 1 -1 
0 -2 2 -2 1 -1 0 -2 2 -2 0 -1 2 -2 0 -2 
2 -2 1 -1 0 -2 2 -2 1 -1 0 -2 2 -2 0 -1 
2 -2 0 -2 2 -2 1 -1 0 -2 2 -2 1 -1 0 -2 
2 -2 1 -1 0 -2 2 -2 0 -1 2 -2 0 -2 2 -2 
1 -1 0 -2 2 -2 1 -1 0 -2 2 -2 1 -1 0 -2 
2 -2 1 -1 0 -2 2 -2 0 -1 2 -2 0 -2 2 -2 
1 -1 0 -2 2 -2 1 -1 0 -2 2 -2 1 -1 0 -2 
2 -2 1 -1 0 -2 2 -2 0 -1 2 -2 0 -2 2 -2 
1 -1 0 -2 2 -2 0 -1 2 -2 0 -2 2 -2 1 -1 
0 -2 2 -2 1 -1 1821 1542 300 MP stroke
0 -2 2 -2 0 -1 2 -2 0 -2 2 -2 0 -1 2 -2 
0 -2 2 -2 1 -1 0 -2 2 -2 0 -1 2 -2 0 -2 
2 -2 1 -1 0 -2 2 -2 0 -1 1 -1 1 -1 0 -2 
2 -2 1 -1 0 -2 2 -2 0 -1 2 -2 0 -2 2 -2 
1 -1 0 -2 2 -2 0 -1 2 -2 0 -2 2 -2 1 -1 
0 -2 2 -2 1 -1 0 -2 2 -2 0 -1 2 -2 0 -2 
2 -2 1 -1 0 -2 2 -2 0 -1 2 -2 0 -2 2 -2 
1 -1 0 -2 2 -2 1 -1 0 -2 2 -2 0 -1 2 -2 
0 -2 2 -2 1 -1 0 -2 2 -2 1 -1 0 -2 2 -2 
1 -1 0 -2 2 -2 0 -1 2 -2 0 -2 2 -2 1 -1 
0 -2 2 -2 0 -1 2 -2 0 -2 2 -2 1 -1 0 -2 
2 -2 0 -1 2 -2 0 -2 2 -2 1 -1 0 -2 2 -2 
0 -1 2 -2 0 -2 2 -2 0 -1 2 -2 0 -2 2 -2 
0 -1 2 -2 0 -2 2 -2 1 -1 0 -2 2 -2 0 -1 
2 -2 0 -2 2 -2 0 -1 2 -2 0 -2 2 -2 1 -1 
0 -2 2 -2 0 -1 2 -2 0 -2 2 -2 1 -1 0 -2 
2 -2 0 -1 2 -2 0 -2 2 -2 0 -1 2 -2 0 -2 
2 -2 1 -1 0 -2 2 -2 0 -1 2 -2 0 -2 2 -2 
1 -1 0 -2 2 -2 0 -1 2 -2 0 -2 2 -2 1 -1 
0 -2 2 -2 1 -1 0 -2 2 -2 0 -1 2 -2 0 -2 
2 -2 1 -1 0 -2 2 -2 0 -1 2 -2 0 -2 2 -2 
1 -1 0 -2 2 -2 0 -1 2 -2 0 -2 2 -2 0 -1 
2 -2 0 -2 2 -2 1 -1 0 -2 2 -2 0 -1 2 -2 
0 -2 2 -2 0 -1 2 -2 0 -2 2 -2 1 -1 0 -2 
2 -2 0 -1 2 -2 0 -2 2 -2 0 -1 2 -2 0 -2 
2 -2 0 -1 2 -2 0 -2 2 -2 0 -1 2 -2 0 -2 
2 -2 1 -1 0 -2 2 -2 0 -1 2 -2 0 -2 2 -2 
1 -1 0 -2 2 -2 0 -2 2 -2 1 -1 0 -2 2 -2 
0 -1 2 -2 0 -2 2 -2 0 -1 2 -2 0 -2 2 -2 
1 -1 0 -2 2 -2 0 -1 2 -2 0 -2 2 -2 0 -1 
2 -2 0 -2 2 -2 0 -1 2 -2 0 -2 2 -2 1 -1 
0 -2 2 -2 1 -1 0 -2 2 -2 0 -1 2 -2 0 -2 
2 -2 0 -1 2 -2 0 -2 2 -2 1 -1 0 -2 2 -2 
0 -1 2 -2 0 -2 2 -2 1 -1 0 -2 2 -2 0 -1 
2 -2 0 -2 2 -2 0 -1 2 -2 0 -2 2 -2 0 -1 
2 -2 0 -2 2 -2 0 -1 2 -2 0 -2 2 -2 0 -1 
2 -2 0 -2 2 -2 0 -1 2 -2 0 -2 2 -2 0 -1 
2 -2 0 -2 2 -2 1523 2056 300 MP stroke
0 -1 2 -2 0 -2 2 -2 0 -1 2 -2 0 -2 2 -2 
0 -1 2 -2 0 -2 2 -2 1 -1 0 -2 2 -2 0 -2 
2 -2 0 -1 2 -2 0 -2 2 -2 1 -1 0 -2 2 -2 
0 -1 2 -2 0 -2 2 -2 1 -1 0 -2 2 -2 0 -2 
2 -2 1 -1 0 -2 2 -2 0 -1 2 -2 0 -2 2 -2 
0 -1 2 -2 0 -2 2 -2 1 -1 0 -2 2 -2 0 -1 
2 -2 0 -2 2 -2 0 -1 2 -2 0 -2 2 -2 0 -1 
2 -2 0 -2 2 -2 1 -1 0 -2 2 -2 0 -1 2 -2 
0 -2 2 -2 0 -1 2 -2 0 -2 2 -2 0 -1 2 -2 
0 -2 2 -2 0 -1 2 -2 0 -2 2 -2 0 -1 2 -2 
0 -2 2 -2 0 -1 2 -2 0 -2 2 -2 1 -1 0 -2 
2 -2 0 -2 2 -2 0 -1 2 -2 0 -2 2 -2 0 -1 
2 -2 0 -2 2 -2 0 -1 2 -2 0 -2 2 -2 1 -1 
0 -2 2 -2 0 -2 2 -2 0 -1 2 -2 0 -2 2 -2 
0 -1 2 -2 0 -2 2 -2 0 -1 2 -2 0 -2 2 -2 
0 -1 2 -2 0 -2 2 -2 1 -1 0 -2 2 -2 0 -2 
2 -2 0 -1 2 -2 0 -2 2 -2 0 -1 2 -2 0 -2 
2 -2 0 -1 2 -2 0 -2 2 -2 1 -1 0 -2 2 -2 
0 -1 2 -2 0 -2 2 -2 0 -1 2 -2 0 -2 2 -2 
0 -1 2 -2 0 -2 2 -2 0 -1 2 -2 0 -2 2 -2 
0 -1 2 -2 0 -2 2 -2 0 -1 2 -2 0 -2 2 -2 
0 -1 2 -2 0 -2 2 -2 1 -1 0 -2 2 -2 0 -2 
2 -2 0 -1 2 -2 0 -2 2 -2 0 -1 2 -2 0 -2 
2 -2 0 -1 1 -1 0 -1 2 -2 0 -2 2 -2 1 -1 
0 -2 2 -2 0 -2 2 -2 0 -1 2 -2 0 -2 2 -2 
1 -1 0 -2 2 -2 0 -2 2 -2 0 -1 2 -2 0 -2 
2 -2 0 -1 2 -2 0 -2 2 -2 1 -1 0 -2 2 -2 
0 -2 2 -2 0 -1 2 -2 0 -2 2 -2 1 -1 0 -2 
2 -2 0 -2 2 -2 1 -1 0 -2 2 -2 1 -1 0 -2 
2 -2 0 -2 2 -2 0 -1 2 -2 0 -2 2 -2 0 -1 
2 -2 0 -2 2 -2 0 -1 2 -2 0 -2 2 -2 0 -1 
2 -2 0 -2 2 -2 0 -1 2 -2 0 -2 2 -2 0 -1 
2 -2 0 -2 2 -2 0 -1 2 -2 0 -2 2 -2 1 -1 
0 -2 2 -2 0 -2 2 -2 0 -1 2 -2 0 -2 2 -2 
0 -1 2 -2 0 -2 2 -2 1 -1 0 -2 2 -2 0 -2 
2 -2 1 -1 0 -2 2 -2 0 -2 2 -2 1 -1 0 -2 
2 -2 0 -2 2 -2 0 -1 2 -2 0 -2 2 -2 1 -1 
0 -2 2 -2 0 -2 1226 2580 300 MP stroke
2 -2 1 -1 0 -2 2 -2 0 -2 2 -2 0 -1 2 -2 
0 -2 2 -2 1 -1 0 -2 2 -2 0 -2 2 -2 0 -1 
2 -2 0 -2 2 -2 1 -1 0 -2 2 -2 0 -2 2 -2 
0 -1 2 -2 0 -2 2 -2 0 -1 2 -2 0 -2 2 -2 
0 -1 2 -2 0 -2 2 -2 1 -1 0 -2 2 -2 0 -2 
2 -2 1 -1 0 -2 2 -2 1 -1 0 -2 2 -2 0 -2 
2 -2 0 -1 2 -2 0 -2 2 -2 0 -1 2 -2 0 -2 
2 -2 0 -1 2 -2 0 -2 2 -2 1 -1 0 -2 2 -2 
0 -2 2 -2 0 -1 2 -2 0 -2 2 -2 1 -1 0 -2 
2 -2 0 -2 2 -2 0 -1 2 -2 0 -2 2 -2 0 -1 
1 -1 0 -1 2 -2 0 -2 2 -2 1 -1 0 -2 2 -2 
0 -2 2 -2 1 -1 0 -2 2 -2 0 -2 2 -2 0 -1 
2 -2 0 -2 2 -2 1 -1 0 -2 2 -2 0 -2 2 -2 
0 -1 2 -2 0 -2 2 -2 1 -1 0 -2 2 -2 0 -2 
2 -2 0 -1 2 -2 0 -2 2 -2 1 -1 0 -2 2 -2 
0 -2 2 -2 1 -1 0 -2 2 -2 0 -1 2 -2 0 -2 
2 -2 0 -1 2 -2 0 -2 2 -2 0 -1 2 -2 0 -2 
2 -2 0 -1 2 -2 0 -2 2 -2 0 -1 2 -2 0 -2 
2 -2 1 -1 0 -2 2 -2 0 -1 2 -2 0 -2 2 -2 
0 -1 2 -2 0 -2 2 -2 0 -1 2 -2 0 -2 2 -2 
0 -1 2 -2 0 -2 2 -2 0 -1 2 -2 0 -2 2 -2 
0 -1 2 -2 0 -2 2 -2 0 -1 2 -2 0 -2 2 -2 
0 -1 2 -2 0 -2 2 -2 0 -1 2 -2 0 -2 2 -2 
0 -1 2 -2 0 -2 2 -2 0 -1 2 -2 0 -2 2 -2 
0 -1 2 -2 0 -2 2 -2 0 -1 2 -2 0 -2 2 -2 
1 -1 0 -2 2 -2 0 -1 2 -2 0 -2 2 -2 1 -1 
0 -2 2 -2 1 -1 0 -2 2 -2 1 -1 0 -2 2 -2 
1 -1 0 -2 2 -2 1 -1 0 -2 2 -2 1 -1 0 -2 
2 -2 1 -1 0 -2 2 -2 0 -1 2 -2 1 -1 0 -2 
2 -2 0 -1 2 -2 1 -1 0 -2 2 -2 0 -1 2 -2 
0 -1 2 -2 1 -1 0 -2 2 -2 0 -1 2 -2 0 -1 
2 -2 1 -1 0 -2 2 -2 0 -1 2 -2 0 -1 2 -2 
1 -1 0 -2 2 -2 0 -1 2 -2 0 -1 2 -2 1 -1 
0 -2 2 -2 0 -1 2 -2 0 -1 2 -2 1 -1 0 -2 
2 -2 0 -1 2 -2 1 -1 0 -2 2 -2 0 -1 2 -2 
0 -1 2 -2 0 -1 2 -2 0 -1 2 -2 0 -1 2 -2 
0 -1 2 -2 0 -1 2 -2 0 -1 2 -2 0 -1 2 -2 
0 -1 2 -2 1 -1 927 3088 300 MP stroke
0 -1 2 -2 0 -1 2 -2 1 -1 0 -1 2 -2 0 -1 
2 -2 1 -1 1 -1 0 -1 2 -2 1 -1 0 -1 2 -2 
1 -1 1 -1 1 -1 0 -1 2 -2 1 -1 1 -1 1 -1 
1 -1 1 -1 0 -1 2 -2 1 -1 1 -1 1 -1 1 -1 
1 -1 1 -1 1 -1 1 -1 1 -1 1 -1 1 -1 1 -1 
1 -1 1 -1 1 -1 1 -1 1 -1 1 -1 1 -1 1 -1 
1 -1 1 -1 1 -1 1 -1 1 -1 1 -1 1 -1 1 -1 
1 -1 1 -1 1 -1 1 -1 0 -1 2 -2 1 0 -1 0 
2 -2 1 -1 1 -1 1 -1 1 -1 1 -1 1 -1 1 -1 
1 -1 1 -1 1 -1 1 -1 1 -1 1 -1 1 -1 1 -1 
1 -1 1 -1 1 0 1 -1 1 -1 1 -1 1 -1 1 -1 
1 -1 1 -1 1 -1 1 -1 1 -1 1 -1 1 -1 1 0 
1 -1 1 -1 1 -1 1 -1 1 -1 1 0 1 -1 1 -1 
1 -1 1 -1 1 0 1 -1 1 -1 1 -1 1 0 1 -1 
1 -1 1 0 1 -1 1 -1 1 0 1 -1 1 -1 1 0 
1 -1 1 -1 1 0 1 -1 1 -1 1 0 1 -1 1 0 
1 -1 1 -1 1 0 1 -1 1 0 1 -1 1 -1 1 0 
1 -1 1 0 1 -1 1 0 1 -1 1 -1 1 0 1 -1 
1 0 1 -1 1 -1 1 0 1 -1 1 0 1 -1 1 0 
1 -1 1 -1 1 0 1 -1 1 0 1 -1 1 -1 1 0 
1 -1 1 0 1 -1 1 -1 1 0 1 -1 1 0 1 -1 
1 -1 1 0 1 -1 1 0 1 -1 1 -1 1 0 1 -1 
1 0 1 -1 1 -1 1 0 1 -1 1 0 1 -1 1 0 
1 -1 1 -1 1 0 1 -1 1 0 1 -1 1 0 1 -1 
1 0 1 -1 1 0 1 -1 1 -1 1 0 1 -1 1 0 
1 -1 1 0 1 -1 1 0 1 -1 1 0 1 -1 1 0 
1 -1 1 0 1 -1 1 0 1 -1 1 0 1 0 1 -1 
1 0 1 -1 1 0 1 -1 1 0 1 -1 1 0 1 -1 
1 0 1 -1 1 0 1 0 1 -1 1 0 1 -1 1 0 
1 -1 1 0 1 -1 1 0 1 0 1 -1 1 0 1 -1 
1 0 1 -1 1 0 1 -1 1 0 1 -1 1 0 1 0 
1 -1 1 0 1 -1 1 0 1 -1 1 0 1 -1 1 0 
1 -1 1 0 1 0 1 -1 1 0 1 -1 1 0 1 -1 
1 0 1 -1 1 0 1 -1 1 0 1 -1 1 0 1 0 
1 -1 1 0 1 -1 1 0 1 -1 1 0 1 -1 1 0 
1 -1 1 0 1 0 1 -1 1 0 1 -1 1 0 1 -1 
1 0 1 0 1 -1 1 0 1 -1 1 0 1 -1 1 0 
1 -1 1 0 1 0 629 3300 300 MP stroke
1 -1 1 0 1 -1 1 0 1 0 1 -1 1 0 1 -1 
1 0 1 -1 1 0 1 0 1 -1 1 0 1 -1 1 0 
1 -1 1 0 1 0 1 -1 1 0 1 -1 1 0 1 0 
1 -1 1 0 1 -1 1 0 1 0 1 -1 1 0 1 -1 
1 0 1 -1 1 0 1 0 1 -1 1 0 1 -1 1 0 
1 0 1 -1 1 0 1 -1 1 0 1 -1 1 0 1 0 
1 -1 1 0 1 -1 1 0 1 0 1 -1 1 0 1 -1 
1 0 1 -1 1 0 1 0 1 -1 1 0 1 -1 1 0 
1 0 1 -1 1 0 1 -1 1 0 1 0 1 -1 1 0 
1 -1 1 0 1 -1 1 0 1 0 1 -1 1 0 1 -1 
1 0 1 0 1 -1 1 0 1 -1 1 0 1 0 1 -1 
1 0 1 -1 1 0 1 0 1 -1 1 0 1 -1 1 0 
1 -1 1 0 1 0 1 -1 1 0 1 -1 1 0 1 0 
1 -1 1 0 1 -1 1 0 1 -1 1 0 1 0 1 -1 
1 0 1 -1 1 0 1 0 1 -1 1 0 1 -1 1 0 
1 0 1 -1 1 0 1 -1 1 0 -1 0 505 3352 127 MP stroke
gr

24 w
c10
0 sg
1312 3641 mt 
(Years) s
 187 1916 mt  -90 rotate
(Trees) s
90 rotate
gs 504 186 1916 3168 rc
c8
287 0 695 412 2 MP stroke
gr

c8
1078  454 mt 
(Susceptible) s
gs 504 186 1916 3168 rc
c9
287 0 695 525 2 MP stroke
gr

c9
1069  567 mt 
(Infected) s
gs 504 186 1916 3168 rc
c10
287 0 695 638 2 MP stroke
gr

c10
1078  680 mt 
(Removed) s
6 w
1 sg
0 3167 1914 0 0 -3167 2923 3353 4 MP
PP
-1914 0 0 3167 1914 0 0 -3167 2923 3353 5 MP stroke
4 w
DO
SO
6 w
0 sg
2923  186 mt 4837  186 L
2923 3353 mt 4837 3353 L
4837 3353 mt 4837  186 L
2923 3353 mt 2923  186 L
2923 3353 mt 4837 3353 L
2923 3353 mt 2923  186 L
2923 3353 mt 2923 3321 L
2923  186 mt 2923  217 L
2890 3498 mt 
(0) s
3401 3353 mt 3401 3321 L
3401  186 mt 3401  217 L
3368 3498 mt 
(5) s
3880 3353 mt 3880 3321 L
3880  186 mt 3880  217 L
3814 3498 mt 
(10) s
4358 3353 mt 4358 3321 L
4358  186 mt 4358  217 L
4292 3498 mt 
(15) s
4837 3353 mt 4837 3321 L
4837  186 mt 4837  217 L
4771 3498 mt 
(20) s
2923 3353 mt 2954 3353 L
4837 3353 mt 4805 3353 L
2822 3397 mt 
(0) s
2923 2825 mt 2954 2825 L
4837 2825 mt 4805 2825 L
2688 2869 mt 
(100) s
2923 2297 mt 2954 2297 L
4837 2297 mt 4805 2297 L
2688 2341 mt 
(200) s
2923 1769 mt 2954 1769 L
4837 1769 mt 4805 1769 L
2688 1813 mt 
(300) s
2923 1241 mt 2954 1241 L
4837 1241 mt 4805 1241 L
2688 1285 mt 
(400) s
2923  713 mt 2954  713 L
4837  713 mt 4805  713 L
2688  757 mt 
(500) s
2923  186 mt 2954  186 L
4837  186 mt 4805  186 L
2688  230 mt 
(600) s
2923  186 mt 4837  186 L
2923 3353 mt 4837 3353 L
4837 3353 mt 4837  186 L
2923 3353 mt 2923  186 L
gs 2923 186 1915 3168 rc
24 w
c8
1 -4 0 -48 1 -4 0 -55 1 -4 0 -53 1 -4 0 -54 
1 -4 0 -54 1 -4 0 -50 1 -4 0 -44 1 -4 0 -43 
1 -4 0 -42 1 -4 0 -33 1 -4 0 -25 1 -3 0 -24 
1 -2 0 -19 1 -2 0 -13 1 -1 0 -6 1 -1 0 -1 
1 -1 0 2 1 1 0 7 1 2 0 11 1 2 0 17 
1 2 0 19 1 2 0 23 1 2 0 28 1 3 0 31 
1 3 0 30 1 3 0 35 1 4 0 36 1 4 0 37 
1 4 0 37 1 3 0 37 1 4 0 40 1 4 0 35 
1 3 0 37 1 3 0 34 1 3 0 31 1 3 0 27 
1 3 0 23 1 2 0 18 1 1 0 12 1 1 0 6 
1 1 0 -1 1 -1 0 -8 1 -2 0 -17 1 -2 0 -24 
1 -4 0 -37 1 -4 0 -42 1 -6 0 -55 1 -7 0 -65 
1 -7 0 -74 1 -8 0 -91 1 -9 0 -91 1 -9 0 -113 
1 -8 0 -113 1 -8 0 -135 1 -7 0 -129 1 -7 0 -144 
1 -6 0 -142 1 -5 0 -146 1 -3 0 -136 1 -3 0 -120 
1 -2 0 -85 1 -1 0 -10 0 7 1 1 0 11 1 1 
0 13 1 1 0 16 1 1 0 18 1 1 0 21 1 2 
0 25 1 1 0 28 1 2 0 35 1 2 0 38 1 3 
0 45 1 3 0 53 1 3 0 62 1 3 0 73 1 4 
0 84 1 4 0 99 1 4 0 111 1 5 0 129 1 6 
0 156 1 7 0 166 1 9 0 200 1 10 0 173 1 3 
0 115 1 4 0 88 1 4 0 63 1 3 0 46 1 2 
0 27 1 2 0 13 1 1 0 1 0 -1 1 -1 0 -12 
1 -1 0 -21 1 -2 0 -31 1 -3 0 -36 1 -3 0 -45 
1 -3 0 -50 1 -4 0 -49 1 -4 0 -56 1 -4 0 -53 
1 -4 0 -54 1 -4 0 -49 1 -5 0 -53 1 -4 0 -44 
1 -4 0 -42 1 -4 0 -38 1 -4 0 -29 1 -4 0 -27 
1 -3 0 -22 1 -2 0 -17 1 -1 0 -12 1 -1 0 -5 
1 -1 0 -1 1 1 0 4 1 1 0 8 1 2 0 13 
1 1 0 17 1 2 0 22 1 2 0 23 1 3 0 29 
1 3 0 28 1 3 0 34 1 3 0 36 1 3 0 37 
1 4 0 37 1 3 0 38 1 3 0 41 1 4 0 36 
1 3 0 38 1 4 0 36 1 3 0 30 1 3 0 31 
1 2 0 27 1 2 0 23 1 1 0 18 1 1 0 11 
1 1 0 4 1 1 0 -2 1 -1 0 -10 1 -2 0 -19 
1 -2 0 -29 1 -4 0 -35 1 -4 0 -48 1 -6 0 -57 
1 -6 0 -67 1 -7 0 -82 1 -8 0 -84 1 -9 0 -99 
1 -9 0 -119 1 -8 4688 2124 300 MP stroke
0 -118 1 -8 0 -130 1 -7 0 -138 1 -6 0 -137 1 -5 
0 -149 1 -4 0 -141 1 -4 0 -131 1 -2 0 -114 1 -1 
0 -64 1 -1 0 10 1 1 0 11 1 1 0 14 1 1 
0 16 1 1 0 18 1 1 0 23 1 2 0 25 1 2 
0 30 1 2 0 33 1 2 0 42 1 2 0 47 1 2 
0 57 1 3 0 64 1 3 0 75 1 4 0 87 1 4 
0 102 1 5 0 114 1 5 0 140 1 7 0 152 1 8 
0 180 1 10 0 203 1 1 0 153 1 4 0 104 1 4 
0 80 1 3 0 60 1 3 0 38 1 3 0 22 1 1 
0 9 1 1 0 -4 1 -1 0 -15 1 -2 0 -23 1 -2 
0 -34 1 -3 0 -38 1 -3 0 -47 1 -3 0 -47 1 -4 
0 -54 1 -4 0 -52 1 -4 0 -57 1 -4 0 -54 1 -4 
0 -49 1 -4 0 -49 1 -4 0 -44 1 -4 0 -42 1 -4 
0 -33 1 -4 0 -33 1 -3 0 -25 1 -3 0 -20 1 -2 
0 -15 1 -2 0 -9 1 -1 0 -4 1 -1 1 1 0 5 
1 1 0 10 1 1 0 14 1 2 0 19 1 2 0 21 
1 3 0 26 1 3 0 26 1 3 0 32 1 4 0 34 
1 3 0 36 1 4 0 36 1 4 0 37 1 4 0 37 
1 4 0 40 1 4 0 35 1 4 0 38 1 3 0 36 
1 3 0 32 1 3 0 30 1 2 0 26 1 2 0 21 
1 2 0 16 1 1 0 9 1 1 0 2 1 1 0 -4 
1 -1 0 -13 1 -1 0 -22 1 -3 0 -28 1 -4 0 -40 
1 -5 0 -50 1 -5 0 -59 1 -6 0 -74 1 -7 0 -77 
1 -8 0 -93 1 -9 0 -106 1 -8 0 -108 1 -8 0 -123 
1 -8 0 -134 1 -7 0 -138 1 -6 0 -142 1 -5 0 -143 
1 -4 0 -141 1 -4 0 -127 1 -2 0 -104 1 -1 0 -38 
0 2 1 1 0 10 1 1 0 12 1 1 0 14 1 1 
0 16 1 1 0 20 1 1 0 22 1 2 0 25 1 2 
0 31 1 1 0 36 1 3 0 42 1 2 0 50 1 3 
0 58 1 3 0 65 1 3 0 81 1 4 0 90 1 4 
0 106 1 5 0 118 1 6 0 142 1 5 0 161 1 8 
0 184 1 10 0 197 1 2 0 136 1 4 0 94 1 4 
0 74 1 3 0 50 1 3 0 35 1 1 0 19 1 1 
0 5 1 1 0 -7 1 -1 0 -18 1 -2 0 -26 1 -2 
0 -36 1 -3 0 -43 1 -3 0 -44 1 -4 0 -51 1 -4 
0 -55 1 -4 0 -52 1 -4 0 -53 1 -5 0 -53 1 -4 
0 -49 1 -4 0 -48 1 -4 0 -43 1 -4 0 -42 1 -4 
0 -33 1 -4 0 -28 4539 2042 300 MP stroke
1 -3 0 -24 1 -3 0 -18 1 -2 0 -14 1 -1 0 -9 
1 -1 1 -3 -1 0 2 2 0 7 1 1 0 10 1 2 
0 16 1 2 0 18 1 3 0 24 1 2 0 25 1 3 
0 30 1 3 0 33 1 3 0 31 1 4 0 36 1 3 
0 37 1 4 0 41 1 3 0 38 1 3 0 40 1 4 
0 35 1 4 0 37 1 3 0 35 1 3 0 33 1 2 
0 29 1 3 0 24 1 2 0 20 1 2 0 15 1 1 
0 8 1 1 0 2 1 -1 0 -6 1 -1 0 -14 1 -2 
0 -24 1 -3 0 -30 1 -3 0 -42 1 -4 0 -56 1 -6 
0 -60 1 -6 0 -75 1 -8 0 -84 1 -9 0 -94 1 -9 
0 -103 1 -9 0 -113 1 -8 0 -127 1 -7 0 -130 1 -7 
0 -145 1 -5 0 -139 1 -5 0 -144 1 -4 0 -138 1 -3 
0 -121 1 -2 0 -91 1 -1 0 -16 0 5 1 1 0 10 
1 1 0 12 1 1 0 15 1 1 0 16 1 2 0 20 
1 1 0 22 1 1 0 28 1 2 0 31 1 2 0 37 
1 2 0 45 1 3 0 51 1 2 0 60 1 3 0 70 
1 3 0 79 1 4 0 92 1 5 0 108 1 6 0 127 
1 7 0 142 1 6 0 168 1 8 0 197 1 10 0 174 
1 3 0 120 1 4 0 91 1 4 0 63 1 4 0 46 
1 2 0 30 1 2 0 14 1 1 0 2 1 -1 0 -11 
1 -1 0 -20 1 -2 0 -31 1 -2 0 -35 1 -3 0 -44 
1 -4 0 -49 1 -3 0 -49 1 -4 0 -55 1 -4 0 -52 
1 -4 0 -54 1 -4 0 -53 1 -4 0 -49 1 -4 0 -48 
1 -3 0 -43 1 -4 0 -38 1 -3 0 -33 1 -4 0 -27 
1 -3 0 -24 1 -3 0 -17 1 -2 0 -11 1 -2 0 -7 
2 -2 0 3 1 1 0 7 1 1 0 14 1 1 0 16 
1 2 0 19 1 2 0 25 1 3 0 28 1 3 0 27 
1 4 0 33 1 3 0 35 1 4 0 36 1 3 0 37 
1 4 0 37 1 4 0 41 1 3 0 37 1 3 0 39 
1 3 0 37 1 4 0 34 1 3 0 31 1 3 0 28 
1 3 0 23 1 2 0 20 1 1 0 14 1 1 0 7 
2 0 0 -8 1 -1 0 -16 1 -2 0 -26 1 -3 0 -34 
1 -4 0 -43 1 -5 0 -57 1 -6 0 -61 1 -6 0 -76 
1 -7 0 -85 1 -8 0 -103 1 -9 0 -102 1 -8 0 -118 
1 -8 0 -131 1 -7 0 -132 1 -6 0 -144 1 -5 0 -141 
1 -4 0 -144 1 -4 0 -133 1 -3 0 -114 1 -1 0 -73 
1 -1 0 -2 0 7 1 1 0 11 1 1 0 12 1 1 
0 16 1 1 0 16 4388 3224 300 MP stroke
1 2 0 20 1 1 0 24 1 2 0 28 1 2 0 31 
1 2 0 40 1 2 0 44 1 2 0 52 1 3 0 63 
1 3 0 71 1 4 0 85 1 4 0 95 1 5 0 112 
1 6 0 131 1 7 0 150 1 7 0 167 1 9 0 199 
1 9 0 160 1 4 0 108 1 4 0 82 1 4 0 57 
1 3 0 42 1 2 0 24 1 1 0 9 1 1 0 1 
0 -2 1 -1 0 -15 1 -1 0 -22 1 -2 0 -33 1 -3 
0 -37 1 -3 0 -45 1 -4 0 -49 1 -4 0 -53 1 -4 
0 -52 1 -4 0 -52 1 -4 0 -54 1 -4 0 -53 1 -4 
0 -48 1 -4 0 -47 1 -4 0 -42 1 -4 0 -37 1 -4 
0 -29 1 -3 0 -28 1 -3 0 -20 1 -3 0 -15 1 -2 
0 -10 1 -1 0 -6 1 -1 0 -1 1 1 0 3 1 1 
0 9 1 1 0 15 1 1 0 17 1 2 0 22 1 3 
0 23 1 3 0 28 1 3 0 32 1 3 0 30 1 4 
0 35 1 4 0 36 1 4 0 40 1 4 0 37 1 4 
0 40 1 4 0 36 1 4 0 38 1 3 0 37 1 3 
0 34 1 3 0 31 1 2 0 27 1 3 0 23 1 2 
0 18 1 1 0 12 1 1 0 5 1 1 0 1 0 -2 
1 -1 0 -9 1 -1 0 -18 1 -2 0 -27 1 -3 0 -36 
1 -4 0 -49 1 -5 0 -58 1 -6 0 -68 1 -6 0 -77 
1 -8 0 -86 1 -8 0 -103 1 -8 0 -108 1 -8 0 -123 
1 -7 0 -127 1 -7 0 -133 1 -6 0 -142 1 -6 0 -145 
1 -4 0 -139 1 -4 0 -128 1 -3 0 -106 1 -1 0 -48 
0 2 1 1 0 8 1 1 0 11 1 1 0 12 1 1 
0 15 1 2 0 17 1 1 0 21 1 2 0 24 1 2 
0 28 1 2 0 34 1 2 0 38 1 2 0 47 1 3 
0 55 1 3 0 61 1 4 0 75 1 4 0 87 1 4 
0 98 1 5 0 115 1 6 0 135 1 7 0 158 1 8 
0 179 1 9 0 201 1 2 0 138 1 4 0 100 1 3 
0 73 1 4 0 53 1 3 0 34 1 2 0 20 1 1 
0 5 1 1 0 -6 1 -1 0 -16 1 -1 0 -27 1 -2 
0 -35 1 -3 0 -39 1 -3 0 -47 1 -3 0 -51 1 -4 
0 -49 1 -4 0 -56 1 -4 0 -53 1 -4 0 -53 1 -4 
0 -53 1 -4 0 -47 1 -4 0 -43 1 -4 0 -42 1 -3 
0 -33 1 -4 0 -32 1 -3 0 -26 1 -3 0 -19 1 -2 
0 -14 1 -1 0 -10 1 -1 0 -4 1 -1 1 1 0 6 
1 1 0 10 1 1 0 14 1 2 0 19 1 2 0 21 
1 2 0 27 1 2 4239 2069 300 MP stroke
0 30 1 3 0 32 1 3 0 31 1 3 0 36 1 3 
0 40 1 4 0 37 1 4 0 37 1 4 0 40 1 4 
0 39 1 4 0 37 1 4 0 36 1 3 0 33 1 3 
0 30 1 2 0 27 1 2 0 22 1 2 0 17 1 1 
0 11 1 1 0 3 1 1 0 -3 1 -1 0 -11 1 -1 
0 -20 1 -2 0 -28 1 -4 0 -40 1 -4 0 -51 1 -5 
0 -59 1 -6 0 -69 1 -7 0 -77 1 -7 0 -94 1 -9 
0 -101 1 -9 0 -113 1 -8 0 -119 1 -7 0 -130 1 -7 
0 -139 1 -6 0 -140 1 -5 0 -141 1 -4 0 -138 1 -4 
0 -125 1 -2 0 -95 1 -1 0 -23 0 4 1 1 0 8 
1 1 0 12 1 1 0 12 1 1 0 16 1 1 0 18 
1 2 0 20 1 2 0 24 1 2 0 31 1 1 0 35 
1 2 0 40 1 3 0 48 1 2 0 56 1 3 0 66 
1 3 0 74 1 3 0 90 1 4 0 106 1 5 0 118 
1 6 0 145 1 6 0 161 1 7 0 183 1 9 0 188 
1 3 0 125 1 4 0 89 1 3 0 67 1 3 0 47 
1 3 0 31 1 1 0 16 1 1 0 1 1 1 0 -9 
1 -1 0 -21 1 -1 0 -28 1 -2 0 -37 1 -3 0 -43 
1 -3 0 -45 1 -3 0 -52 1 -3 0 -55 1 -4 0 -51 
1 -4 0 -53 1 -4 0 -53 1 -4 0 -52 1 -4 0 -48 
1 -4 0 -42 1 -4 0 -37 1 -4 0 -36 1 -3 0 -27 
1 -3 0 -25 1 -3 0 -19 1 -2 0 -12 1 -2 0 -8 
1 -1 1 -3 -1 0 2 2 0 7 1 1 0 11 1 1 
0 16 1 2 0 18 1 3 0 24 1 2 0 27 1 3 
0 27 1 3 0 33 1 3 0 34 1 4 0 35 1 4 
0 40 1 4 0 37 1 4 0 37 1 4 0 40 1 3 
0 40 1 3 0 37 1 4 0 35 1 3 0 33 1 3 
0 32 1 2 0 25 1 3 0 20 1 2 0 16 1 1 
0 9 1 1 0 2 1 1 0 -4 1 -1 0 -14 1 -2 
0 -22 1 -2 0 -30 1 -3 0 -42 1 -4 0 -51 1 -5 
0 -60 1 -6 0 -75 1 -7 0 -85 1 -7 0 -87 1 -8 
0 -109 1 -8 0 -110 1 -8 0 -124 1 -7 0 -132 1 -6 
0 -140 1 -5 0 -142 1 -5 0 -142 1 -3 0 -135 1 -3 
0 -119 1 -2 0 -79 1 -1 0 -6 0 7 1 1 0 9 
1 1 0 11 1 1 0 13 1 1 0 15 1 1 0 19 
1 1 0 22 1 2 0 25 1 1 0 31 1 2 0 35 
1 2 0 43 1 3 0 48 1 3 0 57 1 2 0 67 
1 3 0 82 1 4 4090 2786 300 MP stroke
0 92 1 5 0 109 1 5 0 122 1 6 0 143 1 7 
0 167 1 8 0 202 1 9 0 160 1 3 0 112 1 3 
0 81 1 4 0 60 1 3 0 42 1 3 0 25 1 1 
0 11 1 1 0 1 0 -2 1 -1 0 -12 1 -1 0 -23 
1 -2 0 -29 1 -3 0 -38 1 -3 0 -45 1 -3 0 -49 
1 -4 0 -48 1 -4 0 -54 1 -4 0 -52 1 -4 0 -57 
1 -4 0 -48 1 -4 0 -52 1 -4 0 -47 1 -4 0 -42 
1 -3 0 -37 1 -4 0 -32 1 -3 0 -29 1 -3 0 -22 
1 -3 0 -15 1 -2 0 -13 1 -1 0 -7 1 -1 1 -1 
0 2 1 1 0 8 1 1 0 13 1 2 0 15 1 2 
0 21 1 3 0 22 1 2 0 28 1 3 0 30 1 4 
0 33 1 3 0 35 1 3 0 36 1 4 0 36 1 4 
0 41 1 4 0 36 1 4 0 40 1 4 0 38 1 4 
0 37 1 3 0 35 1 3 0 35 1 3 0 28 1 3 
0 24 1 2 0 21 1 1 0 16 1 1 0 8 1 1 
1 1 0 -7 1 -1 0 -14 1 -2 0 -24 1 -3 0 -31 
1 -3 0 -43 1 -4 0 -57 1 -5 0 -61 1 -6 0 -75 
1 -7 0 -85 1 -7 0 -95 1 -8 0 -107 1 -8 0 -115 
1 -8 0 -127 1 -6 0 -134 1 -6 0 -138 1 -5 0 -143 
1 -4 0 -142 1 -3 0 -129 1 -3 0 -109 1 -2 0 -57 
1 1 0 8 1 1 0 8 1 1 0 12 1 1 0 14 
1 1 0 16 1 1 0 18 1 2 0 22 1 1 0 27 
1 2 0 29 1 2 0 37 1 2 0 44 1 3 0 49 
1 2 0 61 1 3 0 71 1 3 0 80 1 4 0 94 
1 5 0 111 1 5 0 131 1 7 0 149 1 7 0 173 
1 8 0 204 1 2 0 142 1 3 0 101 1 3 0 76 
1 3 0 54 1 3 0 36 1 2 0 22 1 1 0 7 
1 1 0 -5 1 -1 0 -16 1 -1 0 -24 1 -2 0 -33 
1 -3 0 -40 1 -4 0 -42 1 -3 0 -50 1 -4 0 -52 
1 -4 0 -55 1 -4 0 -52 1 -4 0 -52 1 -4 0 -52 
1 -4 0 -48 1 -4 0 -46 1 -4 0 -41 1 -4 0 -36 
1 -3 0 -32 1 -3 0 -26 1 -3 0 -21 1 -2 0 -15 
1 -1 0 -12 1 -1 0 -6 2 0 0 4 1 1 0 9 
1 1 0 13 1 1 0 18 1 2 0 20 1 3 0 25 
1 3 0 28 1 3 0 31 1 3 0 34 1 3 0 35 
1 3 0 37 1 3 0 37 1 4 0 40 1 4 0 40 
1 4 0 40 1 3 0 39 1 3 0 37 1 3 0 34 
1 3 0 31 1 3 3939 1638 300 MP stroke
0 30 1 3 0 23 1 2 0 19 1 2 0 13 1 1 
0 8 2 0 0 -8 1 -1 0 -16 1 -2 0 -26 1 -3 
0 -35 1 -3 0 -44 1 -4 0 -58 1 -5 0 -67 1 -6 
0 -76 1 -7 0 -85 1 -8 0 -94 1 -8 0 -113 1 -8 
0 -119 1 -7 0 -123 1 -6 0 -140 1 -6 0 -136 1 -5 
0 -143 1 -4 0 -136 1 -3 0 -126 1 -2 0 -101 1 -1 
0 -31 0 2 1 1 0 8 1 1 0 9 1 1 0 12 
1 1 0 14 1 1 0 16 1 1 0 19 1 1 0 24 
1 1 0 27 1 2 0 31 1 2 0 36 1 2 0 44 
1 2 0 52 1 3 0 61 1 3 0 72 1 3 0 85 
1 4 0 101 1 5 0 114 1 6 0 136 1 5 0 156 
1 7 0 184 1 8 0 187 1 3 0 124 1 4 0 94 
1 3 0 66 1 3 0 50 1 3 0 31 1 2 0 16 
1 1 0 3 1 1 0 -8 1 -1 0 -19 1 -2 0 -26 
1 -2 0 -35 1 -3 0 -42 1 -3 0 -47 1 -3 0 -47 
1 -4 0 -53 1 -4 0 -54 1 -4 0 -52 1 -4 0 -52 
1 -4 0 -52 1 -4 0 -47 1 -4 0 -45 1 -4 0 -41 
1 -3 0 -33 1 -3 0 -30 1 -3 0 -26 1 -2 0 -20 
1 -2 0 -15 1 -2 0 -9 1 -1 0 -4 1 -1 1 1 
0 5 1 1 0 10 1 1 0 15 1 1 0 18 1 2 
0 22 1 3 0 26 1 2 0 29 1 3 0 32 1 3 
0 34 1 3 0 35 1 4 0 36 1 4 0 40 1 4 
0 37 1 3 0 41 1 3 0 40 1 3 0 38 1 4 
0 39 1 3 0 34 1 3 0 30 1 3 0 30 1 2 
0 23 1 2 0 18 1 1 0 14 1 1 0 4 1 1 
0 1 0 -1 1 -1 0 -10 1 -1 0 -19 1 -2 0 -27 
1 -3 0 -36 1 -4 0 -49 1 -4 0 -53 1 -5 0 -73 
1 -6 0 -76 1 -7 0 -92 1 -8 0 -94 1 -8 0 -110 
1 -8 0 -123 1 -7 0 -125 1 -6 0 -140 1 -5 0 -138 
1 -5 0 -140 1 -3 0 -137 1 -3 0 -120 1 -2 0 -86 
1 -1 0 -11 0 5 1 1 0 8 1 1 0 9 1 1 
0 11 1 1 0 14 1 1 0 17 1 1 0 19 1 2 
0 24 1 1 0 27 1 2 0 32 1 1 0 38 1 2 
0 45 1 2 0 55 1 3 0 62 1 3 0 76 1 4 
0 87 1 4 0 99 1 4 0 122 1 6 0 138 1 6 
0 166 1 7 0 186 1 8 0 169 1 3 0 113 1 4 
0 83 1 3 0 63 1 3 0 43 1 2 0 28 1 1 
0 12 1 1 0 2 3790 1475 300 MP stroke
0 -1 1 -1 0 -11 1 -1 0 -20 1 -2 0 -30 1 -2 
0 -38 1 -3 0 -43 1 -3 0 -47 1 -4 0 -47 1 -4 
0 -53 1 -4 0 -55 1 -4 0 -52 1 -4 0 -51 1 -4 
0 -52 1 -3 0 -47 1 -4 0 -41 1 -4 0 -40 1 -3 
0 -35 1 -4 0 -26 1 -3 0 -24 1 -2 0 -19 1 -2 
0 -14 1 -1 0 -8 1 -1 1 -3 -1 0 2 2 0 6 
1 1 0 11 1 1 0 14 1 2 0 20 1 2 0 23 
1 3 0 24 1 2 0 30 1 3 0 31 1 4 0 37 
1 3 0 35 1 4 0 36 1 4 0 40 1 4 0 40 
1 4 0 40 1 4 0 39 1 3 0 38 1 3 0 36 
1 3 0 36 1 3 0 30 1 2 0 29 1 2 0 22 
1 2 0 17 1 2 0 12 1 1 0 4 1 1 0 -3 
1 -1 0 -10 1 -2 0 -19 1 -2 0 -28 1 -3 0 -40 
1 -3 0 -50 1 -4 0 -58 1 -6 0 -72 1 -6 0 -76 
1 -7 0 -92 1 -7 0 -101 1 -8 0 -115 1 -7 0 -120 
1 -6 0 -133 1 -6 0 -138 1 -6 0 -138 1 -5 0 -136 
1 -3 0 -133 1 -3 0 -114 1 -1 0 -66 1 -1 0 7 
1 1 0 8 1 1 0 10 1 1 0 11 1 1 0 14 
1 1 0 17 1 1 0 20 1 1 0 23 1 1 0 29 
1 2 0 32 1 2 0 40 1 2 0 45 1 2 0 56 
1 3 0 65 1 3 0 74 1 3 0 93 1 4 0 105 
1 5 0 125 1 5 0 142 1 7 0 170 1 7 0 199 
1 2 0 146 1 3 0 104 1 3 0 74 1 4 0 56 
1 3 0 37 1 2 0 23 1 1 0 8 1 1 0 -3 
1 -1 0 -14 1 -1 0 -22 1 -2 0 -32 1 -3 0 -38 
1 -3 0 -44 1 -4 0 -48 1 -3 0 -52 1 -4 0 -53 
1 -4 0 -51 1 -4 0 -51 1 -4 0 -55 1 -4 0 -47 
1 -4 0 -46 1 -3 0 -41 1 -4 0 -39 1 -4 0 -31 
1 -3 0 -28 1 -2 0 -23 1 -2 0 -18 1 -1 0 -13 
1 -1 0 -6 1 -1 0 -1 1 -1 0 2 1 1 0 7 
1 1 0 12 1 1 0 15 1 2 0 21 1 2 0 24 
1 2 0 28 1 2 0 30 1 3 0 33 1 3 0 34 
1 3 0 36 1 3 0 40 1 4 0 40 1 4 0 36 
1 4 0 40 1 3 0 43 1 3 0 37 1 3 0 36 
1 3 0 35 1 3 0 30 1 2 0 28 1 2 0 22 
1 1 0 18 1 1 0 10 1 1 0 3 1 1 0 -4 
1 -1 0 -12 1 -1 0 -21 1 -2 0 -32 1 -3 0 -40 
1 -4 0 -50 1 -4 3640 1779 300 MP stroke
0 -64 1 -5 0 -67 1 -6 0 -88 1 -7 0 -92 1 -7 
0 -100 1 -8 0 -119 1 -7 0 -122 1 -6 0 -128 1 -5 
0 -137 1 -5 0 -140 1 -4 0 -139 1 -3 0 -126 1 -3 
0 -104 1 -1 0 -40 0 1 1 1 0 7 1 1 0 8 
1 1 0 10 1 1 0 11 1 1 0 14 1 1 0 17 
1 1 0 20 1 1 0 24 1 2 0 27 1 2 0 33 
1 2 0 41 1 2 0 47 1 3 0 56 1 2 0 67 
1 3 0 81 1 3 0 90 1 4 0 112 1 5 0 128 
1 2 0 150 1 7 0 180 1 8 0 189 1 2 0 128 
1 3 0 94 1 4 0 68 1 3 0 50 1 3 0 32 
1 2 0 18 1 1 0 4 1 1 0 -6 1 -1 0 -17 
1 -1 0 -26 1 -2 0 -34 1 -3 0 -37 1 -3 0 -45 
1 -3 0 -49 1 -4 0 -51 1 -4 0 -54 1 -4 0 -54 
1 -4 0 -51 1 -4 0 -51 1 -4 0 -46 1 -3 0 -45 
1 -4 0 -40 1 -4 0 -39 1 -3 0 -30 1 -4 0 -26 
1 -2 0 -21 1 -2 0 -17 1 -1 0 -11 1 -1 0 -5 
1 -1 0 -2 1 1 0 3 1 1 0 9 1 1 0 12 
1 1 0 18 1 2 0 19 1 2 0 25 1 2 0 28 
1 3 0 30 1 3 0 33 1 3 0 34 1 3 0 39 
1 4 0 40 1 3 0 37 1 4 0 40 1 3 0 43 
1 4 0 38 1 4 0 36 1 4 0 37 1 3 0 32 
1 3 0 32 1 2 0 27 1 2 0 21 1 1 0 17 
1 1 0 9 1 1 0 1 1 1 0 -5 1 -1 0 -13 
1 -2 0 -23 1 -2 0 -33 1 -3 0 -41 1 -4 0 -54 
1 -5 0 -59 1 -5 0 -78 1 -6 0 -82 1 -7 0 -98 
1 -7 0 -99 1 -8 0 -115 1 -7 0 -125 1 -6 0 -134 
1 -5 0 -139 1 -5 0 -136 1 -4 0 -135 1 -3 0 -123 
1 -2 0 -92 1 -1 0 -18 0 3 1 1 0 7 1 1 
0 8 1 1 0 10 1 1 0 11 1 1 0 15 1 1 
0 17 1 1 0 20 1 1 0 24 1 2 0 28 1 2 
0 34 1 2 0 41 1 2 0 50 1 3 0 56 1 3 
0 70 1 3 0 79 1 3 0 96 1 4 0 114 1 5 
0 136 1 5 0 155 1 6 0 183 1 8 0 174 1 3 
0 113 1 4 0 84 1 3 0 66 1 3 0 43 1 2 
0 29 1 1 0 14 1 1 0 1 1 1 0 -10 1 -1 
0 -19 1 -2 0 -26 1 -2 0 -35 1 -3 0 -41 1 -3 
0 -46 1 -3 0 -50 1 -3 0 -52 1 -4 0 -53 1 -4 
0 -54 1 -4 0 -51 3492 2026 300 MP stroke
1 -4 0 -50 1 -3 0 -46 1 -4 0 -44 1 -3 0 -40 
1 -3 0 -35 1 -3 0 -29 1 -3 0 -25 1 -2 0 -20 
1 -2 0 -15 1 -1 0 -10 1 -1 0 -4 2 0 0 5 
1 1 0 9 1 1 0 13 1 2 0 18 1 2 0 22 
1 2 0 26 1 2 0 29 1 3 0 31 1 3 0 33 
1 3 0 34 1 4 0 39 1 4 0 40 1 3 0 40 
1 4 0 40 1 4 0 39 1 3 0 38 1 4 0 40 
1 3 0 37 1 3 0 31 1 3 0 31 1 2 0 24 
1 2 0 22 1 1 0 15 1 1 0 8 1 1 1 1 
0 -7 1 -1 0 -15 1 -1 0 -25 1 -2 0 -34 1 -3 
0 -46 1 -4 0 -55 1 -5 0 -64 1 -6 0 -73 1 -6 
0 -89 1 -7 0 -99 1 -8 0 -105 1 -7 0 -119 1 -7 
0 -126 1 -6 0 -132 1 -5 0 -136 1 -4 0 -137 1 -4 
0 -134 1 -3 0 -113 1 -2 0 -76 1 -1 0 -2 0 5 
1 1 0 7 1 1 0 8 1 1 0 10 1 1 0 13 
1 1 0 15 1 1 0 17 1 1 0 21 1 1 0 26 
1 2 0 29 1 2 0 37 1 2 0 41 1 3 0 51 
1 3 0 58 1 3 0 72 1 3 0 88 1 4 0 100 
1 5 0 114 1 6 0 143 1 6 0 164 1 7 0 189 
1 8 0 151 1 3 0 104 1 4 0 77 1 3 0 58 
1 2 0 41 1 2 0 26 1 1 0 10 1 1 0 1 
0 -1 1 -1 0 -12 1 -1 0 -22 1 -2 0 -27 1 -3 
0 -36 1 -3 0 -42 1 -3 0 -46 1 -4 0 -49 1 -4 
0 -51 1 -4 0 -53 1 -4 0 -50 1 -4 0 -49 1 -4 
0 -49 1 -4 0 -44 1 -4 0 -43 1 -4 0 -38 1 -3 
0 -30 1 -3 0 -28 1 -3 0 -22 1 -2 0 -18 1 -1 
0 -13 1 -1 0 -7 1 -1 0 -2 1 -1 0 2 1 1 
0 8 1 1 0 11 1 1 0 17 1 2 0 20 1 3 
0 21 1 3 0 27 1 3 0 30 1 3 0 33 1 3 
0 38 1 3 0 36 1 4 0 40 1 4 0 41 1 4 
0 41 1 3 0 41 1 3 0 40 1 4 0 41 1 4 
0 36 1 3 0 37 1 3 0 31 1 2 0 30 1 2 
0 25 1 2 0 18 1 1 0 12 1 1 1 6 -1 0 
2 -2 0 -10 1 -2 0 -20 1 -2 0 -28 1 -2 0 -39 
1 -4 0 -48 1 -5 0 -57 1 -5 0 -72 1 -6 0 -82 
1 -6 0 -92 1 -7 0 -101 1 -8 0 -111 1 -7 0 -123 
1 -7 0 -128 1 -6 0 -139 1 -4 0 -138 1 -4 0 -138 
1 -3 0 -130 1 -2 3341 3151 300 MP stroke
0 -106 1 -1 0 -49 0 1 1 1 0 7 1 1 0 9 
1 1 0 11 1 1 0 12 1 1 0 15 1 1 0 19 
1 2 0 21 1 2 0 25 1 2 0 30 1 2 0 37 
1 2 0 43 1 2 0 51 1 2 0 60 1 3 0 71 
1 3 0 80 1 3 0 98 1 4 0 117 1 5 0 132 
1 7 0 154 1 7 0 180 1 8 0 198 1 2 0 140 
1 4 0 101 1 4 0 75 1 4 0 56 1 3 0 39 
1 2 0 23 1 1 0 10 1 1 0 -2 1 -1 0 -12 
1 -1 0 -23 1 -2 0 -31 1 -2 0 -35 1 -3 0 -43 
1 -3 0 -47 1 -3 0 -50 1 -3 0 -48 1 -4 0 -53 
1 -4 0 -49 1 -4 0 -45 1 -4 0 -44 1 -4 0 -43 
1 -3 0 -38 1 -3 0 -30 1 -3 0 -28 1 -3 0 -21 
1 -2 0 -18 1 -2 0 -11 1 -1 0 -6 1 -1 0 -1 
1 1 0 3 1 1 0 9 1 1 0 14 1 1 0 17 
1 2 0 23 1 3 0 24 1 2 0 30 1 3 0 33 
1 3 0 35 1 4 0 37 1 3 0 39 1 3 0 40 
1 4 0 39 1 4 0 43 1 4 0 39 1 4 0 41 
1 4 0 39 1 4 0 37 1 3 0 35 1 2 0 31 
1 3 0 27 1 2 0 22 1 1 0 17 1 1 0 9 
1 1 0 2 1 1 0 -6 1 -1 0 -13 1 -2 0 -21 
1 -3 0 -31 1 -4 0 -46 1 -5 0 -51 1 -6 0 -60 
1 -7 0 -77 1 -9 0 -79 1 -9 0 -92 1 -9 0 -113 
1 -8 0 -114 1 -7 0 -129 1 -7 0 -131 1 -6 0 -141 
1 -6 0 -142 1 -5 0 -146 1 -4 0 -137 1 -3 0 -122 
1 -2 0 -94 1 -1 0 -21 0 6 1 1 0 13 1 1 
0 15 1 1 0 18 1 2 0 21 1 2 0 23 1 2 
0 28 1 2 0 33 1 2 0 39 1 3 0 43 1 3 
0 51 1 3 0 59 1 3 0 70 1 3 0 80 1 4 
0 89 1 5 0 102 1 6 0 120 1 6 0 140 1 7 
0 152 1 8 0 179 1 10 0 197 1 11 0 192 1 3 
0 134 1 4 0 97 1 4 0 77 1 3 0 51 1 3 
0 37 1 2 0 18 1 1 0 5 1 1 0 -7 1 -1 
0 -17 1 -2 0 -26 1 -2 0 -37 1 -2 0 -40 1 -4 
0 -44 1 -4 0 -52 1 -4 0 -50 1 -4 0 -53 1 -4 
0 -49 1 -4 0 -49 1 -4 0 -49 1 -4 0 -44 1 -4 
0 -38 1 -4 0 -34 1 -3 0 -30 1 -3 0 -26 1 -3 
0 -17 1 -3 0 -14 1 -2 0 -7 1 -1 1 -4 -1 0 
2 2 0 7 1 1 3192 1809 300 MP stroke
0 10 1 2 0 15 1 2 0 21 1 2 0 23 1 2 
0 25 1 3 0 28 1 3 0 30 1 4 0 35 1 4 
0 32 1 4 0 38 1 3 0 34 1 4 0 37 1 4 
0 36 1 4 0 35 1 4 0 33 1 3 0 31 1 3 
0 28 1 2 0 27 1 2 0 21 1 2 0 17 1 1 
0 10 1 1 0 4 1 1 0 -2 1 -1 0 -10 1 -2 
0 -19 1 -3 0 -26 1 -4 0 -38 1 -5 0 -40 1 -7 
0 -56 1 -10 0 -64 1 -12 0 -74 1 -12 0 -78 1 -11 
0 -101 1 -10 0 -113 1 -9 0 -116 1 -9 0 -125 1 -8 
0 -139 1 -7 0 -146 1 -7 0 -147 1 -5 0 -150 1 -4 
0 -145 1 -4 0 -134 1 -3 0 -115 1 -2 0 -74 1 -1 
0 -4 0 12 1 1 0 17 1 1 0 21 1 1 0 22 
1 2 0 26 1 2 0 31 1 2 0 34 1 2 0 40 
1 2 0 47 1 3 0 51 1 3 0 60 1 3 0 70 
1 4 0 77 1 4 0 89 1 5 0 102 1 6 0 118 
1 7 0 129 1 8 0 149 1 9 0 162 1 10 0 187 
1 12 0 215 1 14 0 166 1 4 0 124 1 4 0 91 
1 4 0 67 1 4 0 47 1 3 0 30 1 1 0 14 
1 1 0 2 0 -1 1 -1 0 -11 1 -1 0 -22 1 -2 
0 -30 1 -3 0 -37 1 -3 0 -43 1 -4 0 -49 1 -4 
0 -51 1 -4 0 -49 1 -5 0 -54 1 -5 0 -51 1 -4 
0 -47 1 -4 0 -50 1 -5 0 -41 1 -4 0 -36 1 -4 
0 -35 1 -4 0 -27 1 -4 0 -21 1 -6 0 -13 1 -3 
0 -13 1 -1 0 -6 1 -1 0 -1 1 -1 0 2 1 1 
0 8 1 1 0 11 1 2 0 15 1 2 0 20 1 2 
0 22 1 3 0 25 1 3 0 28 1 3 0 29 1 4 
0 31 1 3 0 32 1 4 0 32 1 3 0 36 1 4 
0 31 1 4 0 34 1 3 0 32 1 3 0 30 1 3 
0 27 1 2 0 24 1 2 0 20 1 2 0 15 1 1 
0 11 1 1 0 3 1 1 0 1 0 -2 1 -1 0 -9 
1 -2 0 -18 1 -2 0 -25 1 -3 0 -36 1 -4 0 -43 
1 -7 0 -49 1 -6 0 -65 1 -17 0 -69 1 -14 0 -75 
1 -12 0 -87 1 -11 0 -110 1 -10 0 -114 1 -9 0 -125 
1 -8 0 -133 1 -8 0 -145 1 -7 0 -144 1 -6 0 -154 
1 -6 0 -147 1 -4 0 -145 1 -3 0 -130 1 -2 0 -107 
1 -1 0 -51 0 1 1 1 0 17 1 1 0 19 1 1 
0 22 1 2 0 24 1 2 0 30 1 2 0 31 1 2 
0 39 1 2 0 43 3045 2981 300 MP stroke
1 2 0 50 1 3 0 58 1 3 0 64 1 3 0 73 
1 4 0 85 1 4 0 92 1 5 0 112 1 6 0 122 
1 7 0 132 1 8 0 161 1 10 0 164 1 11 0 200 
1 13 0 216 1 2 0 155 1 4 0 116 1 5 0 81 
1 4 0 61 1 3 0 43 1 2 0 24 1 1 0 10 
1 1 0 1 0 -4 1 -1 0 -14 1 -1 0 -25 1 -2 
0 -32 1 -3 0 -39 1 -4 0 -45 1 -3 0 -50 1 -4 
0 -52 1 -5 0 -50 1 -4 0 -55 1 -5 0 -47 1 -4 
0 -51 1 -5 0 -42 1 -4 0 -41 1 -4 0 -37 1 -4 
0 -31 1 -4 0 -28 1 -4 0 -19 1 -6 0 -13 1 -2 
0 -10 1 -1 0 -5 1 -1 1 0 0 4 1 1 0 8 
1 2 0 13 1 1 0 17 1 2 0 20 1 3 0 20 
1 3 0 26 1 3 0 27 1 4 0 29 1 4 0 30 
1 4 0 31 1 4 0 35 1 4 0 31 1 4 0 30 
1 4 0 32 1 3 0 31 1 3 0 25 1 3 0 25 
1 2 0 22 1 2 0 19 1 2 0 12 1 1 0 7 
1 1 0 1 1 -1 0 -5 1 -1 0 -13 1 -2 0 -20 
1 -2 0 -32 1 -2 0 -41 1 -5 0 -43 1 -7 0 -61 
1 -10 0 -53 1 -25 0 -64 1 -13 0 -95 1 -11 0 -96 
1 -10 0 -109 1 -10 0 -121 1 -9 0 -123 1 -9 0 -138 
1 -8 0 -149 1 -7 0 -145 1 -6 0 -152 1 -6 0 -147 
1 -4 0 -141 1 -4 0 -123 1 -2 0 -94 1 -1 0 -26 
0 6 1 1 0 18 1 2 0 21 1 1 0 24 1 2 
0 27 1 2 0 30 1 2 0 37 1 3 0 41 1 2 
0 46 1 2 0 56 1 3 0 62 1 3 0 69 1 4 
0 80 1 5 0 91 1 6 0 100 1 6 0 115 1 7 
0 132 1 8 0 143 1 9 0 165 1 11 0 189 1 12 
0 205 1 14 0 219 1 3 0 148 1 5 0 113 1 5 
0 90 1 5 0 65 1 4 0 54 1 3 0 35 1 2 
0 23 1 1 0 12 1 1 0 3 1 -1 0 -4 1 -1 
0 -11 1 -1 0 -16 1 -1 0 -19 2923 713 246 MP stroke
c9
1 -1 0 -1 1 -1 0 -3 2 -2 0 -3 2 -2 0 -3 
2 -2 0 -2 2 -2 1 -1 1 -1 1 -1 1 -1 1 0 
1 0 1 0 1 1 1 1 1 1 1 1 0 1 2 2 
1 1 0 2 2 2 0 2 2 2 0 2 2 2 0 2 
2 2 0 2 2 2 1 1 1 1 1 1 1 1 1 1 
1 0 1 -1 1 0 -1 0 2 -2 0 -1 2 -2 0 -2 
1 -1 0 -2 1 -1 0 -3 1 -1 0 -4 1 -1 0 -3 
1 -1 0 -5 1 -1 0 -5 1 -1 0 -5 1 -1 0 -6 
1 -1 0 -6 1 -1 0 -6 1 -1 0 -6 1 -1 0 -6 
1 -1 0 -6 1 -1 0 -4 1 -1 0 -2 1 -1 1 0 
1 0 1 1 1 1 1 1 1 1 0 1 2 2 0 2 
2 2 0 2 1 1 0 1 1 1 0 3 1 1 0 3 
1 1 0 3 1 1 0 5 1 1 0 5 1 1 0 6 
1 1 0 7 1 1 0 8 1 1 0 8 1 1 0 7 
1 1 0 5 1 1 0 4 1 1 0 2 1 1 0 2 
2 2 1 1 1 0 1 -1 1 -1 1 -1 0 -2 2 -2 
0 -2 1 -1 0 -1 1 -1 0 -2 1 -1 0 -3 2 -2 
0 -2 1 -1 0 -2 1 -1 0 -2 2 -2 0 -2 2 -2 
1 -1 1 -1 1 -1 1 -1 1 0 1 0 1 1 1 0 
1 1 1 1 0 1 2 2 0 1 2 2 0 2 2 2 
0 2 2 2 0 2 2 2 0 2 1 1 0 1 1 1 
0 1 1 1 0 1 2 2 1 1 1 1 1 1 1 0 
1 0 1 0 1 -1 0 -1 2 -2 0 -2 1 -1 0 -2 
1 -1 0 -2 1 -1 0 -3 1 -1 0 -4 1 -1 0 -4 
1 -1 0 -5 1 -1 0 -5 1 -1 0 -6 1 -1 0 -6 
1 -1 0 -7 1 -1 0 -6 1 -1 0 -6 1 -1 0 -7 
1 -1 0 -5 1 -1 0 -5 2 -2 1 0 1 1 1 0 
1 1 0 1 2 2 0 1 2 2 0 2 2 2 0 2 
1 1 0 2 1 1 0 3 1 1 0 3 1 1 0 4 
1 1 0 5 1 1 0 5 1 1 0 7 1 1 0 8 
1 1 0 8 1 1 0 9 1 1 0 6 1 1 0 5 
1 1 0 3 1 1 0 2 1 1 0 2 1 1 1 1 
1 1 1 0 1 -1 0 -1 2 -2 0 -2 2 -2 0 -2 
1 -1 0 -2 1 -1 0 -2 1 -1 0 -1 1 -1 0 -2 
1 -1 0 -2 1 -1 0 -2 1 -1 0 -2 2 -2 0 -2 
2 -2 1 -1 1 -1 1 -1 1 -1 1 0 1 0 1 1 
1 0 1 1 0 1 2 2 0 1 2 2 0 2 2 2 
0 2 2 2 0 2 4618 3266 300 MP stroke
1 1 0 1 1 1 0 2 2 2 0 2 2 2 0 2 
2 2 1 1 1 1 1 1 1 0 1 0 1 -1 1 -1 
0 -1 2 -2 0 -2 1 -1 0 -2 1 -1 0 -3 1 -1 
0 -3 1 -1 0 -5 1 -1 0 -4 1 -1 0 -5 1 -1 
0 -6 1 -1 0 -6 1 -1 0 -6 1 -1 0 -7 1 -1 
0 -7 1 -1 0 -7 1 -1 0 -6 1 -1 0 -5 1 -1 
0 -4 1 -1 1 -1 1 0 1 1 1 1 1 1 1 1 
1 1 0 2 2 2 0 2 2 2 0 2 1 1 0 3 
1 1 0 3 1 1 0 3 1 1 0 5 1 1 0 5 
1 1 0 6 1 1 0 7 1 1 0 9 1 1 0 9 
1 1 0 8 1 1 0 7 1 1 0 4 1 1 0 3 
1 1 0 3 2 2 1 1 1 1 1 -1 1 0 -1 0 
2 -2 0 -2 2 -2 0 -2 1 -1 0 -1 1 -1 0 -2 
1 -1 0 -2 1 -1 0 -2 1 -1 0 -2 1 -1 0 -2 
1 -1 0 -2 1 -1 0 -2 2 -2 0 -2 2 -2 1 -1 
1 -1 1 -1 1 -1 1 0 1 1 1 0 1 1 1 1 
0 1 2 2 0 1 2 2 0 2 2 2 0 2 1 1 
0 2 2 2 0 2 1 1 0 2 2 2 0 2 2 2 
0 2 2 2 1 1 1 1 1 1 1 0 1 0 1 -1 
1 -1 0 -2 2 -2 0 -2 1 -1 0 -2 1 -1 0 -4 
1 -1 0 -3 1 -1 0 -5 1 -1 0 -5 1 -1 0 -6 
1 -1 0 -6 1 -1 0 -6 1 -1 0 -7 1 -1 0 -7 
1 -1 0 -7 1 -1 0 -7 1 -1 0 -6 1 -1 0 -6 
1 -1 0 -2 1 -1 1 -1 1 0 1 1 1 1 0 1 
2 2 0 1 2 2 0 2 2 2 0 2 1 1 0 2 
1 1 0 3 1 1 0 3 1 1 0 4 1 1 0 5 
1 1 0 5 1 1 0 7 1 1 0 8 1 1 0 9 
1 1 0 10 1 1 0 8 1 1 0 6 1 1 0 4 
1 1 0 3 1 1 0 3 2 2 1 1 1 0 1 0 
-1 0 2 -2 0 -1 2 -2 0 -2 1 -1 0 -2 1 -1 
0 -2 1 -1 0 -1 1 -1 0 -3 1 -1 0 -2 1 -1 
0 -2 1 -1 0 -2 1 -1 0 -2 1 -1 0 -2 2 -2 
0 -2 2 -2 1 -1 1 -1 1 -1 1 0 1 0 1 0 
1 0 0 1 2 2 0 1 2 2 0 1 2 2 0 2 
1 1 0 2 2 2 0 2 1 1 0 1 1 1 0 2 
1 1 0 2 2 2 0 2 1 1 0 2 2 2 0 1 
2 2 1 1 1 0 1 0 1 0 1 -1 0 -1 2 -2 
0 -2 1 -1 0 -2 4409 3249 300 MP stroke
1 -1 0 -3 1 -1 0 -3 1 -1 0 -4 1 -1 0 -5 
1 -1 0 -5 1 -1 0 -7 1 -1 0 -6 1 -1 0 -7 
1 -1 0 -7 1 -1 0 -8 1 -1 0 -7 1 -1 0 -7 
1 -1 0 -7 1 -1 0 -5 1 -1 0 -2 1 -1 1 0 
1 1 1 1 1 1 1 1 1 1 0 2 2 2 0 2 
2 2 0 2 1 1 0 3 1 1 0 3 1 1 0 3 
1 1 0 5 1 1 0 5 1 1 0 6 1 1 0 8 
1 1 0 9 1 1 0 9 1 1 0 10 1 1 0 8 
1 1 0 6 1 1 0 4 1 1 0 3 1 1 0 2 
2 2 1 1 1 -1 1 0 -1 0 2 -2 1 -1 0 -3 
2 -2 0 -2 1 -1 0 -3 1 -1 0 -2 1 -1 0 -2 
1 -1 0 -2 1 -1 0 -2 1 -1 0 -3 1 -1 0 -1 
1 -1 0 -3 2 -2 0 -2 2 -2 1 -1 1 -1 1 -1 
1 0 1 0 1 0 1 1 1 1 0 1 2 2 0 2 
2 2 0 1 1 1 0 2 2 2 0 2 1 1 0 2 
1 1 0 1 1 1 0 3 2 2 0 2 1 1 0 2 
2 2 0 2 2 2 1 1 1 1 1 1 1 0 1 -1 
1 -1 0 -1 2 -2 0 -2 1 -1 0 -3 1 -1 0 -3 
1 -1 0 -4 1 -1 0 -5 1 -1 0 -5 1 -1 0 -5 
1 -1 0 -7 1 -1 0 -7 1 -1 0 -7 1 -1 0 -8 
1 -1 0 -8 1 -1 0 -8 1 -1 0 -7 1 -1 0 -7 
1 -1 0 -5 2 -2 1 0 1 1 1 1 1 1 1 1 
0 2 2 2 0 1 1 1 0 1 1 1 0 2 1 1 
0 2 1 1 0 2 1 1 0 4 1 1 0 4 1 1 
0 5 1 1 0 6 1 1 0 6 1 1 0 8 1 1 
0 10 1 1 0 11 1 1 0 10 1 1 0 7 1 1 
0 6 1 1 0 4 1 1 0 2 1 1 0 2 1 1 
1 1 1 0 1 0 1 -1 0 -1 2 -2 0 -2 1 -1 
0 -2 1 -1 0 -2 1 -1 0 -2 1 -1 0 -3 1 -1 
0 -2 1 -1 0 -3 1 -1 0 -2 1 -1 0 -2 1 -1 
0 -2 1 -1 0 -3 2 -2 0 -2 2 -2 1 -1 1 -1 
1 0 1 -1 1 0 1 1 1 1 1 1 1 1 0 2 
2 2 0 2 2 2 0 3 2 2 0 2 1 1 0 2 
1 1 0 2 1 1 0 1 1 1 0 2 1 1 0 2 
1 1 0 2 2 2 0 2 2 2 1 1 1 1 1 1 
1 0 1 -1 1 -1 0 -2 2 -2 0 -2 1 -1 0 -3 
1 -1 0 -4 1 -1 0 -4 1 -1 0 -5 1 -1 0 -6 
1 -1 0 -6 1 -1 4211 3273 300 MP stroke
0 -7 1 -1 0 -8 1 -1 0 -7 1 -1 0 -9 1 -1 
0 -8 1 -1 0 -8 1 -1 0 -8 1 -1 0 -6 1 -1 
0 -4 1 -1 1 -1 1 1 1 0 0 1 2 2 0 1 
2 2 0 1 2 2 0 2 1 1 0 2 1 1 0 2 
1 1 0 4 1 1 0 3 1 1 0 5 1 1 0 5 
1 1 0 6 1 1 0 8 1 1 0 9 1 1 0 11 
1 1 0 11 1 1 0 10 1 1 0 7 1 1 0 5 
1 1 0 4 1 1 0 3 2 2 1 1 1 1 1 -1 
1 -1 0 -2 2 -2 0 -2 1 -1 0 -2 1 -1 0 -3 
1 -1 0 -2 1 -1 0 -3 1 -1 0 -2 1 -1 0 -3 
1 -1 0 -2 1 -1 0 -3 1 -1 0 -3 2 -2 0 -2 
1 -1 0 -1 1 -1 0 -1 2 -2 1 -1 1 0 1 0 
1 0 1 1 1 1 0 1 2 2 0 1 2 2 0 3 
2 2 0 2 1 1 0 2 1 1 0 1 1 1 0 2 
1 1 0 2 1 1 0 2 1 1 0 2 1 1 0 2 
1 1 0 2 2 2 0 2 2 2 1 1 1 1 1 1 
1 0 1 -1 1 -1 0 -2 1 -1 0 -1 1 -1 0 -2 
1 -1 0 -4 1 -1 0 -4 1 -1 0 -4 1 -1 0 -6 
1 -1 0 -6 1 -1 0 -7 1 -1 0 -7 1 -1 0 -8 
1 -1 0 -9 1 -1 0 -8 1 -1 0 -9 1 -1 0 -9 
1 -1 0 -7 1 -1 0 -6 1 -1 0 -3 1 -1 1 -1 
1 1 1 1 1 1 0 1 2 2 1 1 0 2 2 2 
0 2 1 1 0 2 1 1 0 3 1 1 0 4 1 1 
0 4 1 1 0 5 1 1 0 6 1 1 0 7 1 1 
0 8 1 1 0 10 1 1 0 11 1 1 0 12 1 1 
0 10 1 1 0 7 1 1 0 5 1 1 0 3 1 1 
0 3 2 2 1 1 1 0 1 -1 0 -1 2 -2 0 -2 
1 -1 0 -2 1 -1 0 -2 1 -1 0 -3 1 -1 0 -3 
1 -1 0 -3 1 -1 0 -2 1 -1 0 -3 1 -1 0 -3 
1 -1 0 -2 1 -1 0 -2 1 -1 0 -3 2 -2 0 -2 
2 -2 1 -1 1 -1 1 0 1 0 1 0 1 1 1 1 
0 1 2 2 0 2 2 2 0 2 1 1 0 1 1 1 
0 2 1 1 0 2 1 1 0 2 1 1 0 2 1 1 
0 2 1 1 0 2 1 1 0 2 1 1 0 3 2 2 
0 2 1 1 0 2 2 2 1 1 1 1 1 0 1 0 
1 -1 1 -1 0 -2 1 -1 0 -2 1 -1 0 -2 1 -1 
0 -4 1 -1 0 -4 1 -1 0 -5 1 -1 0 -6 1 -1 
0 -7 1 -1 0 -7 4020 3269 300 MP stroke
1 -1 0 -8 1 -1 0 -9 1 -1 0 -9 1 -1 0 -9 
1 -1 0 -9 1 -1 0 -9 1 -1 0 -8 1 -1 0 -6 
1 -1 0 -2 1 -1 1 0 1 1 1 1 0 1 2 2 
1 1 0 2 2 2 0 2 1 1 0 2 1 1 0 2 
1 1 0 3 1 1 0 4 1 1 0 5 1 1 0 5 
1 1 0 7 1 1 0 7 1 1 0 10 1 1 0 11 
1 1 0 12 1 1 0 12 1 1 0 9 1 1 0 7 
1 1 0 4 1 1 0 4 1 1 0 2 1 1 1 1 
1 1 1 0 1 -1 0 -2 2 -2 0 -2 1 -1 0 -3 
1 -1 0 -2 1 -1 0 -3 1 -1 0 -3 1 -1 0 -3 
1 -1 0 -3 1 -1 0 -3 1 -1 0 -3 1 -1 0 -2 
1 -1 0 -2 1 -1 0 -2 1 -1 0 -3 2 -2 0 -1 
2 -2 1 0 1 -1 1 0 1 1 1 1 0 1 2 2 
0 1 1 1 0 1 1 1 0 1 1 1 0 2 1 1 
0 2 1 1 0 2 1 1 0 2 1 1 0 2 1 1 
0 2 1 1 0 2 1 1 0 3 1 1 0 2 1 1 
0 3 2 2 0 2 1 1 0 2 2 2 1 1 1 1 
1 0 1 0 1 -1 0 -2 2 -2 0 -3 1 -1 0 -3 
1 -1 0 -4 1 -1 0 -5 1 -1 0 -6 1 -1 0 -6 
1 -1 0 -7 1 -1 0 -8 1 -1 0 -9 1 -1 0 -9 
1 -1 0 -9 1 -1 0 -11 1 -1 0 -9 1 -1 0 -9 
1 -1 0 -8 1 -1 0 -6 2 -2 1 1 1 1 1 1 
1 1 0 1 2 2 0 2 2 2 0 2 1 1 0 2 
1 1 0 3 1 1 0 3 1 1 0 4 1 1 0 6 
1 1 0 6 1 1 0 7 1 1 0 9 1 1 0 10 
1 1 0 12 1 1 0 13 1 1 0 12 1 1 0 9 
1 1 0 6 1 1 0 5 1 1 0 3 1 1 0 2 
1 1 1 1 1 0 1 0 0 -1 2 -2 0 -2 1 -1 
0 -2 1 -1 0 -3 1 -1 0 -3 1 -1 0 -3 1 -1 
0 -3 1 -1 0 -4 1 -1 0 -3 1 -1 0 -3 1 -1 
0 -3 1 -1 0 -2 1 -1 0 -3 1 -1 0 -2 1 -1 
0 -1 1 -1 0 -2 2 -2 1 -1 1 0 1 -1 1 1 
1 0 1 1 1 1 0 2 2 2 0 2 1 1 0 1 
1 1 0 2 1 1 0 2 1 1 0 3 1 1 0 2 
1 1 0 2 1 1 0 3 1 1 0 2 1 1 0 2 
1 1 0 3 1 1 0 2 1 1 0 2 1 1 0 2 
2 2 0 2 2 2 1 0 1 1 1 -1 0 -1 2 -2 
0 -2 1 -1 0 -3 3835 3217 300 MP stroke
1 -1 0 -3 1 -1 0 -5 1 -1 0 -5 1 -1 0 -6 
1 -1 0 -7 1 -1 0 -8 1 -1 0 -8 1 -1 0 -10 
1 -1 0 -10 1 -1 0 -10 1 -1 0 -11 1 -1 0 -10 
1 -1 0 -9 1 -1 0 -8 1 -1 0 -4 1 -1 1 -1 
1 1 1 1 1 1 1 1 0 2 2 2 0 2 2 2 
0 2 1 1 0 3 1 1 0 3 1 1 0 4 1 1 
0 4 1 1 0 6 1 1 0 7 1 1 0 8 1 1 
0 9 1 1 0 12 1 1 0 13 1 1 0 14 1 1 
0 12 1 1 0 8 1 1 0 6 1 1 0 5 1 1 
0 2 1 1 0 2 1 1 1 1 1 0 1 0 0 -2 
2 -2 0 -3 1 -1 0 -2 1 -1 0 -3 1 -1 0 -3 
1 -1 0 -4 1 -1 0 -3 1 -1 0 -4 1 -1 0 -3 
1 -1 0 -3 1 -1 0 -4 1 -1 0 -2 1 -1 0 -3 
1 -1 0 -2 1 -1 0 -1 1 -1 0 -2 2 -2 1 -1 
1 0 1 -1 1 1 1 0 -1 0 2 2 1 1 0 2 
2 2 0 2 1 1 0 2 1 1 0 2 1 1 0 2 
1 1 0 3 1 1 0 2 1 1 0 3 1 1 0 3 
1 1 0 2 1 1 0 3 1 1 0 2 1 1 0 2 
1 1 0 2 1 1 0 3 2 2 0 2 2 2 1 0 
1 0 1 0 0 -2 2 -2 0 -2 1 -1 0 -3 1 -1 
0 -4 1 -1 0 -5 1 -1 0 -6 1 -1 0 -7 1 -1 
0 -7 1 -1 0 -9 1 -1 0 -9 1 -1 0 -10 1 -1 
0 -11 1 -1 0 -11 1 -1 0 -11 1 -1 0 -11 1 -1 
0 -9 1 -1 0 -7 1 -1 0 -3 1 -1 1 -1 1 1 
1 1 1 1 0 2 2 2 1 1 0 3 2 2 0 3 
1 1 0 2 1 1 0 4 1 1 0 4 1 1 0 5 
1 1 0 7 1 1 0 7 1 1 0 9 1 1 0 11 
1 1 0 13 1 1 0 14 1 1 0 15 1 1 0 11 
1 1 0 8 1 1 0 6 1 1 0 4 1 1 0 3 
1 1 0 1 1 1 1 1 1 -1 1 -1 0 -1 1 -1 
0 -1 1 -1 0 -3 1 -1 0 -3 1 -1 0 -3 1 -1 
0 -4 1 -1 0 -3 1 -1 0 -4 1 -1 0 -4 1 -1 
0 -3 1 -1 0 -4 1 -1 0 -3 1 -1 0 -3 1 -1 
0 -2 1 -1 0 -3 1 -1 0 -1 1 -1 0 -2 2 -2 
1 -1 1 0 1 0 1 0 1 1 1 1 0 2 2 2 
0 2 1 1 0 1 1 1 0 3 1 1 0 2 1 1 
0 2 1 1 0 3 1 1 0 3 1 1 0 3 1 1 
0 3 1 1 0 2 3658 3218 300 MP stroke
1 1 0 3 1 1 0 3 1 1 0 3 1 1 0 2 
1 1 0 1 1 1 0 3 2 2 1 1 1 1 1 0 
1 -1 0 -2 2 -2 0 -3 1 -1 0 -3 1 -1 0 -5 
1 -1 0 -5 1 -1 0 -7 1 -1 0 -7 1 -1 0 -9 
1 -1 0 -9 1 -1 0 -10 1 -1 0 -11 1 -1 0 -11 
1 -1 0 -12 1 -1 0 -11 1 -1 0 -12 1 -1 0 -9 
1 -1 0 -7 1 -1 0 -2 1 -1 1 1 1 1 1 1 
1 1 1 1 0 2 2 2 0 2 1 1 0 2 1 1 
0 2 1 1 0 3 1 1 0 4 1 1 0 5 1 1 
0 6 1 1 0 7 1 1 0 8 1 1 0 10 1 1 
0 12 1 1 0 14 1 1 0 16 1 1 0 15 1 1 
0 10 1 1 0 8 1 1 0 6 1 1 0 4 1 1 
0 3 2 2 1 0 1 0 1 -1 0 -2 1 -1 0 -2 
1 -1 0 -3 1 -1 0 -3 1 -1 0 -3 1 -1 0 -4 
1 -1 0 -5 1 -1 0 -4 1 -1 0 -4 1 -1 0 -4 
1 -1 0 -3 1 -1 0 -4 1 -1 0 -3 1 -1 0 -2 
1 -1 0 -2 1 -1 0 -2 1 -1 0 -2 2 -2 1 -1 
1 0 1 0 1 1 1 1 1 1 0 2 2 2 0 2 
1 1 0 2 1 1 0 2 1 1 0 3 1 1 0 3 
1 1 0 3 1 1 0 3 1 1 0 3 1 1 0 3 
1 1 0 3 1 1 0 3 1 1 0 3 1 1 0 3 
1 1 0 2 1 1 0 3 2 2 0 2 2 2 1 0 
1 0 0 -1 2 -2 0 -2 1 -1 0 -3 1 -1 0 -4 
1 -1 0 -4 1 -1 0 -7 1 -1 0 -6 1 -1 0 -9 
1 -1 0 -9 1 -1 0 -10 1 -1 0 -10 1 -1 0 -12 
1 -1 0 -12 1 -1 0 -13 1 -1 0 -12 1 -1 0 -12 
1 -1 0 -9 1 -1 0 -7 2 -2 1 1 1 1 0 1 
2 2 1 1 0 2 2 2 0 2 1 1 0 2 1 1 
0 3 1 1 0 3 1 1 0 5 1 1 0 5 1 1 
0 6 1 1 0 8 1 1 0 9 1 1 0 11 1 1 
0 14 1 1 0 15 1 1 0 17 1 1 0 14 1 1 
0 10 1 1 0 8 1 1 0 5 1 1 0 4 1 1 
0 2 1 1 1 1 1 1 0 -1 2 -2 0 -2 1 -1 
0 -2 1 -1 0 -3 1 -1 0 -4 1 -1 0 -4 1 -1 
0 -4 1 -1 0 -5 1 -1 0 -4 1 -1 0 -5 1 -1 
0 -4 1 -1 0 -4 1 -1 0 -3 1 -1 0 -3 1 -1 
0 -3 1 -1 0 -3 2 -2 0 -2 2 -2 1 -1 1 0 
1 0 1 1 0 1 3479 3249 300 MP stroke
2 2 0 1 1 1 0 1 1 1 0 2 1 1 0 3 
1 1 0 2 1 1 0 3 1 1 0 3 1 1 0 3 
1 1 0 3 1 1 0 4 1 1 0 3 1 1 0 3 
1 1 0 4 1 1 0 2 1 1 0 3 1 1 0 3 
1 1 0 1 1 1 0 3 2 2 1 1 1 0 1 0 
-1 0 2 -2 0 -1 1 -1 0 -2 1 -1 0 -3 1 -1 
0 -5 1 -1 0 -5 1 -1 0 -7 1 -1 0 -8 1 -1 
0 -8 1 -1 0 -10 1 -1 0 -11 1 -1 0 -11 1 -1 
0 -13 1 -1 0 -13 1 -1 0 -13 1 -1 0 -12 1 -1 
0 -11 1 -1 0 -9 1 -1 0 -4 1 -1 1 -1 1 1 
1 1 1 1 1 1 0 2 2 2 0 2 1 1 0 2 
1 1 0 2 1 1 0 3 1 1 0 4 1 1 0 5 
1 1 0 6 1 1 0 6 1 1 0 8 1 1 0 11 
1 1 0 12 1 1 0 13 1 1 0 17 1 1 0 16 
1 1 0 14 1 1 0 9 1 1 0 7 1 1 0 4 
1 1 0 3 1 1 0 2 1 1 1 1 1 -1 1 -1 
0 -2 1 -1 0 -2 1 -1 0 -3 1 -1 0 -3 1 -1 
0 -4 1 -1 0 -4 1 -1 0 -5 1 -1 0 -4 1 -1 
0 -5 1 -1 0 -4 1 -1 0 -4 1 -1 0 -4 1 -1 
0 -3 1 -1 0 -3 1 -1 0 -3 1 -1 0 -2 1 -1 
0 -2 2 -2 1 -1 1 -1 1 0 1 0 1 1 1 1 
0 2 2 2 0 2 1 1 0 2 1 1 0 2 1 1 
0 3 1 1 0 2 1 1 0 3 1 1 0 3 1 1 
0 3 1 1 0 4 1 1 0 3 1 1 0 2 1 1 
0 3 1 1 0 3 1 1 0 2 1 1 0 1 1 1 
0 2 2 2 1 1 1 1 1 -1 0 -1 2 -2 0 -2 
1 -1 0 -3 1 -1 0 -3 1 -1 0 -5 1 -1 0 -6 
1 -1 0 -7 1 -1 0 -8 1 -1 0 -8 1 -1 0 -10 
1 -1 0 -10 1 -1 0 -11 1 -1 0 -12 1 -1 0 -12 
1 -1 0 -12 1 -1 0 -11 1 -1 0 -10 1 -1 0 -6 
1 -1 0 -3 2 0 1 1 1 1 1 1 0 2 2 2 
0 2 2 2 0 2 1 1 0 3 1 1 0 3 1 1 
0 3 1 1 0 5 1 1 0 5 1 1 0 6 1 1 
0 7 1 1 0 9 1 1 0 10 1 1 0 12 1 1 
0 13 1 1 0 12 1 1 0 8 1 1 0 6 1 1 
0 3 1 1 0 3 2 2 1 0 1 -1 1 -1 0 -2 
1 -1 0 -2 1 -1 0 -2 1 -1 0 -3 1 -1 0 -3 
1 -1 0 -4 1 -1 3305 3231 300 MP stroke
0 -3 1 -1 0 -4 1 -1 0 -3 1 -1 0 -4 1 -1 
0 -3 1 -1 0 -3 1 -1 0 -2 1 -1 0 -2 1 -1 
0 -2 1 -1 0 -2 1 -1 0 -1 1 -1 0 -1 2 -2 
1 0 1 -1 1 0 1 0 1 1 1 1 1 1 0 1 
2 2 0 1 2 2 0 2 2 2 0 2 2 2 1 1 
0 2 2 2 0 1 2 2 1 1 1 0 1 1 1 0 
1 0 1 -1 1 -1 0 -1 2 -2 0 -2 1 -1 0 -2 
1 -1 0 -2 1 -1 0 -3 1 -1 0 -4 1 -1 0 -3 
1 -1 0 -5 1 -1 0 -5 1 -1 0 -5 1 -1 0 -5 
1 -1 0 -6 1 -1 0 -6 1 -1 0 -6 1 -1 0 -6 
1 -1 0 -5 1 -1 0 -5 1 -1 0 -4 1 -1 0 -2 
1 -1 1 -1 1 0 1 1 1 1 1 1 1 1 1 1 
1 1 0 1 2 2 0 1 2 2 0 3 2 2 0 2 
1 1 0 2 1 1 0 3 1 1 0 3 1 1 0 3 
1 1 0 4 1 1 0 4 1 1 0 3 1 1 0 3 
2 2 1 1 1 0 1 0 1 0 1 -1 1 -1 0 -1 
2 -2 1 -1 0 -2 2 -2 1 -1 0 -2 2 -2 0 -1 
2 -2 1 -1 1 -1 0 -1 2 -2 1 0 1 -1 1 -1 
1 0 1 -1 1 0 1 0 1 0 1 0 1 0 1 0 
1 1 1 0 1 0 1 1 1 0 1 1 1 0 1 1 
1 0 1 0 1 1 1 0 1 0 1 0 1 0 1 0 
1 0 1 0 1 -1 1 0 1 -1 1 -1 1 -1 0 -1 
2 -2 0 -1 2 -2 0 -1 2 -2 0 -2 2 -2 0 -3 
2 -2 0 -2 2 -2 0 -3 2 -2 0 -2 2 -2 1 -1 
1 -1 1 0 1 0 1 1 1 0 1 0 1 0 1 1 
1 0 1 1 1 0 1 1 1 0 1 1 1 1 1 1 
1 1 1 1 1 1 1 1 0 1 2 2 1 1 1 0 
1 1 1 0 1 0 1 0 1 0 1 0 1 -1 1 0 
1 0 1 -1 1 0 1 0 1 -1 1 0 1 -1 1 0 
1 -1 1 0 1 0 1 -1 1 0 1 0 1 0 1 0 
1 0 1 -1 1 0 1 0 1 0 1 0 1 0 1 1 
1 0 1 0 1 0 1 0 1 0 1 0 1 0 1 0 
1 1 1 0 1 0 1 0 1 0 1 0 1 0 1 0 
1 -1 1 0 1 0 1 0 1 0 1 -1 1 0 1 -1 
1 0 1 0 1 -1 1 -1 1 0 1 -1 1 0 1 -1 
1 -1 1 0 1 -1 1 -1 1 0 1 -1 1 -1 1 0 
1 0 1 0 1 0 1 0 1 0 1 0 1 0 1 1 
1 0 1 0 1 0 3043 3351 300 MP stroke
1 0 1 0 1 1 1 0 1 0 1 0 1 1 1 0 
1 0 1 1 1 0 1 0 1 1 1 0 1 0 1 0 
1 0 1 0 1 0 1 0 1 0 1 -1 1 0 1 0 
1 0 1 0 1 0 1 0 1 0 1 -1 1 0 1 0 
1 0 1 0 1 0 1 0 1 0 1 0 1 0 1 0 
1 0 1 0 1 0 1 0 1 0 1 0 1 0 1 0 
1 0 1 0 1 0 1 0 1 0 1 0 1 0 1 0 
1 0 1 0 1 0 1 0 1 0 1 0 1 0 1 -1 
1 0 1 0 1 0 1 0 1 0 1 0 1 0 1 0 
1 0 1 0 1 -1 1 0 1 0 1 0 1 0 1 -1 
1 0 1 0 1 0 1 0 1 0 1 0 1 0 1 0 
1 0 1 0 1 0 1 0 1 0 1 0 1 0 1 0 
1 0 1 0 1 1 1 0 1 0 1 0 1 0 1 0 
1 1 1 0 1 0 1 0 1 1 1 0 1 0 1 0 
1 0 1 0 1 0 1 0 1 0 1 0 1 -1 1 -1 
0 -2 2923 3353 122 MP stroke
c10
1 1 0 2 1 1 0 3 1 1 0 3 1 1 0 3 
1 1 0 4 1 1 0 3 1 1 0 4 1 1 0 4 
1 1 0 5 1 1 0 4 1 1 0 3 1 1 0 4 
1 1 0 4 1 1 0 3 1 1 0 2 1 1 0 2 
1 1 0 2 1 1 1 1 1 1 1 1 0 -1 2 -2 
0 -1 1 -1 0 -3 1 -1 0 -3 1 -1 0 -4 1 -1 
0 -6 1 -1 0 -6 1 -1 0 -7 1 -1 0 -8 1 -1 
0 -9 1 -1 0 -9 1 -1 0 -11 1 -1 0 -12 1 -1 
0 -12 1 -1 0 -13 1 -1 0 -13 1 -1 0 -14 1 -1 
0 -13 1 -2 0 -14 1 -2 0 -15 1 -1 0 -15 1 -1 
0 -15 1 -1 0 -14 1 -1 0 -15 1 -2 0 -13 1 -1 
0 -14 1 -1 0 -13 1 -1 0 -12 1 -1 0 -12 1 -1 
0 -9 1 -1 0 -9 1 -1 0 -6 1 -1 0 -5 1 -1 
0 -4 2 -2 1 1 0 2 1 1 0 3 1 1 0 4 
1 1 0 5 1 1 0 5 1 1 0 6 1 1 0 6 
1 1 0 8 1 1 0 8 1 1 0 8 1 1 0 10 
1 1 0 10 1 1 0 12 1 1 0 12 1 1 0 12 
1 1 0 14 1 1 0 14 1 1 0 14 1 1 0 14 
1 1 0 15 1 1 0 13 1 1 0 11 1 1 0 10 
1 1 0 8 1 1 0 6 1 1 0 6 1 1 0 4 
1 1 0 4 1 1 0 3 1 1 0 2 1 1 0 2 
1 1 0 2 1 1 0 3 2 2 0 2 1 1 0 2 
1 1 0 1 1 1 0 2 1 1 0 3 1 1 0 2 
1 1 0 3 1 1 0 3 1 1 0 4 1 1 0 3 
1 1 0 5 1 1 0 4 1 1 0 4 1 1 0 4 
1 1 0 4 1 1 0 4 1 1 0 4 1 1 0 4 
1 1 0 3 1 1 0 3 1 1 0 2 1 1 0 2 
2 2 1 0 -1 0 2 0 1 0 -1 0 2 -2 0 -2 
1 -1 0 -3 1 -1 0 -3 1 -1 0 -5 1 -1 0 -6 
1 -1 0 -7 1 -1 0 -7 1 -1 0 -9 1 -1 0 -9 
1 -1 0 -11 1 -1 0 -11 1 -1 0 -11 1 -1 0 -13 
1 -1 0 -14 1 -1 0 -14 1 -1 0 -14 1 -1 0 -15 
1 -2 0 -15 1 -1 0 -15 1 -1 0 -15 1 -2 0 -15 
1 -1 0 -16 1 -2 0 -14 1 -1 0 -15 1 -1 0 -14 
1 -1 0 -13 1 -1 0 -13 1 -1 0 -11 1 -1 0 -9 
1 -1 0 -9 1 -1 0 -7 1 -1 0 -4 1 -1 0 -2 
1 -1 1 -1 1 1 0 2 1 1 0 4 1 1 0 4 
1 1 0 5 1 1 4679 3288 300 MP stroke
0 6 1 1 0 6 1 1 0 7 1 1 0 8 1 1 
0 8 1 1 0 10 1 1 0 10 1 1 0 12 1 1 
0 11 1 1 0 13 1 1 0 14 1 1 0 14 1 1 
0 15 1 1 0 14 1 1 0 15 1 1 0 15 1 1 
0 13 1 1 0 12 1 1 0 9 1 1 0 8 1 1 
0 6 1 1 0 5 1 1 0 5 1 1 0 3 1 1 
0 3 1 1 0 3 1 1 0 2 1 1 0 2 1 1 
0 1 1 1 0 2 1 1 0 1 1 1 0 2 1 1 
0 2 1 1 0 2 1 1 0 2 1 1 0 3 1 1 
0 3 1 1 0 3 1 1 0 4 1 1 0 4 1 1 
0 4 1 1 0 5 1 1 0 4 1 1 0 4 1 1 
0 5 1 1 0 4 1 1 0 4 1 1 0 4 1 1 
0 3 1 1 0 3 1 1 0 2 1 1 0 2 2 2 
1 0 1 0 0 -1 2 -2 0 -2 1 -1 0 -3 1 -1 
0 -4 1 -1 0 -6 1 -1 0 -6 1 -1 0 -7 1 -1 
0 -8 1 -1 0 -9 1 -1 0 -10 1 -1 0 -11 1 -1 
0 -12 1 -1 0 -13 1 -1 0 -13 1 -1 0 -14 1 -2 
0 -14 1 -1 0 -15 1 -2 0 -14 1 -1 0 -16 1 -2 
0 -16 1 -2 0 -15 1 -2 0 -16 1 -1 0 -15 1 -2 
0 -15 1 -2 0 -14 1 -2 0 -13 1 -2 0 -14 1 -1 
0 -12 1 -1 0 -11 1 -1 0 -10 1 -1 0 -8 1 -1 
0 -6 1 -1 0 -5 1 -1 0 -2 1 -1 1 0 -1 0 
2 2 0 3 1 1 0 4 1 1 0 5 1 1 0 6 
1 1 0 5 1 1 0 7 1 1 0 8 1 1 0 8 
1 1 0 9 1 1 0 10 1 1 0 11 1 1 0 12 
1 1 0 13 1 1 0 13 1 1 0 15 1 1 0 15 
1 1 0 15 1 1 0 16 1 1 0 15 1 1 0 15 
1 1 0 13 1 1 0 11 1 1 0 10 1 1 0 7 
1 1 0 6 1 1 0 5 1 1 0 5 1 1 0 3 
1 1 0 3 1 1 0 2 1 1 0 2 1 1 0 2 
1 1 0 3 2 2 0 2 1 1 0 2 1 1 0 2 
1 1 0 2 1 1 0 2 1 1 0 4 1 1 0 3 
1 1 0 3 1 1 0 4 1 1 0 4 1 1 0 5 
1 1 0 4 1 1 0 5 1 1 0 5 1 1 0 4 
1 1 0 5 1 1 0 4 1 1 0 4 1 1 0 3 
1 1 0 3 1 1 0 2 1 1 0 1 1 1 1 1 
1 1 1 -1 0 -1 2 -2 0 -3 1 -1 0 -3 1 -1 
0 -4 1 -1 0 -6 4523 2920 300 MP stroke
1 -1 0 -6 1 -1 0 -9 1 -1 0 -8 1 -1 0 -10 
1 -1 0 -10 1 -1 0 -12 1 -1 0 -13 1 -1 0 -13 
1 -1 0 -14 1 -1 0 -15 1 -1 0 -15 1 -2 0 -15 
1 -2 0 -16 1 -1 0 -16 1 -1 0 -17 1 -2 0 -16 
1 -2 0 -16 1 -2 0 -15 1 -1 0 -16 1 -2 0 -16 
1 -1 0 -14 1 -2 0 -14 1 -1 0 -13 1 -1 0 -11 
1 -1 0 -10 1 -1 0 -8 1 -1 0 -6 1 -1 0 -3 
1 -1 0 -2 1 -1 0 1 2 2 0 4 1 1 0 5 
1 1 0 5 1 1 0 6 1 1 0 6 1 1 0 7 
1 1 0 9 1 1 0 8 1 1 0 10 1 1 0 11 
1 1 0 12 1 1 0 12 1 1 0 13 1 1 0 16 
1 1 0 15 1 1 0 15 1 1 0 17 1 1 0 15 
1 1 0 16 1 1 0 15 1 1 0 14 1 1 0 11 
1 1 0 9 1 1 0 7 1 1 0 6 1 1 0 5 
1 1 0 5 1 1 0 3 1 1 0 3 1 1 0 2 
1 1 0 2 1 1 0 3 2 2 0 2 1 1 0 2 
1 1 0 1 1 1 0 2 1 1 0 3 1 1 0 2 
1 1 0 4 1 1 0 3 1 1 0 4 1 1 0 4 
1 1 0 4 1 1 0 5 1 1 0 5 1 1 0 5 
1 1 0 5 1 1 0 5 1 1 0 5 1 1 0 4 
1 1 0 3 1 1 0 4 1 1 0 2 1 1 0 2 
1 1 0 2 2 2 1 0 1 0 -1 0 2 -2 0 -2 
1 -1 0 -2 1 -1 0 -4 1 -1 0 -5 1 -1 0 -6 
1 -1 0 -7 1 -1 0 -8 1 -1 0 -10 1 -1 0 -10 
1 -1 0 -11 1 -1 0 -12 1 -2 0 -13 1 -1 0 -14 
1 -1 0 -14 1 -2 0 -15 1 -1 0 -16 1 -1 0 -17 
1 -1 0 -17 1 -2 0 -17 1 -2 0 -16 1 -2 0 -17 
1 -1 0 -18 1 -1 0 -17 1 -2 0 -15 1 -2 0 -16 
1 -2 0 -14 1 -1 0 -14 1 -1 0 -13 1 -1 0 -13 
1 -1 0 -9 1 -1 0 -8 1 -1 0 -6 1 -1 0 -3 
1 -1 1 -1 1 1 0 2 1 1 0 4 1 1 0 5 
1 1 0 6 1 1 0 6 1 1 0 7 1 1 0 8 
1 1 0 9 1 1 0 9 1 1 0 11 1 1 0 11 
1 1 0 13 1 1 0 13 1 1 0 15 1 1 0 15 
1 1 0 16 1 1 0 17 1 1 0 16 1 1 0 18 
1 1 0 16 1 1 0 15 1 1 0 13 1 1 0 11 
1 1 0 9 1 1 0 7 1 1 0 6 1 1 0 5 
1 1 0 4 1 1 4368 2988 300 MP stroke
0 3 1 1 0 3 1 1 0 2 1 1 0 2 1 1 
0 2 1 1 0 2 1 1 0 1 1 1 0 2 1 1 
0 2 1 1 0 2 1 1 0 2 1 1 0 3 1 1 
0 4 1 1 0 3 1 1 0 4 1 1 0 5 1 1 
0 4 1 1 0 6 1 1 0 5 1 1 0 5 1 1 
0 5 1 1 0 5 1 1 0 5 1 1 0 4 1 1 
0 4 1 1 0 3 1 1 0 3 1 1 0 3 2 2 
1 1 1 1 0 -1 2 -2 0 -2 1 -1 0 -3 1 -1 
0 -4 1 -1 0 -5 1 -1 0 -7 1 -1 0 -8 1 -1 
0 -9 1 -1 0 -10 1 -1 0 -10 1 -1 0 -12 1 -2 
0 -12 1 -2 0 -13 1 -2 0 -14 1 -1 0 -16 1 -1 
0 -16 1 -1 0 -17 1 -1 0 -17 1 -2 0 -17 1 -2 
0 -18 1 -2 0 -17 1 -2 0 -17 1 -2 0 -18 1 -1 
0 -17 1 -2 0 -18 1 -1 0 -17 1 -1 0 -16 1 -1 
0 -14 1 -1 0 -13 1 -1 0 -12 1 -1 0 -9 1 -1 
0 -8 1 -1 0 -5 1 -1 0 -3 1 -1 1 -1 -1 0 
2 2 0 3 1 1 0 5 1 1 0 5 1 1 0 7 
1 1 0 6 1 1 0 7 1 1 0 9 1 1 0 9 
1 1 0 10 1 1 0 12 1 1 0 12 1 1 0 14 
1 1 0 14 1 1 0 15 1 1 0 16 1 1 0 18 
1 1 0 16 1 1 0 18 1 1 0 18 1 1 0 17 
1 1 0 15 1 1 0 13 1 1 0 11 1 1 0 9 
1 1 0 7 1 1 0 6 1 1 0 5 1 1 0 4 
1 1 0 3 1 1 0 2 1 1 0 3 1 1 0 1 
1 1 0 3 2 2 0 2 1 1 0 2 1 1 0 2 
1 1 0 2 1 1 0 3 1 1 0 3 1 1 0 3 
1 1 0 4 1 1 0 5 1 1 0 5 1 1 0 5 
1 1 0 5 1 1 0 5 1 1 0 5 1 1 0 6 
1 1 0 5 1 1 0 5 1 1 0 4 1 1 0 5 
1 1 0 3 1 1 0 3 1 1 0 2 1 1 0 1 
1 1 1 1 1 0 0 -1 2 -2 0 -3 1 -1 0 -3 
1 -1 0 -4 1 -1 0 -6 1 -1 0 -8 1 -1 0 -8 
1 -1 0 -9 1 -1 0 -11 1 -1 0 -11 1 -2 0 -12 
1 -1 0 -14 1 -1 0 -15 1 -1 0 -15 1 -2 0 -15 
1 -2 0 -16 1 -2 0 -17 1 -2 0 -17 1 -2 0 -19 
1 -1 0 -19 1 -2 0 -18 1 -2 0 -18 1 -2 0 -18 
1 -2 0 -18 1 -2 0 -18 1 -1 0 -17 1 -2 0 -15 
1 -1 0 -15 1 -1 4212 3246 300 MP stroke
0 -14 1 -1 0 -11 1 -1 0 -10 1 -1 0 -7 1 -1 
0 -5 1 -1 0 -2 1 -1 1 0 0 2 1 1 0 4 
1 1 0 5 1 1 0 5 1 1 0 7 1 1 0 7 
1 1 0 9 1 1 0 9 1 1 0 10 1 1 0 11 
1 1 0 12 1 1 0 13 1 1 0 14 1 1 0 16 
1 1 0 16 1 1 0 17 1 1 0 18 1 1 0 18 
1 1 0 18 1 1 0 18 1 1 0 18 1 1 0 15 
1 1 0 14 1 1 0 10 1 1 0 8 1 1 0 7 
1 1 0 6 1 1 0 5 1 1 0 4 1 1 0 3 
1 1 0 2 1 1 0 3 1 1 0 1 1 1 0 3 
2 2 0 2 1 1 0 2 1 1 0 2 1 1 0 2 
1 1 0 3 1 1 0 4 1 1 0 3 1 1 0 4 
1 1 0 5 1 1 0 5 1 1 0 5 1 1 0 6 
1 1 0 5 1 1 0 6 1 1 0 6 1 1 0 5 
1 1 0 6 1 1 0 4 1 1 0 4 1 1 0 4 
1 1 0 2 1 1 0 3 2 2 1 1 1 0 0 -1 
2 -2 0 -3 1 -1 0 -4 1 -1 0 -5 1 -1 0 -6 
1 -1 0 -8 1 -1 0 -9 1 -1 0 -9 1 -1 0 -12 
1 -1 0 -12 1 -1 0 -14 1 -1 0 -14 1 -1 0 -15 
1 -2 0 -17 1 -2 0 -16 1 -2 0 -17 1 -2 0 -18 
1 -1 0 -19 1 -2 0 -19 1 -2 0 -18 1 -2 0 -21 
1 -2 0 -18 1 -2 0 -18 1 -2 0 -19 1 -2 0 -18 
1 -1 0 -17 1 -2 0 -17 1 -1 0 -15 1 -2 0 -12 
1 -1 0 -13 1 -1 0 -9 1 -1 0 -7 1 -1 0 -4 
1 -1 0 -2 2 0 0 3 1 1 0 4 1 1 0 6 
1 1 0 6 1 1 0 8 1 1 0 7 1 1 0 9 
1 1 0 9 1 1 0 11 1 1 0 12 1 1 0 13 
1 1 0 14 1 1 0 16 1 1 0 15 1 1 0 18 
1 1 0 18 1 1 0 19 1 1 0 19 1 1 0 20 
1 1 0 19 1 1 0 18 1 1 0 15 1 1 0 12 
1 1 0 10 1 1 0 9 1 1 0 7 1 1 0 6 
1 1 0 4 1 1 0 4 1 1 0 3 1 1 0 3 
1 1 0 1 1 1 0 2 1 1 0 3 2 2 0 2 
1 1 0 2 1 1 0 2 1 1 0 3 1 1 0 2 
1 1 0 4 1 1 0 4 1 1 0 5 1 1 0 4 
1 1 0 6 1 1 0 5 1 1 0 6 1 1 0 6 
1 1 0 6 1 1 0 6 1 1 0 6 1 1 0 5 
1 1 0 5 1 1 4056 2824 300 MP stroke
0 4 1 1 0 4 1 1 0 2 1 1 0 3 2 2 
1 1 1 0 -1 0 2 -2 0 -1 1 -1 0 -3 1 -1 
0 -4 1 -1 0 -6 1 -1 0 -7 1 -1 0 -8 1 -1 
0 -9 1 -1 0 -11 1 -1 0 -12 1 -1 0 -13 1 -1 
0 -14 1 -1 0 -15 1 -2 0 -17 1 -1 0 -17 1 -2 
0 -17 1 -2 0 -18 1 -1 0 -21 1 -2 0 -19 1 -2 
0 -19 1 -1 0 -21 1 -2 0 -20 1 -2 0 -21 1 -2 
0 -18 1 -2 0 -19 1 -2 0 -20 1 -2 0 -17 1 -1 
0 -17 1 -1 0 -16 1 -1 0 -14 1 -1 0 -12 1 -1 
0 -9 1 -1 0 -7 1 -1 0 -3 1 -1 1 -2 -1 0 
2 2 0 3 1 1 0 5 1 1 0 6 1 1 0 7 
1 1 0 8 1 1 0 8 1 1 0 10 1 1 0 10 
1 1 0 12 1 1 0 12 1 1 0 14 1 1 0 16 
1 1 0 15 1 1 0 18 1 1 0 19 1 1 0 19 
1 1 0 20 1 1 0 21 1 1 0 19 1 1 0 19 
1 1 0 18 1 1 0 16 1 1 0 12 1 1 0 10 
1 1 0 9 1 1 0 7 1 1 0 5 1 1 0 5 
1 1 0 3 1 1 0 3 1 1 0 4 2 2 0 2 
1 1 0 2 1 1 0 1 1 1 0 2 1 1 0 2 
1 1 0 2 1 1 0 3 1 1 0 3 1 1 0 4 
1 1 0 4 1 1 0 5 1 1 0 5 1 1 0 5 
1 1 0 6 1 1 0 7 1 1 0 6 1 1 0 6 
1 1 0 6 1 1 0 6 1 1 0 5 1 1 0 6 
1 1 0 4 1 1 0 4 1 1 0 3 1 1 0 2 
1 1 1 1 1 1 1 0 -1 0 2 -2 0 -2 1 -1 
0 -3 1 -1 0 -5 1 -1 0 -6 1 -1 0 -7 1 -1 
0 -9 1 -1 0 -10 1 -1 0 -12 1 -1 0 -13 1 -1 
0 -14 1 -1 0 -15 1 -1 0 -16 1 -1 0 -17 1 -1 
0 -19 1 -2 0 -18 1 -2 0 -19 1 -2 0 -19 1 -2 
0 -21 1 -2 0 -21 1 -2 0 -22 1 -2 0 -20 1 -2 
0 -22 1 -2 0 -20 1 -2 0 -20 1 -1 0 -20 1 -2 
0 -19 1 -1 0 -17 1 -2 0 -15 1 -1 0 -14 1 -1 
0 -12 1 -1 0 -9 1 -1 0 -6 1 -1 0 -3 1 -1 
1 -1 -1 0 2 2 0 5 1 1 0 5 1 1 0 7 
1 1 0 8 1 1 0 8 1 1 0 9 1 1 0 10 
1 1 0 12 1 1 0 12 1 1 0 13 1 1 0 16 
1 1 0 16 1 1 0 17 1 1 0 18 1 1 0 20 
1 1 0 20 1 1 3901 3082 300 MP stroke
0 22 1 1 0 21 1 1 0 21 1 1 0 20 1 1 
0 18 1 1 0 16 1 1 0 12 1 1 0 10 1 1 
0 8 1 1 0 7 1 1 0 5 1 1 0 5 1 1 
0 3 1 1 0 3 1 1 0 2 1 1 0 2 1 1 
0 1 1 1 0 3 2 2 0 2 1 1 0 2 1 1 
0 2 1 1 0 3 1 1 0 3 1 1 0 5 1 1 
0 4 1 1 0 5 1 1 0 5 1 1 0 6 1 1 
0 7 1 1 0 6 1 1 0 7 1 1 0 6 1 1 
0 7 1 1 0 6 1 1 0 6 1 1 0 5 1 1 
0 5 1 1 0 3 1 1 0 3 1 1 0 3 2 2 
1 1 0 -1 2 -2 0 -2 1 -1 0 -4 1 -1 0 -5 
1 -1 0 -6 1 -1 0 -8 1 -1 0 -10 1 -1 0 -10 
1 -1 0 -12 1 -1 0 -14 1 -1 0 -14 1 -2 0 -17 
1 -1 0 -17 1 -1 0 -18 1 -1 0 -20 1 -2 0 -19 
1 -2 0 -20 1 -2 0 -22 1 -2 0 -22 1 -2 0 -20 
1 -2 0 -23 1 -2 0 -23 1 -2 0 -22 1 -2 0 -21 
1 -2 0 -21 1 -2 0 -19 1 -1 0 -21 1 -1 0 -17 
1 -2 0 -16 1 -2 0 -13 1 -1 0 -12 1 -1 0 -9 
1 -1 0 -5 1 -1 0 -3 1 -1 1 0 0 3 1 1 
0 5 1 1 0 6 1 1 0 7 1 1 0 9 1 1 
0 8 1 1 0 10 1 1 0 11 1 1 0 12 1 1 
0 14 1 1 0 14 1 1 0 17 1 1 0 17 1 1 
0 18 1 1 0 20 1 1 0 21 1 1 0 22 1 1 
0 22 1 1 0 23 1 1 0 22 1 1 0 20 1 1 
0 19 1 1 0 15 1 1 0 12 1 1 0 9 1 1 
0 8 1 1 0 7 1 1 0 5 1 1 0 5 1 1 
0 3 1 1 0 3 1 1 0 1 1 1 0 3 2 2 
0 3 2 2 0 2 1 1 0 2 1 1 0 3 1 1 
0 2 1 1 0 4 1 1 0 4 1 1 0 5 1 1 
0 5 1 1 0 6 1 1 0 7 1 1 0 6 1 1 
0 7 1 1 0 8 1 1 0 6 1 1 0 7 1 1 
0 6 1 1 0 6 1 1 0 6 1 1 0 4 1 1 
0 5 1 1 0 3 1 1 0 2 1 1 1 1 1 1 
0 -1 2 -2 0 -2 1 -1 0 -4 1 -1 0 -6 1 -1 
0 -7 1 -1 0 -9 1 -1 0 -10 1 -1 0 -12 1 -1 
0 -13 1 -1 0 -14 1 -1 0 -16 1 -1 0 -16 1 -2 
0 -19 1 -1 0 -19 1 -1 0 -21 1 -2 0 -20 1 -2 
0 -21 1 -2 0 -24 3744 2990 300 MP stroke
1 -2 0 -23 1 -2 0 -21 1 -2 0 -24 1 -2 0 -23 
1 -2 0 -23 1 -2 0 -23 1 -2 0 -22 1 -2 0 -20 
1 -2 0 -21 1 -1 0 -17 1 -2 0 -16 1 -2 0 -14 
1 -1 0 -12 1 -1 0 -8 1 -1 0 -7 2 -2 1 1 
0 3 1 1 0 6 1 1 0 7 1 1 0 7 1 1 
0 9 1 1 0 10 1 1 0 11 1 1 0 11 1 1 
0 14 1 1 0 14 1 1 0 16 1 1 0 17 1 1 
0 19 1 1 0 20 1 1 0 21 1 2 0 21 1 1 
0 24 1 1 0 24 1 1 0 22 1 1 0 24 1 1 
0 21 1 1 0 18 1 1 0 15 1 1 0 12 1 1 
0 9 1 1 0 8 1 1 0 7 1 1 0 5 1 1 
0 4 1 1 0 3 1 1 0 2 1 1 0 2 1 1 
0 2 1 1 0 2 2 2 0 2 1 1 0 1 1 1 
0 2 1 1 0 3 1 1 0 3 1 1 0 4 1 1 
0 4 1 1 0 5 1 1 0 7 1 1 0 5 1 1 
0 7 1 1 0 7 1 1 0 8 1 1 0 7 1 1 
0 7 1 1 0 7 1 1 0 7 1 1 0 6 1 1 
0 6 1 1 0 5 1 1 0 4 1 1 0 3 1 1 
0 3 2 2 1 0 0 -1 2 -2 0 -3 1 -1 0 -5 
1 -1 0 -5 1 -1 0 -8 1 -1 0 -9 1 -1 0 -11 
1 -2 0 -11 1 -1 0 -13 1 -2 0 -16 1 -1 0 -16 
1 -2 0 -17 1 -1 0 -20 1 -2 0 -19 1 -2 0 -22 
1 -2 0 -21 1 -2 0 -24 1 -2 0 -23 1 -2 0 -24 
1 -2 0 -25 1 -2 0 -25 1 -2 0 -23 1 -3 0 -24 
1 -2 0 -24 1 -2 0 -22 1 -2 0 -23 1 -2 0 -19 
1 -1 0 -20 1 -2 0 -16 1 -1 0 -14 1 -1 0 -12 
1 -1 0 -8 1 -1 0 -5 1 -1 1 -1 -1 0 2 2 
0 4 1 1 0 7 1 1 0 7 1 1 0 8 1 1 
0 10 1 1 0 10 1 1 0 12 1 1 0 13 1 1 
0 14 1 1 0 15 1 1 0 17 1 2 0 18 1 1 
0 19 1 1 0 22 1 1 0 23 1 1 0 24 1 1 
0 24 1 1 0 25 1 1 0 25 1 1 0 23 1 1 
0 22 1 1 0 18 1 1 0 15 1 1 0 12 1 1 
0 9 1 1 0 8 1 1 0 6 1 1 0 5 1 1 
0 4 1 1 0 3 1 1 0 2 1 1 0 2 1 1 
0 1 1 1 0 2 2 2 0 2 1 1 0 1 1 1 
0 2 1 1 0 3 1 1 0 3 1 1 0 4 1 1 
0 5 1 1 0 5 3588 2791 300 MP stroke
1 1 0 6 1 1 0 7 1 1 0 7 1 1 0 7 
1 1 0 8 1 1 0 8 1 1 0 8 1 1 0 7 
1 1 0 7 1 1 0 7 1 1 0 5 1 1 0 6 
1 1 0 4 1 1 0 3 1 1 0 3 2 2 1 0 
1 -1 0 -2 1 -1 0 -3 1 -1 0 -5 1 -1 0 -6 
1 -1 0 -9 1 -1 0 -10 1 -1 0 -11 1 -1 0 -13 
1 -1 0 -16 1 -1 0 -16 1 -1 0 -17 1 -1 0 -20 
1 -2 0 -19 1 -1 0 -22 1 -2 0 -23 1 -2 0 -23 
1 -2 0 -25 1 -2 0 -24 1 -3 0 -25 1 -2 0 -25 
1 -3 0 -25 1 -2 0 -26 1 -3 0 -25 1 -2 0 -24 
1 -2 0 -25 1 -1 0 -21 1 -2 0 -23 1 -1 0 -19 
1 -1 0 -18 1 -1 0 -14 1 -1 0 -11 1 -1 0 -8 
1 -1 0 -5 2 0 0 2 1 1 0 6 1 1 0 7 
1 1 0 7 1 1 0 9 1 1 0 10 1 1 0 11 
1 1 0 13 1 1 0 13 1 1 0 16 1 1 0 17 
1 1 0 18 1 1 0 20 1 1 0 21 1 1 0 23 
1 1 0 24 1 1 0 26 1 1 0 25 1 1 0 26 
1 2 0 24 1 1 0 25 1 1 0 22 1 1 0 18 
1 1 0 14 1 1 0 11 1 1 0 9 1 1 0 8 
1 1 0 6 1 1 0 5 1 1 0 3 1 1 0 3 
1 1 0 1 1 1 0 2 1 1 0 1 1 1 0 1 
1 1 1 1 0 3 2 2 0 3 1 1 0 2 1 1 
0 4 1 1 0 4 1 1 0 5 1 1 0 5 1 1 
0 7 1 1 0 6 1 1 0 8 1 1 0 7 1 1 
0 8 1 1 0 8 1 1 0 8 1 1 0 7 1 1 
0 7 1 1 0 7 1 1 0 6 1 1 0 5 1 1 
0 4 1 1 0 3 1 1 0 2 1 1 1 1 1 0 
-1 0 2 -2 0 -2 1 -1 0 -4 1 -1 0 -5 1 -1 
0 -7 1 -1 0 -9 1 -1 0 -11 1 -1 0 -13 1 -1 
0 -14 1 -1 0 -15 1 -1 0 -17 1 -1 0 -19 1 -2 
0 -21 1 -1 0 -20 1 -2 0 -23 1 -2 0 -22 1 -2 
0 -25 1 -2 0 -25 1 -2 0 -27 1 -2 0 -26 1 -3 
0 -26 1 -2 0 -25 1 -3 0 -26 1 -3 0 -25 1 -2 
0 -27 1 -2 0 -24 1 -2 0 -23 1 -2 0 -20 1 -2 
0 -20 1 -1 0 -17 1 -1 0 -14 1 -1 0 -11 1 -1 
0 -7 1 -1 0 -3 1 -1 1 1 0 3 1 1 0 7 
1 1 0 7 1 1 0 8 1 1 0 10 1 1 0 10 
1 1 0 11 1 1 3432 3224 300 MP stroke
0 13 1 1 0 15 1 1 0 16 1 1 0 17 1 1 
0 19 1 1 0 21 1 1 0 21 1 2 0 24 1 1 
0 24 1 1 0 26 1 1 0 25 1 1 0 26 1 1 
0 27 1 1 0 23 1 1 0 20 1 1 0 17 1 1 
0 13 1 1 0 11 1 1 0 8 1 1 0 7 1 1 
0 5 1 1 0 4 1 1 0 3 1 1 0 2 1 1 
0 2 2 2 0 1 2 2 1 1 0 2 2 2 0 2 
1 1 0 2 1 1 0 3 1 1 0 4 1 1 0 4 
1 1 0 5 1 1 0 6 1 1 0 6 1 1 0 7 
1 1 0 7 1 1 0 6 1 1 0 7 1 1 0 7 
1 1 0 6 1 1 0 6 1 1 0 6 1 1 0 5 
1 1 0 3 1 1 0 3 1 1 0 1 1 1 1 1 
1 0 1 -1 0 -3 1 -1 0 -3 1 -1 0 -5 1 -1 
0 -8 1 -1 0 -8 1 -1 0 -11 1 -1 0 -12 1 -1 
0 -13 1 -2 0 -14 1 -2 0 -15 1 -2 0 -18 1 -2 
0 -18 1 -1 0 -21 1 -2 0 -20 1 -2 0 -23 1 -2 
0 -24 1 -2 0 -23 1 -2 0 -23 1 -2 0 -25 1 -2 
0 -25 1 -3 0 -25 1 -2 0 -27 1 -2 0 -23 1 -2 
0 -25 1 -2 0 -23 1 -2 0 -21 1 -2 0 -21 1 -2 
0 -19 1 -2 0 -17 1 -1 0 -15 1 -1 0 -11 1 -1 
0 -9 1 -1 0 -5 1 -1 1 -3 -1 0 2 2 0 4 
1 1 0 5 1 1 0 7 1 1 0 7 1 1 0 9 
1 1 0 9 1 1 0 10 1 1 0 11 1 1 0 12 
1 1 0 14 1 1 0 15 1 1 0 15 1 1 0 18 
1 1 0 18 1 1 0 19 1 1 0 20 1 1 0 20 
1 1 0 20 1 1 0 19 1 1 0 19 1 1 0 18 
1 1 0 14 1 1 0 10 1 1 0 8 1 1 0 6 
1 1 0 4 1 1 0 3 1 1 0 3 2 2 1 1 
1 1 1 0 1 0 1 0 1 -1 1 0 1 1 1 0 
1 1 0 1 2 2 0 2 2 2 0 2 1 1 0 2 
1 1 0 2 1 1 0 3 1 1 0 2 1 1 0 2 
1 1 0 2 1 1 0 2 1 1 0 1 1 1 1 1 
1 1 1 1 1 -1 0 -1 2 -2 0 -3 1 -1 0 -3 
1 -1 0 -4 1 -1 0 -6 1 -1 0 -6 1 -1 0 -7 
1 -1 0 -8 1 -1 0 -10 1 -1 0 -9 1 -1 0 -12 
1 -1 0 -11 1 -1 0 -13 1 -1 0 -13 1 -1 0 -14 
1 -1 0 -15 1 -1 0 -15 1 -1 0 -15 1 -1 0 -16 
1 -1 0 -16 1 -1 3266 3105 300 MP stroke
0 -16 1 -2 0 -15 1 -1 0 -17 1 -1 0 -16 1 -1 
0 -15 1 -1 0 -15 1 -1 0 -16 1 -2 0 -13 1 -1 
0 -13 1 -1 0 -13 1 -1 0 -10 1 -2 0 -9 1 -1 
0 -9 1 -1 0 -7 1 -1 0 -5 1 -1 0 -4 1 -1 
0 -1 1 -1 1 -1 -1 0 2 2 0 1 1 1 0 2 
1 1 0 3 1 1 0 3 1 1 0 3 1 1 0 4 
1 1 0 4 1 1 0 4 1 1 0 5 1 1 0 5 
1 1 0 6 1 1 0 6 1 1 0 6 1 1 0 7 
1 1 0 7 1 1 0 6 1 1 0 7 1 1 0 7 
1 1 0 6 1 1 0 6 1 1 0 5 1 1 0 3 
1 1 0 2 1 1 0 2 1 1 0 1 2 2 1 0 
1 1 1 0 1 0 1 0 1 0 1 0 1 0 1 1 
1 0 1 0 1 1 1 0 1 1 1 1 1 0 1 1 
1 1 1 1 1 1 1 1 1 1 1 1 1 0 1 0 
1 0 1 0 1 0 1 -1 0 -1 2 -2 0 -2 2 -2 
0 -2 1 -1 0 -2 1 -1 0 -2 1 -1 0 -4 1 -1 
0 -2 1 -1 0 -4 1 -1 0 -4 1 -1 0 -4 1 -1 
0 -4 1 -1 0 -5 1 -1 0 -4 1 -1 0 -5 1 -1 
0 -5 1 -1 0 -6 1 -1 0 -5 1 -1 0 -5 1 -1 
0 -6 1 -1 0 -5 1 -1 0 -5 1 -1 0 -6 1 -1 
0 -5 1 -1 0 -5 1 -1 0 -5 1 -1 0 -4 1 -1 
0 -5 1 -1 0 -4 1 -1 0 -4 1 -1 0 -3 1 -1 
0 -3 1 -1 0 -3 1 -1 0 -1 1 -1 0 -3 2 -2 
1 -1 1 0 1 -1 1 1 1 1 1 1 1 1 1 1 
0 1 2 2 1 1 0 2 2 2 0 1 2 2 0 2 
2 2 0 2 1 1 0 1 1 1 0 2 2 2 0 2 
2 2 0 2 2 2 1 1 1 1 1 0 1 1 1 0 
1 1 1 0 1 0 1 0 1 0 1 1 1 0 1 0 
1 0 1 1 1 0 1 0 1 0 1 1 1 0 1 1 
1 0 1 0 1 1 1 0 1 0 1 1 1 0 1 0 
1 0 1 0 1 0 1 0 1 -1 1 0 1 -1 1 0 
1 -1 1 -1 1 -1 0 -1 2 -2 1 -1 1 -1 0 -2 
2 -2 1 -1 0 -2 2 -2 0 -2 2 -2 0 -2 2 -2 
0 -2 2 -2 0 -2 2 -2 0 -2 2 -2 0 -1 1 -1 
1 -1 0 -2 2 -2 0 -1 2 -2 1 -1 1 -1 1 -1 
1 -1 1 0 1 -1 1 0 1 0 1 0 1 0 1 0 
1 1 1 0 1 0 1 1 1 0 1 1 1 0 1 1 
1 0 1 1 1 0 3043 3344 300 MP stroke
1 1 1 1 1 0 1 1 1 1 1 0 1 1 1 0 
1 1 1 0 1 0 1 0 1 1 1 0 1 0 1 0 
1 0 1 0 1 0 1 0 1 0 1 0 1 0 1 0 
1 0 1 0 1 1 1 0 1 0 1 0 1 0 1 0 
1 0 1 0 1 0 1 0 1 0 1 0 1 0 1 0 
1 0 1 0 1 0 1 -1 1 0 1 0 1 0 1 -1 
1 0 1 -1 1 0 1 0 1 -1 1 0 1 -1 1 0 
1 -1 1 0 1 -1 1 0 1 -1 1 0 1 -1 1 0 
1 -1 1 0 1 -1 1 0 1 -1 1 0 1 -1 1 0 
1 0 1 -1 1 0 1 0 1 -1 1 0 1 0 1 0 
1 0 1 0 1 0 1 0 1 0 1 0 1 1 1 0 
1 0 1 0 1 1 1 0 1 0 1 0 1 1 1 0 
1 0 1 1 1 0 1 0 1 1 1 0 1 0 1 0 
1 0 1 0 1 0 1 0 1 0 1 0 1 -1 1 0 
1 -1 1 -1 1 0 1 -1 1 -1 1 -1 1 -1 1 0 
2923 3353 121 MP stroke
gr

24 w
c10
0 sg
3731 3641 mt 
(Years) s
2606 1973 mt  -90 rotate
(Psyllids) s
90 rotate
gs 2923 186 1915 3168 rc
c8
287 0 3114 397 2 MP stroke
gr

c8
3497  439 mt 
(Susceptible) s
gs 2923 186 1915 3168 rc
c9
287 0 3114 502 2 MP stroke
gr

c9
3497  544 mt 
(Exposed) s
gs 2923 186 1915 3168 rc
c10
287 0 3114 608 2 MP stroke
gr

c10
3497  650 mt 
(Infected) s
6 w

end %%Color Dict

eplot
%%EndObject

epage
end

showpage

%%Trailer
%%EOF
