5 0.6 90.9547 6.98329 146.774 398701 401641
5 0.61 90.949 6.98537 146.712 398893 401734
5 0.62 90.9435 6.98772 146.652 399078 401816
5 0.63 90.9382 6.98939 146.594 399256 401888
5 0.64 90.9332 6.99155 146.538 399427 401949
5 0.65 90.9283 6.99334 146.484 399592 401999
5 0.66 90.9236 6.99549 146.433 399750 402039
5 0.67 90.9191 6.99718 146.383 399903 402069
5 0.68 90.9148 6.99862 146.335 400049 402088
5 0.69 90.9106 7.00028 146.289 400191 402097
5 0.7 90.9066 7.00325 146.245 400326 402095
5 0.71 90.9027 7.3009 146.202 400457 402082
5 0.72 90.899 7.30445 146.161 400583 402059
5 0.73 90.8954 7.30739 146.122 400704 402025
5 0.74 90.8919 7.31036 146.084 400821 401979
5 0.75 90.8886 7.31371 146.047 400933 401922
5 0.76 90.8854 7.31641 146.012 401042 401853
5 0.77 90.8823 7.31875 145.978 401146 401772
5 0.78 90.8793 7.32109 145.945 401247 401678
5 0.79 90.8764 7.32371 145.914 401343 401572
5 0.8 90.8737 7.32579 145.884 401437 401451
5 0.81 90.871 7.32793 145.854 401527 401317
5 0.82 90.8684 7.3297 145.826 401613 401167
5 0.83 90.866 7.3317 145.799 401697 401002
5 0.84 90.8636 7.33353 145.772 401778 400820
5 0.85 90.8613 7.33511 145.747 401856 400621
5 0.86 90.859 7.33733 145.723 401931 400402
5 0.87 90.8569 7.33878 145.699 402003 400163
5 0.88 90.8548 7.33996 145.676 402073 399903
5 0.89 90.8528 7.34154 145.654 402141 399619
5 0.9 90.8508 7.34319 145.633 402206 399309
5 0.91 90.849 7.34456 145.612 402269 398972
5 0.92 90.8472 7.34599 145.593 402330 398604
5 0.93 90.8454 7.34703 145.573 402389 398203
5 0.94 90.8437 7.34841 145.555 402446 397764
5 0.95 90.8421 7.34925 145.537 402501 397285
5 0.96 90.8405 7.35091 145.52 402554 396760
5 0.97 90.8389 7.35213 145.503 402606 396184
5 0.98 90.8374 7.35314 145.487 402656 395550
5 0.99 90.836 7.35386 145.471 402704 394849
6 0.6 90.8934 7.31262 146.073 399677 403206
6 0.61 90.8889 7.31603 146.024 399830 403240
6 0.62 90.8845 7.31994 145.976 399977 403263
6 0.63 90.8804 7.323 145.93 400117 403275
6 0.64 90.8764 7.3266 145.886 400251 403277
6 0.65 90.8726 7.32957 145.844 400380 403269
6 0.66 90.8689 7.33224 145.804 400503 403250
6 0.67 90.8654 7.33508 145.766 400622 403221
6 0.68 90.862 7.33765 145.729 400735 403181
6 0.69 90.8588 7.33997 145.694 400844 403131
6 0.7 90.8556 7.34203 145.66 400948 403070
6 0.71 90.8527 7.34476 145.627 401048 402998
6 0.72 90.8498 7.34634 145.596 401144 402915
6 0.73 90.847 7.34842 145.566 401237 402821
6 0.74 90.8444 7.35044 145.537 401325 402715
6 0.75 90.8419 7.35228 145.509 401410 402596
6 0.76 90.8394 7.35392 145.482 401492 402466
6 0.77 90.8371 7.35578 145.457 401571 402322
6 0.78 90.8348 7.35725 145.432 401647 402165
6 0.79 90.8326 7.3587 145.408 401720 401994
6 0.8 90.8305 7.36062 145.385 401790 401808
6 0.81 90.8285 7.36201 145.363 401858 401606
6 0.82 90.8265 7.36289 145.342 401923 401388
6 0.83 90.8246 7.3645 145.322 401986 401152
6 0.84 90.8228 7.366 145.302 402047 400898
6 0.85 90.8211 7.36742 145.283 402105 400623
6 0.86 90.8194 7.36859 145.264 402162 400327
6 0.87 90.8177 7.36976 145.247 402216 400008
6 0.88 90.8162 7.37064 145.229 402269 399665
6 0.89 90.8146 7.37198 145.213 402320 399293
6 0.9 90.8131 7.37267 145.197 402369 398893
6 0.91 90.8117 7.37404 145.181 402417 398460
6 0.92 90.8103 7.37472 145.166 402463 397992
6 0.93 90.809 7.37541 145.152 402508 397484
6 0.94 90.8077 7.37648 145.138 402551 396933
6 0.95 90.8064 7.37762 145.124 402593 396334
6 0.96 90.8052 7.37809 145.111 402633 395681
6 0.97 90.804 7.37897 145.098 402673 394966
6 0.98 90.8028 7.38018 145.085 402711 394184
6 0.99 90.8017 7.38087 145.073 402748 393322
7 0.6 90.8479 7.35024 145.548 400113 404230
7 0.61 90.8442 7.35289 145.508 400238 404215
7 0.62 90.8406 7.35569 145.469 400357 404190
7 0.63 90.8372 7.35795 145.432 400470 404155
7 0.64 90.8339 7.36078 145.396 400579 404110
7 0.65 90.8308 7.36262 145.363 400684 404054
7 0.66 90.8278 7.36518 145.33 400783 403988
7 0.67 90.825 7.36666 145.299 400879 403912
7 0.68 90.8222 7.36859 145.269 400971 403825
7 0.69 90.8196 7.37107 145.241 401058 403727
7 0.7 90.8171 7.37287 145.213 401143 403618
7 0.71 90.8146 7.3741 145.187 401224 403499
7 0.72 90.8123 7.37628 145.161 401301 403367
7 0.73 90.81 7.3773 145.137 401376 403224
7 0.74 90.8079 7.37882 145.114 401448 403069
7 0.75 90.8058 7.38044 145.091 401517 402901
7 0.76 90.8038 7.38174 145.07 401583 402719
7 0.77 90.8019 7.38312 145.049 401648 402524
7 0.78 90.8 7.38501 145.029 401709 402314
7 0.79 90.7982 7.38639 145.009 401769 402088
7 0.8 90.7965 7.38729 144.99 401826 401847
7 0.81 90.7948 7.38847 144.972 401882 401588
7 0.82 90.7932 7.38986 144.955 401936 401311
7 0.83 90.7916 7.39125 144.938 401987 401014
7 0.84 90.7901 7.39224 144.922 402038 400697
7 0.85 90.7886 7.39348 144.906 402086 400357
7 0.86 90.7872 7.39449 144.891 402133 399993
7 0.87 90.7858 7.39524 144.876 402178 399603
7 0.88 90.7845 7.39652 144.861 402223 399184
7 0.89 90.7832 7.39758 144.847 402265 398734
7 0.9 90.782 7.39797 144.834 402307 398251
7 0.91 90.7807 7.39883 144.821 402347 397731
7 0.92 90.7796 7.40043 144.808 402386 397170
7 0.93 90.7784 7.40122 144.796 402424 396563
7 0.94 90.7773 7.40218 144.784 402461 395907
7 0.95 90.7762 7.40274 144.772 402497 395195
7 0.96 90.7751 7.40354 144.761 402532 394420
7 0.97 90.7741 7.4047 144.75 402566 393575
7 0.98 90.7731 7.40549 144.739 402599 392650
7 0.99 90.7721 7.40612 144.728 402632 391635
8 0.6 90.8111 7.3793 145.122 400247 404952
8 0.61 90.8079 7.38212 145.087 400353 404899
8 0.62 90.8048 7.38426 145.054 400454 404835
8 0.63 90.8019 7.38619 145.023 400551 404762
8 0.64 90.7991 7.38829 144.992 400644 404678
8 0.65 90.7964 7.38987 144.963 400733 404585
8 0.66 90.7939 7.39178 144.936 400818 404480
8 0.67 90.7914 7.39405 144.909 400900 404366
8 0.68 90.789 7.39566 144.883 400978 404240
8 0.69 90.7868 7.39758 144.859 401054 404104
8 0.7 90.7846 7.39898 144.835 401126 403956
8 0.71 90.7825 7.40082 144.812 401196 403796
8 0.72 90.7804 7.40275 144.791 401263 403625
8 0.73 90.7785 7.40386 144.769 401328 403441
8 0.74 90.7766 7.4054 144.749 401391 403243
8 0.75 90.7747 7.40684 144.729 401451 403033
8 0.76 90.773 7.40825 144.71 401510 402807
8 0.77 90.7713 7.40973 144.692 401566 402567
8 0.78 90.7696 7.41108 144.674 401620 402311
8 0.79 90.768 7.4129 144.657 401673 402038
8 0.8 90.7665 7.41413 144.641 401724 401747
8 0.81 90.765 7.41486 144.624 401774 401438
8 0.82 90.7635 7.41654 144.609 401821 401108
8 0.83 90.7621 7.41784 144.594 401868 400756
8 0.84 90.7608 7.41864 144.579 401913 400381
8 0.85 90.7594 7.42003 144.565 401957 399981
8 0.86 90.7581 7.42161 144.551 401999 399554
8 0.87 90.7569 7.42257 144.537 402041 399097
8 0.88 90.7556 7.4239 144.524 402081 398608
8 0.89 90.7545 7.42474 144.512 402120 398085
8 0.9 90.7533 7.42612 144.499 402158 397523
8 0.91 90.7522 7.42685 144.487 402195 396920
8 0.92 90.7511 7.42773 144.475 402232 396270
8 0.93 90.75 7.42935 144.464 402267 395569
8 0.94 90.749 7.42989 144.453 402301 394811
8 0.95 90.7479 7.43128 144.442 402335 393990
8 0.96 90.7469 7.43243 144.431 402368 393097
8 0.97 90.746 7.4336 144.421 402400 392125
8 0.98 90.745 7.43403 144.41 402431 391061
8 0.99 90.7441 7.43527 144.4 402462 389894
9 0.6 90.779 7.40709 144.748 400218 405511
9 0.61 90.7761 7.40931 144.717 400312 405426
9 0.62 90.7734 7.41143 144.688 400402 405331
9 0.63 90.7708 7.41348 144.66 400489 405226
9 0.64 90.7682 7.41559 144.633 400572 405111
9 0.65 90.7658 7.41794 144.606 400652 404986
9 0.66 90.7635 7.4203 144.581 400729 404850
9 0.67 90.7613 7.42229 144.557 400803 404703
9 0.68 90.7591 7.42379 144.534 400875 404544
9 0.69 90.757 7.42609 144.512 400943 404375
9 0.7 90.755 7.42834 144.49 401010 404193
9 0.71 90.7531 7.42993 144.469 401074 403999
9 0.72 90.7512 7.43243 144.449 401136 403792
9 0.73 90.7494 7.43387 144.43 401195 403572
9 0.74 90.7476 7.43634 144.411 401253 403337
9 0.75 90.7459 7.43784 144.393 401309 403088
9 0.76 90.7443 7.43953 144.375 401364 402824
9 0.77 90.7427 7.44188 144.358 401416 402543
9 0.78 90.7411 7.44403 144.341 401467 402244
9 0.79 90.7396 7.44588 144.325 401517 401928
9 0.8 90.7382 7.44745 144.309 401565 401591
9 0.81 90.7367 7.44939 144.294 401612 401234
9 0.82 90.7354 7.4518 144.279 401657 400854
9 0.83 90.734 7.45344 144.265 401702 400451
9 0.84 90.7327 7.45603 144.251 401745 400021
9 0.85 90.7314 7.45828 144.237 401787 399564
9 0.86 90.7302 7.4601 144.224 401827 399076
9 0.87 90.729 7.4628 144.211 401867 398556
9 0.88 90.7278 7.46519 144.198 401906 397999
9 0.89 90.7266 7.46788 144.186 401944 397404
9 0.9 90.7255 7.47005 144.174 401981 396767
9 0.91 90.7244 7.47354 144.162 402017 396082
9 0.92 90.7233 7.47696 144.15 402053 395345
9 0.93 90.7223 7.48086 144.139 402087 394552
9 0.94 90.7213 7.48561 144.128 402121 393694
9 0.95 90.7203 7.49311 144.118 402154 392765
9 0.96 90.7193 7.88367 144.107 402186 391757
9 0.97 90.7183 7.8839 144.097 402217 390658
9 0.98 90.7174 7.88438 144.087 402248 389457
9 0.99 90.7165 7.8846 144.077 402279 388140
10 0.6 90.7494 7.43862 144.402 400103 405984
10 0.61 90.7467 7.44174 144.374 400190 405873
10 0.62 90.7442 7.44517 144.346 400275 405751
10 0.63 90.7417 7.44855 144.32 400356 405619
10 0.64 90.7393 7.45172 144.294 400434 405477
10 0.65 90.7371 7.45546 144.27 400509 405324
10 0.66 90.7349 7.45924 144.246 400582 405160
10 0.67 90.7327 7.46369 144.223 400652 404984
10 0.68 90.7307 7.46796 144.201 400719 404797
10 0.69 90.7287 7.47278 144.18 400785 404597
10 0.7 90.7268 7.47985 144.159 400848 404385
10 0.71 90.7249 7.48834 144.139 400910 404160
10 0.72 90.7231 7.88352 144.12 400969 403921
10 0.73 90.7214 7.88431 144.101 401027 403667
10 0.74 90.7197 7.88468 144.083 401083 403398
10 0.75 90.718 7.88538 144.065 401137 403114
10 0.76 90.7164 7.88583 144.048 401190 402812
10 0.77 90.7149 7.88639 144.032 401241 402493
10 0.78 90.7134 7.88682 144.015 401291 402154
10 0.79 90.7119 7.88736 144 401339 401796
10 0.8 90.7105 7.88785 143.984 401387 401416
10 0.81 90.7091 7.88833 143.969 401433 401013
10 0.82 90.7077 7.88871 143.955 401477 400585
10 0.83 90.7064 7.88916 143.94 401521 400131
10 0.84 90.7051 7.88958 143.926 401564 399649
10 0.85 90.7038 7.88997 143.913 401605 399135
10 0.86 90.7026 7.89038 143.9 401646 398589
10 0.87 90.7014 7.89079 143.887 401685 398006
10 0.88 90.7002 7.89146 143.874 401724 397383
10 0.89 90.6991 7.89179 143.862 401762 396718
10 0.9 90.6979 7.89191 143.85 401799 396005
10 0.91 90.6968 7.8924 143.838 401835 395240
10 0.92 90.6958 7.89284 143.827 401870 394418
10 0.93 90.6947 7.89316 143.815 401905 393532
10 0.94 90.6937 7.89345 143.804 401939 392576
10 0.95 90.6927 7.89386 143.794 401972 391540
10 0.96 90.6917 7.89393 143.783 402004 390416
10 0.97 90.6907 7.8943 143.773 402036 389192
10 0.98 90.6898 7.89463 143.762 402067 387855
10 0.99 90.6889 7.89511 143.752 402098 386389
11 0.6 90.7219 7.88525 144.075 399930 406399
11 0.61 90.7193 7.88619 144.048 400013 406264
11 0.62 90.7169 7.88703 144.022 400094 406118
11 0.63 90.7146 7.88765 143.997 400171 405962
11 0.64 90.7123 7.88845 143.972 400246 405794
11 0.65 90.7101 7.88919 143.949 400319 405615
11 0.66 90.708 7.88983 143.926 400389 405425
11 0.67 90.7059 7.89052 143.904 400456 405222
11 0.68 90.7039 7.89149 143.883 400522 405007
11 0.69 90.702 7.89194 143.862 400585 404779
11 0.7 90.7002 7.89246 143.842 400647 404537
11 0.71 90.6984 7.89298 143.822 400706 404281
11 0.72 90.6966 7.89386 143.804 400764 404011
11 0.73 90.6949 7.89422 143.785 400820 403724
11 0.74 90.6933 7.89493 143.768 400875 403422
11 0.75 90.6916 7.89529 143.75 400928 403102
11 0.76 90.6901 7.89567 143.734 400979 402764
11 0.77 90.6886 7.89636 143.717 401029 402406
11 0.78 90.6871 7.89679 143.701 401078 402028
11 0.79 90.6856 7.89734 143.686 401126 401628
11 0.8 90.6842 7.89761 143.671 401172 401204
11 0.81 90.6829 7.89817 143.656 401217 400755
11 0.82 90.6815 7.89844 143.642 401261 400280
11 0.83 90.6802 7.8989 143.628 401304 399775
11 0.84 90.679 7.89958 143.614 401346 399239
11 0.85 90.6777 7.89994 143.601 401387 398670
11 0.86 90.6765 7.90026 143.588 401427 398064
11 0.87 90.6753 7.90061 143.575 401466 397418
11 0.88 90.6742 7.90087 143.563 401504 396729
11 0.89 90.673 7.90122 143.551 401541 395992
11 0.9 90.6719 7.9017 143.539 401577 395204
11 0.91 90.6709 7.90213 143.527 401613 394359
11 0.92 90.6698 7.90245 143.516 401648 393450
11 0.93 90.6688 7.9025 143.505 401682 392472
11 0.94 90.6678 7.90288 143.494 401715 391416
11 0.95 90.6668 7.90321 143.483 401748 390273
11 0.96 90.6658 7.9037 143.473 401779 389033
11 0.97 90.6649 7.90399 143.463 401811 387682
11 0.98 90.6639 7.90436 143.453 401841 386208
11 0.99 90.663 7.90437 143.443 401871 384591
12 0.6 90.6983 7.89425 143.794 399617 406675
12 0.61 90.6959 7.89491 143.768 399695 406514
12 0.62 90.6936 7.89581 143.744 399771 406343
12 0.63 90.6914 7.89634 143.72 399843 406160
12 0.64 90.6892 7.89702 143.697 399913 405965
12 0.65 90.6872 7.89776 143.675 399981 405759
12 0.66 90.6852 7.89853 143.654 400046 405540
12 0.67 90.6832 7.89903 143.634 400109 405308
12 0.68 90.6814 7.89962 143.614 400170 405063
12 0.69 90.6796 7.9003 143.594 400230 404805
12 0.7 90.6778 7.90063 143.576 400287 404531
12 0.71 90.6761 7.90142 143.558 400342 404243
12 0.72 90.6745 7.90177 143.54 400396 403938
12 0.73 90.6728 7.90217 143.523 400449 403617
12 0.74 90.6713 7.9027 143.507 400499 403278
12 0.75 90.6698 7.90323 143.491 400548 402920
12 0.76 90.6683 7.90393 143.475 400596 402543
12 0.77 90.6669 7.90403 143.46 400643 402145
12 0.78 90.6655 7.9047 143.445 400688 401724
12 0.79 90.6641 7.90507 143.431 400732 401279
12 0.8 90.6628 7.90549 143.417 400774 400809
12 0.81 90.6615 7.9058 143.403 400816 400312
12 0.82 90.6603 7.90617 143.39 400856 399786
12 0.83 90.6591 7.9066 143.377 400896 399228
12 0.84 90.6579 7.90691 143.365 400934 398636
12 0.85 90.6567 7.90736 143.353 400971 398007
12 0.86 90.6556 7.90769 143.341 401008 397339
12 0.87 90.6545 7.90804 143.329 401043 396628
12 0.88 90.6535 7.90827 143.318 401078 395869
12 0.89 90.6524 7.90883 143.307 401112 395059
12 0.9 90.6514 7.90881 143.296 401145 394192
12 0.91 90.6504 7.90918 143.286 401177 393263
12 0.92 90.6494 7.9096 143.276 401208 392265
12 0.93 90.6485 7.90998 143.266 401239 391192
12 0.94 90.6475 7.9103 143.256 401269 390033
12 0.95 90.6466 7.91036 143.247 401298 388780
12 0.96 90.6457 7.91075 143.237 401326 387421
12 0.97 90.6449 7.9111 143.228 401354 385941
12 0.98 90.644 7.91108 143.219 401381 384327
12 0.99 90.6432 7.91143 143.211 401408 382557
13 0.6 90.6788 7.90134 143.566 399139 406785
13 0.61 90.6766 7.90211 143.543 399211 406598
13 0.62 90.6744 7.90257 143.521 399279 406399
13 0.63 90.6724 7.90324 143.499 399345 406188
13 0.64 90.6704 7.90392 143.478 399409 405966
13 0.65 90.6685 7.9043 143.458 399471 405730
13 0.66 90.6666 7.90482 143.439 399530 405482
13 0.67 90.6648 7.90543 143.42 399587 405219
13 0.68 90.6631 7.90622 143.402 399642 404943
13 0.69 90.6614 7.90662 143.385 399696 404652
13 0.7 90.6598 7.90698 143.368 399748 404346
13 0.71 90.6582 7.90739 143.352 399798 404023
13 0.72 90.6567 7.90811 143.336 399846 403683
13 0.73 90.6552 7.90843 143.321 399893 403325
13 0.74 90.6538 7.90889 143.306 399938 402949
13 0.75 90.6524 7.90924 143.292 399982 402552
13 0.76 90.651 7.9098 143.278 400025 402134
13 0.77 90.6497 7.90998 143.264 400067 401694
13 0.78 90.6484 7.91034 143.251 400107 401229
13 0.79 90.6472 7.91065 143.239 400146 400739
13 0.8 90.646 7.91107 143.226 400184 400222
13 0.81 90.6448 7.91147 143.214 400220 399675
13 0.82 90.6437 7.91184 143.203 400256 399096
13 0.83 90.6426 7.91227 143.191 400291 398484
13 0.84 90.6415 7.91264 143.18 400325 397835
13 0.85 90.6405 7.91297 143.17 400357 397147
13 0.86 90.6394 7.91327 143.159 400389 396415
13 0.87 90.6384 7.9133 143.149 400420 395637
13 0.88 90.6375 7.91353 143.139 400451 394808
13 0.89 90.6365 7.91408 143.13 400480 393923
13 0.9 90.6356 7.9144 143.12 400509 392977
13 0.91 90.6347 7.91439 143.111 400537 391964
13 0.92 90.6338 7.91477 143.102 400564 390876
13 0.93 90.6329 7.91498 143.094 400591 389706
13 0.94 90.6321 7.91515 143.085 400616 388445
13 0.95 90.6313 7.91552 143.077 400642 387081
13 0.96 90.6305 7.91569 143.069 400666 385602
13 0.97 90.6297 7.91586 143.061 400690 383993
13 0.98 90.629 7.91615 143.054 400714 382237
13 0.99 90.6282 7.91621 143.046 400736 380314
14 0.6 90.6625 7.90691 143.384 398523 406756
14 0.61 90.6605 7.90736 143.363 398587 406543
14 0.62 90.6585 7.9081 143.343 398649 406317
14 0.63 90.6566 7.90847 143.323 398709 406078
14 0.64 90.6547 7.90918 143.305 398766 405827
14 0.65 90.6529 7.90973 143.287 398822 405563
14 0.66 90.6512 7.91016 143.269 398875 405285
14 0.67 90.6496 7.91044 143.252 398926 404992
14 0.68 90.648 7.91092 143.236 398976 404685
14 0.69 90.6464 7.91144 143.221 399024 404361
14 0.7 90.6449 7.91185 143.206 399070 404022
14 0.71 90.6435 7.91223 143.191 399115 403665
14 0.72 90.6421 7.91279 143.177 399158 403290
14 0.73 90.6407 7.91316 143.163 399200 402896
14 0.74 90.6394 7.91365 143.15 399241 402482
14 0.75 90.6381 7.91401 143.137 399280 402047
14 0.76 90.6369 7.91428 143.125 399318 401589
14 0.77 90.6357 7.91453 143.113 399354 401107
14 0.78 90.6345 7.91476 143.102 399390 400599
14 0.79 90.6333 7.91513 143.09 399425 400064
14 0.8 90.6322 7.9156 143.079 399458 399499
14 0.81 90.6312 7.91569 143.069 399491 398903
14 0.82 90.6301 7.9162 143.059 399522 398273
14 0.83 90.6291 7.91638 143.049 399553 397607
14 0.84 90.6281 7.91681 143.039 399583 396902
14 0.85 90.6271 7.9169 143.029 399612 396154
14 0.86 90.6262 7.91722 143.02 399640 395360
14 0.87 90.6253 7.91744 143.011 399667 394516
14 0.88 90.6244 7.91775 143.003 399694 393617
14 0.89 90.6235 7.91801 142.994 399720 392658
14 0.9 90.6227 7.91805 142.986 399745 391633
14 0.91 90.6219 7.91849 142.978 399769 390537
14 0.92 90.6211 7.9185 142.97 399793 389360
14 0.93 90.6203 7.91891 142.963 399817 388095
14 0.94 90.6195 7.9191 142.955 399839 386731
14 0.95 90.6188 7.91931 142.948 399861 385257
14 0.96 90.618 7.91966 142.941 399883 383660
14 0.97 90.6173 7.9198 142.934 399904 381922
14 0.98 90.6166 7.92003 142.928 399924 380027
14 0.99 90.6159 7.9201 142.921 399944 377951
15 0.6 90.6485 7.91113 143.234 397805 406627
15 0.61 90.6466 7.91179 143.215 397864 406387
15 0.62 90.6448 7.91242 143.197 397920 406135
15 0.63 90.643 7.9129 143.179 397974 405870
15 0.64 90.6413 7.91343 143.163 398026 405591
15 0.65 90.6396 7.91368 143.146 398076 405299
15 0.66 90.638 7.91412 143.131 398125 404992
15 0.67 90.6365 7.91459 143.115 398171 404670
15 0.68 90.635 7.91498 143.101 398216 404332
15 0.69 90.6335 7.91553 143.087 398260 403978
15 0.7 90.6321 7.91594 143.073 398301 403607
15 0.71 90.6308 7.91628 143.06 398342 403217
15 0.72 90.6295 7.91656 143.047 398381 402808
15 0.73 90.6282 7.91692 143.035 398419 402379
15 0.74 90.6269 7.91718 143.023 398455 401929
15 0.75 90.6257 7.91749 143.011 398491 401456
15 0.76 90.6246 7.91782 143 398525 400958
15 0.77 90.6235 7.91825 142.989 398558 400436
15 0.78 90.6224 7.91873 142.979 398590 399885
15 0.79 90.6213 7.91892 142.969 398622 399306
15 0.8 90.6203 7.91905 142.959 398652 398696
15 0.81 90.6193 7.91947 142.949 398681 398052
15 0.82 90.6183 7.91964 142.94 398710 397372
15 0.83 90.6173 7.91985 142.931 398738 396653
15 0.84 90.6164 7.92004 142.922 398765 395892
15 0.85 90.6155 7.92035 142.914 398791 395086
15 0.86 90.6146 7.92059 142.905 398816 394231
15 0.87 90.6137 7.92096 142.897 398841 393322
15 0.88 90.6129 7.92095 142.89 398865 392354
15 0.89 90.6121 7.92114 142.882 398889 391323
15 0.9 90.6113 7.92154 142.874 398912 390221
15 0.91 90.6105 7.92186 142.867 398934 389042
15 0.92 90.6098 7.92191 142.86 398956 387777
15 0.93 90.609 7.92205 142.853 398977 386418
15 0.94 90.6083 7.9224 142.847 398998 384953
15 0.95 90.6076 7.92266 142.84 399018 383370
15 0.96 90.6069 7.92264 142.834 399037 381655
15 0.97 90.6062 7.92304 142.827 399057 379791
15 0.98 90.6056 7.92318 142.821 399075 377757
15 0.99 90.6049 7.92339 142.815 399094 375529
16 0.6 90.6361 7.91498 143.107 397020 406430
16 0.61 90.6343 7.91555 143.09 397074 406166
16 0.62 90.6325 7.9159 143.073 397126 405888
16 0.63 90.6308 7.91638 143.057 397175 405597
16 0.64 90.6292 7.91691 143.041 397223 405293
16 0.65 90.6276 7.91725 143.026 397269 404973
16 0.66 90.6261 7.91765 143.012 397314 404639
16 0.67 90.6246 7.91808 142.998 397357 404289
16 0.68 90.6232 7.9186 142.984 397398 403922
16 0.69 90.6218 7.91894 142.971 397438 403538
16 0.7 90.6205 7.91929 142.959 397477 403136
16 0.71 90.6192 7.91969 142.946 397514 402714
16 0.72 90.618 7.91984 142.935 397550 402273
16 0.73 90.6168 7.92021 142.923 397585 401810
16 0.74 90.6156 7.92078 142.912 397619 401324
16 0.75 90.6144 7.92079 142.902 397652 400814
16 0.76 90.6133 7.92116 142.891 397684 400279
16 0.77 90.6123 7.92159 142.881 397715 399717
16 0.78 90.6112 7.92169 142.872 397744 399126
16 0.79 90.6102 7.92207 142.862 397773 398504
16 0.8 90.6092 7.92228 142.853 397802 397848
16 0.81 90.6082 7.92241 142.844 397829 397157
16 0.82 90.6073 7.92266 142.835 397856 396428
16 0.83 90.6064 7.92304 142.827 397882 395658
16 0.84 90.6055 7.92314 142.819 397907 394843
16 0.85 90.6046 7.92348 142.811 397931 393979
16 0.86 90.6038 7.9238 142.803 397955 393064
16 0.87 90.603 7.92385 142.795 397978 392091
16 0.88 90.6021 7.92393 142.788 398001 391056
16 0.89 90.6014 7.92414 142.781 398023 389952
16 0.9 90.6006 7.92448 142.774 398045 388775
16 0.91 90.5998 7.92464 142.767 398066 387514
16 0.92 90.5991 7.92493 142.76 398086 386163
16 0.93 90.5984 7.92489 142.754 398106 384710
16 0.94 90.5977 7.92508 142.748 398126 383145
16 0.95 90.597 7.92531 142.741 398145 381454
16 0.96 90.5963 7.92564 142.735 398163 379622
16 0.97 90.5957 7.92571 142.729 398182 377631
16 0.98 90.595 7.926 142.724 398199 375459
16 0.99 90.5944 7.92621 142.718 398217 373082
17 0.6 90.6245 7.91852 142.994 396191 406189
17 0.61 90.6228 7.91889 142.978 396242 405902
17 0.62 90.6211 7.91929 142.962 396290 405600
17 0.63 90.6195 7.91997 142.947 396337 405285
17 0.64 90.6179 7.92021 142.932 396382 404956
17 0.65 90.6164 7.92077 142.918 396425 404611
17 0.66 90.6149 7.92113 142.904 396467 404250
17 0.67 90.6135 7.92132 142.891 396507 403873
17 0.68 90.6122 7.9219 142.879 396546 403478
17 0.69 90.6108 7.9219 142.866 396584 403065
17 0.7 90.6095 7.92242 142.854 396620 402633
17 0.71 90.6083 7.92283 142.843 396656 402181
17 0.72 90.6071 7.92306 142.832 396690 401708
17 0.73 90.6059 7.92352 142.821 396723 401212
17 0.74 90.6048 7.92358 142.811 396755 400692
17 0.75 90.6037 7.92389 142.801 396786 400147
17 0.76 90.6026 7.9241 142.791 396817 399575
17 0.77 90.6015 7.92433 142.781 396846 398974
17 0.78 90.6005 7.92466 142.772 396875 398342
17 0.79 90.5995 7.92508 142.763 396902 397678
17 0.8 90.5986 7.92504 142.754 396929 396979
17 0.81 90.5976 7.92531 142.746 396955 396242
17 0.82 90.5967 7.92583 142.737 396981 395464
17 0.83 90.5958 7.92591 142.729 397006 394643
17 0.84 90.5949 7.92618 142.721 397030 393774
17 0.85 90.5941 7.92647 142.714 397053 392855
17 0.86 90.5933 7.92659 142.706 397076 391879
17 0.87 90.5925 7.92677 142.699 397099 390843
17 0.88 90.5917 7.92705 142.692 397121 389741
17 0.89 90.5909 7.92731 142.685 397142 388567
17 0.9 90.5901 7.92733 142.678 397163 387313
17 0.91 90.5894 7.92751 142.672 397183 385972
17 0.92 90.5887 7.92772 142.665 397203 384534
17 0.93 90.588 7.92769 142.659 397222 382989
17 0.94 90.5873 7.92807 142.653 397241 381324
17 0.95 90.5866 7.92832 142.647 397260 379526
17 0.96 90.5859 7.92848 142.641 397278 377578
17 0.97 90.5853 7.92848 142.635 397296 375461
17 0.98 90.5847 7.92874 142.629 397313 373152
17 0.99 90.584 7.92885 142.624 397330 370624
18 0.6 90.6135 7.92171 142.89 395336 405922
18 0.61 90.6118 7.92196 142.874 395384 405612
18 0.62 90.6102 7.92234 142.859 395430 405288
18 0.63 90.6086 7.92273 142.844 395475 404950
18 0.64 90.6071 7.9231 142.83 395518 404596
18 0.65 90.6056 7.92371 142.817 395560 404227
18 0.66 90.6042 7.92388 142.804 395600 403840
18 0.67 90.6028 7.92423 142.791 395638 403437
18 0.68 90.6014 7.92451 142.779 395676 403015
18 0.69 90.6001 7.92499 142.767 395712 402575
18 0.7 90.5989 7.92542 142.756 395747 402114
18 0.71 90.5977 7.92579 142.745 395781 401632
18 0.72 90.5965 7.92578 142.734 395814 401127
18 0.73 90.5953 7.9264 142.724 395846 400599
18 0.74 90.5942 7.9264 142.714 395877 400046
18 0.75 90.5931 7.92676 142.704 395908 399466
18 0.76 90.592 7.92714 142.694 395937 398857
18 0.77 90.591 7.92733 142.685 395965 398218
18 0.78 90.59 7.92768 142.676 395993 397547
18 0.79 90.589 7.92772 142.667 396020 396842
18 0.8 90.5881 7.9281 142.659 396047 396099
18 0.81 90.5871 7.9281 142.65 396072 395317
18 0.82 90.5862 7.92832 142.642 396097 394491
18 0.83 90.5853 7.92874 142.634 396121 393620
18 0.84 90.5845 7.92907 142.627 396145 392698
18 0.85 90.5836 7.9292 142.619 396168 391722
18 0.86 90.5828 7.92923 142.612 396191 390688
18 0.87 90.582 7.92952 142.605 396213 389589
18 0.88 90.5812 7.92962 142.598 396234 388421
18 0.89 90.5805 7.92975 142.591 396255 387176
18 0.9 90.5797 7.93 142.584 396276 385847
18 0.91 90.579 7.93038 142.578 396296 384425
18 0.92 90.5783 7.93047 142.571 396315 382901
18 0.93 90.5775 7.93076 142.565 396334 381264
18 0.94 90.5769 7.9307 142.559 396353 379500
18 0.95 90.5762 7.93114 142.553 396371 377594
18 0.96 90.5755 7.93107 142.547 396389 375531
18 0.97 90.5749 7.93114 142.542 396407 373288
18 0.98 90.5743 7.93134 142.536 396424 370842
18 0.99 90.5736 7.93152 142.53 396441 368164
19 0.6 90.6027 7.92469 142.79 394466 405640
19 0.61 90.601 7.925 142.775 394513 405309
19 0.62 90.5994 7.92534 142.76 394557 404963
19 0.63 90.5979 7.92583 142.746 394601 404602
19 0.64 90.5964 7.92605 142.733 394642 404225
19 0.65 90.5949 7.92637 142.72 394683 403831
19 0.66 90.5935 7.92675 142.707 394722 403420
19 0.67 90.5921 7.92712 142.695 394760 402991
19 0.68 90.5908 7.92732 142.683 394796 402543
19 0.69 90.5895 7.92788 142.671 394832 402075
19 0.7 90.5883 7.92815 142.66 394866 401586
19 0.71 90.5871 7.92848 142.649 394899 401075
19 0.72 90.5859 7.92884 142.639 394932 400540
19 0.73 90.5847 7.92885 142.628 394963 399980
19 0.74 90.5836 7.92932 142.618 394994 399394
19 0.75 90.5825 7.92965 142.609 395023 398779
19 0.76 90.5815 7.92999 142.599 395052 398135
19 0.77 90.5805 7.92999 142.59 395080 397459
19 0.78 90.5795 7.93037 142.581 395108 396748
19 0.79 90.5785 7.93073 142.573 395134 396002
19 0.8 90.5775 7.93075 142.564 395160 395216
19 0.81 90.5766 7.93118 142.556 395186 394388
19 0.82 90.5757 7.93119 142.548 395210 393515
19 0.83 90.5748 7.93152 142.54 395234 392594
19 0.84 90.574 7.93149 142.533 395258 391619
19 0.85 90.5731 7.93171 142.525 395281 390588
19 0.86 90.5723 7.93225 142.518 395303 389495
19 0.87 90.5715 7.93229 142.511 395325 388334
19 0.88 90.5707 7.93248 142.504 395346 387099
19 0.89 90.5699 7.93247 142.497 395367 385783
19 0.9 90.5692 7.93273 142.49 395388 384379
19 0.91 90.5685 7.93304 142.484 395407 382877
19 0.92 90.5677 7.93304 142.478 395427 381268
19 0.93 90.567 7.93344 142.471 395446 379538
19 0.94 90.5663 7.9335 142.465 395465 377675
19 0.95 90.5657 7.93364 142.459 395483 375663
19 0.96 90.565 7.93404 142.454 395501 373483
19 0.97 90.5644 7.93419 142.448 395518 371115
19 0.98 90.5637 7.93417 142.442 395536 368532
19 0.99 90.5631 7.93419 142.437 395552 365705
20 0.6 90.592 7.92732 142.693 393588 405351
20 0.61 90.5903 7.92771 142.678 393634 404998
20 0.62 90.5888 7.92809 142.664 393678 404631
20 0.63 90.5872 7.92865 142.65 393720 404248
20 0.64 90.5857 7.92903 142.637 393761 403848
20 0.65 90.5843 7.92922 142.624 393801 403431
20 0.66 90.5829 7.92965 142.611 393839 402996
20 0.67 90.5815 7.93008 142.599 393877 402542
20 0.68 90.5802 7.93037 142.587 393913 402068
20 0.69 90.5789 7.93075 142.576 393948 401573
20 0.7 90.5777 7.9308 142.565 393982 401056
20 0.71 90.5764 7.93138 142.554 394015 400515
20 0.72 90.5753 7.93136 142.544 394047 399950
20 0.73 90.5741 7.9319 142.534 394078 399359
20 0.74 90.573 7.93208 142.524 394109 398740
20 0.75 90.5719 7.93217 142.514 394138 398091
20 0.76 90.5709 7.93272 142.505 394167 397411
20 0.77 90.5698 7.93286 142.496 394195 396698
20 0.78 90.5688 7.93326 142.487 394222 395949
20 0.79 90.5679 7.93331 142.478 394248 395161
20 0.8 90.5669 7.93339 142.47 394274 394333
20 0.81 90.566 7.93383 142.462 394299 393460
20 0.82 90.5651 7.93416 142.454 394324 392540
20 0.83 90.5642 7.93419 142.446 394348 391568
20 0.84 90.5633 7.9346 142.438 394371 390541
20 0.85 90.5625 7.93458 142.431 394394 389455
20 0.86 90.5617 7.935 142.424 394417 388302
20 0.87 90.5608 7.93497 142.417 394439 387079
20 0.88 90.5601 7.93532 142.41 394460 385778
20 0.89 90.5593 7.93535 142.403 394481 384393
20 0.9 90.5585 7.93545 142.396 394501 382913
20 0.91 90.5578 7.9356 142.39 394521 381332
20 0.92 90.5571 7.936 142.383 394541 379636
20 0.93 90.5564 7.93599 142.377 394560 377814
20 0.94 90.5557 7.93638 142.371 394578 375853
20 0.95 90.555 7.93639 142.365 394597 373734
20 0.96 90.5543 7.9365 142.359 394615 371438
20 0.97 90.5537 7.93694 142.354 394632 368944
20 0.98 90.553 7.9368 142.348 394649 366225
20 0.99 90.5524 7.93693 142.342 394666 363248
21 0.6 90.5813 7.93034 142.597 392707 405058
21 0.61 90.5796 7.93075 142.582 392752 404685
21 0.62 90.578 7.93113 142.568 392796 404297
21 0.63 90.5765 7.93119 142.555 392838 403892
21 0.64 90.575 7.9317 142.541 392878 403470
21 0.65 90.5735 7.9319 142.529 392918 403029
21 0.66 90.5721 7.93228 142.516 392956 402570
21 0.67 90.5708 7.93286 142.504 392993 402091
21 0.68 90.5695 7.93305 142.492 393029 401592
21 0.69 90.5682 7.93325 142.481 393064 401070
21 0.7 90.5669 7.93383 142.47 393098 400525
21 0.71 90.5657 7.93383 142.459 393131 399956
21 0.72 90.5645 7.93413 142.449 393163 399361
21 0.73 90.5634 7.9345 142.439 393194 398739
21 0.74 90.5623 7.93499 142.429 393224 398087
21 0.75 90.5612 7.93523 142.419 393254 397404
21 0.76 90.5601 7.93539 142.41 393282 396689
21 0.77 90.5591 7.93568 142.401 393310 395939
21 0.78 90.5581 7.93598 142.392 393337 395151
21 0.79 90.5571 7.936 142.383 393364 394322
21 0.8 90.5561 7.93624 142.375 393390 393451
21 0.81 90.5552 7.93652 142.367 393415 392534
21 0.82 90.5543 7.93676 142.359 393440 391566
21 0.83 90.5534 7.93679 142.351 393464 390545
21 0.84 90.5525 7.93715 142.343 393487 389466
21 0.85 90.5517 7.93756 142.336 393510 388323
21 0.86 90.5509 7.93771 142.329 393533 387113
21 0.87 90.55 7.93771 142.322 393555 385827
21 0.88 90.5492 7.93805 142.315 393576 384460
21 0.89 90.5485 7.93834 142.308 393597 383004
21 0.9 90.5477 7.93834 142.301 393617 381450
21 0.91 90.547 7.93873 142.295 393637 379788
21 0.92 90.5462 7.93879 142.288 393657 378007
21 0.93 90.5455 7.93874 142.282 393676 376094
21 0.94 90.5448 7.93912 142.276 393695 374033
21 0.95 90.5441 7.93931 142.27 393713 371807
21 0.96 90.5435 7.93926 142.264 393731 369396
21 0.97 90.5428 7.9394 142.258 393749 366777
21 0.98 90.5422 7.93968 142.253 393766 363920
21 0.99 90.5415 7.93991 142.247 393783 360794
22 0.6 90.5704 7.93303 142.501 391826 404764
22 0.61 90.5688 7.9334 142.487 391870 404372
22 0.62 90.5672 7.93367 142.473 391914 403962
22 0.63 90.5656 7.93408 142.459 391956 403536
22 0.64 90.5641 7.93466 142.446 391996 403092
22 0.65 90.5627 7.93474 142.433 392036 402629
22 0.66 90.5613 7.93533 142.421 392074 402146
22 0.67 90.5599 7.93568 142.408 392111 401642
22 0.68 90.5586 7.93599 142.397 392147 401117
22 0.69 90.5573 7.93636 142.385 392182 400569
22 0.7 90.556 7.93637 142.374 392216 399997
22 0.71 90.5548 7.93677 142.364 392248 399399
22 0.72 90.5536 7.93694 142.353 392281 398774
22 0.73 90.5525 7.93724 142.343 392312 398120
22 0.74 90.5514 7.93764 142.333 392342 397436
22 0.75 90.5503 7.93771 142.324 392372 396720
22 0.76 90.5492 7.93833 142.314 392400 395969
22 0.77 90.5482 7.93834 142.305 392428 395182
22 0.78 90.5472 7.9385 142.296 392456 394355
22 0.79 90.5462 7.93893 142.288 392482 393486
22 0.8 90.5452 7.93901 142.279 392508 392573
22 0.81 90.5443 7.93951 142.271 392534 391610
22 0.82 90.5433 7.93961 142.263 392558 390596
22 0.83 90.5424 7.93969 142.255 392583 389525
22 0.84 90.5416 7.93998 142.247 392606 388393
22 0.85 90.5407 7.94004 142.24 392629 387195
22 0.86 90.5399 7.94038 142.233 392652 385926
22 0.87 90.5391 7.9407 142.225 392674 384578
22 0.88 90.5383 7.94086 142.218 392695 383146
22 0.89 90.5375 7.94081 142.212 392716 381619
22 0.9 90.5367 7.94097 142.205 392737 379991
22 0.91 90.536 7.94117 142.198 392757 378249
22 0.92 90.5352 7.94145 142.192 392777 376382
22 0.93 90.5345 7.94175 142.186 392796 374376
22 0.94 90.5338 7.94191 142.18 392815 372217
22 0.95 90.5331 7.94201 142.173 392834 369884
22 0.96 90.5324 7.94204 142.168 392852 367358
22 0.97 90.5318 7.94224 142.162 392870 364613
22 0.98 90.5311 7.94253 142.156 392887 361620
22 0.99 90.5305 7.94253 142.151 392904 358343
23 0.6 90.5594 7.93588 142.405 390945 404472
23 0.61 90.5578 7.93638 142.39 390990 404060
23 0.62 90.5562 7.93663 142.376 391034 403630
23 0.63 90.5546 7.93702 142.363 391076 403182
23 0.64 90.5531 7.93717 142.349 391116 402716
23 0.65 90.5517 7.93757 142.337 391156 402230
23 0.66 90.5503 7.93797 142.324 391194 401724
23 0.67 90.5489 7.93845 142.312 391231 401196
23 0.68 90.5475 7.93873 142.3 391267 400645
23 0.69 90.5462 7.93916 142.289 391302 400071
23 0.7 90.545 7.93928 142.278 391336 399471
23 0.71 90.5438 7.93958 142.267 391369 398844
23 0.72 90.5426 7.93991 142.257 391401 398190
23 0.73 90.5414 7.94033 142.247 391433 397505
23 0.74 90.5403 7.94046 142.237 391463 396789
23 0.75 90.5392 7.94055 142.227 391493 396039
23 0.76 90.5381 7.94113 142.218 391522 395253
23 0.77 90.537 7.94124 142.208 391550 394429
23 0.78 90.536 7.94153 142.2 391577 393563
23 0.79 90.535 7.94158 142.191 391604 392654
23 0.8 90.5341 7.94186 142.182 391630 391697
23 0.81 90.5331 7.94197 142.174 391656 390690
23 0.82 90.5322 7.94229 142.166 391681 389629
23 0.83 90.5313 7.94252 142.158 391705 388508
23 0.84 90.5304 7.94268 142.15 391729 387324
23 0.85 90.5295 7.94309 142.143 391752 386071
23 0.86 90.5287 7.94316 142.135 391775 384743
23 0.87 90.5279 7.94352 142.128 391797 383333
23 0.88 90.527 7.94352 142.121 391818 381835
23 0.89 90.5263 7.94377 142.114 391840 380238
23 0.9 90.5255 7.94391 142.107 391860 378534
23 0.91 90.5247 7.94427 142.101 391881 376713
23 0.92 90.524 7.94435 142.094 391900 374760
23 0.93 90.5233 7.94456 142.088 391920 372663
23 0.94 90.5226 7.94458 142.082 391939 370404
23 0.95 90.5219 7.94467 142.076 391958 367965
23 0.96 90.5212 7.94512 142.07 391976 365323
23 0.97 90.5205 7.94512 142.064 391994 362453
23 0.98 90.5199 7.94548 142.058 392011 359323
23 0.99 90.5192 7.94554 142.053 392029 355897
24 0.6 90.5483 7.93853 142.308 390068 404183
24 0.61 90.5466 7.93898 142.293 390113 403750
24 0.62 90.545 7.93957 142.279 390156 403300
24 0.63 90.5434 7.9399 142.265 390198 402831
24 0.64 90.5419 7.94009 142.252 390239 402343
24 0.65 90.5405 7.9404 142.239 390279 401835
24 0.66 90.539 7.94083 142.227 390317 401305
24 0.67 90.5377 7.94113 142.215 390354 400752
24 0.68 90.5363 7.94158 142.203 390391 400177
24 0.69 90.535 7.9419 142.191 390426 399576
24 0.7 90.5337 7.94197 142.18 390460 398949
24 0.71 90.5325 7.9423 142.17 390493 398294
24 0.72 90.5313 7.94263 142.159 390526 397609
24 0.73 90.5301 7.943 142.149 390557 396894
24 0.74 90.529 7.94341 142.139 390588 396145
24 0.75 90.5279 7.94368 142.129 390618 395361
24 0.76 90.5268 7.94386 142.12 390647 394540
24 0.77 90.5257 7.94406 142.11 390675 393679
24 0.78 90.5247 7.94428 142.101 390703 392775
24 0.79 90.5237 7.94432 142.093 390730 391825
24 0.8 90.5227 7.94467 142.084 390756 390826
24 0.81 90.5217 7.94492 142.076 390782 389774
24 0.82 90.5208 7.94521 142.068 390807 388666
24 0.83 90.5199 7.94543 142.06 390831 387495
24 0.84 90.519 7.94569 142.052 390855 386259
24 0.85 90.5181 7.94569 142.044 390878 384951
24 0.86 90.5173 7.94608 142.037 390901 383564
24 0.87 90.5164 7.94634 142.03 390924 382092
24 0.88 90.5156 7.94625 142.023 390945 380528
24 0.89 90.5148 7.94646 142.016 390967 378861
24 0.9 90.5141 7.94695 142.009 390988 377082
24 0.91 90.5133 7.94683 142.002 391008 375181
24 0.92 90.5125 7.9472 141.996 391028 373143
24 0.93 90.5118 7.94736 141.989 391048 370953
24 0.94 90.5111 7.94732 141.983 391067 368596
24 0.95 90.5104 7.9477 141.977 391086 366050
24 0.96 90.5097 7.9477 141.971 391104 363293
24 0.97 90.509 7.94797 141.965 391122 360297
24 0.98 90.5084 7.94809 141.959 391140 357030
24 0.99 90.5077 7.94827 141.954 391157 353454
25 0.6 90.5369 7.9416 142.21 389194 403896
25 0.61 90.5353 7.94196 142.195 389239 403444
25 0.62 90.5336 7.94223 142.181 389282 402974
25 0.63 90.5321 7.94269 142.167 389325 402484
25 0.64 90.5305 7.94308 142.154 389366 401974
25 0.65 90.5291 7.94349 142.141 389405 401443
25 0.66 90.5276 7.94371 142.128 389444 400890
25 0.67 90.5262 7.9439 142.116 389482 400313
25 0.68 90.5249 7.94434 142.104 389518 399712
25 0.69 90.5235 7.94454 142.093 389553 399085
25 0.7 90.5223 7.94492 142.081 389588 398430
25 0.71 90.521 7.94529 142.071 389621 397747
25 0.72 90.5198 7.94569 142.06 389654 397033
25 0.73 90.5186 7.9458 142.05 389686 396286
25 0.74 90.5175 7.94622 142.04 389716 395506
25 0.75 90.5163 7.94643 142.03 389746 394688
25 0.76 90.5152 7.9466 142.02 389776 393832
25 0.77 90.5142 7.94674 142.011 389804 392933
25 0.78 90.5131 7.94696 142.002 389832 391991
25 0.79 90.5121 7.94721 141.993 389859 391000
25 0.8 90.5111 7.94758 141.985 389886 389959
25 0.81 90.5102 7.94799 141.976 389912 388862
25 0.82 90.5092 7.94824 141.968 389937 387707
25 0.83 90.5083 7.94832 141.96 389962 386487
25 0.84 90.5074 7.94849 141.952 389986 385198
25 0.85 90.5065 7.94875 141.944 390009 383834
25 0.86 90.5057 7.9489 141.937 390032 382389
25 0.87 90.5048 7.94911 141.93 390055 380855
25 0.88 90.504 7.9494 141.923 390077 379225
25 0.89 90.5032 7.9494 141.916 390098 377488
25 0.9 90.5024 7.94951 141.909 390119 375635
25 0.91 90.5016 7.94978 141.902 390140 373653
25 0.92 90.5009 7.95022 141.895 390160 371529
25 0.93 90.5001 7.95016 141.889 390180 369248
25 0.94 90.4994 7.95038 141.883 390199 366792
25 0.95 90.4987 7.95052 141.877 390218 364139
25 0.96 90.498 7.95068 141.871 390237 361266
25 0.97 90.4973 7.95103 141.865 390255 358145
25 0.98 90.4967 7.95114 141.859 390272 354741
25 0.99 90.496 7.95103 141.853 390290 351016
26 0.6 90.5254 7.94427 142.11 388323 403614
26 0.61 90.5237 7.94491 142.096 388368 403142
26 0.62 90.522 7.9453 142.081 388412 402652
26 0.63 90.5204 7.94543 142.067 388455 402141
26 0.64 90.5189 7.94583 142.054 388496 401609
26 0.65 90.5174 7.94635 142.041 388536 401055
26 0.66 90.516 7.94673 142.028 388575 400479
26 0.67 90.5145 7.947 142.016 388613 399878
26 0.68 90.5132 7.9472 142.004 388650 399251
26 0.69 90.5118 7.94759 141.992 388685 398598
26 0.7 90.5106 7.94775 141.981 388720 397916
26 0.71 90.5093 7.94809 141.97 388754 397204
26 0.72 90.5081 7.94826 141.96 388786 396460
26 0.73 90.5069 7.94889 141.949 388818 395683
26 0.74 90.5057 7.94915 141.939 388849 394870
26 0.75 90.5046 7.94927 141.929 388880 394019
26 0.76 90.5035 7.9494 141.92 388909 393127
26 0.77 90.5024 7.94977 141.91 388938 392192
26 0.78 90.5013 7.94987 141.901 388966 391211
26 0.79 90.5003 7.9503 141.892 388993 390180
26 0.8 90.4993 7.95061 141.884 389020 389096
26 0.81 90.4984 7.95066 141.875 389046 387955
26 0.82 90.4974 7.95115 141.867 389072 386752
26 0.83 90.4965 7.95115 141.859 389096 385483
26 0.84 90.4956 7.95144 141.851 389121 384142
26 0.85 90.4947 7.9515 141.843 389144 382723
26 0.86 90.4938 7.9518 141.836 389168 381219
26 0.87 90.493 7.95188 141.828 389190 379623
26 0.88 90.4921 7.95207 141.821 389212 377926
26 0.89 90.4913 7.95226 141.814 389234 376119
26 0.9 90.4905 7.95265 141.807 389255 374191
26 0.91 90.4897 7.95264 141.8 389276 372130
26 0.92 90.489 7.95303 141.794 389296 369920
26 0.93 90.4882 7.95322 141.787 389316 367547
26 0.94 90.4875 7.95323 141.781 389336 364992
26 0.95 90.4868 7.95339 141.775 389355 362233
26 0.96 90.4861 7.95378 141.769 389373 359244
26 0.97 90.4854 7.954 141.763 389392 355997
26 0.98 90.4847 7.95379 141.757 389410 352457
26 0.99 90.4841 7.9542 141.751 389427 348583
27 0.6 90.5136 7.9472 142.009 387457 403336
27 0.61 90.5119 7.94758 141.995 387502 402845
27 0.62 90.5102 7.94797 141.98 387547 402334
27 0.63 90.5086 7.94838 141.966 387589 401802
27 0.64 90.507 7.94874 141.953 387631 401248
27 0.65 90.5055 7.94923 141.94 387671 400672
27 0.66 90.5041 7.9496 141.927 387711 400072
27 0.67 90.5026 7.94983 141.915 387749 399447
27 0.68 90.5013 7.95028 141.903 387786 398795
27 0.69 90.4999 7.95037 141.891 387821 398115
27 0.7 90.4986 7.95064 141.88 387856 397406
27 0.71 90.4973 7.95111 141.868 387890 396666
27 0.72 90.4961 7.95153 141.858 387923 395893
27 0.73 90.4949 7.95173 141.847 387956 395084
27 0.74 90.4937 7.95192 141.837 387987 394239
27 0.75 90.4926 7.95225 141.827 388017 393354
27 0.76 90.4915 7.95258 141.818 388047 392427
27 0.77 90.4904 7.95255 141.808 388076 391456
27 0.78 90.4893 7.95288 141.799 388104 390436
27 0.79 90.4883 7.95339 141.79 388132 389364
27 0.8 90.4873 7.95365 141.781 388159 388238
27 0.81 90.4863 7.95372 141.773 388185 387052
27 0.82 90.4853 7.95376 141.764 388211 385802
27 0.83 90.4844 7.95414 141.756 388236 384483
27 0.84 90.4835 7.95454 141.748 388260 383090
27 0.85 90.4826 7.95457 141.74 388284 381615
27 0.86 90.4817 7.95479 141.733 388308 380053
27 0.87 90.4808 7.95492 141.725 388330 378395
27 0.88 90.48 7.95534 141.718 388353 376633
27 0.89 90.4792 7.95519 141.711 388375 374756
27 0.9 90.4784 7.95544 141.704 388396 372753
27 0.91 90.4776 7.95574 141.697 388417 370611
27 0.92 90.4768 7.95608 141.691 388437 368316
27 0.93 90.4761 7.95607 141.684 388457 365851
27 0.94 90.4753 7.95646 141.678 388477 363197
27 0.95 90.4746 7.95651 141.672 388496 360331
27 0.96 90.4739 7.95671 141.665 388515 357227
27 0.97 90.4732 7.95671 141.659 388534 353855
27 0.98 90.4725 7.95685 141.654 388552 350178
27 0.99 90.4719 7.95711 141.648 388569 346154
28 0.6 90.5015 7.95015 141.907 386595 403062
28 0.61 90.4998 7.95065 141.892 386641 402551
28 0.62 90.4981 7.95097 141.878 386685 402020
28 0.63 90.4965 7.95139 141.864 386729 401467
28 0.64 90.4949 7.95182 141.85 386771 400892
28 0.65 90.4934 7.9522 141.837 386811 400293
28 0.66 90.4919 7.95254 141.824 386851 399670
28 0.67 90.4905 7.95265 141.812 386889 399020
28 0.68 90.4891 7.95293 141.8 386926 398343
28 0.69 90.4877 7.95361 141.788 386962 397637
28 0.7 90.4864 7.95381 141.776 386998 396901
28 0.71 90.4851 7.95408 141.765 387032 396132
28 0.72 90.4839 7.95447 141.754 387065 395330
28 0.73 90.4827 7.95449 141.744 387098 394491
28 0.74 90.4815 7.95494 141.734 387129 393613
28 0.75 90.4803 7.9553 141.724 387160 392695
28 0.76 90.4792 7.95533 141.714 387190 391732
28 0.77 90.4781 7.95583 141.704 387219 390724
28 0.78 90.477 7.95581 141.695 387248 389665
28 0.79 90.476 7.95633 141.686 387276 388553
28 0.8 90.475 7.95646 141.677 387303 387384
28 0.81 90.474 7.95658 141.669 387329 386154
28 0.82 90.473 7.95696 141.66 387355 384857
28 0.83 90.4721 7.95696 141.652 387380 383489
28 0.84 90.4711 7.95734 141.644 387405 382043
28 0.85 90.4702 7.95774 141.636 387429 380513
28 0.86 90.4693 7.95761 141.628 387453 378892
28 0.87 90.4685 7.95788 141.621 387476 377172
28 0.88 90.4676 7.95828 141.614 387498 375344
28 0.89 90.4668 7.95827 141.606 387520 373397
28 0.9 90.466 7.95869 141.599 387542 371319
28 0.91 90.4652 7.95892 141.593 387563 369097
28 0.92 90.4644 7.95904 141.586 387583 366717
28 0.93 90.4637 7.95921 141.579 387604 364160
28 0.94 90.4629 7.95943 141.573 387623 361407
28 0.95 90.4622 7.95956 141.567 387643 358434
28 0.96 90.4615 7.95959 141.56 387662 355215
28 0.97 90.4608 7.95994 141.554 387680 351717
28 0.98 90.4601 7.95994 141.548 387699 347904
28 0.99 90.4594 7.96008 141.543 387717 343730
29 0.6 90.4892 7.95333 141.803 385738 402793
29 0.61 90.4875 7.95361 141.788 385784 402263
29 0.62 90.4858 7.95398 141.774 385829 401712
29 0.63 90.4842 7.95447 141.76 385873 401138
29 0.64 90.4826 7.95491 141.746 385915 400541
29 0.65 90.481 7.95515 141.733 385956 399920
29 0.66 90.4795 7.95562 141.72 385996 399273
29 0.67 90.4781 7.95591 141.707 386034 398599
29 0.68 90.4767 7.95594 141.695 386072 397897
29 0.69 90.4753 7.95634 141.683 386108 397165
29 0.7 90.474 7.95684 141.671 386144 396401
29 0.71 90.4727 7.95722 141.66 386178 395604
29 0.72 90.4714 7.95724 141.649 386212 394772
29 0.73 90.4702 7.9576 141.639 386245 393902
29 0.74 90.469 7.95804 141.628 386277 392992
29 0.75 90.4678 7.95839 141.618 386308 392040
29 0.76 90.4667 7.95841 141.608 386338 391043
29 0.77 90.4656 7.95882 141.599 386367 389997
29 0.78 90.4645 7.95889 141.589 386396 388900
29 0.79 90.4634 7.9592 141.58 386424 387748
29 0.8 90.4624 7.95942 141.571 386451 386536
29 0.81 90.4614 7.95986 141.563 386478 385261
29 0.82 90.4604 7.96006 141.554 386504 383917
29 0.83 90.4595 7.96011 141.546 386530 382499
29 0.84 90.4585 7.96045 141.538 386555 381001
29 0.85 90.4576 7.96045 141.53 386579 379416
29 0.86 90.4567 7.96099 141.522 386603 377737
29 0.87 90.4558 7.96099 141.515 386626 375955
29 0.88 90.455 7.96104 141.507 386648 374060
29 0.89 90.4541 7.96142 141.5 386671 372043
29 0.9 90.4533 7.96154 141.493 386692 369890
29 0.91 90.4525 7.96194 141.486 386714 367589
29 0.92 90.4517 7.96193 141.479 386735 365123
29 0.93 90.451 7.9623 141.473 386755 362474
29 0.94 90.4502 7.96219 141.466 386775 359622
29 0.95 90.4495 7.96268 141.46 386794 356543
29 0.96 90.4487 7.96266 141.454 386814 353208
29 0.97 90.448 7.96294 141.448 386832 349585
29 0.98 90.4473 7.96306 141.442 386851 345635
29 0.99 90.4467 7.96307 141.436 386869 341311
30 0.6 90.4767 7.95607 141.698 384886 402529
30 0.61 90.4749 7.95669 141.683 384933 401980
30 0.62 90.4732 7.95708 141.668 384978 401408
30 0.63 90.4715 7.95746 141.654 385022 400813
30 0.64 90.4699 7.95766 141.64 385064 400195
30 0.65 90.4684 7.95802 141.627 385106 399551
30 0.66 90.4669 7.95842 141.614 385146 398881
30 0.67 90.4654 7.95877 141.601 385185 398183
30 0.68 90.464 7.95904 141.589 385223 397455
30 0.69 90.4626 7.95944 141.577 385260 396697
30 0.7 90.4613 7.95998 141.565 385295 395906
30 0.71 90.4599 7.95998 141.554 385330 395081
30 0.72 90.4587 7.96046 141.543 385364 394219
30 0.73 90.4574 7.96066 141.532 385397 393318
30 0.74 90.4562 7.96113 141.521 385429 392376
30 0.75 90.455 7.96123 141.511 385460 391390
30 0.76 90.4539 7.96162 141.501 385491 390358
30 0.77 90.4528 7.9619 141.492 385521 389275
30 0.78 90.4517 7.96189 141.482 385550 388140
30 0.79 90.4506 7.96245 141.473 385578 386947
30 0.8 90.4496 7.9627 141.464 385605 385693
30 0.81 90.4485 7.96272 141.455 385632 384373
30 0.82 90.4475 7.96319 141.447 385659 382982
30 0.83 90.4466 7.96334 141.438 385684 381515
30 0.84 90.4456 7.96358 141.43 385709 379964
30 0.85 90.4447 7.96358 141.422 385734 378324
30 0.86 90.4438 7.9637 141.415 385758 376586
30 0.87 90.4429 7.96424 141.407 385781 374742
30 0.88 90.4421 7.96426 141.4 385804 372782
30 0.89 90.4412 7.96465 141.392 385827 370694
30 0.9 90.4404 7.96463 141.385 385848 368467
30 0.91 90.4396 7.96506 141.378 385870 366086
30 0.92 90.4388 7.96497 141.371 385891 363534
30 0.93 90.438 7.9654 141.365 385911 360794
30 0.94 90.4372 7.96539 141.358 385932 357843
30 0.95 90.4365 7.96572 141.352 385951 354657
30 0.96 90.4357 7.96584 141.345 385971 351206
30 0.97 90.435 7.96584 141.339 385990 347458
30 0.98 90.4343 7.9662 141.333 386008 343371
30 0.99 90.4336 7.96614 141.327 386026 338898
5 0.6 90.9547 6.98329 146.774 398701 401641
5 0.61 90.949 6.98537 146.712 398893 401734
5 0.62 90.9435 6.98772 146.652 399078 401816
5 0.63 90.9382 6.98939 146.594 399256 401888
5 0.64 90.9332 6.99155 146.538 399427 401949
5 0.65 90.9283 6.99334 146.484 399592 401999
5 0.66 90.9236 6.99549 146.433 399750 402039
5 0.67 90.9191 6.99718 146.383 399903 402069
5 0.68 90.9148 6.99862 146.335 400049 402088
5 0.69 90.9106 7.00028 146.289 400191 402097
5 0.7 90.9066 7.00325 146.245 400326 402095
5 0.71 90.9027 7.3009 146.202 400457 402082
5 0.72 90.899 7.30445 146.161 400583 402059
5 0.73 90.8954 7.30739 146.122 400704 402025
5 0.74 90.8919 7.31036 146.084 400821 401979
5 0.75 90.8886 7.31371 146.047 400933 401922
5 0.76 90.8854 7.31641 146.012 401042 401853
