%!PS-Adobe-3.0 EPSF-3.0
%%Creator: MATLAB, The MathWorks, Inc. Version 8.3.0.532 (R2014a). Operating System: Microsoft Windows 7 Enterprise .
%%Title: U:\My Documents\Citrus\Matlab\1st Model - Malaria\R0temptime.eps
%%CreationDate: 04/27/2016  17:12:55
%%DocumentNeededFonts: Helvetica
%%DocumentProcessColors: Cyan Magenta Yellow Black
%%LanguageLevel: 2
%%Pages: 1
%%BoundingBox:    96   238   515   553
%%EndComments

%%BeginProlog
% MathWorks dictionary
/MathWorks 160 dict begin
% definition operators
/bdef {bind def} bind def
/ldef {load def} bind def
/xdef {exch def} bdef
/xstore {exch store} bdef
% operator abbreviations
/c  /clip ldef
/cc /concat ldef
/cp /closepath ldef
/gr /grestore ldef
/gs /gsave ldef
/mt /moveto ldef
/np /newpath ldef
/cm /currentmatrix ldef
/sm /setmatrix ldef
/rm /rmoveto ldef
/rl /rlineto ldef
/s {show newpath} bdef
/sc {setcmykcolor} bdef
/sr /setrgbcolor ldef
/sg /setgray ldef
/w /setlinewidth ldef
/j /setlinejoin ldef
/cap /setlinecap ldef
/rc {rectclip} bdef
/rf {rectfill} bdef
% page state control
/pgsv () def
/bpage {/pgsv save def} bdef
/epage {pgsv restore} bdef
/bplot /gsave ldef
/eplot {stroke grestore} bdef
% orientation switch
/portraitMode 0 def /landscapeMode 1 def /rotateMode 2 def
% coordinate system mappings
/dpi2point 0 def
% font control
/FontSize 0 def
/FMS {/FontSize xstore findfont [FontSize 0 0 FontSize neg 0 0]
  makefont setfont} bdef
/ISOLatin1Encoding where {pop /WindowsLatin1Encoding 256 array bdef
ISOLatin1Encoding WindowsLatin1Encoding copy pop
/.notdef/.notdef/quotesinglbase/florin/quotedblbase/ellipsis/dagger
/daggerdbl/circumflex/perthousand/Scaron/guilsinglleft/OE/.notdef/.notdef
/.notdef/.notdef/quoteleft/quoteright/quotedblleft/quotedblright/bullet
/endash/emdash/tilde/trademark/scaron/guilsinglright/oe/.notdef/.notdef
/Ydieresis WindowsLatin1Encoding 128 32 getinterval astore pop}
{/WindowsLatin1Encoding StandardEncoding bdef} ifelse
/reencode {exch dup where {pop load} {pop StandardEncoding} ifelse
  exch dup 3 1 roll findfont dup length dict begin
  { 1 index /FID ne {def}{pop pop} ifelse } forall
  /Encoding exch def currentdict end definefont pop} bdef
/isroman {findfont /CharStrings get /Agrave known} bdef
/FMSR {3 1 roll 1 index dup isroman {reencode} {pop pop} ifelse
  exch FMS} bdef
/csm {1 dpi2point div -1 dpi2point div scale neg translate
 dup landscapeMode eq {pop -90 rotate}
  {rotateMode eq {90 rotate} if} ifelse} bdef
% line types: solid, dotted, dashed, dotdash
/SO { [] 0 setdash } bdef
/DO { [.5 dpi2point mul 4 dpi2point mul] 0 setdash } bdef
/DA { [6 dpi2point mul] 0 setdash } bdef
/DD { [.5 dpi2point mul 4 dpi2point mul 6 dpi2point mul 4
  dpi2point mul] 0 setdash } bdef
% macros for lines and objects
/L {lineto stroke} bdef
/MP {3 1 roll moveto 1 sub {rlineto} repeat} bdef
/AP {{rlineto} repeat} bdef
/PDlw -1 def
/W {/PDlw currentlinewidth def setlinewidth} def
/PP {closepath eofill} bdef
/DP {closepath stroke} bdef
/MR {4 -2 roll moveto dup  0 exch rlineto exch 0 rlineto
  neg 0 exch rlineto closepath} bdef
/FR {MR stroke} bdef
/PR {MR fill} bdef
/L1i {{currentfile picstr readhexstring pop} image} bdef
/tMatrix matrix def
/MakeOval {newpath tMatrix currentmatrix pop translate scale
0 0 1 0 360 arc tMatrix setmatrix} bdef
/FO {MakeOval stroke} bdef
/PO {MakeOval fill} bdef
/PD {currentlinewidth 2 div 0 360 arc fill
   PDlw -1 eq not {PDlw w /PDlw -1 def} if} def
/FA {newpath tMatrix currentmatrix pop translate scale
  0 0 1 5 -2 roll arc tMatrix setmatrix stroke} bdef
/PA {newpath tMatrix currentmatrix pop	translate 0 0 moveto scale
  0 0 1 5 -2 roll arc closepath tMatrix setmatrix fill} bdef
/FAn {newpath tMatrix currentmatrix pop translate scale
  0 0 1 5 -2 roll arcn tMatrix setmatrix stroke} bdef
/PAn {newpath tMatrix currentmatrix pop translate 0 0 moveto scale
  0 0 1 5 -2 roll arcn closepath tMatrix setmatrix fill} bdef
/vradius 0 def /hradius 0 def /lry 0 def
/lrx 0 def /uly 0 def /ulx 0 def /rad 0 def
/MRR {/vradius xdef /hradius xdef /lry xdef /lrx xdef /uly xdef
  /ulx xdef newpath tMatrix currentmatrix pop ulx hradius add uly
  vradius add translate hradius vradius scale 0 0 1 180 270 arc 
  tMatrix setmatrix lrx hradius sub uly vradius add translate
  hradius vradius scale 0 0 1 270 360 arc tMatrix setmatrix
  lrx hradius sub lry vradius sub translate hradius vradius scale
  0 0 1 0 90 arc tMatrix setmatrix ulx hradius add lry vradius sub
  translate hradius vradius scale 0 0 1 90 180 arc tMatrix setmatrix
  closepath} bdef
/FRR {MRR stroke } bdef
/PRR {MRR fill } bdef
/MlrRR {/lry xdef /lrx xdef /uly xdef /ulx xdef /rad lry uly sub 2 div def
  newpath tMatrix currentmatrix pop ulx rad add uly rad add translate
  rad rad scale 0 0 1 90 270 arc tMatrix setmatrix lrx rad sub lry rad
  sub translate rad rad scale 0 0 1 270 90 arc tMatrix setmatrix
  closepath} bdef
/FlrRR {MlrRR stroke } bdef
/PlrRR {MlrRR fill } bdef
/MtbRR {/lry xdef /lrx xdef /uly xdef /ulx xdef /rad lrx ulx sub 2 div def
  newpath tMatrix currentmatrix pop ulx rad add uly rad add translate
  rad rad scale 0 0 1 180 360 arc tMatrix setmatrix lrx rad sub lry rad
  sub translate rad rad scale 0 0 1 0 180 arc tMatrix setmatrix
  closepath} bdef
/FtbRR {MtbRR stroke } bdef
/PtbRR {MtbRR fill } bdef
/stri 6 array def /dtri 6 array def
/smat 6 array def /dmat 6 array def
/tmat1 6 array def /tmat2 6 array def /dif 3 array def
/asub {/ind2 exch def /ind1 exch def dup dup
  ind1 get exch ind2 get sub exch } bdef
/tri_to_matrix {
  2 0 asub 3 1 asub 4 0 asub 5 1 asub
  dup 0 get exch 1 get 7 -1 roll astore } bdef
/compute_transform {
  dmat dtri tri_to_matrix tmat1 invertmatrix 
  smat stri tri_to_matrix tmat2 concatmatrix } bdef
/ds {stri astore pop} bdef
/dt {dtri astore pop} bdef
/db {2 copy /cols xdef /rows xdef mul dup 3 mul string
  currentfile 
  3 index 0 eq {/ASCIIHexDecode filter}
  {/ASCII85Decode filter 3 index 2 eq {/RunLengthDecode filter} if }
  ifelse exch readstring pop
  dup 0 3 index getinterval /rbmap xdef
  dup 2 index dup getinterval /gbmap xdef
  1 index dup 2 mul exch getinterval /bbmap xdef pop pop}bdef
/it {gs np dtri aload pop moveto lineto lineto cp c
  cols rows 8 compute_transform 
  rbmap gbmap bbmap true 3 colorimage gr}bdef
/il {newpath moveto lineto stroke}bdef
currentdict end def
%%EndProlog

%%BeginSetup
MathWorks begin

0 cap

end
%%EndSetup

%%Page: 1 1
%%BeginPageSetup
%%PageBoundingBox:    96   238   515   553
MathWorks begin
bpage
%%EndPageSetup

%%BeginObject: obj1
bplot

/dpi2point 12 def
portraitMode 1152 6636 csm

    0     0  5039  3780 rc
85 dict begin %Colortable dictionary
/c0 { 0.000000 0.000000 0.000000 sr} bdef
/c1 { 1.000000 1.000000 1.000000 sr} bdef
/c2 { 0.900000 0.000000 0.000000 sr} bdef
/c3 { 0.000000 0.820000 0.000000 sr} bdef
/c4 { 0.000000 0.000000 0.800000 sr} bdef
/c5 { 0.910000 0.820000 0.320000 sr} bdef
/c6 { 1.000000 0.260000 0.820000 sr} bdef
/c7 { 0.000000 0.820000 0.820000 sr} bdef
c0
1 j
1 sg
   0    0 5040 3781 rf
6 w
0 3213 2016 0 0 -3213 504 3402 4 MP
PP
-2016 0 0 3213 2016 0 0 -3213 504 3402 5 MP stroke
4 w
DO
SO
6 w
0 sg
 504  189 mt 2520  189 L
 504 3402 mt 2520 3402 L
2520 3402 mt 2520  189 L
 504 3402 mt  504  189 L
 504 3402 mt 2520 3402 L
 504 3402 mt  504  189 L
 504 3402 mt  504 3369 L
 504  189 mt  504  221 L
%%IncludeResource: font Helvetica
/Helvetica /WindowsLatin1Encoding 120 FMSR

 438 3547 mt 
(10) s
1176 3402 mt 1176 3369 L
1176  189 mt 1176  221 L
1110 3547 mt 
(20) s
1848 3402 mt 1848 3369 L
1848  189 mt 1848  221 L
1782 3547 mt 
(30) s
2520 3402 mt 2520 3369 L
2520  189 mt 2520  221 L
2454 3547 mt 
(40) s
 504 3402 mt  536 3402 L
2520 3402 mt 2487 3402 L
 403 3446 mt 
(0) s
 504 2866 mt  536 2866 L
2520 2866 mt 2487 2866 L
 403 2910 mt 
(2) s
 504 2331 mt  536 2331 L
2520 2331 mt 2487 2331 L
 403 2375 mt 
(4) s
 504 1795 mt  536 1795 L
2520 1795 mt 2487 1795 L
 403 1839 mt 
(6) s
 504 1260 mt  536 1260 L
2520 1260 mt 2487 1260 L
 403 1304 mt 
(8) s
 504  724 mt  536  724 L
2520  724 mt 2487  724 L
 336  768 mt 
(10) s
 504  189 mt  536  189 L
2520  189 mt 2487  189 L
 336  233 mt 
(12) s
 504  189 mt 2520  189 L
 504 3402 mt 2520 3402 L
2520 3402 mt 2520  189 L
 504 3402 mt  504  189 L
gs 504 189 2017 3214 rc
24 w
/c8 { 0.000000 0.000000 1.000000 sr} bdef
c8
1 0 1 0 1 0 1 0 1 0 1 0 1 0 1 0 
1 0 1 0 1 0 1 0 1 0 1 0 1 0 1 0 
1 0 1 0 1 0 1 0 1 0 1 0 1 0 1 0 
1 0 1 0 1 0 1 0 1 0 1 0 1 0 1 0 
1 0 1 0 1 0 1 0 1 0 1 0 1 0 1 0 
1 0 1 0 1 0 1 0 1 0 1 0 1 0 1 0 
1 0 1 0 1 0 1 0 1 0 1 0 1 0 1 0 
1 0 1 0 1 0 1 0 1 0 1 0 1 0 1 0 
1 0 1 0 1 0 1 0 1 0 1 0 1 0 1 0 
1 0 1 0 1 0 1 0 1 0 1 0 1 0 1 0 
1 0 1 0 1 0 1 0 1 0 1 0 1 0 1 0 
1 0 1 0 1 0 1 0 1 0 1 0 1 0 1 0 
1 0 1 0 1 0 1 0 1 0 1 0 1 0 1 0 
1 0 1 0 1 0 1 0 1 0 1 0 1 0 1 0 
1 0 1 0 1 0 1 0 1 0 1 0 1 0 1 0 
1 0 1 0 1 0 1 0 1 0 1 0 1 0 1 0 
1 0 1 0 1 0 1 0 1 0 1 0 1 0 1 0 
1 0 1 0 1 0 1 0 1 0 1 0 1 0 1 0 
1 0 1 0 1 0 1 0 1 0 1 0 1 0 1 0 
1 0 1 0 1 0 1 0 1 0 1 0 1 0 1 0 
1 0 1 0 1 0 1 0 1 0 1 0 1 0 1 0 
1 0 1 0 1 0 1 0 1 0 1 0 1 0 1 0 
1 0 1 0 1 0 1 0 1 0 1 0 1 0 1 0 
1 0 1 0 1 0 1 0 1 0 1 0 1 0 1 0 
1 0 1 0 1 0 1 0 1 0 1 0 1 0 1 0 
1 0 1 0 1 0 1 0 1 0 1 0 1 0 1 0 
1 0 1 0 1 0 1 0 1 0 1 0 1 0 1 0 
1 0 1 0 1 0 1 0 1 0 1 0 1 0 1 0 
1 0 1 0 1 0 1 0 1 0 1 0 1 0 1 0 
1 0 1 0 1 0 1 0 1 0 1 0 1 0 1 0 
1 0 1 0 1 0 1 0 1 0 1 0 1 0 1 0 
1 0 1 0 1 0 1 0 1 0 1 0 1 0 1 0 
1 0 1 0 1 0 1 0 1 0 1 0 1 0 1 0 
1 0 1 0 1 0 1 0 1 0 1 0 1 0 1 0 
1 0 1 0 1 0 1 0 1 0 1 0 1 0 1 0 
1 0 1 0 1 0 1 0 1 0 1 0 1 0 1 0 
1 0 1 0 1 0 1 0 1 0 1 0 1 0 1 0 
1 0 1 0 1 0 2221 3402 300 MP stroke
1 0 1 0 1 0 1 0 1 0 1 0 1 0 1 0 
1 0 1 0 1 0 1 0 1 0 1 0 1 0 1 0 
1 0 1 0 1 0 1 0 1 0 1 0 1 0 1 0 
1 0 1 0 1 0 1 0 1 0 1 0 1 0 1 0 
1 0 1 0 1 0 1 0 1 0 1 0 1 0 1 0 
1 0 1 0 1 0 1 0 1 0 1 0 1 0 1 0 
1 0 1 0 1 0 1 0 1 0 1 0 1 0 1 0 
1 0 1 0 1 0 1 0 1 0 1 0 1 0 1 0 
1 0 1 0 1 0 1 0 1 0 1 0 1 0 1 0 
1 0 1 0 1 0 1 0 1 0 1 0 1 0 1 0 
1 0 1 0 1 0 1 0 1 0 1 0 1 0 1 0 
1 0 1 0 1 0 1 0 1 0 1 0 1 0 1 0 
1 0 1 0 1 0 1 0 1 0 1 0 1 0 1 0 
1 0 1 0 1 0 1 0 1 0 1 0 1 0 1 0 
1 0 1 0 1 0 1 0 1 0 1 0 1 0 1 0 
1 0 1 0 1 0 1 0 1 0 1 0 1 0 1 0 
1 0 1 0 1 0 1 0 1 0 1 0 1 0 1 0 
1 0 1 0 1 0 1 0 1 0 1 0 1 0 1 0 
1 0 1 0 1 0 1 0 1 0 1 0 1 0 1 0 
1 0 1 0 1 0 1 0 1 0 1 0 1 0 1 0 
1 0 1 0 1 0 1 0 1 0 1 0 1 0 1 0 
1 0 1 0 1 0 1 0 1 0 1 0 1 0 1 0 
1 0 1 0 1 0 1 0 1 0 1 0 1 0 1 0 
1 0 1 0 1 0 1 0 1 0 1 0 1 0 1 0 
1 0 1 0 1 0 1 0 1 0 1 0 1 0 1 0 
1 0 1 0 1 0 1 0 1 0 1 0 1 0 1 0 
1 0 1 0 1 0 1 0 1 0 1 0 1 0 1 0 
1 0 1 0 1 0 1 0 1 0 1 0 1 0 1 0 
1 0 1 0 1 0 1 0 1 0 1 0 1 0 1 0 
1 0 1 0 1 0 1 0 1 0 1 0 1 0 1 0 
1 0 1 0 1 0 1 0 1 0 1 0 1 0 1 0 
1 0 1 0 1 0 1 0 1 0 1 0 1 0 1 0 
1 0 1 0 1 0 1 0 1 0 1 0 1 0 1 0 
1 0 1 0 1 0 1 0 1 0 1 0 1 0 1 0 
1 0 1 0 1 0 1 0 1 0 1 0 1 0 1 0 
1 0 1 0 1 0 1 0 1 0 1 0 1 0 1 0 
1 0 1 0 1 0 1 0 1 0 1 0 1 0 1 0 
1 0 1 0 1 0 1922 3402 300 MP stroke
1 0 1 0 1 0 1 0 1 0 1 0 1 0 1 0 
1 0 1 0 1 0 1 0 1 0 1 0 1 0 1 0 
1 0 1 0 1 0 1 0 1 1 0 322 1 62 1 42 
0 33 1 27 1 24 0 21 1 20 1 17 0 17 1 15 
1 15 0 14 1 13 1 13 0 12 1 11 1 12 1 11 
0 10 1 11 1 10 0 9 1 10 1 9 0 9 1 9 
1 9 0 9 1 8 1 9 0 8 1 8 1 8 0 8 
1 7 1 8 0 8 1 7 1 7 0 8 1 7 1 7 
0 7 1 7 1 7 0 7 1 7 1 6 0 7 1 7 
1 6 0 7 1 6 1 7 0 6 1 6 1 6 0 7 
1 6 1 6 0 6 1 6 1 6 0 6 1 6 1 6 
0 6 1 6 1 6 0 6 1 5 1 6 0 6 1 5 
1 6 0 6 1 5 1 6 0 6 1 5 1 6 1 5 
0 6 1 5 1 5 0 6 1 5 1 6 0 5 1 5 
1 5 0 6 1 5 1 5 0 5 1 6 1 5 0 5 
1 5 1 5 0 5 1 6 1 5 0 5 1 5 1 5 
0 5 1 5 1 5 0 5 1 5 1 5 0 5 1 5 
1 5 0 4 1 5 1 5 0 5 1 5 1 5 0 5 
1 4 1 5 0 5 1 5 1 4 0 5 1 5 1 5 
0 4 1 5 1 5 0 4 1 5 1 5 0 4 1 5 
1 5 0 4 1 5 1 4 1 5 0 4 1 5 1 5 
0 4 1 5 1 4 0 5 1 4 1 5 0 4 1 5 
1 4 0 4 1 5 1 4 0 5 1 4 1 4 0 5 
1 4 1 5 0 4 1 4 1 5 0 4 1 4 1 5 
0 4 1 4 1 4 0 5 1 4 1 4 0 4 1 5 
1 4 0 4 1 4 1 5 0 4 1 4 1 4 0 4 
1 4 1 5 0 4 1 4 1 4 0 4 1 4 1 4 
0 4 1 4 1 5 0 4 1 4 1 4 0 4 1 4 
1 4 0 4 1 4 1 4 1 4 0 4 1 4 1 4 
0 4 1 4 1 4 0 3 1 4 1 4 0 4 1 4 
1 4 0 4 1 4 1 4 0 3 1 4 1 4 0 4 
1 4 1 4 0 3 1 4 1 4 0 4 1 4 1 3 
0 4 1 4 1 4 0 3 1 4 1 4 0 4 1 3 
1 4 0 4 1 3 1 4 0 4 1 3 1 4 0 4 
1 3 1 4 0 3 1 4 1 4 0 3 1 4 1 3 
0 4 1 4 1 3 0 4 1 3 1 4 0 3 1 4 
1 3 1 4 0 3 1 4 1 3 0 4 1 3 1 4 
0 3 1 3 1 4 1714 1417 300 MP stroke
0 3 1 4 1 3 0 4 1 3 1 3 0 4 1 3 
1 3 0 4 1 3 1 3 0 4 1 3 1 3 0 4 
1 3 1 3 0 4 1 3 1 3 0 3 1 4 1 3 
0 3 1 3 1 3 0 4 1 3 1 3 0 3 1 3 
1 4 0 3 1 3 1 3 0 3 1 3 1 3 0 4 
1 3 1 3 0 3 1 3 1 3 0 3 1 3 1 3 
0 3 1 3 1 3 0 3 1 3 1 3 1 3 0 3 
1 3 1 3 0 3 1 3 1 3 0 3 1 3 1 3 
0 3 1 3 1 3 0 2 1 3 1 3 0 3 1 3 
1 3 0 3 1 2 1 3 0 3 1 3 1 3 0 2 
1 3 1 3 0 3 1 3 1 2 0 3 1 3 1 2 
0 3 1 3 1 3 0 2 1 3 1 3 0 2 1 3 
1 3 0 2 1 3 1 3 0 2 1 3 1 2 0 3 
1 3 1 2 0 3 1 2 1 3 0 2 1 3 1 3 
0 2 1 3 1 2 1 3 0 2 1 3 1 2 0 2 
1 3 1 2 0 3 1 2 1 3 0 2 1 3 1 2 
0 2 1 3 1 2 0 2 1 3 1 2 0 3 1 2 
1 2 0 3 1 2 1 2 0 2 1 3 1 2 0 2 
1 3 1 2 0 2 1 2 1 3 0 2 1 2 1 2 
0 2 1 3 1 2 0 2 1 2 1 2 0 2 1 3 
1 2 0 2 1 2 1 2 0 2 1 2 1 2 0 2 
1 2 1 3 0 2 1 2 1 2 0 2 1 2 1 2 
0 2 1 2 1 2 1 2 0 2 1 2 1 2 0 1 
1 2 1 2 0 2 1 2 1 2 0 2 1 2 1 2 
0 2 1 1 1 2 0 2 1 2 1 2 0 2 1 1 
1 2 0 2 1 2 1 2 0 1 1 2 1 2 0 2 
1 1 1 2 0 2 1 2 1 1 0 2 1 2 1 1 
0 2 1 2 1 1 0 2 1 2 1 1 0 2 1 1 
1 2 0 2 1 1 1 2 0 1 1 2 1 2 0 1 
1 2 1 1 0 2 1 1 1 2 0 1 1 2 1 1 
1 2 0 1 1 2 1 1 0 1 1 2 1 1 0 2 
1 1 1 2 0 1 1 1 1 2 0 1 1 1 1 2 
0 1 1 1 1 2 0 1 1 1 1 2 0 1 1 1 
1 2 0 1 1 1 1 1 0 2 1 1 1 1 0 1 
1 2 1 1 0 1 1 1 1 1 0 1 1 2 1 1 
0 1 1 1 1 1 0 1 1 1 1 2 0 1 1 1 
1 1 0 1 1 1 1 1 0 1 1 1 1 1 0 1 
1 1 1 1 0 1 1514 754 300 MP stroke
1 1 1 1 0 1 1 1 1 1 1 1 0 1 1 1 
1 1 0 1 1 1 1 0 -1 0 2 2 1 1 0 1 
1 1 1 1 1 1 1 1 0 1 1 1 1 1 1 1 
1 1 0 1 1 1 1 0 -1 0 2 2 1 1 1 1 
1 1 1 1 1 1 1 1 1 1 1 1 1 1 1 1 
1 1 1 1 1 0 1 1 1 1 1 1 1 1 1 1 
1 0 1 1 1 1 1 1 1 0 1 1 1 0 1 1 
1 1 1 0 1 1 1 0 1 1 1 0 1 1 1 1 
1 0 1 1 1 0 1 0 1 1 1 0 1 1 1 0 
1 0 1 1 1 0 1 0 1 1 1 0 1 0 1 0 
1 1 1 0 1 0 1 0 1 0 1 0 1 1 1 0 
1 0 1 0 1 0 1 0 1 0 1 0 1 0 1 0 
1 0 1 0 1 0 1 -1 1 0 1 0 1 0 1 0 
1 0 1 -1 1 0 1 0 1 0 1 -1 1 0 1 0 
1 0 1 -1 1 0 1 -1 1 0 1 -1 1 0 1 0 
1 -1 1 0 1 -1 1 0 1 -1 1 0 1 -1 1 -1 
1 0 1 -1 1 0 1 -1 1 0 1 -1 1 -1 1 -1 
1 0 1 -1 1 -1 1 0 1 -1 1 -1 1 -1 1 -1 
1 -1 1 0 1 -1 1 -1 1 -1 1 -1 1 -1 1 -1 
1 -1 1 -1 1 -1 1 -1 1 -1 1 -1 1 -1 1 -1 
1 -1 1 -1 0 -1 1 -1 1 0 -1 0 2 -2 1 -1 
1 -1 1 -1 0 -1 1 -1 1 -1 1 -1 1 -1 0 -1 
1 -1 1 -1 0 -1 1 -1 1 0 -1 0 2 -2 1 -1 
0 -1 1 -1 1 -1 1 -1 0 -1 1 -1 1 -1 0 -1 
1 -1 1 -1 0 -1 1 -1 1 -1 0 -1 1 -1 1 -1 
0 -1 1 -1 1 -1 0 -1 1 -1 1 -1 0 -1 1 -1 
1 -1 0 -1 1 -1 1 -1 0 -1 1 -1 1 -2 0 -1 
1 -1 1 -1 0 -1 1 -1 1 -1 0 -2 1 -1 1 -1 
0 -1 1 -1 1 -1 0 -2 1 -1 1 -1 0 -1 1 -1 
1 -2 0 -1 1 -1 1 -1 0 -2 1 -1 1 -1 0 -1 
1 -2 1 -1 0 -1 1 -2 1 -1 0 -1 1 -2 1 -1 
1 -1 0 -2 1 -1 1 -1 0 -2 1 -1 1 -1 0 -2 
1 -1 1 -1 0 -2 1 -1 1 -2 0 -1 1 -1 1 -2 
0 -1 1 -2 1 -1 0 -2 1 -1 1 -2 0 -1 1 -1 
1 -2 0 -1 1 -2 1 -1 0 -2 1 -1 1 -2 0 -1 
1 -2 1 -1 0 -2 1 -2 1 -1 0 -2 1 -1 1 -2 
0 -1 1 -2 1 -1 0 -2 1 -2 1 -1 0 -2 1 -1 
1 -2 0 -2 1 -1 1267 898 300 MP stroke
1 -2 0 -2 1 -1 1 -2 0 -2 1 -1 1 -2 0 -2 
1 -1 1 -2 0 -2 1 -1 1 -2 1 -2 0 -1 1 -2 
1 -2 0 -2 1 -1 1 -2 0 -2 1 -1 1 -2 0 -2 
1 -2 1 -1 0 -2 1 -2 1 -2 0 -2 1 -1 1 -2 
0 -2 1 -2 1 -2 0 -1 1 -2 1 -2 0 -2 1 -2 
1 -2 0 -2 1 -1 1 -2 0 -2 1 -2 1 -2 0 -2 
1 -2 1 -2 0 -1 1 -2 1 -2 0 -2 1 -2 1 -2 
0 -2 1 -2 1 -2 0 -2 1 -2 1 -2 0 -2 1 -2 
1 -2 0 -2 1 -2 1 -2 0 -2 1 -2 1 -2 0 -2 
1 -2 1 -2 1 -2 0 -2 1 -2 1 -2 0 -2 1 -2 
1 -2 0 -2 1 -2 1 -2 0 -2 1 -2 1 -2 0 -2 
1 -2 1 -2 0 -3 1 -2 1 -2 0 -2 1 -2 1 -2 
0 -2 1 -2 1 -3 0 -2 1 -2 1 -2 0 -2 1 -2 
1 -2 0 -3 1 -2 1 -2 0 -2 1 -2 1 -2 0 -3 
1 -2 1 -2 0 -2 1 -3 1 -2 0 -2 1 -2 1 -2 
0 -3 1 -2 1 -2 0 -2 1 -3 1 -2 0 -2 1 -2 
1 -3 0 -2 1 -2 1 -2 0 -3 1 -2 1 -2 0 -3 
1 -2 1 -2 1 -3 0 -2 1 -2 1 -3 0 -2 1 -2 
1 -3 0 -2 1 -2 1 -3 0 -2 1 -2 1 -3 0 -2 
1 -2 1 -3 0 -2 1 -3 1 -2 0 -2 1 -3 1 -2 
0 -2 1 -3 1 -2 0 -3 1 -2 1 -3 0 -2 1 -2 
1 -3 0 -2 1 -3 1 -2 0 -3 1 -2 1 -3 0 -2 
1 -2 1 -3 0 -2 1 -3 1 -2 0 -3 1 -2 1 -3 
0 -2 1 -3 1 -2 0 -3 1 -2 1 -3 0 -2 1 -3 
1 -2 0 -3 1 -2 1 -3 0 -2 1 -3 1 -3 1 -2 
0 -3 1 -2 1 -3 0 -2 1 -3 1 -2 0 -3 1 -3 
1 -2 0 -3 1 -2 1 -3 0 -2 1 -3 1 -3 0 -2 
1 -3 1 -2 0 -3 1 -3 1 -2 0 -3 1 -3 1 -2 
0 -3 1 -2 1 -3 0 -3 1 -2 1 -3 0 -3 1 -2 
1 -3 0 -3 1 -2 1 -3 0 -3 1 -2 1 -3 0 -3 
1 -2 1 -3 0 -3 1 -2 1 -3 0 -3 1 -2 1 -3 
0 -3 1 -3 1 -2 0 -3 1 -3 1 -2 0 -3 1 -3 
1 -3 0 -2 1 -3 1 -3 0 -3 1 -2 1 -3 1 -3 
0 -3 1 -2 1 -3 0 -3 1 -3 1 -2 0 -3 1 -3 
1 -3 0 -2 1 -3 1 -3 0 -3 1 -3 1 -2 0 -3 
1 -3 1 -3 0 -3 1 -2 1 -3 0 -3 1 -3 1 -3 
0 -2 1 -3 1 -3 0 -3 1 -3 1 -2 0 -3 1 -3 
1 -3 0 -3 1 -3 1066 1591 300 MP stroke
1 -2 0 -3 1 -3 1 -3 0 -3 1 -3 1 -3 0 -2 
1 -3 1 -3 0 -3 1 -3 1 -3 0 -3 1 -2 1 -3 
0 -3 1 -3 1 -3 0 -3 1 -3 1 -3 0 -3 1 -2 
1 -3 1 -3 0 -3 1 -3 1 -3 0 -3 1 -3 1 -3 
0 -3 1 -2 1 -3 0 -3 1 -3 1 -3 0 -3 1 -3 
1 -3 0 -3 1 -3 1 -3 0 -3 1 -3 1 -3 0 -2 
1 -3 1 -3 0 -3 1 -3 1 -3 0 -3 1 -3 1 -3 
0 -3 1 -3 1 -3 0 -3 1 -3 1 -3 0 -3 1 -3 
1 -3 0 -3 1 -3 1 -3 0 -3 1 -3 1 -3 0 -3 
1 -3 1 -3 0 -2 1 -3 1 -3 0 -3 1 -3 1 -3 
0 -3 1 -3 1 -3 0 -3 1 -3 1 -3 0 -3 1 -3 
1 -3 1 -3 0 -3 1 -3 1 -4 0 -3 1 -3 1 -3 
0 -3 1 -3 1 -3 0 -3 1 -3 1 -3 0 -3 1 -3 
1 -3 0 -3 1 -3 1 -3 0 -3 1 -3 1 -3 0 -3 
1 -3 1 -3 0 -3 1 -3 1 -3 0 -3 1 -3 1 -3 
0 -3 1 -3 1 -3 0 -4 1 -3 1 -3 0 -3 1 -3 
1 -3 0 -3 1 -3 1 -3 0 -3 1 -3 1 -3 0 -3 
1 -3 1 -3 0 -3 1 -4 1 -3 0 -3 1 -3 1 -3 
0 -3 1 -3 1 -3 0 -3 1 -3 1 -3 1 -3 0 -3 
1 -3 1 -4 0 -3 1 -3 1 -3 0 -3 1 -3 1 -3 
0 -3 1 -3 1 -3 0 -3 1 -3 1 -4 0 -3 1 -3 
1 -3 0 -3 1 -3 1 -3 0 -3 1 -3 1 -3 0 -3 
1 -4 1 -3 0 -3 1 -3 1 -3 0 -3 1 -3 1 -3 
0 -3 1 -3 1 -4 0 -3 1 -3 1 -3 0 -3 1 -3 
1 -3 0 -3 1 -3 1 -4 0 -3 1 -3 1 -3 0 -3 
1 -3 1 -3 0 -3 1 -3 1 -3 0 -4 1 -3 1 -3 
0 -3 1 -3 1 -3 0 -3 1 -3 1 -3 1 -4 0 -3 
1 -3 1 -3 0 -3 1 -3 1 -3 0 -3 1 -3 1 -4 
0 -3 1 -3 1 -3 0 -3 1 -3 1 -3 0 -3 1 -4 
1 -3 0 -3 1 -3 1 -3 0 -3 1 -3 1 -3 0 -3 
1 -4 1 -3 0 -3 1 -3 1 -3 0 -3 1 -3 1 -3 
0 -4 1 -3 1 -3 0 -3 1 -3 1 -3 0 -3 1 -3 
1 -3 0 -4 1 -3 1 -3 0 -3 1 -3 1 -3 0 -3 
1 -3 1 -4 0 -3 1 -3 1 -3 0 -3 1 -3 1 -3 
0 -3 1 -4 1 -3 1 -3 0 -3 1 -3 1 -3 0 -3 
1 -3 1 -3 0 -4 1 -3 1 -3 0 -3 1 -3 1 -3 
0 -3 1 -3 1 -4 0 -3 1 -3 1 -3 0 -3 1 -3 
1 -3 0 -3 1 -3 865 2500 300 MP stroke
1 -4 0 -3 1 -3 1 -3 0 -3 1 -3 1 -3 0 -3 
1 -4 1 -3 0 -3 1 -3 1 -3 0 -3 1 -3 1 -3 
0 -3 1 -4 1 -3 0 -3 1 -3 1 -3 0 -3 1 -3 
1 -3 0 -4 1 -3 1 -3 0 -3 1 -3 1 -3 0 -3 
1 -3 1 -3 0 -4 1 -3 1 -3 0 -3 1 -3 1 -3 
1 -3 0 -3 1 -3 1 -4 0 -3 1 -3 1 -3 0 -3 
1 -3 1 -3 0 -3 1 -4 1 -3 0 -3 1 -3 1 -3 
0 -3 1 -3 1 -3 0 -3 1 -4 1 -3 0 -3 1 -3 
1 -3 0 -3 1 -3 1 -3 0 -4 1 -3 1 -3 0 -3 
1 -3 1 -3 0 -3 1 -3 1 -4 0 -3 1 -3 1 -3 
0 -3 1 -3 1 -3 0 -3 1 -4 1 -3 0 -3 1 -3 
1 -3 0 -3 1 -3 1 -3 0 -4 1 -3 1 -3 0 -3 
1 -3 1 -3 0 -3 1 -3 1 -4 1 -3 0 -3 1 -3 
1 -3 0 -3 1 -3 1 -4 0 -3 1 -3 1 -3 0 -3 
1 -3 1 -4 0 -3 1 -3 1 -3 0 -3 1 -3 1 -4 
0 -3 1 -3 1 -3 0 -3 1 -3 1 -4 0 -3 1 -3 
1 -3 0 -3 1 -4 1 -3 0 -3 1 -3 1 -3 0 -4 
1 -3 1 -3 0 -3 1 -3 1 -4 0 -3 1 -3 1 -3 
0 -4 1 -3 1 -3 0 -3 1 -4 1 -3 0 -3 1 -3 
1 -4 0 -3 1 -3 1 -4 0 -3 1 -3 1 -4 0 -3 
1 -3 1 -4 0 -3 1 -3 1 -4 1 -3 0 -3 1 -4 
1 -3 0 -3 1 -4 1 -3 0 -4 1 -3 1 -4 0 -3 
1 -4 1 -3 0 -4 1 -3 1 -4 0 -3 1 -4 1 -3 
0 -4 1 -3 1 -4 0 -4 1 -3 1 -4 0 -4 1 -3 
1 -4 0 -4 1 -4 1 -3 0 -4 1 -4 1 -4 0 -4 
1 -4 1 -4 0 -4 1 -4 1 -4 0 -4 1 -4 1 -4 
0 -4 1 -5 1 -4 0 -4 1 -5 1 -4 0 -5 1 -4 
1 -5 0 -5 1 -5 1 -5 0 -5 1 -5 1 -6 0 -5 
1 -6 1 -6 1 -6 0 -6 1 -6 1 -7 0 -8 1 -7 
1 -9 0 -9 1 -10 1 -13 0 -16 1 -38 1 0 1 0 
1 0 1 0 1 0 1 0 1 0 1 0 1 0 1 0 
1 0 1 0 1 0 1 0 1 0 1 0 1 0 1 0 
1 0 1 0 1 0 1 0 1 0 1 0 1 0 1 0 
1 0 1 0 1 0 1 0 1 0 1 0 1 0 1 0 
1 0 1 0 1 0 1 0 1 0 1 0 1 0 1 0 
1 0 1 0 1 0 1 0 1 0 1 0 1 0 1 0 
1 0 1 0 1 0 1 0 1 0 1 0 1 0 1 0 
1 0 1 0 1 0 644 3402 300 MP stroke
1 0 1 0 1 0 1 0 1 0 1 0 1 0 1 0 
1 0 1 0 1 0 1 0 1 0 1 0 1 0 1 0 
1 0 1 0 1 0 1 0 1 0 1 0 1 0 1 0 
1 0 1 0 1 0 1 0 1 0 1 0 1 0 1 0 
1 0 1 0 1 0 1 0 1 0 1 0 1 0 1 0 
1 0 1 0 1 0 1 0 1 0 1 0 1 0 1 0 
1 0 1 0 1 0 1 0 1 0 1 0 1 0 1 0 
1 0 1 0 1 0 1 0 1 0 1 0 1 0 1 0 
1 0 1 0 1 0 1 0 1 0 1 0 1 0 1 0 
1 0 1 0 1 0 1 0 1 0 1 0 1 0 1 0 
1 0 1 0 1 0 1 0 1 0 1 0 1 0 1 0 
1 0 1 0 1 0 1 0 1 0 1 0 1 0 1 0 
1 0 1 0 1 0 1 0 1 0 1 0 1 0 1 0 
1 0 1 0 1 0 1 0 1 0 1 0 1 0 1 0 
1 0 1 0 1 0 1 0 1 0 1 0 1 0 1 0 
1 0 1 0 1 0 1 0 1 0 1 0 1 0 1 0 
1 0 1 0 1 0 1 0 1 0 1 0 1 0 1 0 
1 0 1 0 1 0 1 0 504 3402 141 MP stroke
gr

24 w
c8
0 sg
1032 3690 mt 
(Temperature \() s
%%IncludeResource: font Symbol
/Symbol /WindowsLatin1Encoding 120 FMSR

1776 3690 mt 
(\260) s
%%IncludeResource: font Helvetica
/Helvetica /WindowsLatin1Encoding 120 FMSR

1824 3690 mt 
( C\)) s
 200 1866 mt  -90 rotate
(R) s
90 rotate
%%IncludeResource: font Helvetica
/Helvetica /WindowsLatin1Encoding 96 FMSR

 260 1780 mt  -90 rotate
(0) s
90 rotate
6 w
1 sg
0 3213 2016 0 0 -3213 2771 3402 4 MP
PP
-2016 0 0 3213 2016 0 0 -3213 2771 3402 5 MP stroke
4 w
DO
SO
6 w
0 sg
2771  189 mt 4787  189 L
2771 3402 mt 4787 3402 L
4787 3402 mt 4787  189 L
2771 3402 mt 2771  189 L
2771 3402 mt 4787 3402 L
2771 3402 mt 2771  189 L
2771 3402 mt 2771 3369 L
2771  189 mt 2771  221 L
%%IncludeResource: font Helvetica
/Helvetica /WindowsLatin1Encoding 120 FMSR

2738 3547 mt 
(0) s
3275 3402 mt 3275 3369 L
3275  189 mt 3275  221 L
3192 3547 mt 
(0.5) s
3779 3402 mt 3779 3369 L
3779  189 mt 3779  221 L
3746 3547 mt 
(1) s
4283 3402 mt 4283 3369 L
4283  189 mt 4283  221 L
4200 3547 mt 
(1.5) s
4787 3402 mt 4787 3369 L
4787  189 mt 4787  221 L
4754 3547 mt 
(2) s
2771 3402 mt 2803 3402 L
4787 3402 mt 4754 3402 L
2670 3446 mt 
(0) s
2771 2866 mt 2803 2866 L
4787 2866 mt 4754 2866 L
2670 2910 mt 
(2) s
2771 2331 mt 2803 2331 L
4787 2331 mt 4754 2331 L
2670 2375 mt 
(4) s
2771 1795 mt 2803 1795 L
4787 1795 mt 4754 1795 L
2670 1839 mt 
(6) s
2771 1260 mt 2803 1260 L
4787 1260 mt 4754 1260 L
2670 1304 mt 
(8) s
2771  724 mt 2803  724 L
4787  724 mt 4754  724 L
2603  768 mt 
(10) s
2771  189 mt 2803  189 L
4787  189 mt 4754  189 L
2603  233 mt 
(12) s
2771  189 mt 4787  189 L
2771 3402 mt 4787 3402 L
4787 3402 mt 4787  189 L
2771 3402 mt 2771  189 L
gs 2771 189 2017 3214 rc
24 w
c8
11 37 10 19 10 2 10 -15 10 -28 10 -42 10 -53 10 -63 
10 -70 10 -75 10 -79 10 -81 11 -81 10 -79 10 -76 10 -72 
10 -67 10 -61 10 -54 10 -47 10 -39 10 -31 10 -22 10 -13 
10 -4 11 4 10 13 10 22 10 31 10 39 10 47 10 54 
10 61 10 67 10 72 10 76 10 79 11 81 10 81 10 79 
10 75 10 70 10 63 10 53 10 42 10 28 10 15 10 -2 
10 -19 10 -37 11 -55 10 -72 10 -90 10 -107 10 -121 10 -135 
10 -147 10 -156 10 -165 10 -172 10 -181 10 -193 11 -225 10 -442 
10 -390 10 0 10 0 10 0 10 0 10 0 10 0 10 0 
10 0 10 0 10 0 11 0 10 0 10 0 10 0 10 0 
10 0 10 0 10 0 10 0 10 0 10 390 10 442 11 225 
10 193 10 181 10 172 10 165 10 156 10 147 10 135 10 121 
10 107 10 90 10 72 10 55 11 37 10 19 10 2 10 -15 
10 -28 10 -42 10 -53 10 -63 10 -70 10 -75 10 -79 10 -81 
11 -81 10 -79 10 -76 10 -72 10 -67 10 -61 10 -54 10 -47 
10 -39 10 -31 10 -22 10 -13 10 -4 11 4 10 13 10 22 
10 31 10 39 10 47 10 54 10 61 10 67 10 72 10 76 
10 79 11 81 10 81 10 79 10 75 10 70 10 63 10 53 
10 42 10 28 10 15 10 -2 10 -19 10 -37 11 -55 10 -72 
10 -90 10 -107 10 -121 10 -135 10 -147 10 -156 10 -165 10 -172 
10 -181 10 -193 11 -225 10 -442 10 -390 10 0 10 0 10 0 
10 0 10 0 10 0 10 0 10 0 10 0 10 0 11 0 
10 0 10 0 10 0 10 0 10 0 10 0 10 0 10 0 
10 0 10 390 10 442 11 225 10 193 10 181 10 172 10 165 
10 156 10 147 10 135 10 121 10 107 10 90 10 72 10 55 
2771 751 201 MP stroke
gr

24 w
c8
0 sg
3443 3690 mt 
(Time \(years\)) s
6 w

end %%Color Dict

eplot
%%EndObject

epage
end

showpage

%%Trailer
%%EOF
