%!PS-Adobe-3.0 EPSF-3.0
%%Creator: MATLAB, The MathWorks, Inc. Version 8.3.0.532 (R2014a). Operating System: Microsoft Windows 7 Enterprise .
%%Title: U:\My Documents\Citrus\Matlab\1st Model - Malaria\VaryRogue.eps
%%CreationDate: 01/07/2016  12:22:08
%%DocumentNeededFonts: Helvetica
%%DocumentProcessColors: Cyan Magenta Yellow Black
%%LanguageLevel: 2
%%Pages: 1
%%BoundingBox:    95   238   515   553
%%EndComments

%%BeginProlog
% MathWorks dictionary
/MathWorks 160 dict begin
% definition operators
/bdef {bind def} bind def
/ldef {load def} bind def
/xdef {exch def} bdef
/xstore {exch store} bdef
% operator abbreviations
/c  /clip ldef
/cc /concat ldef
/cp /closepath ldef
/gr /grestore ldef
/gs /gsave ldef
/mt /moveto ldef
/np /newpath ldef
/cm /currentmatrix ldef
/sm /setmatrix ldef
/rm /rmoveto ldef
/rl /rlineto ldef
/s {show newpath} bdef
/sc {setcmykcolor} bdef
/sr /setrgbcolor ldef
/sg /setgray ldef
/w /setlinewidth ldef
/j /setlinejoin ldef
/cap /setlinecap ldef
/rc {rectclip} bdef
/rf {rectfill} bdef
% page state control
/pgsv () def
/bpage {/pgsv save def} bdef
/epage {pgsv restore} bdef
/bplot /gsave ldef
/eplot {stroke grestore} bdef
% orientation switch
/portraitMode 0 def /landscapeMode 1 def /rotateMode 2 def
% coordinate system mappings
/dpi2point 0 def
% font control
/FontSize 0 def
/FMS {/FontSize xstore findfont [FontSize 0 0 FontSize neg 0 0]
  makefont setfont} bdef
/ISOLatin1Encoding where {pop /WindowsLatin1Encoding 256 array bdef
ISOLatin1Encoding WindowsLatin1Encoding copy pop
/.notdef/.notdef/quotesinglbase/florin/quotedblbase/ellipsis/dagger
/daggerdbl/circumflex/perthousand/Scaron/guilsinglleft/OE/.notdef/.notdef
/.notdef/.notdef/quoteleft/quoteright/quotedblleft/quotedblright/bullet
/endash/emdash/tilde/trademark/scaron/guilsinglright/oe/.notdef/.notdef
/Ydieresis WindowsLatin1Encoding 128 32 getinterval astore pop}
{/WindowsLatin1Encoding StandardEncoding bdef} ifelse
/reencode {exch dup where {pop load} {pop StandardEncoding} ifelse
  exch dup 3 1 roll findfont dup length dict begin
  { 1 index /FID ne {def}{pop pop} ifelse } forall
  /Encoding exch def currentdict end definefont pop} bdef
/isroman {findfont /CharStrings get /Agrave known} bdef
/FMSR {3 1 roll 1 index dup isroman {reencode} {pop pop} ifelse
  exch FMS} bdef
/csm {1 dpi2point div -1 dpi2point div scale neg translate
 dup landscapeMode eq {pop -90 rotate}
  {rotateMode eq {90 rotate} if} ifelse} bdef
% line types: solid, dotted, dashed, dotdash
/SO { [] 0 setdash } bdef
/DO { [.5 dpi2point mul 4 dpi2point mul] 0 setdash } bdef
/DA { [6 dpi2point mul] 0 setdash } bdef
/DD { [.5 dpi2point mul 4 dpi2point mul 6 dpi2point mul 4
  dpi2point mul] 0 setdash } bdef
% macros for lines and objects
/L {lineto stroke} bdef
/MP {3 1 roll moveto 1 sub {rlineto} repeat} bdef
/AP {{rlineto} repeat} bdef
/PDlw -1 def
/W {/PDlw currentlinewidth def setlinewidth} def
/PP {closepath eofill} bdef
/DP {closepath stroke} bdef
/MR {4 -2 roll moveto dup  0 exch rlineto exch 0 rlineto
  neg 0 exch rlineto closepath} bdef
/FR {MR stroke} bdef
/PR {MR fill} bdef
/L1i {{currentfile picstr readhexstring pop} image} bdef
/tMatrix matrix def
/MakeOval {newpath tMatrix currentmatrix pop translate scale
0 0 1 0 360 arc tMatrix setmatrix} bdef
/FO {MakeOval stroke} bdef
/PO {MakeOval fill} bdef
/PD {currentlinewidth 2 div 0 360 arc fill
   PDlw -1 eq not {PDlw w /PDlw -1 def} if} def
/FA {newpath tMatrix currentmatrix pop translate scale
  0 0 1 5 -2 roll arc tMatrix setmatrix stroke} bdef
/PA {newpath tMatrix currentmatrix pop	translate 0 0 moveto scale
  0 0 1 5 -2 roll arc closepath tMatrix setmatrix fill} bdef
/FAn {newpath tMatrix currentmatrix pop translate scale
  0 0 1 5 -2 roll arcn tMatrix setmatrix stroke} bdef
/PAn {newpath tMatrix currentmatrix pop translate 0 0 moveto scale
  0 0 1 5 -2 roll arcn closepath tMatrix setmatrix fill} bdef
/vradius 0 def /hradius 0 def /lry 0 def
/lrx 0 def /uly 0 def /ulx 0 def /rad 0 def
/MRR {/vradius xdef /hradius xdef /lry xdef /lrx xdef /uly xdef
  /ulx xdef newpath tMatrix currentmatrix pop ulx hradius add uly
  vradius add translate hradius vradius scale 0 0 1 180 270 arc 
  tMatrix setmatrix lrx hradius sub uly vradius add translate
  hradius vradius scale 0 0 1 270 360 arc tMatrix setmatrix
  lrx hradius sub lry vradius sub translate hradius vradius scale
  0 0 1 0 90 arc tMatrix setmatrix ulx hradius add lry vradius sub
  translate hradius vradius scale 0 0 1 90 180 arc tMatrix setmatrix
  closepath} bdef
/FRR {MRR stroke } bdef
/PRR {MRR fill } bdef
/MlrRR {/lry xdef /lrx xdef /uly xdef /ulx xdef /rad lry uly sub 2 div def
  newpath tMatrix currentmatrix pop ulx rad add uly rad add translate
  rad rad scale 0 0 1 90 270 arc tMatrix setmatrix lrx rad sub lry rad
  sub translate rad rad scale 0 0 1 270 90 arc tMatrix setmatrix
  closepath} bdef
/FlrRR {MlrRR stroke } bdef
/PlrRR {MlrRR fill } bdef
/MtbRR {/lry xdef /lrx xdef /uly xdef /ulx xdef /rad lrx ulx sub 2 div def
  newpath tMatrix currentmatrix pop ulx rad add uly rad add translate
  rad rad scale 0 0 1 180 360 arc tMatrix setmatrix lrx rad sub lry rad
  sub translate rad rad scale 0 0 1 0 180 arc tMatrix setmatrix
  closepath} bdef
/FtbRR {MtbRR stroke } bdef
/PtbRR {MtbRR fill } bdef
/stri 6 array def /dtri 6 array def
/smat 6 array def /dmat 6 array def
/tmat1 6 array def /tmat2 6 array def /dif 3 array def
/asub {/ind2 exch def /ind1 exch def dup dup
  ind1 get exch ind2 get sub exch } bdef
/tri_to_matrix {
  2 0 asub 3 1 asub 4 0 asub 5 1 asub
  dup 0 get exch 1 get 7 -1 roll astore } bdef
/compute_transform {
  dmat dtri tri_to_matrix tmat1 invertmatrix 
  smat stri tri_to_matrix tmat2 concatmatrix } bdef
/ds {stri astore pop} bdef
/dt {dtri astore pop} bdef
/db {2 copy /cols xdef /rows xdef mul dup 3 mul string
  currentfile 
  3 index 0 eq {/ASCIIHexDecode filter}
  {/ASCII85Decode filter 3 index 2 eq {/RunLengthDecode filter} if }
  ifelse exch readstring pop
  dup 0 3 index getinterval /rbmap xdef
  dup 2 index dup getinterval /gbmap xdef
  1 index dup 2 mul exch getinterval /bbmap xdef pop pop}bdef
/it {gs np dtri aload pop moveto lineto lineto cp c
  cols rows 8 compute_transform 
  rbmap gbmap bbmap true 3 colorimage gr}bdef
/il {newpath moveto lineto stroke}bdef
currentdict end def
%%EndProlog

%%BeginSetup
MathWorks begin

0 cap

end
%%EndSetup

%%Page: 1 1
%%BeginPageSetup
%%PageBoundingBox:    95   238   515   553
MathWorks begin
bpage
%%EndPageSetup

%%BeginObject: obj1
bplot

/dpi2point 12 def
portraitMode 1140 6636 csm

    0     0  5049  3780 rc
85 dict begin %Colortable dictionary
/c0 { 0.000000 0.000000 0.000000 sr} bdef
/c1 { 1.000000 1.000000 1.000000 sr} bdef
/c2 { 0.900000 0.000000 0.000000 sr} bdef
/c3 { 0.000000 0.820000 0.000000 sr} bdef
/c4 { 0.000000 0.000000 0.800000 sr} bdef
/c5 { 0.910000 0.820000 0.320000 sr} bdef
/c6 { 1.000000 0.260000 0.820000 sr} bdef
/c7 { 0.000000 0.820000 0.820000 sr} bdef
c0
1 j
1 sg
   0    0 5050 3781 rf
6 w
0 3080 3913 0 0 -3080 656 3364 4 MP
PP
-3913 0 0 3080 3913 0 0 -3080 656 3364 5 MP stroke
4 w
DO
SO
6 w
0 sg
 656  284 mt 4569  284 L
 656 3364 mt 4569 3364 L
/c8 { 0.000000 0.000000 1.000000 sr} bdef
c8
4569 3364 mt 4569  284 L
 656 3364 mt  656  284 L
0 sg
 656 3364 mt 4569 3364 L
c8
 656 3364 mt  656  284 L
0 sg
 656 3364 mt  656 3324 L
 656  284 mt  656  323 L
%%IncludeResource: font Helvetica
/Helvetica /WindowsLatin1Encoding 120 FMSR

 623 3509 mt 
(4) s
1308 3364 mt 1308 3324 L
1308  284 mt 1308  323 L
1275 3509 mt 
(6) s
1960 3364 mt 1960 3324 L
1960  284 mt 1960  323 L
1927 3509 mt 
(8) s
2612 3364 mt 2612 3324 L
2612  284 mt 2612  323 L
2546 3509 mt 
(10) s
3264 3364 mt 3264 3324 L
3264  284 mt 3264  323 L
3198 3509 mt 
(12) s
3916 3364 mt 3916 3324 L
3916  284 mt 3916  323 L
3850 3509 mt 
(14) s
4569 3364 mt 4569 3324 L
4569  284 mt 4569  323 L
4503 3509 mt 
(16) s
c8
 656 3364 mt  695 3364 L
4569 3364 mt 4529 3364 L
 488 3408 mt 
(84) s
 656 2850 mt  695 2850 L
4569 2850 mt 4529 2850 L
 488 2894 mt 
(86) s
 656 2337 mt  695 2337 L
4569 2337 mt 4529 2337 L
 488 2381 mt 
(88) s
 656 1824 mt  695 1824 L
4569 1824 mt 4529 1824 L
 488 1868 mt 
(90) s
 656 1310 mt  695 1310 L
4569 1310 mt 4529 1310 L
 488 1354 mt 
(92) s
 656  797 mt  695  797 L
4569  797 mt 4529  797 L
 488  841 mt 
(94) s
 656  284 mt  695  284 L
4569  284 mt 4529  284 L
 488  328 mt 
(96) s
0 sg
 656  284 mt 4569  284 L
 656 3364 mt 4569 3364 L
c8
4569 3364 mt 4569  284 L
 656 3364 mt  656  284 L
gs 656 284 3914 3081 rc
DA
24 w
-652 1208 -652 676 -652 432 -652 301 -978 311 4242 364 6 MP stroke
gr

24 w
DA
SO
4194  364 mt 4290  364 L
4242  316 mt 4242  412 L
3216  675 mt 3312  675 L
3264  627 mt 3264  723 L
2564  976 mt 2660  976 L
2612  928 mt 2612 1024 L
1912 1408 mt 2008 1408 L
1960 1360 mt 1960 1456 L
1260 2084 mt 1356 2084 L
1308 2036 mt 1308 2132 L
 608 3292 mt  704 3292 L
 656 3244 mt  656 3340 L
4209  331 mt 4275  397 L
4275  331 mt 4209  397 L
3231  642 mt 3297  708 L
3297  642 mt 3231  708 L
2579  943 mt 2645 1009 L
2645  943 mt 2579 1009 L
1927 1375 mt 1993 1441 L
1993 1375 mt 1927 1441 L
1275 2051 mt 1341 2117 L
1341 2051 mt 1275 2117 L
 623 3259 mt  689 3325 L
 689 3259 mt  623 3325 L
DA
gs 656 284 3914 3081 rc
gr

0 sg
1676 3652 mt 
(Average Time until Roguing \(years\)) s
c8
 406 2644 mt  -90 rotate
(Peak Number of Infected Trees) s
90 rotate
SO
6 w
4 w
DO
SO
6 w
0 sg
 656 3364 mt 4569 3364 L
/c9 { 0.000000 0.500000 0.000000 sr} bdef
c9
4569 3364 mt 4569  283 L
0 sg
 656 3364 mt  656 3324 L
 623 3509 mt 
(4) s
1308 3364 mt 1308 3324 L
1275 3509 mt 
(6) s
1960 3364 mt 1960 3324 L
1927 3509 mt 
(8) s
2612 3364 mt 2612 3324 L
2546 3509 mt 
(10) s
3264 3364 mt 3264 3324 L
3198 3509 mt 
(12) s
3916 3364 mt 3916 3324 L
3850 3509 mt 
(14) s
4569 3364 mt 4569 3324 L
4503 3509 mt 
(16) s
c9
4569 3364 mt 4529 3364 L
4603 3408 mt 
(100) s
4569 2850 mt 4529 2850 L
4603 2894 mt 
(150) s
4569 2337 mt 4529 2337 L
4603 2381 mt 
(200) s
4569 1824 mt 4529 1824 L
4603 1868 mt 
(250) s
4569 1310 mt 4529 1310 L
4603 1354 mt 
(300) s
4569  797 mt 4529  797 L
4603  841 mt 
(350) s
4569  284 mt 4529  284 L
4603  328 mt 
(400) s
gs 656 284 3914 3081 rc
DA
24 w
-652 -1035 -652 -570 -652 -362 -652 -250 -978 -257 4242 3236 6 MP stroke
gr

24 w
DA
SO
4194 3236 mt 4290 3236 L
4242 3188 mt 4242 3284 L
3216 2979 mt 3312 2979 L
3264 2931 mt 3264 3027 L
2564 2729 mt 2660 2729 L
2612 2681 mt 2612 2777 L
1912 2367 mt 2008 2367 L
1960 2319 mt 1960 2415 L
1260 1797 mt 1356 1797 L
1308 1749 mt 1308 1845 L
 608  762 mt  704  762 L
 656  714 mt  656  810 L
4209 3203 mt 4275 3269 L
4275 3203 mt 4209 3269 L
3231 2946 mt 3297 3012 L
3297 2946 mt 3231 3012 L
2579 2696 mt 2645 2762 L
2645 2696 mt 2579 2762 L
1927 2334 mt 1993 2400 L
1993 2334 mt 1927 2400 L
1275 1764 mt 1341 1830 L
1341 1764 mt 1275 1830 L
 623  729 mt  689  795 L
 689  729 mt  623  795 L
DA
gs 656 284 3914 3081 rc
gr

4944 2679 mt  -90 rotate
(Total Number of Removed Trees) s
90 rotate
SO
6 w

end %%Color Dict

eplot
%%EndObject

epage
end

showpage

%%Trailer
%%EOF
