%!PS-Adobe-3.0 EPSF-3.0
%%Creator: (MATLAB, The Mathworks, Inc. Version 8.4.0.150421 \(R2014b\). Operating System: Mac OS X)
%%Title: /Users/Rachel/Dropbox/Citrus/Matlab/NewModPaper/R0temptimeF.eps
%%CreationDate: 2016-07-05T16:14:22
%%Pages: (atend)
%%BoundingBox: 0 0 454 341
%%LanguageLevel: 2
%%EndComments
%%BeginProlog
%%BeginResource: procset (Apache XML Graphics Std ProcSet) 1.2 0
%%Version: 1.2 0
%%Copyright: (Copyright 2001-2003,2010 The Apache Software Foundation. License terms: http://www.apache.org/licenses/LICENSE-2.0)
/bd{bind def}bind def
/ld{load def}bd
/GR/grestore ld
/M/moveto ld
/LJ/setlinejoin ld
/C/curveto ld
/f/fill ld
/LW/setlinewidth ld
/GC/setgray ld
/t/show ld
/N/newpath ld
/CT/concat ld
/cp/closepath ld
/S/stroke ld
/L/lineto ld
/CC/setcmykcolor ld
/A/ashow ld
/GS/gsave ld
/RC/setrgbcolor ld
/RM/rmoveto ld
/ML/setmiterlimit ld
/re {4 2 roll M
1 index 0 rlineto
0 exch rlineto
neg 0 rlineto
cp } bd
/_ctm matrix def
/_tm matrix def
/BT { _ctm currentmatrix pop matrix _tm copy pop 0 0 moveto } bd
/ET { _ctm setmatrix } bd
/iTm { _ctm setmatrix _tm concat } bd
/Tm { _tm astore pop iTm 0 0 moveto } bd
/ux 0.0 def
/uy 0.0 def
/F {
  /Tp exch def
  /Tf exch def
  Tf findfont Tp scalefont setfont
  /cf Tf def  /cs Tp def
} bd
/ULS {currentpoint /uy exch def /ux exch def} bd
/ULE {
  /Tcx currentpoint pop def
  gsave
  newpath
  cf findfont cs scalefont dup
  /FontMatrix get 0 get /Ts exch def /FontInfo get dup
  /UnderlinePosition get Ts mul /To exch def
  /UnderlineThickness get Ts mul /Tt exch def
  ux uy To add moveto  Tcx uy To add lineto
  Tt setlinewidth stroke
  grestore
} bd
/OLE {
  /Tcx currentpoint pop def
  gsave
  newpath
  cf findfont cs scalefont dup
  /FontMatrix get 0 get /Ts exch def /FontInfo get dup
  /UnderlinePosition get Ts mul /To exch def
  /UnderlineThickness get Ts mul /Tt exch def
  ux uy To add cs add moveto Tcx uy To add cs add lineto
  Tt setlinewidth stroke
  grestore
} bd
/SOE {
  /Tcx currentpoint pop def
  gsave
  newpath
  cf findfont cs scalefont dup
  /FontMatrix get 0 get /Ts exch def /FontInfo get dup
  /UnderlinePosition get Ts mul /To exch def
  /UnderlineThickness get Ts mul /Tt exch def
  ux uy To add cs 10 mul 26 idiv add moveto Tcx uy To add cs 10 mul 26 idiv add lineto
  Tt setlinewidth stroke
  grestore
} bd
/QT {
/Y22 exch store
/X22 exch store
/Y21 exch store
/X21 exch store
currentpoint
/Y21 load 2 mul add 3 div exch
/X21 load 2 mul add 3 div exch
/X21 load 2 mul /X22 load add 3 div
/Y21 load 2 mul /Y22 load add 3 div
/X22 load /Y22 load curveto
} bd
/SSPD {
dup length /d exch dict def
{
/v exch def
/k exch def
currentpagedevice k known {
/cpdv currentpagedevice k get def
v cpdv ne {
/upd false def
/nullv v type /nulltype eq def
/nullcpdv cpdv type /nulltype eq def
nullv nullcpdv or
{
/upd true def
} {
/sametype v type cpdv type eq def
sametype {
v type /arraytype eq {
/vlen v length def
/cpdvlen cpdv length def
vlen cpdvlen eq {
0 1 vlen 1 sub {
/i exch def
/obj v i get def
/cpdobj cpdv i get def
obj cpdobj ne {
/upd true def
exit
} if
} for
} {
/upd true def
} ifelse
} {
v type /dicttype eq {
v {
/dv exch def
/dk exch def
/cpddv cpdv dk get def
dv cpddv ne {
/upd true def
exit
} if
} forall
} {
/upd true def
} ifelse
} ifelse
} if
} ifelse
upd true eq {
d k v put
} if
} if
} if
} forall
d length 0 gt {
d setpagedevice
} if
} bd
%%EndResource
%%BeginResource: procset (Apache XML Graphics EPS ProcSet) 1.0 0
%%Version: 1.0 0
%%Copyright: (Copyright 2002-2003 The Apache Software Foundation. License terms: http://www.apache.org/licenses/LICENSE-2.0)
/BeginEPSF { %def
/b4_Inc_state save def         % Save state for cleanup
/dict_count countdictstack def % Count objects on dict stack
/op_count count 1 sub def      % Count objects on operand stack
userdict begin                 % Push userdict on dict stack
/showpage { } def              % Redefine showpage, { } = null proc
0 setgray 0 setlinecap         % Prepare graphics state
1 setlinewidth 0 setlinejoin
10 setmiterlimit [ ] 0 setdash newpath
/languagelevel where           % If level not equal to 1 then
{pop languagelevel             % set strokeadjust and
1 ne                           % overprint to their defaults.
{false setstrokeadjust false setoverprint
} if
} if
} bd
/EndEPSF { %def
count op_count sub {pop} repeat            % Clean up stacks
countdictstack dict_count sub {end} repeat
b4_Inc_state restore
} bd
%%EndResource
%FOPBeginFontDict
%%IncludeResource: font Courier-Bold
%%IncludeResource: font Helvetica
%%IncludeResource: font Courier-BoldOblique
%%IncludeResource: font Courier-Oblique
%%IncludeResource: font Times-Roman
%%IncludeResource: font Helvetica-BoldOblique
%%IncludeResource: font Helvetica-Bold
%%IncludeResource: font Helvetica-Oblique
%%IncludeResource: font Times-BoldItalic
%%IncludeResource: font Courier
%%IncludeResource: font Times-Italic
%%IncludeResource: font Times-Bold
%%IncludeResource: font Symbol
%%IncludeResource: font ZapfDingbats
%FOPEndFontDict
%%BeginResource: encoding WinAnsiEncoding
/WinAnsiEncoding [
/.notdef /.notdef /.notdef /.notdef /.notdef
/.notdef /.notdef /.notdef /.notdef /.notdef
/.notdef /.notdef /.notdef /.notdef /.notdef
/.notdef /.notdef /.notdef /.notdef /.notdef
/.notdef /.notdef /.notdef /.notdef /.notdef
/.notdef /.notdef /.notdef /.notdef /.notdef
/.notdef /.notdef /space /exclam /quotedbl
/numbersign /dollar /percent /ampersand /quotesingle
/parenleft /parenright /asterisk /plus /comma
/hyphen /period /slash /zero /one
/two /three /four /five /six
/seven /eight /nine /colon /semicolon
/less /equal /greater /question /at
/A /B /C /D /E
/F /G /H /I /J
/K /L /M /N /O
/P /Q /R /S /T
/U /V /W /X /Y
/Z /bracketleft /backslash /bracketright /asciicircum
/underscore /quoteleft /a /b /c
/d /e /f /g /h
/i /j /k /l /m
/n /o /p /q /r
/s /t /u /v /w
/x /y /z /braceleft /bar
/braceright /asciitilde /bullet /Euro /bullet
/quotesinglbase /florin /quotedblbase /ellipsis /dagger
/daggerdbl /circumflex /perthousand /Scaron /guilsinglleft
/OE /bullet /Zcaron /bullet /bullet
/quoteleft /quoteright /quotedblleft /quotedblright /bullet
/endash /emdash /asciitilde /trademark /scaron
/guilsinglright /oe /bullet /zcaron /Ydieresis
/space /exclamdown /cent /sterling /currency
/yen /brokenbar /section /dieresis /copyright
/ordfeminine /guillemotleft /logicalnot /sfthyphen /registered
/macron /degree /plusminus /twosuperior /threesuperior
/acute /mu /paragraph /middot /cedilla
/onesuperior /ordmasculine /guillemotright /onequarter /onehalf
/threequarters /questiondown /Agrave /Aacute /Acircumflex
/Atilde /Adieresis /Aring /AE /Ccedilla
/Egrave /Eacute /Ecircumflex /Edieresis /Igrave
/Iacute /Icircumflex /Idieresis /Eth /Ntilde
/Ograve /Oacute /Ocircumflex /Otilde /Odieresis
/multiply /Oslash /Ugrave /Uacute /Ucircumflex
/Udieresis /Yacute /Thorn /germandbls /agrave
/aacute /acircumflex /atilde /adieresis /aring
/ae /ccedilla /egrave /eacute /ecircumflex
/edieresis /igrave /iacute /icircumflex /idieresis
/eth /ntilde /ograve /oacute /ocircumflex
/otilde /odieresis /divide /oslash /ugrave
/uacute /ucircumflex /udieresis /yacute /thorn
/ydieresis
] def
%%EndResource
%FOPBeginFontReencode
/Courier-Bold findfont
dup length dict begin
  {1 index /FID ne {def} {pop pop} ifelse} forall
  /Encoding WinAnsiEncoding def
  currentdict
end
/Courier-Bold exch definefont pop
/Helvetica findfont
dup length dict begin
  {1 index /FID ne {def} {pop pop} ifelse} forall
  /Encoding WinAnsiEncoding def
  currentdict
end
/Helvetica exch definefont pop
/Courier-BoldOblique findfont
dup length dict begin
  {1 index /FID ne {def} {pop pop} ifelse} forall
  /Encoding WinAnsiEncoding def
  currentdict
end
/Courier-BoldOblique exch definefont pop
/Courier-Oblique findfont
dup length dict begin
  {1 index /FID ne {def} {pop pop} ifelse} forall
  /Encoding WinAnsiEncoding def
  currentdict
end
/Courier-Oblique exch definefont pop
/Times-Roman findfont
dup length dict begin
  {1 index /FID ne {def} {pop pop} ifelse} forall
  /Encoding WinAnsiEncoding def
  currentdict
end
/Times-Roman exch definefont pop
/Helvetica-BoldOblique findfont
dup length dict begin
  {1 index /FID ne {def} {pop pop} ifelse} forall
  /Encoding WinAnsiEncoding def
  currentdict
end
/Helvetica-BoldOblique exch definefont pop
/Helvetica-Bold findfont
dup length dict begin
  {1 index /FID ne {def} {pop pop} ifelse} forall
  /Encoding WinAnsiEncoding def
  currentdict
end
/Helvetica-Bold exch definefont pop
/Helvetica-Oblique findfont
dup length dict begin
  {1 index /FID ne {def} {pop pop} ifelse} forall
  /Encoding WinAnsiEncoding def
  currentdict
end
/Helvetica-Oblique exch definefont pop
/Times-BoldItalic findfont
dup length dict begin
  {1 index /FID ne {def} {pop pop} ifelse} forall
  /Encoding WinAnsiEncoding def
  currentdict
end
/Times-BoldItalic exch definefont pop
/Courier findfont
dup length dict begin
  {1 index /FID ne {def} {pop pop} ifelse} forall
  /Encoding WinAnsiEncoding def
  currentdict
end
/Courier exch definefont pop
/Times-Italic findfont
dup length dict begin
  {1 index /FID ne {def} {pop pop} ifelse} forall
  /Encoding WinAnsiEncoding def
  currentdict
end
/Times-Italic exch definefont pop
/Times-Bold findfont
dup length dict begin
  {1 index /FID ne {def} {pop pop} ifelse} forall
  /Encoding WinAnsiEncoding def
  currentdict
end
/Times-Bold exch definefont pop
%FOPEndFontReencode
%%EndProlog
%%Page: 1 1
%%PageBoundingBox: 0 0 454 341
%%BeginPageSetup
[1 0 0 -1 0 341] CT
%%EndPageSetup
GS
1 GC
N
0 0 454 341 re
f
GR
GS
1 GC
N
0 0 454 341 re
f
GR
GS
1 GC
N
45 307 M
227 307 L
227 17 L
45 17 L
cp
f
GR
GS
[1 0 0 1 87 332] CT
0.149 GC
/Helvetica 12 F
GS
[1 0 0 1 0 0] CT
0 0 moveto 
1 -1 scale
(Temperature \() t 
GR
GR
GS
[1 0 0 1 164 332] CT
0.149 GC
/Courier 12 F
GS
[1 0 0 1 0 0] CT
0 0 moveto 
1 -1 scale
(\260) t 
GR
GR
GS
[1 0 0 1 169 332] CT
0.149 GC
/Helvetica 12 F
GS
[1 0 0 1 0 0] CT
0 0 moveto 
1 -1 scale
( C\)) t 
GR
GR
GS
0.149 GC
2 setlinecap
10.0 ML
N
45 307 M
227 307 L
S
GR
GS
0.149 GC
2 setlinecap
10.0 ML
N
45 17 M
227 17 L
S
GR
GS
0.149 GC
2 setlinecap
10.0 ML
N
45 307 M
45 304.1 L
S
GR
GS
0.149 GC
2 setlinecap
10.0 ML
N
45 17 M
45 19.9 L
S
GR
GS
0.149 GC
2 setlinecap
10.0 ML
N
105.667 307 M
105.667 304.1 L
S
GR
GS
0.149 GC
2 setlinecap
10.0 ML
N
105.667 17 M
105.667 19.9 L
S
GR
GS
0.149 GC
2 setlinecap
10.0 ML
N
166.333 307 M
166.333 304.1 L
S
GR
GS
0.149 GC
2 setlinecap
10.0 ML
N
166.333 17 M
166.333 19.9 L
S
GR
GS
0.149 GC
2 setlinecap
10.0 ML
N
227 307 M
227 304.1 L
S
GR
GS
0.149 GC
2 setlinecap
10.0 ML
N
227 17 M
227 19.9 L
S
GR
GS
[1 0 0 1 45 311.39999] CT
0.149 GC
/Helvetica 12 F
GS
[1 0 0 1 0 0] CT
-6.674 9.24 moveto 
1 -1 scale
(10) t 
GR
GR
GS
[1 0 0 1 105.66666 311.39999] CT
0.149 GC
/Helvetica 12 F
GS
[1 0 0 1 0 0] CT
-6.674 9.24 moveto 
1 -1 scale
(20) t 
GR
GR
GS
[1 0 0 1 166.33333 311.39999] CT
0.149 GC
/Helvetica 12 F
GS
[1 0 0 1 0 0] CT
-6.674 9.24 moveto 
1 -1 scale
(30) t 
GR
GR
GS
[1 0 0 1 227 311.39999] CT
0.149 GC
/Helvetica 12 F
GS
[1 0 0 1 0 0] CT
-6.674 9.24 moveto 
1 -1 scale
(40) t 
GR
GR
GS
[0 -1 1 0 16 170] CT
0.149 GC
/Helvetica 12 F
GS
[1 0 0 1 0 0] CT
0 0 moveto 
1 -1 scale
(R) t 
GR
GR
GS
[0 -1 1 0 22 161] CT
0.149 GC
/Helvetica 9 F
GS
[1 0 0 1 0 0] CT
0 0 moveto 
1 -1 scale
(0) t 
GR
GR
GS
0.149 GC
2 setlinecap
10.0 ML
N
45 307 M
45 17 L
S
GR
GS
0.149 GC
2 setlinecap
10.0 ML
N
227 307 M
227 17 L
S
GR
GS
0.149 GC
2 setlinecap
10.0 ML
N
45 307 M
47.9 307 L
S
GR
GS
0.149 GC
2 setlinecap
10.0 ML
N
227 307 M
224.1 307 L
S
GR
GS
0.149 GC
2 setlinecap
10.0 ML
N
45 265.571 M
47.9 265.571 L
S
GR
GS
0.149 GC
2 setlinecap
10.0 ML
N
227 265.571 M
224.1 265.571 L
S
GR
GS
0.149 GC
2 setlinecap
10.0 ML
N
45 224.143 M
47.9 224.143 L
S
GR
GS
0.149 GC
2 setlinecap
10.0 ML
N
227 224.143 M
224.1 224.143 L
S
GR
GS
0.149 GC
2 setlinecap
10.0 ML
N
45 182.714 M
47.9 182.714 L
S
GR
GS
0.149 GC
2 setlinecap
10.0 ML
N
227 182.714 M
224.1 182.714 L
S
GR
GS
0.149 GC
2 setlinecap
10.0 ML
N
45 141.286 M
47.9 141.286 L
S
GR
GS
0.149 GC
2 setlinecap
10.0 ML
N
227 141.286 M
224.1 141.286 L
S
GR
GS
0.149 GC
2 setlinecap
10.0 ML
N
45 99.857 M
47.9 99.857 L
S
GR
GS
0.149 GC
2 setlinecap
10.0 ML
N
227 99.857 M
224.1 99.857 L
S
GR
GS
0.149 GC
2 setlinecap
10.0 ML
N
45 58.429 M
47.9 58.429 L
S
GR
GS
0.149 GC
2 setlinecap
10.0 ML
N
227 58.429 M
224.1 58.429 L
S
GR
GS
0.149 GC
2 setlinecap
10.0 ML
N
45 17 M
47.9 17 L
S
GR
GS
0.149 GC
2 setlinecap
10.0 ML
N
227 17 M
224.1 17 L
S
GR
GS
[1 0 0 1 40.6 307] CT
0.149 GC
/Helvetica 12 F
GS
[1 0 0 1 0 0] CT
-6.674 3.74 moveto 
1 -1 scale
(0) t 
GR
GR
GS
[1 0 0 1 40.6 265.57144] CT
0.149 GC
/Helvetica 12 F
GS
[1 0 0 1 0 0] CT
-6.674 3.74 moveto 
1 -1 scale
(5) t 
GR
GR
GS
[1 0 0 1 40.6 224.14285] CT
0.149 GC
/Helvetica 12 F
GS
[1 0 0 1 0 0] CT
-13.348 3.74 moveto 
1 -1 scale
(10) t 
GR
GR
GS
[1 0 0 1 40.6 182.71428] CT
0.149 GC
/Helvetica 12 F
GS
[1 0 0 1 0 0] CT
-13.348 3.74 moveto 
1 -1 scale
(15) t 
GR
GR
GS
[1 0 0 1 40.6 141.28572] CT
0.149 GC
/Helvetica 12 F
GS
[1 0 0 1 0 0] CT
-13.348 3.74 moveto 
1 -1 scale
(20) t 
GR
GR
GS
[1 0 0 1 40.6 99.85714] CT
0.149 GC
/Helvetica 12 F
GS
[1 0 0 1 0 0] CT
-13.348 3.74 moveto 
1 -1 scale
(25) t 
GR
GR
GS
[1 0 0 1 40.6 58.42857] CT
0.149 GC
/Helvetica 12 F
GS
[1 0 0 1 0 0] CT
-13.348 3.74 moveto 
1 -1 scale
(30) t 
GR
GR
GS
[1 0 0 1 40.6 17] CT
0.149 GC
/Helvetica 12 F
GS
[1 0 0 1 0 0] CT
-13.348 3.74 moveto 
1 -1 scale
(35) t 
GR
GR
GS
0 0 1 RC
2 setlinecap
10.0 ML
2 LW
N
45 307 M
45.061 307 L
45.121 307 L
45.182 307 L
45.243 307 L
45.303 307 L
45.364 307 L
45.425 307 L
45.485 307 L
45.546 307 L
45.607 307 L
45.667 307 L
45.728 307 L
45.789 307 L
45.849 307 L
45.91 307 L
45.971 307 L
46.031 307 L
46.092 307 L
46.153 307 L
46.213 307 L
46.274 307 L
46.335 307 L
46.395 307 L
46.456 307 L
46.517 307 L
46.577 307 L
46.638 307 L
46.699 307 L
46.759 307 L
46.82 307 L
46.881 307 L
46.941 307 L
47.002 307 L
47.063 307 L
47.123 307 L
47.184 307 L
47.245 307 L
47.305 307 L
47.366 307 L
47.427 307 L
47.487 307 L
47.548 307 L
47.609 307 L
47.669 307 L
47.73 307 L
47.791 307 L
47.851 307 L
47.912 307 L
47.973 307 L
48.033 307 L
48.094 307 L
48.155 307 L
48.215 307 L
48.276 307 L
48.337 307 L
48.397 307 L
48.458 307 L
48.519 307 L
48.579 307 L
48.64 307 L
48.701 307 L
48.761 307 L
48.822 307 L
48.883 307 L
48.943 307 L
49.004 307 L
49.065 307 L
49.125 307 L
49.186 307 L
49.247 307 L
49.307 307 L
49.368 307 L
49.429 307 L
49.489 307 L
49.55 307 L
49.611 307 L
49.671 307 L
49.732 307 L
49.793 307 L
49.853 307 L
49.914 307 L
49.975 307 L
50.035 307 L
50.096 307 L
50.157 307 L
50.217 307 L
50.278 307 L
50.339 307 L
50.399 307 L
50.46 307 L
50.521 307 L
50.581 307 L
50.642 307 L
50.703 307 L
50.763 307 L
50.824 307 L
50.885 307 L
50.945 307 L
51.006 307 L
51.067 307 L
51.127 307 L
51.188 307 L
51.249 307 L
51.309 307 L
51.37 307 L
51.431 307 L
51.491 307 L
51.552 307 L
51.613 307 L
51.673 307 L
51.734 307 L
51.795 307 L
51.855 307 L
51.916 307 L
51.977 307 L
52.037 307 L
52.098 307 L
52.159 307 L
52.219 307 L
52.28 307 L
52.341 307 L
52.401 307 L
52.462 307 L
52.523 307 L
52.583 307 L
52.644 307 L
52.705 307 L
52.765 307 L
52.826 307 L
52.887 307 L
52.947 307 L
53.008 307 L
53.069 307 L
53.129 307 L
53.19 307 L
53.251 307 L
53.311 307 L
53.372 307 L
53.433 307 L
53.493 307 L
53.554 307 L
53.615 307 L
53.675 307 L
53.736 307 L
53.797 307 L
53.857 307 L
53.918 307 L
53.979 307 L
54.039 307 L
54.1 307 L
54.161 307 L
54.221 307 L
54.282 307 L
54.343 307 L
54.403 307 L
54.464 307 L
54.525 307 L
54.585 307 L
54.646 307 L
54.707 307 L
54.767 307 L
54.828 307 L
54.889 307 L
54.949 307 L
55.01 307 L
55.071 307 L
55.131 307 L
55.192 307 L
55.253 307 L
55.313 307 L
55.374 307 L
55.435 307 L
55.495 307 L
55.556 307 L
55.617 307 L
55.677 307 L
55.738 307 L
55.799 307 L
55.859 307 L
55.92 307 L
55.981 307 L
56.041 307 L
56.102 307 L
56.163 307 L
56.223 307 L
56.284 307 L
56.345 307 L
56.405 307 L
56.466 307 L
56.527 307 L
56.587 307 L
56.648 307 L
56.709 307 L
56.769 307 L
56.83 307 L
56.891 307 L
56.951 307 L
57.012 307 L
57.073 307 L
57.133 307 L
57.194 307 L
57.255 307 L
57.315 307 L
57.376 307 L
57.437 307 L
57.497 307 L
57.558 307 L
57.619 307 L
57.679 307 L
57.74 307 L
57.801 307 L
57.861 307 L
57.922 307 L
57.983 307 L
58.043 307 L
58.104 307 L
58.165 307 L
58.225 307 L
58.286 307 L
58.347 307 L
58.407 307 L
58.468 307 L
58.529 307 L
58.589 307 L
58.65 307 L
58.711 307 L
58.771 307 L
58.832 307 L
58.893 307 L
58.953 307 L
59.014 307 L
59.075 307 L
59.135 307 L
59.196 307 L
59.257 307 L
59.317 307 L
59.378 307 L
59.439 307 L
59.499 307 L
59.56 307 L
59.621 307 L
59.681 307 L
59.742 307 L
59.803 307 L
59.863 307 L
59.924 307 L
59.985 307 L
60.045 307 L
60.106 307 L
60.167 307 L
60.227 307 L
60.288 307 L
60.349 307 L
60.409 307 L
60.47 307 L
60.531 307 L
60.591 307 L
60.652 307 L
60.713 307 L
60.773 307 L
60.834 307 L
60.895 307 L
60.955 307 L
61.016 307 L
61.077 307 L
61.137 307 L
61.198 307 L
61.259 307 L
61.319 307 L
61.38 307 L
61.441 307 L
61.501 307 L
61.562 307 L
61.623 307 L
61.683 307 L
61.744 307 L
61.805 307 L
61.865 307 L
61.926 307 L
61.987 307 L
62.047 307 L
62.108 307 L
62.169 307 L
62.229 307 L
62.29 307 L
62.351 307 L
62.411 307 L
62.472 307 L
62.533 307 L
62.593 307 L
62.654 307 L
62.715 307 L
62.775 307 L
62.836 307 L
62.897 307 L
62.957 307 L
63.018 307 L
63.079 307 L
63.139 307 L
63.2 307 L
63.261 307 L
63.321 307 L
63.382 307 L
63.443 307 L
63.503 307 L
63.564 307 L
63.625 307 L
63.685 307 L
63.746 307 L
63.807 307 L
63.867 307 L
63.928 307 L
63.989 307 L
64.049 307 L
64.11 307 L
64.171 307 L
64.231 307 L
64.292 307 L
64.353 307 L
64.413 307 L
64.474 307 L
64.535 307 L
64.595 307 L
64.656 307 L
64.717 307 L
64.777 307 L
64.838 307 L
64.899 307 L
64.959 307 L
65.02 307 L
65.081 307 L
65.141 307 L
65.202 307 L
65.263 307 L
65.323 307 L
65.384 307 L
65.445 307 L
65.505 307 L
65.566 307 L
65.627 307 L
65.687 307 L
65.748 307 L
65.809 307 L
65.869 307 L
65.93 307 L
65.991 307 L
66.051 307 L
66.112 307 L
66.173 307 L
66.233 307 L
66.294 307 L
66.355 307 L
66.415 307 L
66.476 307 L
66.537 307 L
66.597 307 L
66.658 307 L
66.719 307 L
66.779 307 L
66.84 307 L
66.901 307 L
66.961 307 L
67.022 307 L
67.083 307 L
67.143 307 L
67.204 307 L
67.265 307 L
67.325 307 L
67.386 307 L
67.447 307 L
67.507 307 L
67.568 307 L
67.629 307 L
67.689 307 L
67.75 307 L
67.811 307 L
67.871 307 L
67.932 307 L
67.993 307 L
68.053 307 L
68.114 307 L
68.175 307 L
68.235 307 L
68.296 307 L
68.357 307 L
68.417 307 L
68.478 307 L
68.539 307 L
68.599 307 L
68.66 307 L
68.721 307 L
68.781 307 L
68.842 307 L
68.903 307 L
68.963 307 L
69.024 307 L
69.085 307 L
69.145 307 L
69.206 307 L
69.267 307 L
69.327 307 L
69.388 307 L
69.449 307 L
69.509 307 L
69.57 307 L
69.631 307 L
69.691 307 L
69.752 307 L
69.813 307 L
69.873 307 L
69.934 307 L
69.995 307 L
70.055 307 L
70.116 307 L
70.177 307 L
70.237 307 L
70.298 307 L
70.359 307 L
70.419 307 L
70.48 307 L
70.541 307 L
70.601 307 L
70.662 307 L
70.723 307 L
70.783 307 L
70.844 307 L
70.905 307 L
70.965 307 L
71.026 307 L
71.087 307 L
71.147 307 L
71.208 307 L
71.269 307 L
71.329 307 L
71.39 307 L
71.451 307 L
71.511 307 L
71.572 307 L
71.633 307 L
71.693 307 L
71.754 307 L
71.815 307 L
71.875 307 L
71.936 307 L
71.997 307 L
72.057 307 L
72.118 307 L
72.179 307 L
72.239 307 L
72.3 307 L
72.361 307 L
72.421 307 L
72.482 307 L
72.543 307 L
72.603 307 L
72.664 307 L
72.725 307 L
72.785 307 L
72.846 307 L
72.907 307 L
72.967 307 L
73.028 307 L
73.089 307 L
73.149 307 L
73.21 307 L
73.271 307 L
73.331 307 L
73.392 307 L
73.453 307 L
73.513 307 L
73.574 307 L
73.635 307 L
73.695 307 L
73.756 307 L
73.817 307 L
73.877 307 L
73.938 307 L
73.999 307 L
74.059 307 L
74.12 307 L
74.181 307 L
74.241 307 L
74.302 307 L
74.363 307 L
74.423 307 L
74.484 307 L
74.545 307 L
74.605 307 L
74.666 307 L
74.727 307 L
74.787 307 L
74.848 307 L
74.909 307 L
74.969 307 L
75.03 307 L
75.091 307 L
75.151 307 L
75.212 307 L
75.273 307 L
75.333 307 L
75.394 307 L
75.455 307 L
75.515 307 L
75.576 307 L
75.637 307 L
75.697 307 L
75.758 307 L
75.819 307 L
75.879 307 L
75.94 307 L
76.001 307 L
76.061 307 L
76.122 307 L
76.183 307 L
76.243 307 L
76.304 307 L
76.365 307 L
76.425 307 L
76.486 307 L
76.547 307 L
76.607 307 L
76.668 307 L
76.729 307 L
76.789 307 L
76.85 307 L
76.911 307 L
76.971 307 L
77.032 307 L
77.093 307 L
77.153 307 L
77.214 307 L
77.275 307 L
77.335 307 L
77.396 307 L
77.457 307 L
77.517 307 L
77.578 307 L
77.639 307 L
77.699 307 L
77.76 307 L
77.821 307 L
77.881 307 L
77.942 307 L
78.003 307 L
78.063 307 L
78.124 307 L
78.185 307 L
78.245 307 L
78.306 307 L
78.367 307 L
78.427 307 L
78.488 307 L
78.549 307 L
78.609 307 L
78.67 307 L
78.731 307 L
78.791 307 L
78.852 307 L
78.913 307 L
78.973 307 L
79.034 307 L
79.095 307 L
79.155 307 L
79.216 307 L
79.277 307 L
79.337 307 L
79.398 307 L
79.459 307 L
79.519 307 L
79.58 307 L
79.641 307 L
79.701 307 L
79.762 307 L
79.823 307 L
79.883 307 L
79.944 307 L
80.005 307 L
80.065 307 L
80.126 307 L
80.187 307 L
80.247 307 L
80.308 307 L
80.369 307 L
80.429 307 L
80.49 307 L
80.551 307 L
80.611 307 L
80.672 307 L
80.733 307 L
80.793 307 L
80.854 307 L
80.915 307 L
80.975 307 L
81.036 307 L
81.097 307 L
81.157 307 L
81.218 307 L
81.279 307 L
81.339 307 L
81.4 307 L
81.461 307 L
81.521 307 L
81.582 307 L
81.643 307 L
81.703 307 L
81.764 307 L
81.825 307 L
81.885 307 L
81.946 307 L
82.007 307 L
82.067 307 L
82.128 307 L
82.189 307 L
82.249 307 L
82.31 307 L
82.371 307 L
82.431 307 L
82.492 307 L
82.553 307 L
82.613 307 L
82.674 307 L
82.735 307 L
82.795 307 L
82.856 307 L
82.917 307 L
82.977 307 L
83.038 307 L
83.099 307 L
83.159 307 L
83.22 307 L
83.281 307 L
83.341 307 L
83.402 307 L
83.463 307 L
83.523 307 L
83.584 307 L
83.645 307 L
83.705 307 L
83.766 307 L
83.827 307 L
83.887 307 L
83.948 307 L
84.009 307 L
84.069 307 L
84.13 307 L
84.191 307 L
84.251 307 L
84.312 307 L
84.373 307 L
84.433 307 L
84.494 307 L
84.555 307 L
84.615 307 L
84.676 307 L
84.737 307 L
84.797 307 L
84.858 307 L
84.919 307 L
84.979 307 L
85.04 307 L
85.101 307 L
85.161 307 L
85.222 307 L
85.283 307 L
85.343 307 L
85.404 307 L
85.465 307 L
85.525 307 L
85.586 307 L
85.647 307 L
85.707 307 L
85.768 307 L
85.829 307 L
85.889 307 L
85.95 307 L
86.011 307 L
86.071 307 L
86.132 307 L
86.193 307 L
86.253 307 L
86.314 307 L
86.375 307 L
86.435 307 L
86.496 307 L
86.557 307 L
86.617 307 L
86.678 307 L
86.739 307 L
86.799 307 L
86.86 307 L
86.921 307 L
86.981 307 L
87.042 307 L
87.103 307 L
87.163 307 L
87.224 307 L
87.285 307 L
87.345 307 L
87.406 307 L
87.467 307 L
87.527 307 L
87.588 307 L
87.649 307 L
87.709 307 L
87.77 307 L
87.831 307 L
87.891 307 L
87.952 307 L
88.013 307 L
88.073 307 L
88.134 307 L
88.195 307 L
88.255 307 L
88.316 307 L
88.377 307 L
88.437 307 L
88.498 307 L
88.559 307 L
88.619 307 L
88.68 307 L
88.741 307 L
88.801 307 L
88.862 307 L
88.923 307 L
88.983 307 L
89.044 307 L
89.105 307 L
89.165 307 L
89.226 307 L
89.287 307 L
89.347 307 L
89.408 307 L
89.469 307 L
89.529 307 L
89.59 307 L
89.651 307 L
89.711 307 L
89.772 307 L
89.833 307 L
89.893 307 L
89.954 307 L
90.015 307 L
90.075 307 L
90.136 307 L
90.197 307 L
90.257 307 L
90.318 307 L
90.379 307 L
90.439 307 L
90.5 307 L
90.561 299.292 L
90.621 296.082 L
90.682 293.607 L
90.743 291.511 L
90.803 289.655 L
90.864 287.97 L
90.925 286.413 L
90.985 284.957 L
91.046 283.584 L
91.107 282.279 L
91.167 281.032 L
91.228 279.835 L
91.289 278.682 L
91.349 277.568 L
91.41 276.489 L
91.471 275.44 L
91.531 274.419 L
91.592 273.424 L
91.653 272.452 L
91.713 271.501 L
91.774 270.569 L
91.835 269.656 L
91.895 268.76 L
91.956 267.879 L
92.017 267.014 L
92.077 266.161 L
92.138 265.322 L
92.199 264.495 L
92.259 263.679 L
92.32 262.874 L
92.381 262.079 L
92.441 261.294 L
92.502 260.519 L
92.563 259.751 L
92.623 258.993 L
92.684 258.242 L
92.745 257.499 L
92.805 256.763 L
92.866 256.034 L
92.927 255.311 L
92.987 254.595 L
93.048 253.886 L
93.109 253.182 L
93.169 252.483 L
93.23 251.79 L
93.291 251.103 L
93.351 250.42 L
93.412 249.743 L
93.473 249.07 L
93.533 248.401 L
93.594 247.737 L
93.655 247.077 L
93.715 246.422 L
93.776 245.77 L
93.837 245.122 L
93.897 244.478 L
93.958 243.838 L
94.019 243.201 L
94.079 242.568 L
94.14 241.938 L
94.201 241.311 L
94.261 240.687 L
94.322 240.066 L
94.383 239.449 L
94.443 238.834 L
94.504 238.222 L
94.565 237.613 L
94.625 237.007 L
94.686 236.403 L
94.747 235.801 L
94.807 235.203 L
94.868 234.606 L
94.929 234.013 L
94.989 233.421 L
95.05 232.832 L
95.111 232.245 L
95.171 231.66 L
95.232 231.077 L
95.293 230.496 L
95.353 229.918 L
95.414 229.341 L
95.475 228.767 L
95.535 228.194 L
95.596 227.623 L
95.657 227.054 L
95.717 226.487 L
95.778 225.922 L
95.839 225.358 L
95.899 224.797 L
95.96 224.236 L
96.021 223.678 L
96.081 223.121 L
96.142 222.566 L
96.203 222.012 L
96.263 221.46 L
96.324 220.909 L
96.385 220.36 L
96.445 219.813 L
96.506 219.267 L
96.567 218.722 L
96.627 218.178 L
96.688 217.636 L
96.749 217.096 L
96.809 216.557 L
96.87 216.019 L
96.931 215.482 L
96.991 214.947 L
97.052 214.413 L
97.113 213.88 L
97.173 213.348 L
97.234 212.818 L
97.295 212.289 L
97.355 211.761 L
97.416 211.234 L
97.477 210.709 L
97.537 210.184 L
97.598 209.661 L
97.659 209.139 L
97.719 208.618 L
97.78 208.098 L
97.841 207.579 L
97.901 207.061 L
97.962 206.544 L
98.023 206.028 L
98.083 205.514 L
98.144 205 L
98.205 204.487 L
98.265 203.976 L
98.326 203.465 L
98.387 202.955 L
98.447 202.447 L
98.508 201.939 L
98.569 201.432 L
98.629 200.926 L
98.69 200.421 L
98.751 199.918 L
98.811 199.414 L
98.872 198.912 L
98.933 198.411 L
98.993 197.911 L
99.054 197.411 L
99.115 196.913 L
99.175 196.415 L
99.236 195.919 L
99.297 195.423 L
99.357 194.928 L
99.418 194.433 L
99.479 193.94 L
99.539 193.448 L
99.6 192.956 L
99.661 192.465 L
99.721 191.975 L
99.782 191.486 L
99.843 190.998 L
99.903 190.51 L
99.964 190.023 L
100.025 189.538 L
100.085 189.052 L
100.146 188.568 L
100.207 188.085 L
100.267 187.602 L
100.328 187.12 L
100.389 186.639 L
100.449 186.158 L
100.51 185.679 L
100.571 185.2 L
100.631 184.722 L
100.692 184.244 L
100.753 183.768 L
100.813 183.292 L
100.874 182.817 L
100.935 182.342 L
100.995 181.869 L
101.056 181.396 L
101.117 180.924 L
101.177 180.452 L
101.238 179.982 L
101.299 179.512 L
101.359 179.043 L
101.42 178.574 L
101.481 178.106 L
101.541 177.639 L
101.602 177.173 L
101.663 176.708 L
101.723 176.243 L
101.784 175.779 L
101.845 175.315 L
101.905 174.852 L
101.966 174.39 L
102.027 173.929 L
102.087 173.469 L
102.148 173.009 L
102.209 172.549 L
102.269 172.091 L
102.33 171.633 L
102.391 171.176 L
102.451 170.72 L
102.512 170.264 L
102.573 169.809 L
102.633 169.355 L
102.694 168.901 L
102.755 168.448 L
102.815 167.996 L
102.876 167.545 L
102.937 167.094 L
102.997 166.644 L
103.058 166.194 L
103.119 165.745 L
103.179 165.297 L
103.24 164.85 L
103.301 164.403 L
103.361 163.957 L
103.422 163.512 L
103.483 163.067 L
103.543 162.623 L
103.604 162.18 L
103.665 161.737 L
103.725 161.295 L
103.786 160.854 L
103.847 160.414 L
103.907 159.974 L
103.968 159.535 L
104.029 159.096 L
104.089 158.658 L
104.15 158.221 L
104.211 157.785 L
104.271 157.349 L
104.332 156.914 L
104.393 156.48 L
104.453 156.046 L
104.514 155.613 L
104.575 155.181 L
104.635 154.749 L
104.696 154.318 L
104.757 153.888 L
104.817 153.458 L
104.878 153.029 L
104.939 152.601 L
104.999 152.173 L
105.06 151.747 L
105.121 151.32 L
105.181 150.895 L
105.242 150.47 L
105.303 150.046 L
105.363 149.623 L
105.424 149.2 L
105.485 148.778 L
105.545 148.357 L
105.606 147.936 L
105.667 147.516 L
105.727 147.097 L
105.788 146.678 L
105.849 146.26 L
105.909 145.843 L
105.97 145.427 L
106.031 145.011 L
106.091 144.596 L
106.152 144.181 L
106.213 143.768 L
106.273 143.355 L
106.334 142.942 L
106.395 142.531 L
106.455 142.12 L
106.516 141.71 L
106.577 141.3 L
106.637 140.891 L
106.698 140.483 L
106.759 140.076 L
106.819 139.669 L
106.88 139.263 L
106.941 138.858 L
107.001 138.454 L
107.062 138.05 L
107.123 137.647 L
107.183 137.244 L
107.244 136.843 L
107.305 136.442 L
107.365 136.041 L
107.426 135.642 L
107.487 135.243 L
107.547 134.845 L
107.608 134.448 L
107.669 134.051 L
107.729 133.655 L
107.79 133.26 L
107.851 132.865 L
107.911 132.472 L
107.972 132.079 L
108.033 131.686 L
108.093 131.295 L
108.154 130.904 L
108.215 130.514 L
108.275 130.124 L
108.336 129.736 L
108.397 129.348 L
108.457 128.961 L
108.518 128.574 L
108.579 128.189 L
108.639 127.804 L
108.7 127.42 L
108.761 127.036 L
108.821 126.654 L
108.882 126.272 L
108.943 125.891 L
109.003 125.51 L
109.064 125.13 L
109.125 124.752 L
109.185 124.373 L
109.246 123.996 L
109.307 123.619 L
109.367 123.243 L
109.428 122.868 L
109.489 122.494 L
109.549 122.12 L
109.61 121.748 L
109.671 121.375 L
109.731 121.004 L
109.792 120.634 L
109.853 120.264 L
109.913 119.895 L
109.974 119.527 L
110.035 119.159 L
110.095 118.793 L
110.156 118.427 L
110.217 118.062 L
110.277 117.697 L
110.338 117.334 L
110.399 116.971 L
110.459 116.609 L
110.52 116.248 L
110.581 115.887 L
110.641 115.528 L
110.702 115.169 L
110.763 114.811 L
110.823 114.454 L
110.884 114.097 L
110.945 113.742 L
111.005 113.387 L
111.066 113.033 L
111.127 112.68 L
111.187 112.327 L
111.248 111.976 L
111.309 111.625 L
111.369 111.275 L
111.43 110.926 L
111.491 110.577 L
111.551 110.23 L
111.612 109.883 L
111.673 109.537 L
111.733 109.192 L
111.794 108.848 L
111.855 108.504 L
111.915 108.162 L
111.976 107.82 L
112.037 107.479 L
112.097 107.139 L
112.158 106.799 L
112.219 106.461 L
112.279 106.123 L
112.34 105.786 L
112.401 105.45 L
112.461 105.115 L
112.522 104.781 L
112.583 104.448 L
112.643 104.115 L
112.704 103.783 L
112.765 103.452 L
112.825 103.122 L
112.886 102.793 L
112.947 102.465 L
113.007 102.137 L
113.068 101.81 L
113.129 101.485 L
113.189 101.16 L
113.25 100.836 L
113.311 100.512 L
113.371 100.19 L
113.432 99.868 L
113.493 99.548 L
113.553 99.228 L
113.614 98.909 L
113.675 98.591 L
113.735 98.274 L
113.796 97.958 L
113.857 97.642 L
113.917 97.328 L
113.978 97.014 L
114.039 96.701 L
114.099 96.39 L
114.16 96.079 L
114.221 95.768 L
114.281 95.459 L
114.342 95.151 L
114.403 94.844 L
114.463 94.537 L
114.524 94.231 L
114.585 93.927 L
114.645 93.623 L
114.706 93.32 L
114.767 93.018 L
114.827 92.717 L
114.888 92.416 L
114.949 92.117 L
115.009 91.819 L
115.07 91.521 L
115.131 91.225 L
115.191 90.929 L
115.252 90.634 L
115.313 90.34 L
115.373 90.047 L
115.434 89.755 L
115.495 89.464 L
115.555 89.174 L
115.616 88.885 L
115.677 88.597 L
115.737 88.309 L
115.798 88.023 L
115.859 87.737 L
115.919 87.453 L
115.98 87.169 L
116.041 86.886 L
116.101 86.604 L
116.162 86.324 L
116.223 86.044 L
116.283 85.765 L
116.344 85.487 L
116.405 85.21 L
116.465 84.934 L
116.526 84.658 L
116.587 84.384 L
116.647 84.111 L
116.708 83.839 L
116.769 83.567 L
116.829 83.297 L
116.89 83.028 L
116.951 82.759 L
117.011 82.492 L
117.072 82.225 L
117.133 81.959 L
117.193 81.695 L
117.254 81.431 L
117.315 81.169 L
117.375 80.907 L
117.436 80.646 L
117.497 80.386 L
117.557 80.128 L
117.618 79.87 L
117.679 79.613 L
117.739 79.357 L
117.8 79.102 L
117.861 78.849 L
117.921 78.596 L
117.982 78.344 L
118.043 78.093 L
118.103 77.843 L
118.164 77.594 L
118.225 77.346 L
118.285 77.099 L
118.346 76.853 L
118.407 76.609 L
118.467 76.365 L
118.528 76.122 L
118.589 75.88 L
118.649 75.639 L
118.71 75.399 L
118.771 75.16 L
118.831 74.922 L
118.892 74.685 L
118.953 74.45 L
119.013 74.215 L
119.074 73.981 L
119.135 73.748 L
119.195 73.516 L
119.256 73.286 L
119.317 73.056 L
119.377 72.827 L
119.438 72.6 L
119.499 72.373 L
119.559 72.147 L
119.62 71.923 L
119.681 71.699 L
119.741 71.477 L
119.802 71.255 L
119.863 71.035 L
119.923 70.815 L
119.984 70.597 L
120.045 70.38 L
120.105 70.163 L
120.166 69.948 L
120.227 69.734 L
120.287 69.521 L
120.348 69.309 L
120.409 69.098 L
120.469 68.887 L
120.53 68.679 L
120.591 68.471 L
120.651 68.264 L
120.712 68.058 L
120.773 67.853 L
120.833 67.65 L
120.894 67.447 L
120.955 67.245 L
121.015 67.045 L
121.076 66.846 L
121.137 66.647 L
121.197 66.45 L
121.258 66.254 L
121.319 66.059 L
121.379 65.865 L
121.44 65.672 L
121.501 65.48 L
121.561 65.289 L
121.622 65.099 L
121.683 64.91 L
121.743 64.723 L
121.804 64.536 L
121.865 64.351 L
121.925 64.166 L
121.986 63.983 L
122.047 63.801 L
122.107 63.62 L
122.168 63.44 L
122.229 63.261 L
122.289 63.083 L
122.35 62.906 L
122.411 62.731 L
122.471 62.556 L
122.532 62.383 L
122.593 62.21 L
122.653 62.039 L
122.714 61.869 L
122.775 61.7 L
122.835 61.532 L
122.896 61.365 L
122.957 61.2 L
123.017 61.035 L
123.078 60.871 L
123.139 60.709 L
123.199 60.548 L
123.26 60.388 L
123.321 60.229 L
123.381 60.071 L
123.442 59.914 L
123.503 59.758 L
123.563 59.604 L
123.624 59.45 L
123.685 59.298 L
123.745 59.147 L
123.806 58.997 L
123.867 58.848 L
123.927 58.7 L
123.988 58.553 L
124.049 58.407 L
124.109 58.263 L
124.17 58.12 L
124.231 57.978 L
124.291 57.836 L
124.352 57.697 L
124.413 57.558 L
124.473 57.42 L
124.534 57.284 L
124.595 57.148 L
124.655 57.014 L
124.716 56.881 L
124.777 56.749 L
124.837 56.618 L
124.898 56.489 L
124.959 56.36 L
125.019 56.233 L
125.08 56.106 L
125.141 55.981 L
125.201 55.858 L
125.262 55.735 L
125.323 55.613 L
125.383 55.493 L
125.444 55.373 L
125.505 55.255 L
125.565 55.138 L
125.626 55.022 L
125.687 54.908 L
125.747 54.794 L
125.808 54.682 L
125.869 54.571 L
125.929 54.461 L
125.99 54.352 L
126.051 54.244 L
126.111 54.138 L
126.172 54.032 L
126.233 53.928 L
126.293 53.825 L
126.354 53.723 L
126.415 53.622 L
126.475 53.523 L
126.536 53.425 L
126.597 53.327 L
126.657 53.231 L
126.718 53.137 L
126.779 53.043 L
126.839 52.95 L
126.9 52.859 L
126.961 52.769 L
127.021 52.68 L
127.082 52.592 L
127.143 52.506 L
127.203 52.42 L
127.264 52.336 L
127.325 52.253 L
127.385 52.171 L
127.446 52.091 L
127.507 52.011 L
127.567 51.933 L
127.628 51.856 L
127.689 51.78 L
127.749 51.705 L
127.81 51.632 L
127.871 51.559 L
127.931 51.488 L
127.992 51.418 L
128.053 51.349 L
128.113 51.282 L
128.174 51.216 L
128.235 51.15 L
128.295 51.086 L
128.356 51.024 L
128.417 50.962 L
128.477 50.902 L
128.538 50.842 L
128.599 50.784 L
128.659 50.728 L
128.72 50.672 L
128.781 50.618 L
128.841 50.565 L
128.902 50.513 L
128.963 50.462 L
129.023 50.412 L
129.084 50.364 L
129.145 50.317 L
129.205 50.271 L
129.266 50.226 L
129.327 50.183 L
129.387 50.14 L
129.448 50.099 L
129.509 50.059 L
129.569 50.021 L
129.63 49.983 L
129.691 49.947 L
129.751 49.912 L
129.812 49.878 L
129.873 49.845 L
129.933 49.814 L
129.994 49.784 L
130.055 49.755 L
130.115 49.727 L
130.176 49.7 L
130.237 49.675 L
130.297 49.651 L
130.358 49.628 L
130.419 49.606 L
130.479 49.586 L
130.54 49.567 L
130.601 49.549 L
130.661 49.532 L
130.722 49.516 L
130.783 49.502 L
130.843 49.489 L
130.904 49.477 L
130.965 49.466 L
131.025 49.457 L
131.086 49.448 L
131.147 49.441 L
131.207 49.436 L
131.268 49.431 L
131.329 49.428 L
131.389 49.426 L
131.45 49.425 L
131.511 49.425 L
131.571 49.427 L
131.632 49.429 L
131.693 49.433 L
131.753 49.439 L
131.814 49.445 L
131.875 49.453 L
131.935 49.462 L
131.996 49.472 L
132.057 49.483 L
132.117 49.496 L
132.178 49.51 L
132.239 49.525 L
132.299 49.541 L
132.36 49.559 L
132.421 49.577 L
132.481 49.597 L
132.542 49.618 L
132.603 49.641 L
132.663 49.665 L
132.724 49.69 L
132.785 49.716 L
132.845 49.743 L
132.906 49.772 L
132.967 49.802 L
133.027 49.833 L
133.088 49.865 L
133.149 49.898 L
133.209 49.933 L
133.27 49.969 L
133.331 50.006 L
133.391 50.045 L
133.452 50.085 L
133.513 50.126 L
133.573 50.168 L
133.634 50.211 L
133.695 50.256 L
133.755 50.302 L
133.816 50.349 L
133.877 50.397 L
133.937 50.447 L
133.998 50.498 L
134.059 50.55 L
134.119 50.603 L
134.18 50.657 L
134.241 50.713 L
134.301 50.77 L
134.362 50.828 L
134.423 50.888 L
134.483 50.949 L
134.544 51.01 L
134.605 51.074 L
134.665 51.138 L
134.726 51.204 L
134.787 51.271 L
134.847 51.339 L
134.908 51.408 L
134.969 51.479 L
135.029 51.55 L
135.09 51.623 L
135.151 51.698 L
135.211 51.773 L
135.272 51.85 L
135.333 51.928 L
135.393 52.007 L
135.454 52.087 L
135.515 52.169 L
135.575 52.252 L
135.636 52.336 L
135.697 52.421 L
135.757 52.508 L
135.818 52.596 L
135.879 52.685 L
135.939 52.775 L
136 52.867 L
136.061 52.959 L
136.121 53.053 L
136.182 53.149 L
136.243 53.245 L
136.303 53.343 L
136.364 53.442 L
136.425 53.542 L
136.485 53.643 L
136.546 53.746 L
136.607 53.85 L
136.667 53.955 L
136.728 54.061 L
136.789 54.168 L
136.849 54.277 L
136.91 54.387 L
136.971 54.498 L
137.031 54.611 L
137.092 54.724 L
137.153 54.839 L
137.213 54.955 L
137.274 55.072 L
137.335 55.191 L
137.395 55.311 L
137.456 55.432 L
137.517 55.554 L
137.577 55.677 L
137.638 55.802 L
137.699 55.928 L
137.759 56.055 L
137.82 56.183 L
137.881 56.313 L
137.941 56.443 L
138.002 56.575 L
138.063 56.708 L
138.123 56.843 L
138.184 56.978 L
138.245 57.115 L
138.305 57.253 L
138.366 57.393 L
138.427 57.533 L
138.487 57.675 L
138.548 57.818 L
138.609 57.962 L
138.669 58.107 L
138.73 58.253 L
138.791 58.401 L
138.851 58.55 L
138.912 58.7 L
138.973 58.852 L
139.033 59.004 L
139.094 59.158 L
139.155 59.313 L
139.215 59.469 L
139.276 59.627 L
139.337 59.785 L
139.397 59.945 L
139.458 60.106 L
139.519 60.268 L
139.579 60.432 L
139.64 60.596 L
139.701 60.762 L
139.761 60.929 L
139.822 61.097 L
139.883 61.267 L
139.943 61.437 L
140.004 61.609 L
140.065 61.782 L
140.125 61.956 L
140.186 62.132 L
140.247 62.308 L
140.307 62.486 L
140.368 62.665 L
140.429 62.845 L
140.489 63.026 L
140.55 63.209 L
140.611 63.393 L
140.671 63.578 L
140.732 63.764 L
140.793 63.951 L
140.853 64.139 L
140.914 64.329 L
140.975 64.52 L
141.035 64.712 L
141.096 64.905 L
141.157 65.099 L
141.217 65.295 L
141.278 65.491 L
141.339 65.689 L
141.399 65.888 L
141.46 66.089 L
141.521 66.29 L
141.581 66.493 L
141.642 66.696 L
141.703 66.901 L
141.763 67.107 L
141.824 67.315 L
141.885 67.523 L
141.945 67.733 L
142.006 67.943 L
142.067 68.155 L
142.127 68.368 L
142.188 68.583 L
142.249 68.798 L
142.309 69.014 L
142.37 69.232 L
142.431 69.451 L
142.491 69.671 L
142.552 69.892 L
142.613 70.114 L
142.673 70.338 L
142.734 70.563 L
142.795 70.788 L
142.855 71.015 L
142.916 71.243 L
142.977 71.472 L
143.037 71.703 L
143.098 71.934 L
143.159 72.167 L
143.219 72.401 L
143.28 72.636 L
143.341 72.872 L
143.401 73.109 L
143.462 73.347 L
143.523 73.587 L
143.583 73.827 L
143.644 74.069 L
143.705 74.312 L
143.765 74.556 L
143.826 74.801 L
143.887 75.047 L
143.947 75.294 L
144.008 75.543 L
144.069 75.792 L
144.129 76.043 L
144.19 76.295 L
144.251 76.548 L
144.311 76.802 L
144.372 77.057 L
144.433 77.313 L
144.493 77.57 L
144.554 77.829 L
144.615 78.088 L
144.675 78.349 L
144.736 78.611 L
144.797 78.874 L
144.857 79.138 L
144.918 79.403 L
144.979 79.669 L
145.039 79.936 L
145.1 80.205 L
145.161 80.474 L
145.221 80.745 L
145.282 81.016 L
145.343 81.289 L
145.403 81.563 L
145.464 81.838 L
145.525 82.114 L
145.585 82.391 L
145.646 82.669 L
145.707 82.948 L
145.767 83.229 L
145.828 83.51 L
145.889 83.792 L
145.949 84.076 L
146.01 84.36 L
146.071 84.646 L
146.131 84.933 L
146.192 85.221 L
146.253 85.509 L
146.313 85.799 L
146.374 86.09 L
146.435 86.382 L
146.495 86.675 L
146.556 86.969 L
146.617 87.265 L
146.677 87.561 L
146.738 87.858 L
146.799 88.156 L
146.859 88.456 L
146.92 88.756 L
146.981 89.058 L
147.041 89.36 L
147.102 89.664 L
147.163 89.968 L
147.223 90.274 L
147.284 90.58 L
147.345 90.888 L
147.405 91.197 L
147.466 91.506 L
147.527 91.817 L
147.587 92.129 L
147.648 92.442 L
147.709 92.755 L
147.769 93.07 L
147.83 93.386 L
147.891 93.703 L
147.951 94.021 L
148.012 94.339 L
148.073 94.659 L
148.133 94.98 L
148.194 95.302 L
148.255 95.625 L
148.315 95.948 L
148.376 96.273 L
148.437 96.599 L
148.497 96.926 L
148.558 97.254 L
148.619 97.582 L
148.679 97.912 L
148.74 98.243 L
148.801 98.575 L
148.861 98.907 L
148.922 99.241 L
148.983 99.576 L
149.043 99.911 L
149.104 100.248 L
149.165 100.585 L
149.225 100.924 L
149.286 101.263 L
149.347 101.604 L
149.407 101.945 L
149.468 102.288 L
149.529 102.631 L
149.589 102.975 L
149.65 103.32 L
149.711 103.667 L
149.771 104.014 L
149.832 104.362 L
149.893 104.711 L
149.953 105.061 L
150.014 105.411 L
150.075 105.763 L
150.135 106.116 L
150.196 106.469 L
150.257 106.824 L
150.317 107.18 L
150.378 107.536 L
150.439 107.893 L
150.499 108.251 L
150.56 108.611 L
150.621 108.971 L
150.681 109.332 L
150.742 109.694 L
150.803 110.056 L
150.863 110.42 L
150.924 110.785 L
150.985 111.15 L
151.045 111.516 L
151.106 111.884 L
151.167 112.252 L
151.227 112.621 L
151.288 112.991 L
151.349 113.362 L
151.409 113.733 L
151.47 114.106 L
151.531 114.479 L
151.591 114.854 L
151.652 115.229 L
151.713 115.605 L
151.773 115.982 L
151.834 116.36 L
151.895 116.738 L
151.955 117.118 L
152.016 117.498 L
152.077 117.879 L
152.137 118.261 L
152.198 118.644 L
152.259 119.028 L
152.319 119.413 L
152.38 119.798 L
152.441 120.184 L
152.501 120.571 L
152.562 120.959 L
152.623 121.348 L
152.683 121.738 L
152.744 122.128 L
152.805 122.519 L
152.865 122.911 L
152.926 123.304 L
152.987 123.698 L
153.047 124.092 L
153.108 124.488 L
153.169 124.884 L
153.229 125.281 L
153.29 125.678 L
153.351 126.077 L
153.411 126.476 L
153.472 126.876 L
153.533 127.277 L
153.593 127.679 L
153.654 128.081 L
153.715 128.485 L
153.775 128.889 L
153.836 129.293 L
153.897 129.699 L
153.957 130.105 L
154.018 130.512 L
154.079 130.92 L
154.139 131.329 L
154.2 131.738 L
154.261 132.148 L
154.321 132.559 L
154.382 132.971 L
154.443 133.383 L
154.503 133.797 L
154.564 134.21 L
154.625 134.625 L
154.685 135.04 L
154.746 135.456 L
154.807 135.873 L
154.867 136.291 L
154.928 136.709 L
154.989 137.128 L
155.049 137.548 L
155.11 137.968 L
155.171 138.39 L
155.231 138.811 L
155.292 139.234 L
155.353 139.657 L
155.413 140.081 L
155.474 140.506 L
155.535 140.931 L
155.595 141.358 L
155.656 141.784 L
155.717 142.212 L
155.777 142.64 L
155.838 143.069 L
155.899 143.498 L
155.959 143.929 L
156.02 144.36 L
156.081 144.791 L
156.141 145.223 L
156.202 145.656 L
156.263 146.09 L
156.323 146.524 L
156.384 146.959 L
156.445 147.395 L
156.505 147.831 L
156.566 148.268 L
156.627 148.705 L
156.687 149.143 L
156.748 149.582 L
156.809 150.021 L
156.869 150.462 L
156.93 150.902 L
156.991 151.344 L
157.051 151.786 L
157.112 152.228 L
157.173 152.671 L
157.233 153.115 L
157.294 153.56 L
157.355 154.005 L
157.415 154.451 L
157.476 154.897 L
157.537 155.344 L
157.597 155.791 L
157.658 156.239 L
157.719 156.688 L
157.779 157.137 L
157.84 157.587 L
157.901 158.038 L
157.961 158.489 L
158.022 158.941 L
158.083 159.393 L
158.143 159.846 L
158.204 160.299 L
158.265 160.753 L
158.325 161.208 L
158.386 161.663 L
158.447 162.119 L
158.507 162.575 L
158.568 163.032 L
158.629 163.489 L
158.689 163.947 L
158.75 164.406 L
158.811 164.865 L
158.871 165.325 L
158.932 165.785 L
158.993 166.245 L
159.053 166.707 L
159.114 167.169 L
159.175 167.631 L
159.235 168.094 L
159.296 168.557 L
159.357 169.021 L
159.417 169.486 L
159.478 169.951 L
159.539 170.416 L
159.599 170.882 L
159.66 171.349 L
159.721 171.816 L
159.781 172.284 L
159.842 172.752 L
159.903 173.22 L
159.963 173.689 L
160.024 174.159 L
160.085 174.629 L
160.145 175.1 L
160.206 175.571 L
160.267 176.043 L
160.327 176.515 L
160.388 176.988 L
160.449 177.461 L
160.509 177.934 L
160.57 178.409 L
160.631 178.883 L
160.691 179.358 L
160.752 179.834 L
160.813 180.31 L
160.873 180.787 L
160.934 181.264 L
160.995 181.741 L
161.055 182.219 L
161.116 182.698 L
161.177 183.177 L
161.237 183.656 L
161.298 184.136 L
161.359 184.616 L
161.419 185.097 L
161.48 185.579 L
161.541 186.06 L
161.601 186.543 L
161.662 187.025 L
161.723 187.509 L
161.783 187.992 L
161.844 188.476 L
161.905 188.961 L
161.965 189.446 L
162.026 189.932 L
162.087 190.417 L
162.147 190.904 L
162.208 191.391 L
162.269 191.878 L
162.329 192.366 L
162.39 192.854 L
162.451 193.343 L
162.511 193.832 L
162.572 194.322 L
162.633 194.812 L
162.693 195.303 L
162.754 195.794 L
162.815 196.285 L
162.875 196.777 L
162.936 197.27 L
162.997 197.762 L
163.057 198.256 L
163.118 198.75 L
163.179 199.244 L
163.239 199.739 L
163.3 200.234 L
163.361 200.73 L
163.421 201.226 L
163.482 201.723 L
163.543 202.22 L
163.603 202.717 L
163.664 203.216 L
163.725 203.714 L
163.785 204.213 L
163.846 204.713 L
163.907 205.213 L
163.967 205.714 L
164.028 206.215 L
164.089 206.716 L
164.149 207.219 L
164.21 207.721 L
164.271 208.224 L
164.331 208.728 L
164.392 209.232 L
164.453 209.737 L
164.513 210.242 L
164.574 210.748 L
164.635 211.255 L
164.695 211.762 L
164.756 212.269 L
164.817 212.777 L
164.877 213.286 L
164.938 213.795 L
164.999 214.305 L
165.059 214.816 L
165.12 215.327 L
165.181 215.839 L
165.241 216.351 L
165.302 216.864 L
165.363 217.378 L
165.423 217.892 L
165.484 218.407 L
165.545 218.923 L
165.605 219.44 L
165.666 219.957 L
165.727 220.475 L
165.787 220.993 L
165.848 221.513 L
165.909 222.033 L
165.969 222.554 L
166.03 223.076 L
166.091 223.599 L
166.151 224.122 L
166.212 224.647 L
166.273 225.172 L
166.333 225.698 L
166.394 226.225 L
166.455 226.754 L
166.515 227.283 L
166.576 227.813 L
166.637 228.344 L
166.697 228.876 L
166.758 229.41 L
166.819 229.944 L
166.879 230.48 L
166.94 231.017 L
167.001 231.555 L
167.061 232.094 L
167.122 232.635 L
167.183 233.177 L
167.243 233.721 L
167.304 234.266 L
167.365 234.812 L
167.425 235.36 L
167.486 235.91 L
167.547 236.461 L
167.607 237.014 L
167.668 237.569 L
167.729 238.126 L
167.789 238.684 L
167.85 239.245 L
167.911 239.808 L
167.971 240.373 L
168.032 240.94 L
168.093 241.509 L
168.153 242.081 L
168.214 242.656 L
168.275 243.233 L
168.335 243.813 L
168.396 244.396 L
168.457 244.982 L
168.517 245.571 L
168.578 246.164 L
168.639 246.76 L
168.699 247.36 L
168.76 247.964 L
168.821 248.571 L
168.881 249.184 L
168.942 249.8 L
169.003 250.422 L
169.063 251.049 L
169.124 251.681 L
169.185 252.319 L
169.245 252.963 L
169.306 253.614 L
169.367 254.271 L
169.427 254.936 L
169.488 255.609 L
169.549 256.29 L
169.609 256.981 L
169.67 257.681 L
169.731 258.393 L
169.791 259.115 L
169.852 259.85 L
169.913 260.599 L
169.973 261.363 L
170.034 262.144 L
170.095 262.942 L
170.155 263.761 L
170.216 264.603 L
170.277 265.469 L
170.337 266.364 L
170.398 267.291 L
170.459 268.256 L
170.519 269.264 L
170.58 270.323 L
170.641 271.442 L
170.701 272.635 L
170.762 273.919 L
170.823 275.32 L
170.883 276.875 L
170.944 278.645 L
171.005 280.739 L
171.065 283.385 L
171.126 287.238 L
171.187 306.985 L
171.247 307 L
171.308 307 L
171.369 307 L
171.429 307 L
171.49 307 L
171.551 307 L
171.611 307 L
171.672 307 L
171.733 307 L
171.793 307 L
171.854 307 L
171.915 307 L
171.975 307 L
172.036 307 L
172.097 307 L
172.157 307 L
172.218 307 L
172.279 307 L
172.339 307 L
172.4 307 L
172.461 307 L
172.521 307 L
172.582 307 L
172.643 307 L
172.703 307 L
172.764 307 L
172.825 307 L
172.885 307 L
172.946 307 L
173.007 307 L
173.067 307 L
173.128 307 L
173.189 307 L
173.249 307 L
173.31 307 L
173.371 307 L
173.431 307 L
173.492 307 L
173.553 307 L
173.613 307 L
173.674 307 L
173.735 307 L
173.795 307 L
173.856 307 L
173.917 307 L
173.977 307 L
174.038 307 L
174.099 307 L
174.159 307 L
174.22 307 L
174.281 307 L
174.341 307 L
174.402 307 L
174.463 307 L
174.523 307 L
174.584 307 L
174.645 307 L
174.705 307 L
174.766 307 L
174.827 307 L
174.887 307 L
174.948 307 L
175.009 307 L
175.069 307 L
175.13 307 L
175.191 307 L
175.251 307 L
175.312 307 L
175.373 307 L
175.433 307 L
175.494 307 L
175.555 307 L
175.615 307 L
175.676 307 L
175.737 307 L
175.797 307 L
175.858 307 L
175.919 307 L
175.979 307 L
176.04 307 L
176.101 307 L
176.161 307 L
176.222 307 L
176.283 307 L
176.343 307 L
176.404 307 L
176.465 307 L
176.525 307 L
176.586 307 L
176.647 307 L
176.707 307 L
176.768 307 L
176.829 307 L
176.889 307 L
176.95 307 L
177.011 307 L
177.071 307 L
177.132 307 L
177.193 307 L
177.253 307 L
177.314 307 L
177.375 307 L
177.435 307 L
177.496 307 L
177.557 307 L
177.617 307 L
177.678 307 L
177.739 307 L
177.799 307 L
177.86 307 L
177.921 307 L
177.981 307 L
178.042 307 L
178.103 307 L
178.163 307 L
178.224 307 L
178.285 307 L
178.345 307 L
178.406 307 L
178.467 307 L
178.527 307 L
178.588 307 L
178.649 307 L
178.709 307 L
178.77 307 L
178.831 307 L
178.891 307 L
178.952 307 L
179.013 307 L
179.073 307 L
179.134 307 L
179.195 307 L
179.255 307 L
179.316 307 L
179.377 307 L
179.437 307 L
179.498 307 L
179.559 307 L
179.619 307 L
179.68 307 L
179.741 307 L
179.801 307 L
179.862 307 L
179.923 307 L
179.983 307 L
180.044 307 L
180.105 307 L
180.165 307 L
180.226 307 L
180.287 307 L
180.347 307 L
180.408 307 L
180.469 307 L
180.529 307 L
180.59 307 L
180.651 307 L
180.711 307 L
180.772 307 L
180.833 307 L
180.893 307 L
180.954 307 L
181.015 307 L
181.075 307 L
181.136 307 L
181.197 307 L
181.257 307 L
181.318 307 L
181.379 307 L
181.439 307 L
181.5 307 L
181.561 307 L
181.621 307 L
181.682 307 L
181.743 307 L
181.803 307 L
181.864 307 L
181.925 307 L
181.985 307 L
182.046 307 L
182.107 307 L
182.167 307 L
182.228 307 L
182.289 307 L
182.349 307 L
182.41 307 L
182.471 307 L
182.531 307 L
182.592 307 L
182.653 307 L
182.713 307 L
182.774 307 L
182.835 307 L
182.895 307 L
182.956 307 L
183.017 307 L
183.077 307 L
183.138 307 L
183.199 307 L
183.259 307 L
183.32 307 L
183.381 307 L
183.441 307 L
183.502 307 L
183.563 307 L
183.623 307 L
183.684 307 L
183.745 307 L
183.805 307 L
183.866 307 L
183.927 307 L
183.987 307 L
184.048 307 L
184.109 307 L
184.169 307 L
184.23 307 L
184.291 307 L
184.351 307 L
184.412 307 L
184.473 307 L
184.533 307 L
184.594 307 L
184.655 307 L
184.715 307 L
184.776 307 L
184.837 307 L
184.897 307 L
184.958 307 L
185.019 307 L
185.079 307 L
185.14 307 L
185.201 307 L
185.261 307 L
185.322 307 L
185.383 307 L
185.443 307 L
185.504 307 L
185.565 307 L
185.625 307 L
185.686 307 L
185.747 307 L
185.807 307 L
185.868 307 L
185.929 307 L
185.989 307 L
186.05 307 L
186.111 307 L
186.171 307 L
186.232 307 L
186.293 307 L
186.353 307 L
186.414 307 L
186.475 307 L
186.535 307 L
186.596 307 L
186.657 307 L
186.717 307 L
186.778 307 L
186.839 307 L
186.899 307 L
186.96 307 L
187.021 307 L
187.081 307 L
187.142 307 L
187.203 307 L
187.263 307 L
187.324 307 L
187.385 307 L
187.445 307 L
187.506 307 L
187.567 307 L
187.627 307 L
187.688 307 L
187.749 307 L
187.809 307 L
187.87 307 L
187.931 307 L
187.991 307 L
188.052 307 L
188.113 307 L
188.173 307 L
188.234 307 L
188.295 307 L
188.355 307 L
188.416 307 L
188.477 307 L
188.537 307 L
188.598 307 L
188.659 307 L
188.719 307 L
188.78 307 L
188.841 307 L
188.901 307 L
188.962 307 L
189.023 307 L
189.083 307 L
189.144 307 L
189.205 307 L
189.265 307 L
189.326 307 L
189.387 307 L
189.447 307 L
189.508 307 L
189.569 307 L
189.629 307 L
189.69 307 L
189.751 307 L
189.811 307 L
189.872 307 L
189.933 307 L
189.993 307 L
190.054 307 L
190.115 307 L
190.175 307 L
190.236 307 L
190.297 307 L
190.357 307 L
190.418 307 L
190.479 307 L
190.539 307 L
190.6 307 L
190.661 307 L
190.721 307 L
190.782 307 L
190.843 307 L
190.903 307 L
190.964 307 L
191.025 307 L
191.085 307 L
191.146 307 L
191.207 307 L
191.267 307 L
191.328 307 L
191.389 307 L
191.449 307 L
191.51 307 L
191.571 307 L
191.631 307 L
191.692 307 L
191.753 307 L
191.813 307 L
191.874 307 L
191.935 307 L
191.995 307 L
192.056 307 L
192.117 307 L
192.177 307 L
192.238 307 L
192.299 307 L
192.359 307 L
192.42 307 L
192.481 307 L
192.541 307 L
192.602 307 L
192.663 307 L
192.723 307 L
192.784 307 L
192.845 307 L
192.905 307 L
192.966 307 L
193.027 307 L
193.087 307 L
193.148 307 L
193.209 307 L
193.269 307 L
193.33 307 L
193.391 307 L
193.451 307 L
193.512 307 L
193.573 307 L
193.633 307 L
193.694 307 L
193.755 307 L
193.815 307 L
193.876 307 L
193.937 307 L
193.997 307 L
194.058 307 L
194.119 307 L
194.179 307 L
194.24 307 L
194.301 307 L
194.361 307 L
194.422 307 L
194.483 307 L
194.543 307 L
194.604 307 L
194.665 307 L
194.725 307 L
194.786 307 L
194.847 307 L
194.907 307 L
194.968 307 L
195.029 307 L
195.089 307 L
195.15 307 L
195.211 307 L
195.271 307 L
195.332 307 L
195.393 307 L
195.453 307 L
195.514 307 L
195.575 307 L
195.635 307 L
195.696 307 L
195.757 307 L
195.817 307 L
195.878 307 L
195.939 307 L
195.999 307 L
196.06 307 L
196.121 307 L
196.181 307 L
196.242 307 L
196.303 307 L
196.363 307 L
196.424 307 L
196.485 307 L
196.545 307 L
196.606 307 L
196.667 307 L
196.727 307 L
196.788 307 L
196.849 307 L
196.909 307 L
196.97 307 L
197.031 307 L
197.091 307 L
197.152 307 L
197.213 307 L
197.273 307 L
197.334 307 L
197.395 307 L
197.455 307 L
197.516 307 L
197.577 307 L
197.637 307 L
197.698 307 L
197.759 307 L
197.819 307 L
197.88 307 L
197.941 307 L
198.001 307 L
198.062 307 L
198.123 307 L
198.183 307 L
198.244 307 L
198.305 307 L
198.365 307 L
198.426 307 L
198.487 307 L
198.547 307 L
198.608 307 L
198.669 307 L
198.729 307 L
198.79 307 L
198.851 307 L
198.911 307 L
198.972 307 L
199.033 307 L
199.093 307 L
199.154 307 L
199.215 307 L
199.275 307 L
199.336 307 L
199.397 307 L
199.457 307 L
199.518 307 L
199.579 307 L
199.639 307 L
199.7 307 L
199.761 307 L
199.821 307 L
199.882 307 L
199.943 307 L
200.003 307 L
200.064 307 L
200.125 307 L
200.185 307 L
200.246 307 L
200.307 307 L
200.367 307 L
200.428 307 L
200.489 307 L
200.549 307 L
200.61 307 L
200.671 307 L
200.731 307 L
200.792 307 L
200.853 307 L
200.913 307 L
200.974 307 L
201.035 307 L
201.095 307 L
201.156 307 L
201.217 307 L
201.277 307 L
201.338 307 L
201.399 307 L
201.459 307 L
201.52 307 L
201.581 307 L
201.641 307 L
201.702 307 L
201.763 307 L
201.823 307 L
201.884 307 L
201.945 307 L
202.005 307 L
202.066 307 L
202.127 307 L
202.187 307 L
202.248 307 L
202.309 307 L
202.369 307 L
202.43 307 L
202.491 307 L
202.551 307 L
202.612 307 L
202.673 307 L
202.733 307 L
202.794 307 L
202.855 307 L
202.915 307 L
202.976 307 L
203.037 307 L
203.097 307 L
203.158 307 L
203.219 307 L
203.279 307 L
203.34 307 L
203.401 307 L
203.461 307 L
203.522 307 L
203.583 307 L
203.643 307 L
203.704 307 L
203.765 307 L
203.825 307 L
203.886 307 L
203.947 307 L
204.007 307 L
204.068 307 L
204.129 307 L
204.189 307 L
204.25 307 L
204.311 307 L
204.371 307 L
204.432 307 L
204.493 307 L
204.553 307 L
204.614 307 L
204.675 307 L
204.735 307 L
204.796 307 L
204.857 307 L
204.917 307 L
204.978 307 L
205.039 307 L
205.099 307 L
205.16 307 L
205.221 307 L
205.281 307 L
205.342 307 L
205.403 307 L
205.463 307 L
205.524 307 L
205.585 307 L
205.645 307 L
205.706 307 L
205.767 307 L
205.827 307 L
205.888 307 L
205.949 307 L
206.009 307 L
206.07 307 L
206.131 307 L
206.191 307 L
206.252 307 L
206.313 307 L
206.373 307 L
206.434 307 L
206.495 307 L
206.555 307 L
206.616 307 L
206.677 307 L
206.737 307 L
206.798 307 L
206.859 307 L
206.919 307 L
206.98 307 L
207.041 307 L
207.101 307 L
207.162 307 L
207.223 307 L
207.283 307 L
207.344 307 L
207.405 307 L
207.465 307 L
207.526 307 L
207.587 307 L
207.647 307 L
207.708 307 L
207.769 307 L
207.829 307 L
207.89 307 L
207.951 307 L
208.011 307 L
208.072 307 L
208.133 307 L
208.193 307 L
208.254 307 L
208.315 307 L
208.375 307 L
208.436 307 L
208.497 307 L
208.557 307 L
208.618 307 L
208.679 307 L
208.739 307 L
208.8 307 L
208.861 307 L
208.921 307 L
208.982 307 L
209.043 307 L
209.103 307 L
209.164 307 L
209.225 307 L
209.285 307 L
209.346 307 L
209.407 307 L
209.467 307 L
209.528 307 L
209.589 307 L
209.649 307 L
209.71 307 L
209.771 307 L
209.831 307 L
209.892 307 L
209.953 307 L
210.013 307 L
210.074 307 L
210.135 307 L
210.195 307 L
210.256 307 L
210.317 307 L
210.377 307 L
210.438 307 L
210.499 307 L
210.559 307 L
210.62 307 L
210.681 307 L
210.741 307 L
210.802 307 L
210.863 307 L
210.923 307 L
210.984 307 L
211.045 307 L
211.105 307 L
211.166 307 L
211.227 307 L
211.287 307 L
211.348 307 L
211.409 307 L
211.469 307 L
211.53 307 L
211.591 307 L
211.651 307 L
211.712 307 L
211.773 307 L
211.833 307 L
211.894 307 L
211.955 307 L
212.015 307 L
212.076 307 L
212.137 307 L
212.197 307 L
212.258 307 L
212.319 307 L
212.379 307 L
212.44 307 L
212.501 307 L
212.561 307 L
212.622 307 L
212.683 307 L
212.743 307 L
212.804 307 L
212.865 307 L
212.925 307 L
212.986 307 L
213.047 307 L
213.107 307 L
213.168 307 L
213.229 307 L
213.289 307 L
213.35 307 L
213.411 307 L
213.471 307 L
213.532 307 L
213.593 307 L
213.653 307 L
213.714 307 L
213.775 307 L
213.835 307 L
213.896 307 L
213.957 307 L
214.017 307 L
214.078 307 L
214.139 307 L
214.199 307 L
214.26 307 L
214.321 307 L
214.381 307 L
214.442 307 L
214.503 307 L
214.563 307 L
214.624 307 L
214.685 307 L
214.745 307 L
214.806 307 L
214.867 307 L
214.927 307 L
214.988 307 L
215.049 307 L
215.109 307 L
215.17 307 L
215.231 307 L
215.291 307 L
215.352 307 L
215.413 307 L
215.473 307 L
215.534 307 L
215.595 307 L
215.655 307 L
215.716 307 L
215.777 307 L
215.837 307 L
215.898 307 L
215.959 307 L
216.019 307 L
216.08 307 L
216.141 307 L
216.201 307 L
216.262 307 L
216.323 307 L
216.383 307 L
216.444 307 L
216.505 307 L
216.565 307 L
216.626 307 L
216.687 307 L
216.747 307 L
216.808 307 L
216.869 307 L
216.929 307 L
216.99 307 L
217.051 307 L
217.111 307 L
217.172 307 L
217.233 307 L
217.293 307 L
217.354 307 L
217.415 307 L
217.475 307 L
217.536 307 L
217.597 307 L
217.657 307 L
217.718 307 L
217.779 307 L
217.839 307 L
217.9 307 L
217.961 307 L
218.021 307 L
218.082 307 L
218.143 307 L
218.203 307 L
218.264 307 L
218.325 307 L
218.385 307 L
218.446 307 L
218.507 307 L
218.567 307 L
218.628 307 L
218.689 307 L
218.749 307 L
218.81 307 L
218.871 307 L
218.931 307 L
218.992 307 L
219.053 307 L
219.113 307 L
219.174 307 L
219.235 307 L
219.295 307 L
219.356 307 L
219.417 307 L
219.477 307 L
219.538 307 L
219.599 307 L
219.659 307 L
219.72 307 L
219.781 307 L
219.841 307 L
219.902 307 L
219.963 307 L
220.023 307 L
220.084 307 L
220.145 307 L
220.205 307 L
220.266 307 L
220.327 307 L
220.387 307 L
220.448 307 L
220.509 307 L
220.569 307 L
220.63 307 L
220.691 307 L
220.751 307 L
220.812 307 L
220.873 307 L
220.933 307 L
220.994 307 L
221.055 307 L
221.115 307 L
221.176 307 L
221.237 307 L
221.297 307 L
221.358 307 L
221.419 307 L
221.479 307 L
221.54 307 L
221.601 307 L
221.661 307 L
221.722 307 L
221.783 307 L
221.843 307 L
221.904 307 L
221.965 307 L
222.025 307 L
222.086 307 L
222.147 307 L
222.207 307 L
222.268 307 L
222.329 307 L
222.389 307 L
222.45 307 L
222.511 307 L
222.571 307 L
222.632 307 L
222.693 307 L
222.753 307 L
222.814 307 L
222.875 307 L
222.935 307 L
222.996 307 L
223.057 307 L
223.117 307 L
223.178 307 L
223.239 307 L
223.299 307 L
223.36 307 L
223.421 307 L
223.481 307 L
223.542 307 L
223.603 307 L
223.663 307 L
223.724 307 L
223.785 307 L
223.845 307 L
223.906 307 L
223.967 307 L
224.027 307 L
224.088 307 L
224.149 307 L
224.209 307 L
224.27 307 L
224.331 307 L
224.391 307 L
224.452 307 L
224.513 307 L
224.573 307 L
224.634 307 L
224.695 307 L
224.755 307 L
224.816 307 L
224.877 307 L
224.937 307 L
224.998 307 L
225.059 307 L
225.119 307 L
225.18 307 L
225.241 307 L
225.301 307 L
225.362 307 L
225.423 307 L
225.483 307 L
225.544 307 L
225.605 307 L
225.665 307 L
225.726 307 L
225.787 307 L
225.847 307 L
225.908 307 L
225.969 307 L
226.029 307 L
226.09 307 L
226.151 307 L
226.211 307 L
226.272 307 L
226.333 307 L
226.393 307 L
226.454 307 L
226.515 307 L
226.575 307 L
226.636 307 L
226.697 307 L
226.757 307 L
226.818 307 L
226.879 307 L
226.939 307 L
227 307 L
S
GR
GS
1 GC
N
250 307 M
431 307 L
431 17 L
250 17 L
cp
f
GR
GS
[1 0 0 1 340.5 323.39999] CT
0.149 GC
/Helvetica 12 F
GS
[1 0 0 1 0 0] CT
-33.668 9.24 moveto 
1 -1 scale
(Time \(years\)) t 
GR
GR
GS
0.149 GC
2 setlinecap
10.0 ML
N
250 307 M
431 307 L
S
GR
GS
0.149 GC
2 setlinecap
10.0 ML
N
250 17 M
431 17 L
S
GR
GS
0.149 GC
2 setlinecap
10.0 ML
N
250 307 M
250 304.1 L
S
GR
GS
0.149 GC
2 setlinecap
10.0 ML
N
250 17 M
250 19.9 L
S
GR
GS
0.149 GC
2 setlinecap
10.0 ML
N
295.25 307 M
295.25 304.1 L
S
GR
GS
0.149 GC
2 setlinecap
10.0 ML
N
295.25 17 M
295.25 19.9 L
S
GR
GS
0.149 GC
2 setlinecap
10.0 ML
N
340.5 307 M
340.5 304.1 L
S
GR
GS
0.149 GC
2 setlinecap
10.0 ML
N
340.5 17 M
340.5 19.9 L
S
GR
GS
0.149 GC
2 setlinecap
10.0 ML
N
385.75 307 M
385.75 304.1 L
S
GR
GS
0.149 GC
2 setlinecap
10.0 ML
N
385.75 17 M
385.75 19.9 L
S
GR
GS
0.149 GC
2 setlinecap
10.0 ML
N
431 307 M
431 304.1 L
S
GR
GS
0.149 GC
2 setlinecap
10.0 ML
N
431 17 M
431 19.9 L
S
GR
GS
[1 0 0 1 250 311.39999] CT
0.149 GC
/Helvetica 12 F
GS
[1 0 0 1 0 0] CT
-3.337 9.24 moveto 
1 -1 scale
(0) t 
GR
GR
GS
[1 0 0 1 295.25 311.39999] CT
0.149 GC
/Helvetica 12 F
GS
[1 0 0 1 0 0] CT
-8.341 9.24 moveto 
1 -1 scale
(0.5) t 
GR
GR
GS
[1 0 0 1 340.5 311.39999] CT
0.149 GC
/Helvetica 12 F
GS
[1 0 0 1 0 0] CT
-3.337 9.24 moveto 
1 -1 scale
(1) t 
GR
GR
GS
[1 0 0 1 385.75 311.39999] CT
0.149 GC
/Helvetica 12 F
GS
[1 0 0 1 0 0] CT
-8.341 9.24 moveto 
1 -1 scale
(1.5) t 
GR
GR
GS
[1 0 0 1 431 311.39999] CT
0.149 GC
/Helvetica 12 F
GS
[1 0 0 1 0 0] CT
-3.337 9.24 moveto 
1 -1 scale
(2) t 
GR
GR
GS
0.149 GC
2 setlinecap
10.0 ML
N
250 307 M
250 17 L
S
GR
GS
0.149 GC
2 setlinecap
10.0 ML
N
431 307 M
431 17 L
S
GR
GS
0.149 GC
2 setlinecap
10.0 ML
N
250 307 M
252.9 307 L
S
GR
GS
0.149 GC
2 setlinecap
10.0 ML
N
431 307 M
428.1 307 L
S
GR
GS
0.149 GC
2 setlinecap
10.0 ML
N
250 265.571 M
252.9 265.571 L
S
GR
GS
0.149 GC
2 setlinecap
10.0 ML
N
431 265.571 M
428.1 265.571 L
S
GR
GS
0.149 GC
2 setlinecap
10.0 ML
N
250 224.143 M
252.9 224.143 L
S
GR
GS
0.149 GC
2 setlinecap
10.0 ML
N
431 224.143 M
428.1 224.143 L
S
GR
GS
0.149 GC
2 setlinecap
10.0 ML
N
250 182.714 M
252.9 182.714 L
S
GR
GS
0.149 GC
2 setlinecap
10.0 ML
N
431 182.714 M
428.1 182.714 L
S
GR
GS
0.149 GC
2 setlinecap
10.0 ML
N
250 141.286 M
252.9 141.286 L
S
GR
GS
0.149 GC
2 setlinecap
10.0 ML
N
431 141.286 M
428.1 141.286 L
S
GR
GS
0.149 GC
2 setlinecap
10.0 ML
N
250 99.857 M
252.9 99.857 L
S
GR
GS
0.149 GC
2 setlinecap
10.0 ML
N
431 99.857 M
428.1 99.857 L
S
GR
GS
0.149 GC
2 setlinecap
10.0 ML
N
250 58.429 M
252.9 58.429 L
S
GR
GS
0.149 GC
2 setlinecap
10.0 ML
N
431 58.429 M
428.1 58.429 L
S
GR
GS
0.149 GC
2 setlinecap
10.0 ML
N
250 17 M
252.9 17 L
S
GR
GS
0.149 GC
2 setlinecap
10.0 ML
N
431 17 M
428.1 17 L
S
GR
GS
[1 0 0 1 245.60001 307] CT
0.149 GC
/Helvetica 12 F
GS
[1 0 0 1 0 0] CT
-6.674 3.74 moveto 
1 -1 scale
(0) t 
GR
GR
GS
[1 0 0 1 245.60001 265.57144] CT
0.149 GC
/Helvetica 12 F
GS
[1 0 0 1 0 0] CT
-6.674 3.74 moveto 
1 -1 scale
(5) t 
GR
GR
GS
[1 0 0 1 245.60001 224.14285] CT
0.149 GC
/Helvetica 12 F
GS
[1 0 0 1 0 0] CT
-13.348 3.74 moveto 
1 -1 scale
(10) t 
GR
GR
GS
[1 0 0 1 245.60001 182.71428] CT
0.149 GC
/Helvetica 12 F
GS
[1 0 0 1 0 0] CT
-13.348 3.74 moveto 
1 -1 scale
(15) t 
GR
GR
GS
[1 0 0 1 245.60001 141.28572] CT
0.149 GC
/Helvetica 12 F
GS
[1 0 0 1 0 0] CT
-13.348 3.74 moveto 
1 -1 scale
(20) t 
GR
GR
GS
[1 0 0 1 245.60001 99.85714] CT
0.149 GC
/Helvetica 12 F
GS
[1 0 0 1 0 0] CT
-13.348 3.74 moveto 
1 -1 scale
(25) t 
GR
GR
GS
[1 0 0 1 245.60001 58.42857] CT
0.149 GC
/Helvetica 12 F
GS
[1 0 0 1 0 0] CT
-13.348 3.74 moveto 
1 -1 scale
(30) t 
GR
GR
GS
[1 0 0 1 245.60001 17] CT
0.149 GC
/Helvetica 12 F
GS
[1 0 0 1 0 0] CT
-13.348 3.74 moveto 
1 -1 scale
(35) t 
GR
GR
GS
0 0 1 RC
2 setlinecap
10.0 ML
2 LW
N
250 52.867 M
250.905 58.564 L
251.81 66.901 L
252.715 77.709 L
253.62 90.739 L
254.525 105.68 L
255.43 122.165 L
256.335 139.799 L
257.24 158.18 L
258.145 176.926 L
259.05 195.714 L
259.955 214.34 L
260.86 232.857 L
261.765 252.144 L
262.67 283.039 L
263.575 307 L
264.48 307 L
265.385 307 L
266.29 307 L
267.195 307 L
268.1 307 L
269.005 307 L
269.91 307 L
270.815 307 L
271.72 307 L
272.625 307 L
273.53 307 L
274.435 307 L
275.34 307 L
276.245 307 L
277.15 307 L
278.055 307 L
278.96 307 L
279.865 307 L
280.77 307 L
281.675 307 L
282.58 283.039 L
283.485 252.144 L
284.39 232.857 L
285.295 214.34 L
286.2 195.714 L
287.105 176.926 L
288.01 158.18 L
288.915 139.799 L
289.82 122.165 L
290.725 105.68 L
291.63 90.739 L
292.535 77.709 L
293.44 66.901 L
294.345 58.564 L
295.25 52.867 L
296.155 49.895 L
297.06 49.651 L
297.965 52.054 L
298.87 56.95 L
299.775 64.123 L
300.68 73.307 L
301.585 84.202 L
302.49 96.488 L
303.395 109.838 L
304.3 123.935 L
305.205 138.481 L
306.11 153.205 L
307.015 167.872 L
307.92 182.288 L
308.825 196.297 L
309.73 209.79 L
310.635 222.693 L
311.54 234.976 L
312.445 246.639 L
313.35 257.715 L
314.255 268.263 L
315.16 278.362 L
316.065 288.109 L
316.97 297.616 L
317.875 307 L
318.78 297.616 L
319.685 288.109 L
320.59 278.362 L
321.495 268.263 L
322.4 257.715 L
323.305 246.639 L
324.21 234.976 L
325.115 222.693 L
326.02 209.79 L
326.925 196.297 L
327.83 182.288 L
328.735 167.872 L
329.64 153.205 L
330.545 138.481 L
331.45 123.935 L
332.355 109.838 L
333.26 96.488 L
334.165 84.202 L
335.07 73.307 L
335.975 64.123 L
336.88 56.95 L
337.785 52.054 L
338.69 49.651 L
339.595 49.895 L
340.5 52.867 L
341.405 58.564 L
342.31 66.901 L
343.215 77.709 L
344.12 90.739 L
345.025 105.68 L
345.93 122.165 L
346.835 139.799 L
347.74 158.18 L
348.645 176.926 L
349.55 195.714 L
350.455 214.34 L
351.36 232.857 L
352.265 252.144 L
353.17 283.039 L
354.075 307 L
354.98 307 L
355.885 307 L
356.79 307 L
357.695 307 L
358.6 307 L
359.505 307 L
360.41 307 L
361.315 307 L
362.22 307 L
363.125 307 L
364.03 307 L
364.935 307 L
365.84 307 L
366.745 307 L
367.65 307 L
368.555 307 L
369.46 307 L
370.365 307 L
371.27 307 L
372.175 307 L
373.08 283.039 L
373.985 252.144 L
374.89 232.857 L
375.795 214.34 L
376.7 195.714 L
377.605 176.926 L
378.51 158.18 L
379.415 139.799 L
380.32 122.165 L
381.225 105.68 L
382.13 90.739 L
383.035 77.709 L
383.94 66.901 L
384.845 58.564 L
385.75 52.867 L
386.655 49.895 L
387.56 49.651 L
388.465 52.054 L
389.37 56.95 L
390.275 64.123 L
391.18 73.307 L
392.085 84.202 L
392.99 96.488 L
393.895 109.838 L
394.8 123.935 L
395.705 138.481 L
396.61 153.205 L
397.515 167.872 L
398.42 182.288 L
399.325 196.297 L
400.23 209.79 L
401.135 222.693 L
402.04 234.976 L
402.945 246.639 L
403.85 257.715 L
404.755 268.263 L
405.66 278.362 L
406.565 288.109 L
407.47 297.616 L
408.375 307 L
409.28 297.616 L
410.185 288.109 L
411.09 278.362 L
411.995 268.263 L
412.9 257.715 L
413.805 246.639 L
414.71 234.976 L
415.615 222.693 L
416.52 209.79 L
417.425 196.297 L
418.33 182.288 L
419.235 167.872 L
420.14 153.205 L
421.045 138.481 L
421.95 123.935 L
422.855 109.838 L
423.76 96.488 L
424.665 84.202 L
425.57 73.307 L
426.475 64.123 L
427.38 56.95 L
428.285 52.054 L
429.19 49.651 L
430.095 49.895 L
431 52.867 L
S
GR
%%Trailer
%%Pages: 1
%%EOF
