%!PS-Adobe-3.0 EPSF-3.0
%%Creator: (MATLAB, The Mathworks, Inc. Version 8.4.0.150421 \(R2014b\). Operating System: Mac OS X)
%%Title: /Users/Rachel/Dropbox/Citrus/Matlab/NewModPaper/VaryRogueNewAF.eps
%%CreationDate: 2016-08-17T13:43:28
%%Pages: (atend)
%%BoundingBox: 0 0 454 341
%%LanguageLevel: 2
%%EndComments
%%BeginProlog
%%BeginResource: procset (Apache XML Graphics Std ProcSet) 1.2 0
%%Version: 1.2 0
%%Copyright: (Copyright 2001-2003,2010 The Apache Software Foundation. License terms: http://www.apache.org/licenses/LICENSE-2.0)
/bd{bind def}bind def
/ld{load def}bd
/GR/grestore ld
/M/moveto ld
/LJ/setlinejoin ld
/C/curveto ld
/f/fill ld
/LW/setlinewidth ld
/GC/setgray ld
/t/show ld
/N/newpath ld
/CT/concat ld
/cp/closepath ld
/S/stroke ld
/L/lineto ld
/CC/setcmykcolor ld
/A/ashow ld
/GS/gsave ld
/RC/setrgbcolor ld
/RM/rmoveto ld
/ML/setmiterlimit ld
/re {4 2 roll M
1 index 0 rlineto
0 exch rlineto
neg 0 rlineto
cp } bd
/_ctm matrix def
/_tm matrix def
/BT { _ctm currentmatrix pop matrix _tm copy pop 0 0 moveto } bd
/ET { _ctm setmatrix } bd
/iTm { _ctm setmatrix _tm concat } bd
/Tm { _tm astore pop iTm 0 0 moveto } bd
/ux 0.0 def
/uy 0.0 def
/F {
  /Tp exch def
  /Tf exch def
  Tf findfont Tp scalefont setfont
  /cf Tf def  /cs Tp def
} bd
/ULS {currentpoint /uy exch def /ux exch def} bd
/ULE {
  /Tcx currentpoint pop def
  gsave
  newpath
  cf findfont cs scalefont dup
  /FontMatrix get 0 get /Ts exch def /FontInfo get dup
  /UnderlinePosition get Ts mul /To exch def
  /UnderlineThickness get Ts mul /Tt exch def
  ux uy To add moveto  Tcx uy To add lineto
  Tt setlinewidth stroke
  grestore
} bd
/OLE {
  /Tcx currentpoint pop def
  gsave
  newpath
  cf findfont cs scalefont dup
  /FontMatrix get 0 get /Ts exch def /FontInfo get dup
  /UnderlinePosition get Ts mul /To exch def
  /UnderlineThickness get Ts mul /Tt exch def
  ux uy To add cs add moveto Tcx uy To add cs add lineto
  Tt setlinewidth stroke
  grestore
} bd
/SOE {
  /Tcx currentpoint pop def
  gsave
  newpath
  cf findfont cs scalefont dup
  /FontMatrix get 0 get /Ts exch def /FontInfo get dup
  /UnderlinePosition get Ts mul /To exch def
  /UnderlineThickness get Ts mul /Tt exch def
  ux uy To add cs 10 mul 26 idiv add moveto Tcx uy To add cs 10 mul 26 idiv add lineto
  Tt setlinewidth stroke
  grestore
} bd
/QT {
/Y22 exch store
/X22 exch store
/Y21 exch store
/X21 exch store
currentpoint
/Y21 load 2 mul add 3 div exch
/X21 load 2 mul add 3 div exch
/X21 load 2 mul /X22 load add 3 div
/Y21 load 2 mul /Y22 load add 3 div
/X22 load /Y22 load curveto
} bd
/SSPD {
dup length /d exch dict def
{
/v exch def
/k exch def
currentpagedevice k known {
/cpdv currentpagedevice k get def
v cpdv ne {
/upd false def
/nullv v type /nulltype eq def
/nullcpdv cpdv type /nulltype eq def
nullv nullcpdv or
{
/upd true def
} {
/sametype v type cpdv type eq def
sametype {
v type /arraytype eq {
/vlen v length def
/cpdvlen cpdv length def
vlen cpdvlen eq {
0 1 vlen 1 sub {
/i exch def
/obj v i get def
/cpdobj cpdv i get def
obj cpdobj ne {
/upd true def
exit
} if
} for
} {
/upd true def
} ifelse
} {
v type /dicttype eq {
v {
/dv exch def
/dk exch def
/cpddv cpdv dk get def
dv cpddv ne {
/upd true def
exit
} if
} forall
} {
/upd true def
} ifelse
} ifelse
} if
} ifelse
upd true eq {
d k v put
} if
} if
} if
} forall
d length 0 gt {
d setpagedevice
} if
} bd
%%EndResource
%%BeginResource: procset (Apache XML Graphics EPS ProcSet) 1.0 0
%%Version: 1.0 0
%%Copyright: (Copyright 2002-2003 The Apache Software Foundation. License terms: http://www.apache.org/licenses/LICENSE-2.0)
/BeginEPSF { %def
/b4_Inc_state save def         % Save state for cleanup
/dict_count countdictstack def % Count objects on dict stack
/op_count count 1 sub def      % Count objects on operand stack
userdict begin                 % Push userdict on dict stack
/showpage { } def              % Redefine showpage, { } = null proc
0 setgray 0 setlinecap         % Prepare graphics state
1 setlinewidth 0 setlinejoin
10 setmiterlimit [ ] 0 setdash newpath
/languagelevel where           % If level not equal to 1 then
{pop languagelevel             % set strokeadjust and
1 ne                           % overprint to their defaults.
{false setstrokeadjust false setoverprint
} if
} if
} bd
/EndEPSF { %def
count op_count sub {pop} repeat            % Clean up stacks
countdictstack dict_count sub {end} repeat
b4_Inc_state restore
} bd
%%EndResource
%FOPBeginFontDict
%%IncludeResource: font Courier-Bold
%%IncludeResource: font Helvetica
%%IncludeResource: font Courier-BoldOblique
%%IncludeResource: font Courier-Oblique
%%IncludeResource: font Times-Roman
%%IncludeResource: font Helvetica-BoldOblique
%%IncludeResource: font Helvetica-Bold
%%IncludeResource: font Helvetica-Oblique
%%IncludeResource: font Times-BoldItalic
%%IncludeResource: font Courier
%%IncludeResource: font Times-Italic
%%IncludeResource: font Times-Bold
%%IncludeResource: font Symbol
%%IncludeResource: font ZapfDingbats
%FOPEndFontDict
%%BeginResource: encoding WinAnsiEncoding
/WinAnsiEncoding [
/.notdef /.notdef /.notdef /.notdef /.notdef
/.notdef /.notdef /.notdef /.notdef /.notdef
/.notdef /.notdef /.notdef /.notdef /.notdef
/.notdef /.notdef /.notdef /.notdef /.notdef
/.notdef /.notdef /.notdef /.notdef /.notdef
/.notdef /.notdef /.notdef /.notdef /.notdef
/.notdef /.notdef /space /exclam /quotedbl
/numbersign /dollar /percent /ampersand /quotesingle
/parenleft /parenright /asterisk /plus /comma
/hyphen /period /slash /zero /one
/two /three /four /five /six
/seven /eight /nine /colon /semicolon
/less /equal /greater /question /at
/A /B /C /D /E
/F /G /H /I /J
/K /L /M /N /O
/P /Q /R /S /T
/U /V /W /X /Y
/Z /bracketleft /backslash /bracketright /asciicircum
/underscore /quoteleft /a /b /c
/d /e /f /g /h
/i /j /k /l /m
/n /o /p /q /r
/s /t /u /v /w
/x /y /z /braceleft /bar
/braceright /asciitilde /bullet /Euro /bullet
/quotesinglbase /florin /quotedblbase /ellipsis /dagger
/daggerdbl /circumflex /perthousand /Scaron /guilsinglleft
/OE /bullet /Zcaron /bullet /bullet
/quoteleft /quoteright /quotedblleft /quotedblright /bullet
/endash /emdash /asciitilde /trademark /scaron
/guilsinglright /oe /bullet /zcaron /Ydieresis
/space /exclamdown /cent /sterling /currency
/yen /brokenbar /section /dieresis /copyright
/ordfeminine /guillemotleft /logicalnot /sfthyphen /registered
/macron /degree /plusminus /twosuperior /threesuperior
/acute /mu /paragraph /middot /cedilla
/onesuperior /ordmasculine /guillemotright /onequarter /onehalf
/threequarters /questiondown /Agrave /Aacute /Acircumflex
/Atilde /Adieresis /Aring /AE /Ccedilla
/Egrave /Eacute /Ecircumflex /Edieresis /Igrave
/Iacute /Icircumflex /Idieresis /Eth /Ntilde
/Ograve /Oacute /Ocircumflex /Otilde /Odieresis
/multiply /Oslash /Ugrave /Uacute /Ucircumflex
/Udieresis /Yacute /Thorn /germandbls /agrave
/aacute /acircumflex /atilde /adieresis /aring
/ae /ccedilla /egrave /eacute /ecircumflex
/edieresis /igrave /iacute /icircumflex /idieresis
/eth /ntilde /ograve /oacute /ocircumflex
/otilde /odieresis /divide /oslash /ugrave
/uacute /ucircumflex /udieresis /yacute /thorn
/ydieresis
] def
%%EndResource
%FOPBeginFontReencode
/Courier-Bold findfont
dup length dict begin
  {1 index /FID ne {def} {pop pop} ifelse} forall
  /Encoding WinAnsiEncoding def
  currentdict
end
/Courier-Bold exch definefont pop
/Helvetica findfont
dup length dict begin
  {1 index /FID ne {def} {pop pop} ifelse} forall
  /Encoding WinAnsiEncoding def
  currentdict
end
/Helvetica exch definefont pop
/Courier-BoldOblique findfont
dup length dict begin
  {1 index /FID ne {def} {pop pop} ifelse} forall
  /Encoding WinAnsiEncoding def
  currentdict
end
/Courier-BoldOblique exch definefont pop
/Courier-Oblique findfont
dup length dict begin
  {1 index /FID ne {def} {pop pop} ifelse} forall
  /Encoding WinAnsiEncoding def
  currentdict
end
/Courier-Oblique exch definefont pop
/Times-Roman findfont
dup length dict begin
  {1 index /FID ne {def} {pop pop} ifelse} forall
  /Encoding WinAnsiEncoding def
  currentdict
end
/Times-Roman exch definefont pop
/Helvetica-BoldOblique findfont
dup length dict begin
  {1 index /FID ne {def} {pop pop} ifelse} forall
  /Encoding WinAnsiEncoding def
  currentdict
end
/Helvetica-BoldOblique exch definefont pop
/Helvetica-Bold findfont
dup length dict begin
  {1 index /FID ne {def} {pop pop} ifelse} forall
  /Encoding WinAnsiEncoding def
  currentdict
end
/Helvetica-Bold exch definefont pop
/Helvetica-Oblique findfont
dup length dict begin
  {1 index /FID ne {def} {pop pop} ifelse} forall
  /Encoding WinAnsiEncoding def
  currentdict
end
/Helvetica-Oblique exch definefont pop
/Times-BoldItalic findfont
dup length dict begin
  {1 index /FID ne {def} {pop pop} ifelse} forall
  /Encoding WinAnsiEncoding def
  currentdict
end
/Times-BoldItalic exch definefont pop
/Courier findfont
dup length dict begin
  {1 index /FID ne {def} {pop pop} ifelse} forall
  /Encoding WinAnsiEncoding def
  currentdict
end
/Courier exch definefont pop
/Times-Italic findfont
dup length dict begin
  {1 index /FID ne {def} {pop pop} ifelse} forall
  /Encoding WinAnsiEncoding def
  currentdict
end
/Times-Italic exch definefont pop
/Times-Bold findfont
dup length dict begin
  {1 index /FID ne {def} {pop pop} ifelse} forall
  /Encoding WinAnsiEncoding def
  currentdict
end
/Times-Bold exch definefont pop
%FOPEndFontReencode
%%EndProlog
%%Page: 1 1
%%PageBoundingBox: 0 0 454 341
%%BeginPageSetup
[1 0 0 -1 0 341] CT
%%EndPageSetup
GS
1 GC
N
0 0 454 341 re
f
GR
GS
1 GC
N
0 0 454 341 re
f
GR
GS
1 GC
N
53 303 M
405 303 L
405 26 L
53 26 L
cp
f
GR
GS
[1 0 0 1 229 319.39999] CT
0.149 GC
/Helvetica 12 F
GS
[1 0 0 1 0 0] CT
-94.374 9.24 moveto 
1 -1 scale
(Average Time until Roguing \(years\)) t 
GR
GR
GS
0.149 GC
2 setlinecap
10.0 ML
N
53 303 M
405 303 L
S
GR
GS
0.149 GC
2 setlinecap
10.0 ML
N
53 26 M
405 26 L
S
GR
GS
0.149 GC
2 setlinecap
10.0 ML
N
53 303 M
53 299.48 L
S
GR
GS
0.149 GC
2 setlinecap
10.0 ML
N
53 26 M
53 29.52 L
S
GR
GS
0.149 GC
2 setlinecap
10.0 ML
N
111.667 303 M
111.667 299.48 L
S
GR
GS
0.149 GC
2 setlinecap
10.0 ML
N
111.667 26 M
111.667 29.52 L
S
GR
GS
0.149 GC
2 setlinecap
10.0 ML
N
170.333 303 M
170.333 299.48 L
S
GR
GS
0.149 GC
2 setlinecap
10.0 ML
N
170.333 26 M
170.333 29.52 L
S
GR
GS
0.149 GC
2 setlinecap
10.0 ML
N
229 303 M
229 299.48 L
S
GR
GS
0.149 GC
2 setlinecap
10.0 ML
N
229 26 M
229 29.52 L
S
GR
GS
0.149 GC
2 setlinecap
10.0 ML
N
287.667 303 M
287.667 299.48 L
S
GR
GS
0.149 GC
2 setlinecap
10.0 ML
N
287.667 26 M
287.667 29.52 L
S
GR
GS
0.149 GC
2 setlinecap
10.0 ML
N
346.333 303 M
346.333 299.48 L
S
GR
GS
0.149 GC
2 setlinecap
10.0 ML
N
346.333 26 M
346.333 29.52 L
S
GR
GS
0.149 GC
2 setlinecap
10.0 ML
N
405 303 M
405 299.48 L
S
GR
GS
0.149 GC
2 setlinecap
10.0 ML
N
405 26 M
405 29.52 L
S
GR
GS
[1 0 0 1 53 307.39999] CT
0.149 GC
/Helvetica 12 F
GS
[1 0 0 1 0 0] CT
-3.337 9.24 moveto 
1 -1 scale
(2) t 
GR
GR
GS
[1 0 0 1 111.66666 307.39999] CT
0.149 GC
/Helvetica 12 F
GS
[1 0 0 1 0 0] CT
-3.337 9.24 moveto 
1 -1 scale
(4) t 
GR
GR
GS
[1 0 0 1 170.33333 307.39999] CT
0.149 GC
/Helvetica 12 F
GS
[1 0 0 1 0 0] CT
-3.337 9.24 moveto 
1 -1 scale
(6) t 
GR
GR
GS
[1 0 0 1 229 307.39999] CT
0.149 GC
/Helvetica 12 F
GS
[1 0 0 1 0 0] CT
-3.337 9.24 moveto 
1 -1 scale
(8) t 
GR
GR
GS
[1 0 0 1 287.66666 307.39999] CT
0.149 GC
/Helvetica 12 F
GS
[1 0 0 1 0 0] CT
-6.674 9.24 moveto 
1 -1 scale
(10) t 
GR
GR
GS
[1 0 0 1 346.33334 307.39999] CT
0.149 GC
/Helvetica 12 F
GS
[1 0 0 1 0 0] CT
-6.674 9.24 moveto 
1 -1 scale
(12) t 
GR
GR
GS
[1 0 0 1 405 307.39999] CT
0.149 GC
/Helvetica 12 F
GS
[1 0 0 1 0 0] CT
-6.674 9.24 moveto 
1 -1 scale
(14) t 
GR
GR
GS
[0 -1 1 0 25.57852 164.5] CT
0 0.447 0.741 RC
/Helvetica 12 F
GS
[1 0 0 1 0 0] CT
-83.373 -1.76 moveto 
1 -1 scale
(Peak Number of Infected Trees) t 
GR
GR
GS
0 0.447 0.741 RC
2 setlinecap
10.0 ML
N
53 303 M
53 26 L
S
GR
GS
0 0.447 0.741 RC
2 setlinecap
10.0 ML
N
405 303 M
405 26 L
S
GR
GS
0 0.447 0.741 RC
2 setlinecap
10.0 ML
N
53 303 M
56.52 303 L
S
GR
GS
0 0.447 0.741 RC
2 setlinecap
10.0 ML
N
405 303 M
401.48 303 L
S
GR
GS
0 0.447 0.741 RC
2 setlinecap
10.0 ML
N
53 247.6 M
56.52 247.6 L
S
GR
GS
0 0.447 0.741 RC
2 setlinecap
10.0 ML
N
405 247.6 M
401.48 247.6 L
S
GR
GS
0 0.447 0.741 RC
2 setlinecap
10.0 ML
N
53 192.2 M
56.52 192.2 L
S
GR
GS
0 0.447 0.741 RC
2 setlinecap
10.0 ML
N
405 192.2 M
401.48 192.2 L
S
GR
GS
0 0.447 0.741 RC
2 setlinecap
10.0 ML
N
53 136.8 M
56.52 136.8 L
S
GR
GS
0 0.447 0.741 RC
2 setlinecap
10.0 ML
N
405 136.8 M
401.48 136.8 L
S
GR
GS
0 0.447 0.741 RC
2 setlinecap
10.0 ML
N
53 81.4 M
56.52 81.4 L
S
GR
GS
0 0.447 0.741 RC
2 setlinecap
10.0 ML
N
405 81.4 M
401.48 81.4 L
S
GR
GS
0 0.447 0.741 RC
2 setlinecap
10.0 ML
N
53 26 M
56.52 26 L
S
GR
GS
0 0.447 0.741 RC
2 setlinecap
10.0 ML
N
405 26 M
401.48 26 L
S
GR
GS
[1 0 0 1 48.6 303] CT
0 0.447 0.741 RC
/Helvetica 12 F
GS
[1 0 0 1 0 0] CT
-20.021 3.74 moveto 
1 -1 scale
(300) t 
GR
GR
GS
[1 0 0 1 48.6 247.60001] CT
0 0.447 0.741 RC
/Helvetica 12 F
GS
[1 0 0 1 0 0] CT
-20.021 3.74 moveto 
1 -1 scale
(400) t 
GR
GR
GS
[1 0 0 1 48.6 192.2] CT
0 0.447 0.741 RC
/Helvetica 12 F
GS
[1 0 0 1 0 0] CT
-20.021 3.74 moveto 
1 -1 scale
(500) t 
GR
GR
GS
[1 0 0 1 48.6 136.8] CT
0 0.447 0.741 RC
/Helvetica 12 F
GS
[1 0 0 1 0 0] CT
-20.021 3.74 moveto 
1 -1 scale
(600) t 
GR
GR
GS
[1 0 0 1 48.6 81.4] CT
0 0.447 0.741 RC
/Helvetica 12 F
GS
[1 0 0 1 0 0] CT
-20.021 3.74 moveto 
1 -1 scale
(700) t 
GR
GR
GS
[1 0 0 1 48.6 26] CT
0 0.447 0.741 RC
/Helvetica 12 F
GS
[1 0 0 1 0 0] CT
-20.021 3.74 moveto 
1 -1 scale
(800) t 
GR
GR
GS
0 0.447 0.741 RC
[8 8] 0 setdash
2 LJ
2 LW
N
404.998 27.995 M
346.335 42.425 L
287.667 61.126 L
229 86.319 L
170.333 122.07 L
111.667 176.727 L
53 270.543 L
S
GR
GS
0 0.447 0.741 RC
2 setlinecap
10.0 ML
2 LW
N
400 27.5 M
409 27.5 L
S
GR
GS
0 0.447 0.741 RC
2 setlinecap
10.0 ML
2 LW
N
404.5 32 M
404.5 23 L
S
GR
GS
0 0.447 0.741 RC
2 setlinecap
10.0 ML
2 LW
N
401 31 M
408 24 L
S
GR
GS
0 0.447 0.741 RC
2 setlinecap
10.0 ML
2 LW
N
401 24 M
408 31 L
S
GR
GS
0 0.447 0.741 RC
2 setlinecap
10.0 ML
2 LW
N
342 42.5 M
351 42.5 L
S
GR
GS
0 0.447 0.741 RC
2 setlinecap
10.0 ML
2 LW
N
346.5 47 M
346.5 38 L
S
GR
GS
0 0.447 0.741 RC
2 setlinecap
10.0 ML
2 LW
N
343 46 M
350 39 L
S
GR
GS
0 0.447 0.741 RC
2 setlinecap
10.0 ML
2 LW
N
343 39 M
350 46 L
S
GR
GS
0 0.447 0.741 RC
2 setlinecap
10.0 ML
2 LW
N
283 61.5 M
292 61.5 L
S
GR
GS
0 0.447 0.741 RC
2 setlinecap
10.0 ML
2 LW
N
287.5 66 M
287.5 57 L
S
GR
GS
0 0.447 0.741 RC
2 setlinecap
10.0 ML
2 LW
N
284 65 M
291 58 L
S
GR
GS
0 0.447 0.741 RC
2 setlinecap
10.0 ML
2 LW
N
284 58 M
291 65 L
S
GR
GS
0 0.447 0.741 RC
2 setlinecap
10.0 ML
2 LW
N
225 86.5 M
234 86.5 L
S
GR
GS
0 0.447 0.741 RC
2 setlinecap
10.0 ML
2 LW
N
229.5 91 M
229.5 82 L
S
GR
GS
0 0.447 0.741 RC
2 setlinecap
10.0 ML
2 LW
N
226 90 M
233 83 L
S
GR
GS
0 0.447 0.741 RC
2 setlinecap
10.0 ML
2 LW
N
226 83 M
233 90 L
S
GR
GS
0 0.447 0.741 RC
2 setlinecap
10.0 ML
2 LW
N
166 122.5 M
175 122.5 L
S
GR
GS
0 0.447 0.741 RC
2 setlinecap
10.0 ML
2 LW
N
170.5 127 M
170.5 118 L
S
GR
GS
0 0.447 0.741 RC
2 setlinecap
10.0 ML
2 LW
N
167 126 M
174 119 L
S
GR
GS
0 0.447 0.741 RC
2 setlinecap
10.0 ML
2 LW
N
167 119 M
174 126 L
S
GR
GS
0 0.447 0.741 RC
2 setlinecap
10.0 ML
2 LW
N
107 176.5 M
116 176.5 L
S
GR
GS
0 0.447 0.741 RC
2 setlinecap
10.0 ML
2 LW
N
111.5 181 M
111.5 172 L
S
GR
GS
0 0.447 0.741 RC
2 setlinecap
10.0 ML
2 LW
N
108 180 M
115 173 L
S
GR
GS
0 0.447 0.741 RC
2 setlinecap
10.0 ML
2 LW
N
108 173 M
115 180 L
S
GR
GS
0 0.447 0.741 RC
2 setlinecap
10.0 ML
2 LW
N
48 270.5 M
57 270.5 L
S
GR
GS
0 0.447 0.741 RC
2 setlinecap
10.0 ML
2 LW
N
52.5 275 M
52.5 266 L
S
GR
GS
0 0.447 0.741 RC
2 setlinecap
10.0 ML
2 LW
N
49 274 M
56 267 L
S
GR
GS
0 0.447 0.741 RC
2 setlinecap
10.0 ML
2 LW
N
49 267 M
56 274 L
S
GR
GS
[0 -1 1 0 439.09531 164.5] CT
0.851 0.325 0.098 RC
/Helvetica 12 F
GS
[1 0 0 1 0 0] CT
-87.366 9.24 moveto 
1 -1 scale
(Total Number of Removed Trees) t 
GR
GR
GS
0.851 0.325 0.098 RC
2 setlinecap
10.0 ML
N
405 303 M
405 26 L
S
GR
GS
0.851 0.325 0.098 RC
2 setlinecap
10.0 ML
N
405 303 M
401.48 303 L
S
GR
GS
0.851 0.325 0.098 RC
2 setlinecap
10.0 ML
N
405 256.833 M
401.48 256.833 L
S
GR
GS
0.851 0.325 0.098 RC
2 setlinecap
10.0 ML
N
405 210.667 M
401.48 210.667 L
S
GR
GS
0.851 0.325 0.098 RC
2 setlinecap
10.0 ML
N
405 164.5 M
401.48 164.5 L
S
GR
GS
0.851 0.325 0.098 RC
2 setlinecap
10.0 ML
N
405 118.333 M
401.48 118.333 L
S
GR
GS
0.851 0.325 0.098 RC
2 setlinecap
10.0 ML
N
405 72.167 M
401.48 72.167 L
S
GR
GS
0.851 0.325 0.098 RC
2 setlinecap
10.0 ML
N
405 26 M
401.48 26 L
S
GR
GS
[1 0 0 1 409.39999 303] CT
0.851 0.325 0.098 RC
/Helvetica 12 F
GS
[1 0 0 1 0 0] CT
0 3.74 moveto 
1 -1 scale
(500) t 
GR
GR
GS
[1 0 0 1 409.39999 256.83334] CT
0.851 0.325 0.098 RC
/Helvetica 12 F
GS
[1 0 0 1 0 0] CT
0 3.74 moveto 
1 -1 scale
(1000) t 
GR
GR
GS
[1 0 0 1 409.39999 210.66667] CT
0.851 0.325 0.098 RC
/Helvetica 12 F
GS
[1 0 0 1 0 0] CT
0 3.74 moveto 
1 -1 scale
(1500) t 
GR
GR
GS
[1 0 0 1 409.39999 164.5] CT
0.851 0.325 0.098 RC
/Helvetica 12 F
GS
[1 0 0 1 0 0] CT
0 3.74 moveto 
1 -1 scale
(2000) t 
GR
GR
GS
[1 0 0 1 409.39999 118.33334] CT
0.851 0.325 0.098 RC
/Helvetica 12 F
GS
[1 0 0 1 0 0] CT
0 3.74 moveto 
1 -1 scale
(2500) t 
GR
GR
GS
[1 0 0 1 409.39999 72.16666] CT
0.851 0.325 0.098 RC
/Helvetica 12 F
GS
[1 0 0 1 0 0] CT
0 3.74 moveto 
1 -1 scale
(3000) t 
GR
GR
GS
[1 0 0 1 409.39999 26] CT
0.851 0.325 0.098 RC
/Helvetica 12 F
GS
[1 0 0 1 0 0] CT
0 3.74 moveto 
1 -1 scale
(3500) t 
GR
GR
GS
0.851 0.325 0.098 RC
[8 8] 0 setdash
2 LJ
2 LW
N
404.998 257 M
346.335 245.746 L
287.667 231.013 L
229 210.901 L
170.333 181.826 L
111.667 136.15 L
53 54.37 L
S
GR
GS
0.851 0.325 0.098 RC
2 setlinecap
10.0 ML
2 LW
N
400 257.5 M
409 257.5 L
S
GR
GS
0.851 0.325 0.098 RC
2 setlinecap
10.0 ML
2 LW
N
404.5 262 M
404.5 253 L
S
GR
GS
0.851 0.325 0.098 RC
2 setlinecap
10.0 ML
2 LW
N
401 261 M
408 254 L
S
GR
GS
0.851 0.325 0.098 RC
2 setlinecap
10.0 ML
2 LW
N
401 254 M
408 261 L
S
GR
GS
0.851 0.325 0.098 RC
2 setlinecap
10.0 ML
2 LW
N
342 245.5 M
351 245.5 L
S
GR
GS
0.851 0.325 0.098 RC
2 setlinecap
10.0 ML
2 LW
N
346.5 250 M
346.5 241 L
S
GR
GS
0.851 0.325 0.098 RC
2 setlinecap
10.0 ML
2 LW
N
343 249 M
350 242 L
S
GR
GS
0.851 0.325 0.098 RC
2 setlinecap
10.0 ML
2 LW
N
343 242 M
350 249 L
S
GR
GS
0.851 0.325 0.098 RC
2 setlinecap
10.0 ML
2 LW
N
283 231.5 M
292 231.5 L
S
GR
GS
0.851 0.325 0.098 RC
2 setlinecap
10.0 ML
2 LW
N
287.5 236 M
287.5 227 L
S
GR
GS
0.851 0.325 0.098 RC
2 setlinecap
10.0 ML
2 LW
N
284 235 M
291 228 L
S
GR
GS
0.851 0.325 0.098 RC
2 setlinecap
10.0 ML
2 LW
N
284 228 M
291 235 L
S
GR
GS
0.851 0.325 0.098 RC
2 setlinecap
10.0 ML
2 LW
N
225 210.5 M
234 210.5 L
S
GR
GS
0.851 0.325 0.098 RC
2 setlinecap
10.0 ML
2 LW
N
229.5 215 M
229.5 206 L
S
GR
GS
0.851 0.325 0.098 RC
2 setlinecap
10.0 ML
2 LW
N
226 214 M
233 207 L
S
GR
GS
0.851 0.325 0.098 RC
2 setlinecap
10.0 ML
2 LW
N
226 207 M
233 214 L
S
GR
GS
0.851 0.325 0.098 RC
2 setlinecap
10.0 ML
2 LW
N
166 181.5 M
175 181.5 L
S
GR
GS
0.851 0.325 0.098 RC
2 setlinecap
10.0 ML
2 LW
N
170.5 186 M
170.5 177 L
S
GR
GS
0.851 0.325 0.098 RC
2 setlinecap
10.0 ML
2 LW
N
167 185 M
174 178 L
S
GR
GS
0.851 0.325 0.098 RC
2 setlinecap
10.0 ML
2 LW
N
167 178 M
174 185 L
S
GR
GS
0.851 0.325 0.098 RC
2 setlinecap
10.0 ML
2 LW
N
107 136.5 M
116 136.5 L
S
GR
GS
0.851 0.325 0.098 RC
2 setlinecap
10.0 ML
2 LW
N
111.5 141 M
111.5 132 L
S
GR
GS
0.851 0.325 0.098 RC
2 setlinecap
10.0 ML
2 LW
N
108 140 M
115 133 L
S
GR
GS
0.851 0.325 0.098 RC
2 setlinecap
10.0 ML
2 LW
N
108 133 M
115 140 L
S
GR
GS
0.851 0.325 0.098 RC
2 setlinecap
10.0 ML
2 LW
N
48 54.5 M
57 54.5 L
S
GR
GS
0.851 0.325 0.098 RC
2 setlinecap
10.0 ML
2 LW
N
52.5 59 M
52.5 50 L
S
GR
GS
0.851 0.325 0.098 RC
2 setlinecap
10.0 ML
2 LW
N
49 58 M
56 51 L
S
GR
GS
0.851 0.325 0.098 RC
2 setlinecap
10.0 ML
2 LW
N
49 51 M
56 58 L
S
GR
%%Trailer
%%Pages: 1
%%EOF
