%!PS-Adobe-3.0 EPSF-3.0
%%Creator: (MATLAB, The Mathworks, Inc. Version 8.4.0.150421 \(R2014b\). Operating System: Mac OS X)
%%Title: /Users/Rachel/Dropbox/Citrus/Matlab/NewModPaper/VaryRogue.eps
%%CreationDate: 2016-07-06T10:32:47
%%Pages: (atend)
%%BoundingBox: 0 0 454 341
%%LanguageLevel: 2
%%EndComments
%%BeginProlog
%%BeginResource: procset (Apache XML Graphics Std ProcSet) 1.2 0
%%Version: 1.2 0
%%Copyright: (Copyright 2001-2003,2010 The Apache Software Foundation. License terms: http://www.apache.org/licenses/LICENSE-2.0)
/bd{bind def}bind def
/ld{load def}bd
/GR/grestore ld
/M/moveto ld
/LJ/setlinejoin ld
/C/curveto ld
/f/fill ld
/LW/setlinewidth ld
/GC/setgray ld
/t/show ld
/N/newpath ld
/CT/concat ld
/cp/closepath ld
/S/stroke ld
/L/lineto ld
/CC/setcmykcolor ld
/A/ashow ld
/GS/gsave ld
/RC/setrgbcolor ld
/RM/rmoveto ld
/ML/setmiterlimit ld
/re {4 2 roll M
1 index 0 rlineto
0 exch rlineto
neg 0 rlineto
cp } bd
/_ctm matrix def
/_tm matrix def
/BT { _ctm currentmatrix pop matrix _tm copy pop 0 0 moveto } bd
/ET { _ctm setmatrix } bd
/iTm { _ctm setmatrix _tm concat } bd
/Tm { _tm astore pop iTm 0 0 moveto } bd
/ux 0.0 def
/uy 0.0 def
/F {
  /Tp exch def
  /Tf exch def
  Tf findfont Tp scalefont setfont
  /cf Tf def  /cs Tp def
} bd
/ULS {currentpoint /uy exch def /ux exch def} bd
/ULE {
  /Tcx currentpoint pop def
  gsave
  newpath
  cf findfont cs scalefont dup
  /FontMatrix get 0 get /Ts exch def /FontInfo get dup
  /UnderlinePosition get Ts mul /To exch def
  /UnderlineThickness get Ts mul /Tt exch def
  ux uy To add moveto  Tcx uy To add lineto
  Tt setlinewidth stroke
  grestore
} bd
/OLE {
  /Tcx currentpoint pop def
  gsave
  newpath
  cf findfont cs scalefont dup
  /FontMatrix get 0 get /Ts exch def /FontInfo get dup
  /UnderlinePosition get Ts mul /To exch def
  /UnderlineThickness get Ts mul /Tt exch def
  ux uy To add cs add moveto Tcx uy To add cs add lineto
  Tt setlinewidth stroke
  grestore
} bd
/SOE {
  /Tcx currentpoint pop def
  gsave
  newpath
  cf findfont cs scalefont dup
  /FontMatrix get 0 get /Ts exch def /FontInfo get dup
  /UnderlinePosition get Ts mul /To exch def
  /UnderlineThickness get Ts mul /Tt exch def
  ux uy To add cs 10 mul 26 idiv add moveto Tcx uy To add cs 10 mul 26 idiv add lineto
  Tt setlinewidth stroke
  grestore
} bd
/QT {
/Y22 exch store
/X22 exch store
/Y21 exch store
/X21 exch store
currentpoint
/Y21 load 2 mul add 3 div exch
/X21 load 2 mul add 3 div exch
/X21 load 2 mul /X22 load add 3 div
/Y21 load 2 mul /Y22 load add 3 div
/X22 load /Y22 load curveto
} bd
/SSPD {
dup length /d exch dict def
{
/v exch def
/k exch def
currentpagedevice k known {
/cpdv currentpagedevice k get def
v cpdv ne {
/upd false def
/nullv v type /nulltype eq def
/nullcpdv cpdv type /nulltype eq def
nullv nullcpdv or
{
/upd true def
} {
/sametype v type cpdv type eq def
sametype {
v type /arraytype eq {
/vlen v length def
/cpdvlen cpdv length def
vlen cpdvlen eq {
0 1 vlen 1 sub {
/i exch def
/obj v i get def
/cpdobj cpdv i get def
obj cpdobj ne {
/upd true def
exit
} if
} for
} {
/upd true def
} ifelse
} {
v type /dicttype eq {
v {
/dv exch def
/dk exch def
/cpddv cpdv dk get def
dv cpddv ne {
/upd true def
exit
} if
} forall
} {
/upd true def
} ifelse
} ifelse
} if
} ifelse
upd true eq {
d k v put
} if
} if
} if
} forall
d length 0 gt {
d setpagedevice
} if
} bd
%%EndResource
%%BeginResource: procset (Apache XML Graphics EPS ProcSet) 1.0 0
%%Version: 1.0 0
%%Copyright: (Copyright 2002-2003 The Apache Software Foundation. License terms: http://www.apache.org/licenses/LICENSE-2.0)
/BeginEPSF { %def
/b4_Inc_state save def         % Save state for cleanup
/dict_count countdictstack def % Count objects on dict stack
/op_count count 1 sub def      % Count objects on operand stack
userdict begin                 % Push userdict on dict stack
/showpage { } def              % Redefine showpage, { } = null proc
0 setgray 0 setlinecap         % Prepare graphics state
1 setlinewidth 0 setlinejoin
10 setmiterlimit [ ] 0 setdash newpath
/languagelevel where           % If level not equal to 1 then
{pop languagelevel             % set strokeadjust and
1 ne                           % overprint to their defaults.
{false setstrokeadjust false setoverprint
} if
} if
} bd
/EndEPSF { %def
count op_count sub {pop} repeat            % Clean up stacks
countdictstack dict_count sub {end} repeat
b4_Inc_state restore
} bd
%%EndResource
%FOPBeginFontDict
%%IncludeResource: font Courier-Bold
%%IncludeResource: font Helvetica
%%IncludeResource: font Courier-BoldOblique
%%IncludeResource: font Courier-Oblique
%%IncludeResource: font Times-Roman
%%IncludeResource: font Helvetica-BoldOblique
%%IncludeResource: font Helvetica-Bold
%%IncludeResource: font Helvetica-Oblique
%%IncludeResource: font Times-BoldItalic
%%IncludeResource: font Courier
%%IncludeResource: font Times-Italic
%%IncludeResource: font Times-Bold
%%IncludeResource: font Symbol
%%IncludeResource: font ZapfDingbats
%FOPEndFontDict
%%BeginResource: encoding WinAnsiEncoding
/WinAnsiEncoding [
/.notdef /.notdef /.notdef /.notdef /.notdef
/.notdef /.notdef /.notdef /.notdef /.notdef
/.notdef /.notdef /.notdef /.notdef /.notdef
/.notdef /.notdef /.notdef /.notdef /.notdef
/.notdef /.notdef /.notdef /.notdef /.notdef
/.notdef /.notdef /.notdef /.notdef /.notdef
/.notdef /.notdef /space /exclam /quotedbl
/numbersign /dollar /percent /ampersand /quotesingle
/parenleft /parenright /asterisk /plus /comma
/hyphen /period /slash /zero /one
/two /three /four /five /six
/seven /eight /nine /colon /semicolon
/less /equal /greater /question /at
/A /B /C /D /E
/F /G /H /I /J
/K /L /M /N /O
/P /Q /R /S /T
/U /V /W /X /Y
/Z /bracketleft /backslash /bracketright /asciicircum
/underscore /quoteleft /a /b /c
/d /e /f /g /h
/i /j /k /l /m
/n /o /p /q /r
/s /t /u /v /w
/x /y /z /braceleft /bar
/braceright /asciitilde /bullet /Euro /bullet
/quotesinglbase /florin /quotedblbase /ellipsis /dagger
/daggerdbl /circumflex /perthousand /Scaron /guilsinglleft
/OE /bullet /Zcaron /bullet /bullet
/quoteleft /quoteright /quotedblleft /quotedblright /bullet
/endash /emdash /asciitilde /trademark /scaron
/guilsinglright /oe /bullet /zcaron /Ydieresis
/space /exclamdown /cent /sterling /currency
/yen /brokenbar /section /dieresis /copyright
/ordfeminine /guillemotleft /logicalnot /sfthyphen /registered
/macron /degree /plusminus /twosuperior /threesuperior
/acute /mu /paragraph /middot /cedilla
/onesuperior /ordmasculine /guillemotright /onequarter /onehalf
/threequarters /questiondown /Agrave /Aacute /Acircumflex
/Atilde /Adieresis /Aring /AE /Ccedilla
/Egrave /Eacute /Ecircumflex /Edieresis /Igrave
/Iacute /Icircumflex /Idieresis /Eth /Ntilde
/Ograve /Oacute /Ocircumflex /Otilde /Odieresis
/multiply /Oslash /Ugrave /Uacute /Ucircumflex
/Udieresis /Yacute /Thorn /germandbls /agrave
/aacute /acircumflex /atilde /adieresis /aring
/ae /ccedilla /egrave /eacute /ecircumflex
/edieresis /igrave /iacute /icircumflex /idieresis
/eth /ntilde /ograve /oacute /ocircumflex
/otilde /odieresis /divide /oslash /ugrave
/uacute /ucircumflex /udieresis /yacute /thorn
/ydieresis
] def
%%EndResource
%FOPBeginFontReencode
/Courier-Bold findfont
dup length dict begin
  {1 index /FID ne {def} {pop pop} ifelse} forall
  /Encoding WinAnsiEncoding def
  currentdict
end
/Courier-Bold exch definefont pop
/Helvetica findfont
dup length dict begin
  {1 index /FID ne {def} {pop pop} ifelse} forall
  /Encoding WinAnsiEncoding def
  currentdict
end
/Helvetica exch definefont pop
/Courier-BoldOblique findfont
dup length dict begin
  {1 index /FID ne {def} {pop pop} ifelse} forall
  /Encoding WinAnsiEncoding def
  currentdict
end
/Courier-BoldOblique exch definefont pop
/Courier-Oblique findfont
dup length dict begin
  {1 index /FID ne {def} {pop pop} ifelse} forall
  /Encoding WinAnsiEncoding def
  currentdict
end
/Courier-Oblique exch definefont pop
/Times-Roman findfont
dup length dict begin
  {1 index /FID ne {def} {pop pop} ifelse} forall
  /Encoding WinAnsiEncoding def
  currentdict
end
/Times-Roman exch definefont pop
/Helvetica-BoldOblique findfont
dup length dict begin
  {1 index /FID ne {def} {pop pop} ifelse} forall
  /Encoding WinAnsiEncoding def
  currentdict
end
/Helvetica-BoldOblique exch definefont pop
/Helvetica-Bold findfont
dup length dict begin
  {1 index /FID ne {def} {pop pop} ifelse} forall
  /Encoding WinAnsiEncoding def
  currentdict
end
/Helvetica-Bold exch definefont pop
/Helvetica-Oblique findfont
dup length dict begin
  {1 index /FID ne {def} {pop pop} ifelse} forall
  /Encoding WinAnsiEncoding def
  currentdict
end
/Helvetica-Oblique exch definefont pop
/Times-BoldItalic findfont
dup length dict begin
  {1 index /FID ne {def} {pop pop} ifelse} forall
  /Encoding WinAnsiEncoding def
  currentdict
end
/Times-BoldItalic exch definefont pop
/Courier findfont
dup length dict begin
  {1 index /FID ne {def} {pop pop} ifelse} forall
  /Encoding WinAnsiEncoding def
  currentdict
end
/Courier exch definefont pop
/Times-Italic findfont
dup length dict begin
  {1 index /FID ne {def} {pop pop} ifelse} forall
  /Encoding WinAnsiEncoding def
  currentdict
end
/Times-Italic exch definefont pop
/Times-Bold findfont
dup length dict begin
  {1 index /FID ne {def} {pop pop} ifelse} forall
  /Encoding WinAnsiEncoding def
  currentdict
end
/Times-Bold exch definefont pop
%FOPEndFontReencode
%%EndProlog
%%Page: 1 1
%%PageBoundingBox: 0 0 454 341
%%BeginPageSetup
[1 0 0 -1 0 341] CT
%%EndPageSetup
GS
1 GC
N
0 0 454 341 re
f
GR
GS
1 GC
N
0 0 454 341 re
f
GR
GS
1 GC
N
59 303 M
411 303 L
411 26 L
59 26 L
cp
f
GR
GS
[1 0 0 1 235 319.39999] CT
0.149 GC
/Helvetica 12 F
GS
[1 0 0 1 0 0] CT
-94.374 9.24 moveto 
1 -1 scale
(Average Time until Roguing \(years\)) t 
GR
GR
GS
0.149 GC
2 setlinecap
10.0 ML
N
59 303 M
411 303 L
S
GR
GS
0.149 GC
2 setlinecap
10.0 ML
N
59 26 M
411 26 L
S
GR
GS
0.149 GC
2 setlinecap
10.0 ML
N
59 303 M
59 299.48 L
S
GR
GS
0.149 GC
2 setlinecap
10.0 ML
N
59 26 M
59 29.52 L
S
GR
GS
0.149 GC
2 setlinecap
10.0 ML
N
117.667 303 M
117.667 299.48 L
S
GR
GS
0.149 GC
2 setlinecap
10.0 ML
N
117.667 26 M
117.667 29.52 L
S
GR
GS
0.149 GC
2 setlinecap
10.0 ML
N
176.333 303 M
176.333 299.48 L
S
GR
GS
0.149 GC
2 setlinecap
10.0 ML
N
176.333 26 M
176.333 29.52 L
S
GR
GS
0.149 GC
2 setlinecap
10.0 ML
N
235 303 M
235 299.48 L
S
GR
GS
0.149 GC
2 setlinecap
10.0 ML
N
235 26 M
235 29.52 L
S
GR
GS
0.149 GC
2 setlinecap
10.0 ML
N
293.667 303 M
293.667 299.48 L
S
GR
GS
0.149 GC
2 setlinecap
10.0 ML
N
293.667 26 M
293.667 29.52 L
S
GR
GS
0.149 GC
2 setlinecap
10.0 ML
N
352.333 303 M
352.333 299.48 L
S
GR
GS
0.149 GC
2 setlinecap
10.0 ML
N
352.333 26 M
352.333 29.52 L
S
GR
GS
0.149 GC
2 setlinecap
10.0 ML
N
411 303 M
411 299.48 L
S
GR
GS
0.149 GC
2 setlinecap
10.0 ML
N
411 26 M
411 29.52 L
S
GR
GS
[1 0 0 1 59 307.39999] CT
0.149 GC
/Helvetica 12 F
GS
[1 0 0 1 0 0] CT
-3.337 9.24 moveto 
1 -1 scale
(2) t 
GR
GR
GS
[1 0 0 1 117.66666 307.39999] CT
0.149 GC
/Helvetica 12 F
GS
[1 0 0 1 0 0] CT
-3.337 9.24 moveto 
1 -1 scale
(4) t 
GR
GR
GS
[1 0 0 1 176.33333 307.39999] CT
0.149 GC
/Helvetica 12 F
GS
[1 0 0 1 0 0] CT
-3.337 9.24 moveto 
1 -1 scale
(6) t 
GR
GR
GS
[1 0 0 1 235 307.39999] CT
0.149 GC
/Helvetica 12 F
GS
[1 0 0 1 0 0] CT
-3.337 9.24 moveto 
1 -1 scale
(8) t 
GR
GR
GS
[1 0 0 1 293.66666 307.39999] CT
0.149 GC
/Helvetica 12 F
GS
[1 0 0 1 0 0] CT
-6.674 9.24 moveto 
1 -1 scale
(10) t 
GR
GR
GS
[1 0 0 1 352.33334 307.39999] CT
0.149 GC
/Helvetica 12 F
GS
[1 0 0 1 0 0] CT
-6.674 9.24 moveto 
1 -1 scale
(12) t 
GR
GR
GS
[1 0 0 1 411 307.39999] CT
0.149 GC
/Helvetica 12 F
GS
[1 0 0 1 0 0] CT
-6.674 9.24 moveto 
1 -1 scale
(14) t 
GR
GR
GS
[0 -1 1 0 31.57852 164.5] CT
0 0.447 0.741 RC
/Helvetica 12 F
GS
[1 0 0 1 0 0] CT
-83.373 -1.76 moveto 
1 -1 scale
(Peak Number of Infected Trees) t 
GR
GR
GS
0 0.447 0.741 RC
2 setlinecap
10.0 ML
N
59 303 M
59 26 L
S
GR
GS
0 0.447 0.741 RC
2 setlinecap
10.0 ML
N
411 303 M
411 26 L
S
GR
GS
0 0.447 0.741 RC
2 setlinecap
10.0 ML
N
59 303 M
62.52 303 L
S
GR
GS
0 0.447 0.741 RC
2 setlinecap
10.0 ML
N
411 303 M
407.48 303 L
S
GR
GS
0 0.447 0.741 RC
2 setlinecap
10.0 ML
N
59 247.6 M
62.52 247.6 L
S
GR
GS
0 0.447 0.741 RC
2 setlinecap
10.0 ML
N
411 247.6 M
407.48 247.6 L
S
GR
GS
0 0.447 0.741 RC
2 setlinecap
10.0 ML
N
59 192.2 M
62.52 192.2 L
S
GR
GS
0 0.447 0.741 RC
2 setlinecap
10.0 ML
N
411 192.2 M
407.48 192.2 L
S
GR
GS
0 0.447 0.741 RC
2 setlinecap
10.0 ML
N
59 136.8 M
62.52 136.8 L
S
GR
GS
0 0.447 0.741 RC
2 setlinecap
10.0 ML
N
411 136.8 M
407.48 136.8 L
S
GR
GS
0 0.447 0.741 RC
2 setlinecap
10.0 ML
N
59 81.4 M
62.52 81.4 L
S
GR
GS
0 0.447 0.741 RC
2 setlinecap
10.0 ML
N
411 81.4 M
407.48 81.4 L
S
GR
GS
0 0.447 0.741 RC
2 setlinecap
10.0 ML
N
59 26 M
62.52 26 L
S
GR
GS
0 0.447 0.741 RC
2 setlinecap
10.0 ML
N
411 26 M
407.48 26 L
S
GR
GS
[1 0 0 1 54.6 303] CT
0 0.447 0.741 RC
/Helvetica 12 F
GS
[1 0 0 1 0 0] CT
-20.021 3.74 moveto 
1 -1 scale
(300) t 
GR
GR
GS
[1 0 0 1 54.6 247.60001] CT
0 0.447 0.741 RC
/Helvetica 12 F
GS
[1 0 0 1 0 0] CT
-20.021 3.74 moveto 
1 -1 scale
(400) t 
GR
GR
GS
[1 0 0 1 54.6 192.2] CT
0 0.447 0.741 RC
/Helvetica 12 F
GS
[1 0 0 1 0 0] CT
-20.021 3.74 moveto 
1 -1 scale
(500) t 
GR
GR
GS
[1 0 0 1 54.6 136.8] CT
0 0.447 0.741 RC
/Helvetica 12 F
GS
[1 0 0 1 0 0] CT
-20.021 3.74 moveto 
1 -1 scale
(600) t 
GR
GR
GS
[1 0 0 1 54.6 81.4] CT
0 0.447 0.741 RC
/Helvetica 12 F
GS
[1 0 0 1 0 0] CT
-20.021 3.74 moveto 
1 -1 scale
(700) t 
GR
GR
GS
[1 0 0 1 54.6 26] CT
0 0.447 0.741 RC
/Helvetica 12 F
GS
[1 0 0 1 0 0] CT
-20.021 3.74 moveto 
1 -1 scale
(800) t 
GR
GR
GS
0 0.447 0.741 RC
[8 8] 0 setdash
2 LJ
2 LW
N
352.335 42.425 M
293.667 61.126 L
205.667 102.5 L
147 146.211 L
117.667 176.727 L
59 270.543 L
S
GR
GS
0 0.447 0.741 RC
2 setlinecap
10.0 ML
2 LW
N
348 42.5 M
357 42.5 L
S
GR
GS
0 0.447 0.741 RC
2 setlinecap
10.0 ML
2 LW
N
352.5 47 M
352.5 38 L
S
GR
GS
0 0.447 0.741 RC
2 setlinecap
10.0 ML
2 LW
N
349 46 M
356 39 L
S
GR
GS
0 0.447 0.741 RC
2 setlinecap
10.0 ML
2 LW
N
349 39 M
356 46 L
S
GR
GS
0 0.447 0.741 RC
2 setlinecap
10.0 ML
2 LW
N
289 61.5 M
298 61.5 L
S
GR
GS
0 0.447 0.741 RC
2 setlinecap
10.0 ML
2 LW
N
293.5 66 M
293.5 57 L
S
GR
GS
0 0.447 0.741 RC
2 setlinecap
10.0 ML
2 LW
N
290 65 M
297 58 L
S
GR
GS
0 0.447 0.741 RC
2 setlinecap
10.0 ML
2 LW
N
290 58 M
297 65 L
S
GR
GS
0 0.447 0.741 RC
2 setlinecap
10.0 ML
2 LW
N
201 102.5 M
210 102.5 L
S
GR
GS
0 0.447 0.741 RC
2 setlinecap
10.0 ML
2 LW
N
205.5 107 M
205.5 98 L
S
GR
GS
0 0.447 0.741 RC
2 setlinecap
10.0 ML
2 LW
N
202 106 M
209 99 L
S
GR
GS
0 0.447 0.741 RC
2 setlinecap
10.0 ML
2 LW
N
202 99 M
209 106 L
S
GR
GS
0 0.447 0.741 RC
2 setlinecap
10.0 ML
2 LW
N
143 146.5 M
152 146.5 L
S
GR
GS
0 0.447 0.741 RC
2 setlinecap
10.0 ML
2 LW
N
147.5 151 M
147.5 142 L
S
GR
GS
0 0.447 0.741 RC
2 setlinecap
10.0 ML
2 LW
N
144 150 M
151 143 L
S
GR
GS
0 0.447 0.741 RC
2 setlinecap
10.0 ML
2 LW
N
144 143 M
151 150 L
S
GR
GS
0 0.447 0.741 RC
2 setlinecap
10.0 ML
2 LW
N
113 176.5 M
122 176.5 L
S
GR
GS
0 0.447 0.741 RC
2 setlinecap
10.0 ML
2 LW
N
117.5 181 M
117.5 172 L
S
GR
GS
0 0.447 0.741 RC
2 setlinecap
10.0 ML
2 LW
N
114 180 M
121 173 L
S
GR
GS
0 0.447 0.741 RC
2 setlinecap
10.0 ML
2 LW
N
114 173 M
121 180 L
S
GR
GS
0 0.447 0.741 RC
2 setlinecap
10.0 ML
2 LW
N
55 270.5 M
64 270.5 L
S
GR
GS
0 0.447 0.741 RC
2 setlinecap
10.0 ML
2 LW
N
59.5 275 M
59.5 266 L
S
GR
GS
0 0.447 0.741 RC
2 setlinecap
10.0 ML
2 LW
N
56 274 M
63 267 L
S
GR
GS
0 0.447 0.741 RC
2 setlinecap
10.0 ML
2 LW
N
56 267 M
63 274 L
S
GR
GS
[0 -1 1 0 445.09531 164.5] CT
0.851 0.325 0.098 RC
/Helvetica 12 F
GS
[1 0 0 1 0 0] CT
-87.366 9.24 moveto 
1 -1 scale
(Total Number of Removed Trees) t 
GR
GR
GS
0.851 0.325 0.098 RC
2 setlinecap
10.0 ML
N
411 303 M
411 26 L
S
GR
GS
0.851 0.325 0.098 RC
2 setlinecap
10.0 ML
N
411 303 M
407.48 303 L
S
GR
GS
0.851 0.325 0.098 RC
2 setlinecap
10.0 ML
N
411 247.6 M
407.48 247.6 L
S
GR
GS
0.851 0.325 0.098 RC
2 setlinecap
10.0 ML
N
411 192.2 M
407.48 192.2 L
S
GR
GS
0.851 0.325 0.098 RC
2 setlinecap
10.0 ML
N
411 136.8 M
407.48 136.8 L
S
GR
GS
0.851 0.325 0.098 RC
2 setlinecap
10.0 ML
N
411 81.4 M
407.48 81.4 L
S
GR
GS
0.851 0.325 0.098 RC
2 setlinecap
10.0 ML
N
411 26 M
407.48 26 L
S
GR
GS
[1 0 0 1 415.39999 303] CT
0.851 0.325 0.098 RC
/Helvetica 12 F
GS
[1 0 0 1 0 0] CT
0 3.74 moveto 
1 -1 scale
(1000) t 
GR
GR
GS
[1 0 0 1 415.39999 247.60001] CT
0.851 0.325 0.098 RC
/Helvetica 12 F
GS
[1 0 0 1 0 0] CT
0 3.74 moveto 
1 -1 scale
(1500) t 
GR
GR
GS
[1 0 0 1 415.39999 192.2] CT
0.851 0.325 0.098 RC
/Helvetica 12 F
GS
[1 0 0 1 0 0] CT
0 3.74 moveto 
1 -1 scale
(2000) t 
GR
GR
GS
[1 0 0 1 415.39999 136.8] CT
0.851 0.325 0.098 RC
/Helvetica 12 F
GS
[1 0 0 1 0 0] CT
0 3.74 moveto 
1 -1 scale
(2500) t 
GR
GR
GS
[1 0 0 1 415.39999 81.4] CT
0.851 0.325 0.098 RC
/Helvetica 12 F
GS
[1 0 0 1 0 0] CT
0 3.74 moveto 
1 -1 scale
(3000) t 
GR
GR
GS
[1 0 0 1 415.39999 26] CT
0.851 0.325 0.098 RC
/Helvetica 12 F
GS
[1 0 0 1 0 0] CT
0 3.74 moveto 
1 -1 scale
(3500) t 
GR
GR
GS
0.851 0.325 0.098 RC
[8 8] 0 setdash
2 LJ
2 LW
N
352.335 289.695 M
293.667 272.016 L
205.667 232.183 L
147 189.002 L
117.667 158.18 L
59 60.044 L
S
GR
GS
0.851 0.325 0.098 RC
2 setlinecap
10.0 ML
2 LW
N
348 289.5 M
357 289.5 L
S
GR
GS
0.851 0.325 0.098 RC
2 setlinecap
10.0 ML
2 LW
N
352.5 294 M
352.5 285 L
S
GR
GS
0.851 0.325 0.098 RC
2 setlinecap
10.0 ML
2 LW
N
349 293 M
356 286 L
S
GR
GS
0.851 0.325 0.098 RC
2 setlinecap
10.0 ML
2 LW
N
349 286 M
356 293 L
S
GR
GS
0.851 0.325 0.098 RC
2 setlinecap
10.0 ML
2 LW
N
289 272.5 M
298 272.5 L
S
GR
GS
0.851 0.325 0.098 RC
2 setlinecap
10.0 ML
2 LW
N
293.5 277 M
293.5 268 L
S
GR
GS
0.851 0.325 0.098 RC
2 setlinecap
10.0 ML
2 LW
N
290 276 M
297 269 L
S
GR
GS
0.851 0.325 0.098 RC
2 setlinecap
10.0 ML
2 LW
N
290 269 M
297 276 L
S
GR
GS
0.851 0.325 0.098 RC
2 setlinecap
10.0 ML
2 LW
N
201 232.5 M
210 232.5 L
S
GR
GS
0.851 0.325 0.098 RC
2 setlinecap
10.0 ML
2 LW
N
205.5 237 M
205.5 228 L
S
GR
GS
0.851 0.325 0.098 RC
2 setlinecap
10.0 ML
2 LW
N
202 236 M
209 229 L
S
GR
GS
0.851 0.325 0.098 RC
2 setlinecap
10.0 ML
2 LW
N
202 229 M
209 236 L
S
GR
GS
0.851 0.325 0.098 RC
2 setlinecap
10.0 ML
2 LW
N
143 189.5 M
152 189.5 L
S
GR
GS
0.851 0.325 0.098 RC
2 setlinecap
10.0 ML
2 LW
N
147.5 194 M
147.5 185 L
S
GR
GS
0.851 0.325 0.098 RC
2 setlinecap
10.0 ML
2 LW
N
144 193 M
151 186 L
S
GR
GS
0.851 0.325 0.098 RC
2 setlinecap
10.0 ML
2 LW
N
144 186 M
151 193 L
S
GR
GS
0.851 0.325 0.098 RC
2 setlinecap
10.0 ML
2 LW
N
113 158.5 M
122 158.5 L
S
GR
GS
0.851 0.325 0.098 RC
2 setlinecap
10.0 ML
2 LW
N
117.5 163 M
117.5 154 L
S
GR
GS
0.851 0.325 0.098 RC
2 setlinecap
10.0 ML
2 LW
N
114 162 M
121 155 L
S
GR
GS
0.851 0.325 0.098 RC
2 setlinecap
10.0 ML
2 LW
N
114 155 M
121 162 L
S
GR
GS
0.851 0.325 0.098 RC
2 setlinecap
10.0 ML
2 LW
N
55 60.5 M
64 60.5 L
S
GR
GS
0.851 0.325 0.098 RC
2 setlinecap
10.0 ML
2 LW
N
59.5 65 M
59.5 56 L
S
GR
GS
0.851 0.325 0.098 RC
2 setlinecap
10.0 ML
2 LW
N
56 64 M
63 57 L
S
GR
GS
0.851 0.325 0.098 RC
2 setlinecap
10.0 ML
2 LW
N
56 57 M
63 64 L
S
GR
%%Trailer
%%Pages: 1
%%EOF
